nodestouse,relationships,doc_th,date_th,loc_th,iter,seeds,number of spread. activ. pulses,final number of activated nodes,final overall activation,running time,run-id,map,P5,P10,P20,R-prec,
DOCUMENT:DATE:LOCATION,REFERENCES:SIMDATES:SIMPAGE,0.6,0.3,0.4,rel1-1,1,2,20,4.5,22053,book_collection_true_dates/location/query4//useDOCUMENT:DATE:LOCATIONuseREFERENCES:SIMDATES:SIMPAGE/rel1-1-date_th0.3-doc_th0.6-loc_th0.4.res.clean,0.247,0.800,0.400,0.364,0.364,
DOCUMENT:DATE:LOCATION,REFERENCES:SIMDATES:SIMPAGE,0.5,0.25,0.35,rel1-1,1,2,20,4.5,34212,book_collection_true_dates/location/query4//useDOCUMENT:DATE:LOCATIONuseREFERENCES:SIMDATES:SIMPAGE/rel1-1-date_th0.25-doc_th0.5-loc_th0.35.res.clean,0.247,0.800,0.400,0.364,0.364,
DOCUMENT:DATE:LOCATION,REFERENCES:SIMDATES:SIMPAGE,0.7,0.3,0.35,rel1-1,1,2,20,4.5,19141,book_collection_true_dates/location/query4//useDOCUMENT:DATE:LOCATIONuseREFERENCES:SIMDATES:SIMPAGE/rel1-1-date_th0.3-doc_th0.7-loc_th0.35.res.clean,0.247,0.800,0.400,0.364,0.364,
DOCUMENT:DATE:LOCATION,REFERENCES:SIMDATES:SIMPAGE,0.6,0.25,0.35,rel1-1,1,2,20,4.5,22770,book_collection_true_dates/location/query4//useDOCUMENT:DATE:LOCATIONuseREFERENCES:SIMDATES:SIMPAGE/rel1-1-date_th0.25-doc_th0.6-loc_th0.35.res.clean,0.247,0.800,0.400,0.364,0.364,
DOCUMENT:DATE:LOCATION,REFERENCES:SIMDATES:SIMPAGE,0.5,0.25,0.4,rel1-1,1,2,20,4.5,19873,book_collection_true_dates/location/query4//useDOCUMENT:DATE:LOCATIONuseREFERENCES:SIMDATES:SIMPAGE/rel1-1-date_th0.25-doc_th0.5-loc_th0.4.res.clean,0.247,0.800,0.400,0.364,0.364,
DOCUMENT:DATE:LOCATION,REFERENCES:SIMDATES:SIMPAGE,0.5,0.3,0.4,rel1-1,1,2,20,4.5,19499,book_collection_true_dates/location/query4//useDOCUMENT:DATE:LOCATIONuseREFERENCES:SIMDATES:SIMPAGE/rel1-1-date_th0.3-doc_th0.5-loc_th0.4.res.clean,0.247,0.800,0.400,0.364,0.364,
DOCUMENT:DATE:LOCATION,REFERENCES:SIMDATES:SIMPAGE,0.6,0.3,0.35,rel1-1,1,2,20,4.5,19220,book_collection_true_dates/location/query4//useDOCUMENT:DATE:LOCATIONuseREFERENCES:SIMDATES:SIMPAGE/rel1-1-date_th0.3-doc_th0.6-loc_th0.35.res.clean,0.247,0.800,0.400,0.364,0.364,
DOCUMENT:DATE:LOCATION,REFERENCES:SIMDATES:SIMPAGE,0.7,0.3,0.4,rel1-1,1,2,20,4.5,19083,book_collection_true_dates/location/query4//useDOCUMENT:DATE:LOCATIONuseREFERENCES:SIMDATES:SIMPAGE/rel1-1-date_th0.3-doc_th0.7-loc_th0.4.res.clean,0.247,0.800,0.400,0.364,0.364,
DOCUMENT:DATE:LOCATION,REFERENCES:SIMDATES:SIMPAGE,0.7,0.25,0.4,rel1-1,1,2,20,4.5,19063,book_collection_true_dates/location/query4//useDOCUMENT:DATE:LOCATIONuseREFERENCES:SIMDATES:SIMPAGE/rel1-1-date_th0.25-doc_th0.7-loc_th0.4.res.clean,0.247,0.800,0.400,0.364,0.364,
DOCUMENT:DATE:LOCATION,REFERENCES:SIMDATES:SIMPAGE,0.6,0.25,0.4,rel1-1,1,2,20,4.5,19200,book_collection_true_dates/location/query4//useDOCUMENT:DATE:LOCATIONuseREFERENCES:SIMDATES:SIMPAGE/rel1-1-date_th0.25-doc_th0.6-loc_th0.4.res.clean,0.247,0.800,0.400,0.364,0.364,
DOCUMENT:DATE:LOCATION,REFERENCES:SIMDATES:SIMPAGE,0.7,0.25,0.35,rel1-1,1,2,20,4.5,19929,book_collection_true_dates/location/query4//useDOCUMENT:DATE:LOCATIONuseREFERENCES:SIMDATES:SIMPAGE/rel1-1-date_th0.25-doc_th0.7-loc_th0.35.res.clean,0.247,0.800,0.400,0.364,0.364,
DOCUMENT:DATE:LOCATION,REFERENCES:SIMDATES:SIMPAGE,0.5,0.3,0.35,rel1-1,1,2,20,4.5,19599,book_collection_true_dates/location/query4//useDOCUMENT:DATE:LOCATIONuseREFERENCES:SIMDATES:SIMPAGE/rel1-1-date_th0.3-doc_th0.5-loc_th0.35.res.clean,0.247,0.800,0.400,0.364,0.364,

Sig-Test:,randomized,,threshold,set,to,0.050000
