###################################
# parameters: 
#   date_th: 0.25
#   doc_th: 0.7
#   loc_th: 0.4
#   nodestouse: DOCUMENT:DATE:LOCATION
#   relationships: REFERENCES:SIMDATES:SIMLOC:SIMPAGE

###################################
# configuration: 
#   sa.act_diff_ratio_limit = 0.01
#   sa.act_diff_ratio_limit_diff = 0.01
#   sa.function = ciir.multi.sa.function.MaxSAFunction(norm_function)
#   sa.id_property_name.DATE = dateID
#   sa.id_property_name.DOCUMENT = docID
#   sa.id_property_name.LOCATION = locID
#   sa.max_pulses = 10
#   sa.nodes_to_print = DATE:LOCATION
#   sa.nodes_to_use = DOCUMENT:DATE:LOCATION
#   sa.norm_function = ciir.multi.sa.SigmoidFunction(0.0, 1.0)
#   sa.relationships_to_use = REFERENCES:SIMDATES:SIMLOC:SIMPAGE
#   sa.spread_threshold.DATE = 0.25
#   sa.spread_threshold.DOCUMENT = 0.7
#   sa.spread_threshold.LOCATION = 0.4
#   sa.weight_property.REFERENCES = relevance
#   sa.weight_property.SIMDATES = sim
#   sa.weight_property.SIMDOC = sim
#   sa.weight_property.SIMLOC = sim
#   sa.weight_property.SIMPAGE = pagesim

###################################
# initial activations (1): 
#   newannualarmylis1874hart_466, 1

###################################
# spreading activation process log: 
#   pulse 0: activated: 1, non-zero: 1, borderline: 1, overall act: 1.000, act diff: 1.000, ratio: 1.000
#   pulse 1: activated: 32, non-zero: 32, borderline: 31, overall act: 5.484, act diff: 4.484, ratio: 0.818
#   pulse 2: activated: 32, non-zero: 32, borderline: 31, overall act: 5.484, act diff: 0.000, ratio: 0.000

###################################
# spreading activation process summary: 
#   final number of activated nodes: 32
#   final overall activation: 5.5
#   number of spread. activ. pulses: 2
#   running time: 7697

###################################
# top k results in TREC format: 

1   rel1-4   1853   1   0.10597362   nodesDOCUMENT:DATE:LOCATION-edgesREFERENCES:SIMDATES:SIMLOC:SIMPAGE-date_th0.25-doc_th0.7-loc_th0.4
1   rel1-4   1859   2   0.10597362   nodesDOCUMENT:DATE:LOCATION-edgesREFERENCES:SIMDATES:SIMLOC:SIMPAGE-date_th0.25-doc_th0.7-loc_th0.4
1   rel1-4   1857   3   0.10597362   nodesDOCUMENT:DATE:LOCATION-edgesREFERENCES:SIMDATES:SIMLOC:SIMPAGE-date_th0.25-doc_th0.7-loc_th0.4
1   rel1-4   1865   4   0.10597362   nodesDOCUMENT:DATE:LOCATION-edgesREFERENCES:SIMDATES:SIMLOC:SIMPAGE-date_th0.25-doc_th0.7-loc_th0.4
1   rel1-4   1860   5   0.10597362   nodesDOCUMENT:DATE:LOCATION-edgesREFERENCES:SIMDATES:SIMLOC:SIMPAGE-date_th0.25-doc_th0.7-loc_th0.4
1   rel1-4   1848   6   0.10597362   nodesDOCUMENT:DATE:LOCATION-edgesREFERENCES:SIMDATES:SIMLOC:SIMPAGE-date_th0.25-doc_th0.7-loc_th0.4
1   rel1-4   1845   7   0.10597362   nodesDOCUMENT:DATE:LOCATION-edgesREFERENCES:SIMDATES:SIMLOC:SIMPAGE-date_th0.25-doc_th0.7-loc_th0.4
1   rel1-4   1846   8   0.10597362   nodesDOCUMENT:DATE:LOCATION-edgesREFERENCES:SIMDATES:SIMLOC:SIMPAGE-date_th0.25-doc_th0.7-loc_th0.4
1   rel1-4   1849   9   0.10597362   nodesDOCUMENT:DATE:LOCATION-edgesREFERENCES:SIMDATES:SIMLOC:SIMPAGE-date_th0.25-doc_th0.7-loc_th0.4
1   rel1-4   1843   10   0.10597362   nodesDOCUMENT:DATE:LOCATION-edgesREFERENCES:SIMDATES:SIMLOC:SIMPAGE-date_th0.25-doc_th0.7-loc_th0.4
1   rel1-4   1866   11   0.10597362   nodesDOCUMENT:DATE:LOCATION-edgesREFERENCES:SIMDATES:SIMLOC:SIMPAGE-date_th0.25-doc_th0.7-loc_th0.4
1   rel1-4   1858   12   0.10597362   nodesDOCUMENT:DATE:LOCATION-edgesREFERENCES:SIMDATES:SIMLOC:SIMPAGE-date_th0.25-doc_th0.7-loc_th0.4
1   rel1-4   1852   13   0.10597362   nodesDOCUMENT:DATE:LOCATION-edgesREFERENCES:SIMDATES:SIMLOC:SIMPAGE-date_th0.25-doc_th0.7-loc_th0.4
1   rel1-4   1854   14   0.10597362   nodesDOCUMENT:DATE:LOCATION-edgesREFERENCES:SIMDATES:SIMLOC:SIMPAGE-date_th0.25-doc_th0.7-loc_th0.4
1   rel1-4   1855   15   0.10597362   nodesDOCUMENT:DATE:LOCATION-edgesREFERENCES:SIMDATES:SIMLOC:SIMPAGE-date_th0.25-doc_th0.7-loc_th0.4

###################################
# top nodes: 

# 1   rel1-4   newannualarmylis1874hart_466   1   1.0   nodesDOCUMENT:DATE:LOCATION-edgesREFERENCES:SIMDATES:SIMLOC:SIMPAGE-date_th0.25-doc_th0.7-loc_th0.4
# 1   rel1-4   newannualarmylis1874hart_465   2   0.46211717   nodesDOCUMENT:DATE:LOCATION-edgesREFERENCES:SIMDATES:SIMLOC:SIMPAGE-date_th0.25-doc_th0.7-loc_th0.4
# 1   rel1-4   newannualarmylis1874hart_467   3   0.46211717   nodesDOCUMENT:DATE:LOCATION-edgesREFERENCES:SIMDATES:SIMLOC:SIMPAGE-date_th0.25-doc_th0.7-loc_th0.4
# 1   rel1-4   gwalior   4   0.27135015   nodesDOCUMENT:DATE:LOCATION-edgesREFERENCES:SIMDATES:SIMLOC:SIMPAGE-date_th0.25-doc_th0.7-loc_th0.4
# 1   rel1-4   delhi   5   0.24491866   nodesDOCUMENT:DATE:LOCATION-edgesREFERENCES:SIMDATES:SIMLOC:SIMPAGE-date_th0.25-doc_th0.7-loc_th0.4
# 1   rel1-4   lucknow   6   0.21207042   nodesDOCUMENT:DATE:LOCATION-edgesREFERENCES:SIMDATES:SIMLOC:SIMPAGE-date_th0.25-doc_th0.7-loc_th0.4
# 1   rel1-4   agra   7   0.16901405   nodesDOCUMENT:DATE:LOCATION-edgesREFERENCES:SIMDATES:SIMLOC:SIMPAGE-date_th0.25-doc_th0.7-loc_th0.4
# 1   rel1-4   city   8   0.107255004   nodesDOCUMENT:DATE:LOCATION-edgesREFERENCES:SIMDATES:SIMLOC:SIMPAGE-date_th0.25-doc_th0.7-loc_th0.4
# 1   rel1-4   qombovan   9   0.107255004   nodesDOCUMENT:DATE:LOCATION-edgesREFERENCES:SIMDATES:SIMLOC:SIMPAGE-date_th0.25-doc_th0.7-loc_th0.4
# 1   rel1-4   pegu   10   0.107255004   nodesDOCUMENT:DATE:LOCATION-edgesREFERENCES:SIMDATES:SIMLOC:SIMPAGE-date_th0.25-doc_th0.7-loc_th0.4
# 1   rel1-4   tharyarwady   11   0.107255004   nodesDOCUMENT:DATE:LOCATION-edgesREFERENCES:SIMDATES:SIMLOC:SIMPAGE-date_th0.25-doc_th0.7-loc_th0.4
# 1   rel1-4   camp   12   0.107255004   nodesDOCUMENT:DATE:LOCATION-edgesREFERENCES:SIMDATES:SIMLOC:SIMPAGE-date_th0.25-doc_th0.7-loc_th0.4
# 1   rel1-4   punjaub   13   0.107255004   nodesDOCUMENT:DATE:LOCATION-edgesREFERENCES:SIMDATES:SIMLOC:SIMPAGE-date_th0.25-doc_th0.7-loc_th0.4
# 1   rel1-4   sind   14   0.107255004   nodesDOCUMENT:DATE:LOCATION-edgesREFERENCES:SIMDATES:SIMLOC:SIMPAGE-date_th0.25-doc_th0.7-loc_th0.4
# 1   rel1-4   mastha   15   0.107255004   nodesDOCUMENT:DATE:LOCATION-edgesREFERENCES:SIMDATES:SIMLOC:SIMPAGE-date_th0.25-doc_th0.7-loc_th0.4
# 1   rel1-4   kakrala   16   0.107255004   nodesDOCUMENT:DATE:LOCATION-edgesREFERENCES:SIMDATES:SIMLOC:SIMPAGE-date_th0.25-doc_th0.7-loc_th0.4
# 1   rel1-4   cawnpore   17   0.107255004   nodesDOCUMENT:DATE:LOCATION-edgesREFERENCES:SIMDATES:SIMLOC:SIMPAGE-date_th0.25-doc_th0.7-loc_th0.4
# 1   rel1-4   1859   18   0.10597362   nodesDOCUMENT:DATE:LOCATION-edgesREFERENCES:SIMDATES:SIMLOC:SIMPAGE-date_th0.25-doc_th0.7-loc_th0.4
# 1   rel1-4   1866   19   0.10597362   nodesDOCUMENT:DATE:LOCATION-edgesREFERENCES:SIMDATES:SIMLOC:SIMPAGE-date_th0.25-doc_th0.7-loc_th0.4
# 1   rel1-4   1865   20   0.10597362   nodesDOCUMENT:DATE:LOCATION-edgesREFERENCES:SIMDATES:SIMLOC:SIMPAGE-date_th0.25-doc_th0.7-loc_th0.4
# 1   rel1-4   1860   21   0.10597362   nodesDOCUMENT:DATE:LOCATION-edgesREFERENCES:SIMDATES:SIMLOC:SIMPAGE-date_th0.25-doc_th0.7-loc_th0.4
# 1   rel1-4   1848   22   0.10597362   nodesDOCUMENT:DATE:LOCATION-edgesREFERENCES:SIMDATES:SIMLOC:SIMPAGE-date_th0.25-doc_th0.7-loc_th0.4
# 1   rel1-4   1846   23   0.10597362   nodesDOCUMENT:DATE:LOCATION-edgesREFERENCES:SIMDATES:SIMLOC:SIMPAGE-date_th0.25-doc_th0.7-loc_th0.4
# 1   rel1-4   1845   24   0.10597362   nodesDOCUMENT:DATE:LOCATION-edgesREFERENCES:SIMDATES:SIMLOC:SIMPAGE-date_th0.25-doc_th0.7-loc_th0.4
# 1   rel1-4   1849   25   0.10597362   nodesDOCUMENT:DATE:LOCATION-edgesREFERENCES:SIMDATES:SIMLOC:SIMPAGE-date_th0.25-doc_th0.7-loc_th0.4
# 1   rel1-4   1843   26   0.10597362   nodesDOCUMENT:DATE:LOCATION-edgesREFERENCES:SIMDATES:SIMLOC:SIMPAGE-date_th0.25-doc_th0.7-loc_th0.4
# 1   rel1-4   1858   27   0.10597362   nodesDOCUMENT:DATE:LOCATION-edgesREFERENCES:SIMDATES:SIMLOC:SIMPAGE-date_th0.25-doc_th0.7-loc_th0.4
# 1   rel1-4   1857   28   0.10597362   nodesDOCUMENT:DATE:LOCATION-edgesREFERENCES:SIMDATES:SIMLOC:SIMPAGE-date_th0.25-doc_th0.7-loc_th0.4
# 1   rel1-4   1852   29   0.10597362   nodesDOCUMENT:DATE:LOCATION-edgesREFERENCES:SIMDATES:SIMLOC:SIMPAGE-date_th0.25-doc_th0.7-loc_th0.4
# 1   rel1-4   1853   30   0.10597362   nodesDOCUMENT:DATE:LOCATION-edgesREFERENCES:SIMDATES:SIMLOC:SIMPAGE-date_th0.25-doc_th0.7-loc_th0.4
# 1   rel1-4   1854   31   0.10597362   nodesDOCUMENT:DATE:LOCATION-edgesREFERENCES:SIMDATES:SIMLOC:SIMPAGE-date_th0.25-doc_th0.7-loc_th0.4
# 1   rel1-4   1855   32   0.10597362   nodesDOCUMENT:DATE:LOCATION-edgesREFERENCES:SIMDATES:SIMLOC:SIMPAGE-date_th0.25-doc_th0.7-loc_th0.4
