###################################
# parameters: 
#   date_th: 0.25
#   doc_th: 0.5
#   loc_th: 0.35
#   nodestouse: DOCUMENT:DATE:LOCATION
#   relationships: REFERENCES:SIMPAGE

###################################
# configuration: 
#   sa.act_diff_ratio_limit = 0.01
#   sa.act_diff_ratio_limit_diff = 0.01
#   sa.function = ciir.multi.sa.function.MaxSAFunction(norm_function)
#   sa.id_property_name.DATE = dateID
#   sa.id_property_name.DOCUMENT = docID
#   sa.id_property_name.LOCATION = locID
#   sa.max_pulses = 10
#   sa.nodes_to_print = DATE:LOCATION
#   sa.nodes_to_use = DOCUMENT:DATE:LOCATION
#   sa.norm_function = ciir.multi.sa.SigmoidFunction(0.0, 1.0)
#   sa.relationships_to_use = REFERENCES:SIMPAGE
#   sa.spread_threshold.DATE = 0.25
#   sa.spread_threshold.DOCUMENT = 0.5
#   sa.spread_threshold.LOCATION = 0.35
#   sa.weight_property.REFERENCES = relevance
#   sa.weight_property.SIMDATES = sim
#   sa.weight_property.SIMDOC = sim
#   sa.weight_property.SIMLOC = sim
#   sa.weight_property.SIMPAGE = pagesim

###################################
# initial activations (2): 
#   englandsfightwit00wals_354, 1
#   cu31924029563875_157, 1

###################################
# spreading activation process log: 
#   pulse 0: activated: 2, non-zero: 2, borderline: 2, overall act: 2.000, act diff: 2.000, ratio: 1.000
#   pulse 1: activated: 22, non-zero: 22, borderline: 20, overall act: 7.070, act diff: 5.070, ratio: 0.717
#   pulse 2: activated: 819362, non-zero: 819362, borderline: 819357, overall act: 96380.467, act diff: 96373.397, ratio: 1.000
#   pulse 3: activated: 819392, non-zero: 819392, borderline: 819381, overall act: 96386.025, act diff: 5.558, ratio: 0.000

###################################
# spreading activation process summary: 
#   final number of activated nodes: 819392
#   final overall activation: 96386.0
#   number of spread. activ. pulses: 3
#   running time: 171569

###################################
# top k results in TREC format: 

2   rel2-1   ireland   1   0.9364957   nodesDOCUMENT:DATE:LOCATION-edgesREFERENCES:SIMPAGE-date_th0.25-doc_th0.5-loc_th0.35
2   rel2-1   1641   2   0.82806534   nodesDOCUMENT:DATE:LOCATION-edgesREFERENCES:SIMPAGE-date_th0.25-doc_th0.5-loc_th0.35
2   rel2-1   london   3   0.77435964   nodesDOCUMENT:DATE:LOCATION-edgesREFERENCES:SIMPAGE-date_th0.25-doc_th0.5-loc_th0.35
2   rel2-1   1687   4   0.18976523   nodesDOCUMENT:DATE:LOCATION-edgesREFERENCES:SIMPAGE-date_th0.25-doc_th0.5-loc_th0.35
2   rel2-1   dublin   5   0.17114265   nodesDOCUMENT:DATE:LOCATION-edgesREFERENCES:SIMPAGE-date_th0.25-doc_th0.5-loc_th0.35
2   rel2-1   1690   6   0.16514042   nodesDOCUMENT:DATE:LOCATION-edgesREFERENCES:SIMPAGE-date_th0.25-doc_th0.5-loc_th0.35
2   rel2-1   1701   7   0.16514042   nodesDOCUMENT:DATE:LOCATION-edgesREFERENCES:SIMPAGE-date_th0.25-doc_th0.5-loc_th0.35
2   rel2-1   1699   8   0.16514042   nodesDOCUMENT:DATE:LOCATION-edgesREFERENCES:SIMPAGE-date_th0.25-doc_th0.5-loc_th0.35
2   rel2-1   1651   9   0.16514042   nodesDOCUMENT:DATE:LOCATION-edgesREFERENCES:SIMPAGE-date_th0.25-doc_th0.5-loc_th0.35
2   rel2-1   1689   10   0.16514042   nodesDOCUMENT:DATE:LOCATION-edgesREFERENCES:SIMPAGE-date_th0.25-doc_th0.5-loc_th0.35
2   rel2-1   1643   11   0.16514042   nodesDOCUMENT:DATE:LOCATION-edgesREFERENCES:SIMPAGE-date_th0.25-doc_th0.5-loc_th0.35
2   rel2-1   scotland   12   0.13415854   nodesDOCUMENT:DATE:LOCATION-edgesREFERENCES:SIMPAGE-date_th0.25-doc_th0.5-loc_th0.35
2   rel2-1   1688   13   0.120607615   nodesDOCUMENT:DATE:LOCATION-edgesREFERENCES:SIMPAGE-date_th0.25-doc_th0.5-loc_th0.35
2   rel2-1   1681   14   0.120607615   nodesDOCUMENT:DATE:LOCATION-edgesREFERENCES:SIMPAGE-date_th0.25-doc_th0.5-loc_th0.35
2   rel2-1   malay archipelago   15   0.11597154   nodesDOCUMENT:DATE:LOCATION-edgesREFERENCES:SIMPAGE-date_th0.25-doc_th0.5-loc_th0.35
2   rel2-1   limerick   16   0.108621895   nodesDOCUMENT:DATE:LOCATION-edgesREFERENCES:SIMPAGE-date_th0.25-doc_th0.5-loc_th0.35
2   rel2-1   peacock   17   0.108621895   nodesDOCUMENT:DATE:LOCATION-edgesREFERENCES:SIMPAGE-date_th0.25-doc_th0.5-loc_th0.35
2   rel2-1   europe   18   0.108621895   nodesDOCUMENT:DATE:LOCATION-edgesREFERENCES:SIMPAGE-date_th0.25-doc_th0.5-loc_th0.35
2   rel2-1   town   19   0.108621895   nodesDOCUMENT:DATE:LOCATION-edgesREFERENCES:SIMPAGE-date_th0.25-doc_th0.5-loc_th0.35
2   rel2-1   city   20   0.108621895   nodesDOCUMENT:DATE:LOCATION-edgesREFERENCES:SIMPAGE-date_th0.25-doc_th0.5-loc_th0.35

###################################
# top nodes: 

# 2   rel2-1   cu31924029563875_157   1   1.0   nodesDOCUMENT:DATE:LOCATION-edgesREFERENCES:SIMPAGE-date_th0.25-doc_th0.5-loc_th0.35
# 2   rel2-1   englandsfightwit00wals_354   2   1.0   nodesDOCUMENT:DATE:LOCATION-edgesREFERENCES:SIMPAGE-date_th0.25-doc_th0.5-loc_th0.35
# 2   rel2-1   ireland   3   0.9364957   nodesDOCUMENT:DATE:LOCATION-edgesREFERENCES:SIMPAGE-date_th0.25-doc_th0.5-loc_th0.35
# 2   rel2-1   1641   4   0.82806534   nodesDOCUMENT:DATE:LOCATION-edgesREFERENCES:SIMPAGE-date_th0.25-doc_th0.5-loc_th0.35
# 2   rel2-1   london   5   0.77435964   nodesDOCUMENT:DATE:LOCATION-edgesREFERENCES:SIMPAGE-date_th0.25-doc_th0.5-loc_th0.35
# 2   rel2-1   englandsfightwit00wals_355   6   0.644176   nodesDOCUMENT:DATE:LOCATION-edgesREFERENCES:SIMPAGE-date_th0.25-doc_th0.5-loc_th0.35
# 2   rel2-1   causeofirelandpl00orei_431   7   0.6022173   nodesDOCUMENT:DATE:LOCATION-edgesREFERENCES:SIMPAGE-date_th0.25-doc_th0.5-loc_th0.35
# 2   rel2-1   cu31924029563875_158   8   0.5628241   nodesDOCUMENT:DATE:LOCATION-edgesREFERENCES:SIMPAGE-date_th0.25-doc_th0.5-loc_th0.35
# 2   rel2-1   olivercromwell00rossgoog_133   9   0.5222889   nodesDOCUMENT:DATE:LOCATION-edgesREFERENCES:SIMPAGE-date_th0.25-doc_th0.5-loc_th0.35
# 2   rel2-1   causeofirelandpl00orei_432   10   0.5202243   nodesDOCUMENT:DATE:LOCATION-edgesREFERENCES:SIMPAGE-date_th0.25-doc_th0.5-loc_th0.35
# 2   rel2-1   cu31924029563875_156   11   0.5116861   nodesDOCUMENT:DATE:LOCATION-edgesREFERENCES:SIMPAGE-date_th0.25-doc_th0.5-loc_th0.35
# 2   rel2-1   historyofireland02daltuoft_409   12   0.5051707   nodesDOCUMENT:DATE:LOCATION-edgesREFERENCES:SIMPAGE-date_th0.25-doc_th0.5-loc_th0.35
# 2   rel2-1   olivercromwell00rossgoog_134   13   0.5051707   nodesDOCUMENT:DATE:LOCATION-edgesREFERENCES:SIMPAGE-date_th0.25-doc_th0.5-loc_th0.35
# 2   rel2-1   bibliothecagrenv03grenrich_31   14   0.4830366   nodesDOCUMENT:DATE:LOCATION-edgesREFERENCES:SIMPAGE-date_th0.25-doc_th0.5-loc_th0.35
# 2   rel2-1   historyofdiocese02healiala_23   15   0.4807475   nodesDOCUMENT:DATE:LOCATION-edgesREFERENCES:SIMPAGE-date_th0.25-doc_th0.5-loc_th0.35
# 2   rel2-1   castlesofireland00adamiala_301   16   0.4807475   nodesDOCUMENT:DATE:LOCATION-edgesREFERENCES:SIMPAGE-date_th0.25-doc_th0.5-loc_th0.35
# 2   rel2-1   economichistoryo00obri_321   17   0.4807475   nodesDOCUMENT:DATE:LOCATION-edgesREFERENCES:SIMPAGE-date_th0.25-doc_th0.5-loc_th0.35
# 2   rel2-1   fastiecclesiaeh02cottgoog_20   18   0.4807475   nodesDOCUMENT:DATE:LOCATION-edgesREFERENCES:SIMPAGE-date_th0.25-doc_th0.5-loc_th0.35
# 2   rel2-1   treatiseofexcheq02howa_413   19   0.4807475   nodesDOCUMENT:DATE:LOCATION-edgesREFERENCES:SIMPAGE-date_th0.25-doc_th0.5-loc_th0.35
# 2   rel2-1   treatiseofexcheq02howa_411   20   0.4807475   nodesDOCUMENT:DATE:LOCATION-edgesREFERENCES:SIMPAGE-date_th0.25-doc_th0.5-loc_th0.35
# 2   rel2-1   treatiseofexcheq02howa_130   21   0.4807475   nodesDOCUMENT:DATE:LOCATION-edgesREFERENCES:SIMPAGE-date_th0.25-doc_th0.5-loc_th0.35
# 2   rel2-1   historyofireland3_00will_307   22   0.4807475   nodesDOCUMENT:DATE:LOCATION-edgesREFERENCES:SIMPAGE-date_th0.25-doc_th0.5-loc_th0.35
# 2   rel2-1   treatiseofexcheq02howa_421   23   0.4807475   nodesDOCUMENT:DATE:LOCATION-edgesREFERENCES:SIMPAGE-date_th0.25-doc_th0.5-loc_th0.35
# 2   rel2-1   historymoderneu11russgoog_386   24   0.4807475   nodesDOCUMENT:DATE:LOCATION-edgesREFERENCES:SIMPAGE-date_th0.25-doc_th0.5-loc_th0.35
# 2   rel2-1   revolutionaryir00mahagoog_100   25   0.4807475   nodesDOCUMENT:DATE:LOCATION-edgesREFERENCES:SIMPAGE-date_th0.25-doc_th0.5-loc_th0.35
# 2   rel2-1   constitutionalhi03hall_414   26   0.4807475   nodesDOCUMENT:DATE:LOCATION-edgesREFERENCES:SIMPAGE-date_th0.25-doc_th0.5-loc_th0.35
# 2   rel2-1   confederationofk00meeh_10   27   0.4807475   nodesDOCUMENT:DATE:LOCATION-edgesREFERENCES:SIMPAGE-date_th0.25-doc_th0.5-loc_th0.35
# 2   rel2-1   statechurcheskin00allerich_587   28   0.4807475   nodesDOCUMENT:DATE:LOCATION-edgesREFERENCES:SIMPAGE-date_th0.25-doc_th0.5-loc_th0.35
# 2   rel2-1   memoirsandcorre02castgoog_42   29   0.4807475   nodesDOCUMENT:DATE:LOCATION-edgesREFERENCES:SIMPAGE-date_th0.25-doc_th0.5-loc_th0.35
# 2   rel2-1   proceedingsofro22roya_307   30   0.4807475   nodesDOCUMENT:DATE:LOCATION-edgesREFERENCES:SIMPAGE-date_th0.25-doc_th0.5-loc_th0.35
# 2   rel2-1   compendiumofhist02lawl_76   31   0.4807475   nodesDOCUMENT:DATE:LOCATION-edgesREFERENCES:SIMPAGE-date_th0.25-doc_th0.5-loc_th0.35
# 2   rel2-1   causeofirelandpl00orei_345   32   0.4807475   nodesDOCUMENT:DATE:LOCATION-edgesREFERENCES:SIMPAGE-date_th0.25-doc_th0.5-loc_th0.35
# 2   rel2-1   causeofirelandpl00orei_291   33   0.4807475   nodesDOCUMENT:DATE:LOCATION-edgesREFERENCES:SIMPAGE-date_th0.25-doc_th0.5-loc_th0.35
# 2   rel2-1   cu31924091770861_319   34   0.4807475   nodesDOCUMENT:DATE:LOCATION-edgesREFERENCES:SIMPAGE-date_th0.25-doc_th0.5-loc_th0.35
# 2   rel2-1   cu31924091770861_286   35   0.4807475   nodesDOCUMENT:DATE:LOCATION-edgesREFERENCES:SIMPAGE-date_th0.25-doc_th0.5-loc_th0.35
# 2   rel2-1   irishtangleandwa1920john_53   36   0.4807475   nodesDOCUMENT:DATE:LOCATION-edgesREFERENCES:SIMPAGE-date_th0.25-doc_th0.5-loc_th0.35
# 2   rel2-1   cu31924091786628_78   37   0.4807475   nodesDOCUMENT:DATE:LOCATION-edgesREFERENCES:SIMPAGE-date_th0.25-doc_th0.5-loc_th0.35
# 2   rel2-1   englishinireland03frou_309   38   0.4807475   nodesDOCUMENT:DATE:LOCATION-edgesREFERENCES:SIMPAGE-date_th0.25-doc_th0.5-loc_th0.35
# 2   rel2-1   englishinireland03frou_118   39   0.4807475   nodesDOCUMENT:DATE:LOCATION-edgesREFERENCES:SIMPAGE-date_th0.25-doc_th0.5-loc_th0.35
# 2   rel2-1   calendarstatepa12offigoog_335   40   0.4807475   nodesDOCUMENT:DATE:LOCATION-edgesREFERENCES:SIMPAGE-date_th0.25-doc_th0.5-loc_th0.35
