###################################
# parameters: 
#   date_th: 0.3
#   doc_th: 0.5
#   loc_th: 0.35
#   nodestouse: DOCUMENT:DATE:LOCATION
#   relationships: REFERENCES:SIMPAGE

###################################
# configuration: 
#   sa.act_diff_ratio_limit = 0.01
#   sa.act_diff_ratio_limit_diff = 0.01
#   sa.function = ciir.multi.sa.function.MaxSAFunction(norm_function)
#   sa.id_property_name.DATE = dateID
#   sa.id_property_name.DOCUMENT = docID
#   sa.id_property_name.LOCATION = locID
#   sa.max_pulses = 10
#   sa.nodes_to_print = DATE:LOCATION
#   sa.nodes_to_use = DOCUMENT:DATE:LOCATION
#   sa.norm_function = ciir.multi.sa.SigmoidFunction(0.0, 1.0)
#   sa.relationships_to_use = REFERENCES:SIMPAGE
#   sa.spread_threshold.DATE = 0.3
#   sa.spread_threshold.DOCUMENT = 0.5
#   sa.spread_threshold.LOCATION = 0.35
#   sa.weight_property.REFERENCES = relevance
#   sa.weight_property.SIMDATES = sim
#   sa.weight_property.SIMDOC = sim
#   sa.weight_property.SIMLOC = sim
#   sa.weight_property.SIMPAGE = pagesim

###################################
# initial activations (4): 
#   englandsfightwit00wals_354, 1
#   cu31924029563875_157, 1
#   viceroysofirelan00omahuoft_97, 1
#   hallamsworks04halliala_600, 1

###################################
# spreading activation process log: 
#   pulse 0: activated: 4, non-zero: 4, borderline: 4, overall act: 4.000, act diff: 4.000, ratio: 1.000
#   pulse 1: activated: 31, non-zero: 31, borderline: 27, overall act: 12.716, act diff: 8.716, ratio: 0.685
#   pulse 2: activated: 1512021, non-zero: 1512021, borderline: 1512011, overall act: 213050.127, act diff: 213037.411, ratio: 1.000
#   pulse 3: activated: 1513443, non-zero: 1513443, borderline: 1512487, overall act: 213717.715, act diff: 667.588, ratio: 0.003

###################################
# spreading activation process summary: 
#   final number of activated nodes: 1513443
#   final overall activation: 213717.7
#   number of spread. activ. pulses: 3
#   running time: 470379

###################################
# top k results in TREC format: 

2   rel4-1   england   1   1.0   nodesDOCUMENT:DATE:LOCATION-edgesREFERENCES:SIMPAGE-date_th0.3-doc_th0.5-loc_th0.35
2   rel4-1   1845   2   1.0   nodesDOCUMENT:DATE:LOCATION-edgesREFERENCES:SIMPAGE-date_th0.3-doc_th0.5-loc_th0.35
2   rel4-1   1641   3   1.0   nodesDOCUMENT:DATE:LOCATION-edgesREFERENCES:SIMPAGE-date_th0.3-doc_th0.5-loc_th0.35
2   rel4-1   scotland   4   1.0   nodesDOCUMENT:DATE:LOCATION-edgesREFERENCES:SIMPAGE-date_th0.3-doc_th0.5-loc_th0.35
2   rel4-1   london   5   1.0   nodesDOCUMENT:DATE:LOCATION-edgesREFERENCES:SIMPAGE-date_th0.3-doc_th0.5-loc_th0.35
2   rel4-1   ireland   6   1.0   nodesDOCUMENT:DATE:LOCATION-edgesREFERENCES:SIMPAGE-date_th0.3-doc_th0.5-loc_th0.35
2   rel4-1   dublin   7   1.0   nodesDOCUMENT:DATE:LOCATION-edgesREFERENCES:SIMPAGE-date_th0.3-doc_th0.5-loc_th0.35
2   rel4-1   france   8   0.999914   nodesDOCUMENT:DATE:LOCATION-edgesREFERENCES:SIMPAGE-date_th0.3-doc_th0.5-loc_th0.35
2   rel4-1   great britain   9   0.9998397   nodesDOCUMENT:DATE:LOCATION-edgesREFERENCES:SIMPAGE-date_th0.3-doc_th0.5-loc_th0.35
2   rel4-1   belfast   10   0.9994268   nodesDOCUMENT:DATE:LOCATION-edgesREFERENCES:SIMPAGE-date_th0.3-doc_th0.5-loc_th0.35
2   rel4-1   strafford   11   0.9990945   nodesDOCUMENT:DATE:LOCATION-edgesREFERENCES:SIMPAGE-date_th0.3-doc_th0.5-loc_th0.35
2   rel4-1   1689   12   0.99832183   nodesDOCUMENT:DATE:LOCATION-edgesREFERENCES:SIMPAGE-date_th0.3-doc_th0.5-loc_th0.35
2   rel4-1   1688   13   0.9981835   nodesDOCUMENT:DATE:LOCATION-edgesREFERENCES:SIMPAGE-date_th0.3-doc_th0.5-loc_th0.35
2   rel4-1   limerick   14   0.9977579   nodesDOCUMENT:DATE:LOCATION-edgesREFERENCES:SIMPAGE-date_th0.3-doc_th0.5-loc_th0.35
2   rel4-1   1885   15   0.9973401   nodesDOCUMENT:DATE:LOCATION-edgesREFERENCES:SIMPAGE-date_th0.3-doc_th0.5-loc_th0.35
2   rel4-1   1798   16   0.99527514   nodesDOCUMENT:DATE:LOCATION-edgesREFERENCES:SIMPAGE-date_th0.3-doc_th0.5-loc_th0.35
2   rel4-1   rome   17   0.9927762   nodesDOCUMENT:DATE:LOCATION-edgesREFERENCES:SIMPAGE-date_th0.3-doc_th0.5-loc_th0.35
2   rel4-1   wales   18   0.99065953   nodesDOCUMENT:DATE:LOCATION-edgesREFERENCES:SIMPAGE-date_th0.3-doc_th0.5-loc_th0.35
2   rel4-1   1649   19   0.98832387   nodesDOCUMENT:DATE:LOCATION-edgesREFERENCES:SIMPAGE-date_th0.3-doc_th0.5-loc_th0.35
2   rel4-1   america   20   0.98792493   nodesDOCUMENT:DATE:LOCATION-edgesREFERENCES:SIMPAGE-date_th0.3-doc_th0.5-loc_th0.35

###################################
# top nodes: 

# 2   rel4-1   englandsfightwit00wals_354   1   1.0   nodesDOCUMENT:DATE:LOCATION-edgesREFERENCES:SIMPAGE-date_th0.3-doc_th0.5-loc_th0.35
# 2   rel4-1   viceroysofirelan00omahuoft_97   2   1.0   nodesDOCUMENT:DATE:LOCATION-edgesREFERENCES:SIMPAGE-date_th0.3-doc_th0.5-loc_th0.35
# 2   rel4-1   england   3   1.0   nodesDOCUMENT:DATE:LOCATION-edgesREFERENCES:SIMPAGE-date_th0.3-doc_th0.5-loc_th0.35
# 2   rel4-1   cu31924029563875_157   4   1.0   nodesDOCUMENT:DATE:LOCATION-edgesREFERENCES:SIMPAGE-date_th0.3-doc_th0.5-loc_th0.35
# 2   rel4-1   ireland   5   1.0   nodesDOCUMENT:DATE:LOCATION-edgesREFERENCES:SIMPAGE-date_th0.3-doc_th0.5-loc_th0.35
# 2   rel4-1   1845   6   1.0   nodesDOCUMENT:DATE:LOCATION-edgesREFERENCES:SIMPAGE-date_th0.3-doc_th0.5-loc_th0.35
# 2   rel4-1   1641   7   1.0   nodesDOCUMENT:DATE:LOCATION-edgesREFERENCES:SIMPAGE-date_th0.3-doc_th0.5-loc_th0.35
# 2   rel4-1   hallamsworks04halliala_600   8   1.0   nodesDOCUMENT:DATE:LOCATION-edgesREFERENCES:SIMPAGE-date_th0.3-doc_th0.5-loc_th0.35
# 2   rel4-1   scotland   9   1.0   nodesDOCUMENT:DATE:LOCATION-edgesREFERENCES:SIMPAGE-date_th0.3-doc_th0.5-loc_th0.35
# 2   rel4-1   london   10   1.0   nodesDOCUMENT:DATE:LOCATION-edgesREFERENCES:SIMPAGE-date_th0.3-doc_th0.5-loc_th0.35
# 2   rel4-1   dublin   11   1.0   nodesDOCUMENT:DATE:LOCATION-edgesREFERENCES:SIMPAGE-date_th0.3-doc_th0.5-loc_th0.35
# 2   rel4-1   france   12   0.999914   nodesDOCUMENT:DATE:LOCATION-edgesREFERENCES:SIMPAGE-date_th0.3-doc_th0.5-loc_th0.35
# 2   rel4-1   great britain   13   0.9998397   nodesDOCUMENT:DATE:LOCATION-edgesREFERENCES:SIMPAGE-date_th0.3-doc_th0.5-loc_th0.35
# 2   rel4-1   belfast   14   0.9994268   nodesDOCUMENT:DATE:LOCATION-edgesREFERENCES:SIMPAGE-date_th0.3-doc_th0.5-loc_th0.35
# 2   rel4-1   strafford   15   0.9990945   nodesDOCUMENT:DATE:LOCATION-edgesREFERENCES:SIMPAGE-date_th0.3-doc_th0.5-loc_th0.35
# 2   rel4-1   1689   16   0.99832183   nodesDOCUMENT:DATE:LOCATION-edgesREFERENCES:SIMPAGE-date_th0.3-doc_th0.5-loc_th0.35
# 2   rel4-1   1688   17   0.9981835   nodesDOCUMENT:DATE:LOCATION-edgesREFERENCES:SIMPAGE-date_th0.3-doc_th0.5-loc_th0.35
# 2   rel4-1   limerick   18   0.9977579   nodesDOCUMENT:DATE:LOCATION-edgesREFERENCES:SIMPAGE-date_th0.3-doc_th0.5-loc_th0.35
# 2   rel4-1   1885   19   0.9973401   nodesDOCUMENT:DATE:LOCATION-edgesREFERENCES:SIMPAGE-date_th0.3-doc_th0.5-loc_th0.35
# 2   rel4-1   1798   20   0.99527514   nodesDOCUMENT:DATE:LOCATION-edgesREFERENCES:SIMPAGE-date_th0.3-doc_th0.5-loc_th0.35
# 2   rel4-1   rome   21   0.9927762   nodesDOCUMENT:DATE:LOCATION-edgesREFERENCES:SIMPAGE-date_th0.3-doc_th0.5-loc_th0.35
# 2   rel4-1   wales   22   0.99065953   nodesDOCUMENT:DATE:LOCATION-edgesREFERENCES:SIMPAGE-date_th0.3-doc_th0.5-loc_th0.35
# 2   rel4-1   1649   23   0.98832387   nodesDOCUMENT:DATE:LOCATION-edgesREFERENCES:SIMPAGE-date_th0.3-doc_th0.5-loc_th0.35
# 2   rel4-1   america   24   0.98792493   nodesDOCUMENT:DATE:LOCATION-edgesREFERENCES:SIMPAGE-date_th0.3-doc_th0.5-loc_th0.35
# 2   rel4-1   europe   25   0.9824612   nodesDOCUMENT:DATE:LOCATION-edgesREFERENCES:SIMPAGE-date_th0.3-doc_th0.5-loc_th0.35
# 2   rel4-1   1691   26   0.9798899   nodesDOCUMENT:DATE:LOCATION-edgesREFERENCES:SIMPAGE-date_th0.3-doc_th0.5-loc_th0.35
# 2   rel4-1   paris   27   0.97389144   nodesDOCUMENT:DATE:LOCATION-edgesREFERENCES:SIMPAGE-date_th0.3-doc_th0.5-loc_th0.35
# 2   rel4-1   munster   28   0.9732155   nodesDOCUMENT:DATE:LOCATION-edgesREFERENCES:SIMPAGE-date_th0.3-doc_th0.5-loc_th0.35
# 2   rel4-1   1881   29   0.96882975   nodesDOCUMENT:DATE:LOCATION-edgesREFERENCES:SIMPAGE-date_th0.3-doc_th0.5-loc_th0.35
# 2   rel4-1   spain   30   0.9687169   nodesDOCUMENT:DATE:LOCATION-edgesREFERENCES:SIMPAGE-date_th0.3-doc_th0.5-loc_th0.35
# 2   rel4-1   1884   31   0.96334773   nodesDOCUMENT:DATE:LOCATION-edgesREFERENCES:SIMPAGE-date_th0.3-doc_th0.5-loc_th0.35
# 2   rel4-1   drogheda   32   0.95673156   nodesDOCUMENT:DATE:LOCATION-edgesREFERENCES:SIMPAGE-date_th0.3-doc_th0.5-loc_th0.35
# 2   rel4-1   leinster   33   0.95090824   nodesDOCUMENT:DATE:LOCATION-edgesREFERENCES:SIMPAGE-date_th0.3-doc_th0.5-loc_th0.35
# 2   rel4-1   1829   34   0.9489586   nodesDOCUMENT:DATE:LOCATION-edgesREFERENCES:SIMPAGE-date_th0.3-doc_th0.5-loc_th0.35
# 2   rel4-1   1903   35   0.9380105   nodesDOCUMENT:DATE:LOCATION-edgesREFERENCES:SIMPAGE-date_th0.3-doc_th0.5-loc_th0.35
# 2   rel4-1   edinburgh   36   0.9374456   nodesDOCUMENT:DATE:LOCATION-edgesREFERENCES:SIMPAGE-date_th0.3-doc_th0.5-loc_th0.35
# 2   rel4-1   kingdom   37   0.93264544   nodesDOCUMENT:DATE:LOCATION-edgesREFERENCES:SIMPAGE-date_th0.3-doc_th0.5-loc_th0.35
# 2   rel4-1   fairfax   38   0.9309624   nodesDOCUMENT:DATE:LOCATION-edgesREFERENCES:SIMPAGE-date_th0.3-doc_th0.5-loc_th0.35
# 2   rel4-1   armagh   39   0.9232219   nodesDOCUMENT:DATE:LOCATION-edgesREFERENCES:SIMPAGE-date_th0.3-doc_th0.5-loc_th0.35
# 2   rel4-1   1870   40   0.9227757   nodesDOCUMENT:DATE:LOCATION-edgesREFERENCES:SIMPAGE-date_th0.3-doc_th0.5-loc_th0.35
