###################################
# parameters: 
#   date_th: 0.3
#   doc_th: 0.5
#   loc_th: 0.35
#   nodestouse: DOCUMENT:DATE:LOCATION
#   relationships: REFERENCES:SIMDATES:SIMPAGE

###################################
# configuration: 
#   sa.act_diff_ratio_limit = 0.01
#   sa.act_diff_ratio_limit_diff = 0.01
#   sa.function = ciir.multi.sa.function.MaxSAFunction(norm_function)
#   sa.id_property_name.DATE = dateID
#   sa.id_property_name.DOCUMENT = docID
#   sa.id_property_name.LOCATION = locID
#   sa.max_pulses = 10
#   sa.nodes_to_print = DATE:LOCATION
#   sa.nodes_to_use = DOCUMENT:DATE:LOCATION
#   sa.norm_function = ciir.multi.sa.SigmoidFunction(0.0, 1.0)
#   sa.relationships_to_use = REFERENCES:SIMDATES:SIMPAGE
#   sa.spread_threshold.DATE = 0.3
#   sa.spread_threshold.DOCUMENT = 0.5
#   sa.spread_threshold.LOCATION = 0.35
#   sa.weight_property.REFERENCES = relevance
#   sa.weight_property.SIMDATES = sim
#   sa.weight_property.SIMDOC = sim
#   sa.weight_property.SIMLOC = sim
#   sa.weight_property.SIMPAGE = pagesim

###################################
# initial activations (3): 
#   cu31924014592566_749, 1
#   encyclopediabrit03newyrich_155, 1
#   cu31924082142666_16, 1

###################################
# spreading activation process log: 
#   pulse 0: activated: 3, non-zero: 3, borderline: 3, overall act: 3.000, act diff: 3.000, ratio: 1.000
#   pulse 1: activated: 76, non-zero: 76, borderline: 73, overall act: 16.052, act diff: 13.052, ratio: 0.813
#   pulse 2: activated: 127584, non-zero: 127584, borderline: 127577, overall act: 15777.731, act diff: 15761.679, ratio: 0.999
#   pulse 3: activated: 127634, non-zero: 127634, borderline: 127622, overall act: 15787.250, act diff: 9.519, ratio: 0.001

###################################
# spreading activation process summary: 
#   final number of activated nodes: 127634
#   final overall activation: 15787.2
#   number of spread. activ. pulses: 3
#   running time: 104186

###################################
# top k results in TREC format: 

9   rel3-2   1863   1   0.4163009   nodesDOCUMENT:DATE:LOCATION-edgesREFERENCES:SIMDATES:SIMPAGE-date_th0.3-doc_th0.5-loc_th0.35
9   rel3-2   1852   2   0.4163009   nodesDOCUMENT:DATE:LOCATION-edgesREFERENCES:SIMDATES:SIMPAGE-date_th0.3-doc_th0.5-loc_th0.35
9   rel3-2   1862   3   0.27309436   nodesDOCUMENT:DATE:LOCATION-edgesREFERENCES:SIMDATES:SIMPAGE-date_th0.3-doc_th0.5-loc_th0.35
9   rel3-2   1848   4   0.26084217   nodesDOCUMENT:DATE:LOCATION-edgesREFERENCES:SIMDATES:SIMPAGE-date_th0.3-doc_th0.5-loc_th0.35
9   rel3-2   1856   5   0.19941725   nodesDOCUMENT:DATE:LOCATION-edgesREFERENCES:SIMDATES:SIMPAGE-date_th0.3-doc_th0.5-loc_th0.35
9   rel3-2   1872   6   0.15427215   nodesDOCUMENT:DATE:LOCATION-edgesREFERENCES:SIMDATES:SIMPAGE-date_th0.3-doc_th0.5-loc_th0.35
9   rel3-2   1855   7   0.10363388   nodesDOCUMENT:DATE:LOCATION-edgesREFERENCES:SIMDATES:SIMPAGE-date_th0.3-doc_th0.5-loc_th0.35
9   rel3-2   1851   8   0.10363388   nodesDOCUMENT:DATE:LOCATION-edgesREFERENCES:SIMDATES:SIMPAGE-date_th0.3-doc_th0.5-loc_th0.35
9   rel3-2   1859   9   0.10363388   nodesDOCUMENT:DATE:LOCATION-edgesREFERENCES:SIMDATES:SIMPAGE-date_th0.3-doc_th0.5-loc_th0.35
9   rel3-2   1866   10   0.10363388   nodesDOCUMENT:DATE:LOCATION-edgesREFERENCES:SIMDATES:SIMPAGE-date_th0.3-doc_th0.5-loc_th0.35
9   rel3-2   1869   11   0.10363388   nodesDOCUMENT:DATE:LOCATION-edgesREFERENCES:SIMDATES:SIMPAGE-date_th0.3-doc_th0.5-loc_th0.35
9   rel3-2   1860   12   0.10363388   nodesDOCUMENT:DATE:LOCATION-edgesREFERENCES:SIMDATES:SIMPAGE-date_th0.3-doc_th0.5-loc_th0.35
9   rel3-2   1861   13   0.10363388   nodesDOCUMENT:DATE:LOCATION-edgesREFERENCES:SIMDATES:SIMPAGE-date_th0.3-doc_th0.5-loc_th0.35
9   rel3-2   1864   14   0.10363388   nodesDOCUMENT:DATE:LOCATION-edgesREFERENCES:SIMDATES:SIMPAGE-date_th0.3-doc_th0.5-loc_th0.35
9   rel3-2   1865   15   0.10363388   nodesDOCUMENT:DATE:LOCATION-edgesREFERENCES:SIMDATES:SIMPAGE-date_th0.3-doc_th0.5-loc_th0.35
9   rel3-2   1857   16   0.10363388   nodesDOCUMENT:DATE:LOCATION-edgesREFERENCES:SIMDATES:SIMPAGE-date_th0.3-doc_th0.5-loc_th0.35
9   rel3-2   1858   17   0.10363388   nodesDOCUMENT:DATE:LOCATION-edgesREFERENCES:SIMDATES:SIMPAGE-date_th0.3-doc_th0.5-loc_th0.35
9   rel3-2   1850   18   0.10363388   nodesDOCUMENT:DATE:LOCATION-edgesREFERENCES:SIMDATES:SIMPAGE-date_th0.3-doc_th0.5-loc_th0.35
9   rel3-2   1853   19   0.10363388   nodesDOCUMENT:DATE:LOCATION-edgesREFERENCES:SIMDATES:SIMPAGE-date_th0.3-doc_th0.5-loc_th0.35
9   rel3-2   1854   20   0.10363388   nodesDOCUMENT:DATE:LOCATION-edgesREFERENCES:SIMDATES:SIMPAGE-date_th0.3-doc_th0.5-loc_th0.35

###################################
# top nodes: 

# 9   rel3-2   cu31924014592566_749   1   1.0   nodesDOCUMENT:DATE:LOCATION-edgesREFERENCES:SIMDATES:SIMPAGE-date_th0.3-doc_th0.5-loc_th0.35
# 9   rel3-2   encyclopediabrit03newyrich_155   2   1.0   nodesDOCUMENT:DATE:LOCATION-edgesREFERENCES:SIMDATES:SIMPAGE-date_th0.3-doc_th0.5-loc_th0.35
# 9   rel3-2   cu31924082142666_16   3   1.0   nodesDOCUMENT:DATE:LOCATION-edgesREFERENCES:SIMDATES:SIMPAGE-date_th0.3-doc_th0.5-loc_th0.35
# 9   rel3-2   austria   4   0.86851686   nodesDOCUMENT:DATE:LOCATION-edgesREFERENCES:SIMDATES:SIMPAGE-date_th0.3-doc_th0.5-loc_th0.35
# 9   rel3-2   prussia   5   0.78329575   nodesDOCUMENT:DATE:LOCATION-edgesREFERENCES:SIMDATES:SIMPAGE-date_th0.3-doc_th0.5-loc_th0.35
# 9   rel3-2   encyclopediabrit03newyrich_154   6   0.7047888   nodesDOCUMENT:DATE:LOCATION-edgesREFERENCES:SIMDATES:SIMPAGE-date_th0.3-doc_th0.5-loc_th0.35
# 9   rel3-2   cu31924082142666_15   7   0.65201825   nodesDOCUMENT:DATE:LOCATION-edgesREFERENCES:SIMDATES:SIMPAGE-date_th0.3-doc_th0.5-loc_th0.35
# 9   rel3-2   encyclopediabrit03newyrich_153   8   0.6417255   nodesDOCUMENT:DATE:LOCATION-edgesREFERENCES:SIMDATES:SIMPAGE-date_th0.3-doc_th0.5-loc_th0.35
# 9   rel3-2   cu31924082142666_17   9   0.63447076   nodesDOCUMENT:DATE:LOCATION-edgesREFERENCES:SIMDATES:SIMPAGE-date_th0.3-doc_th0.5-loc_th0.35
# 9   rel3-2   cu31924082142666_14   10   0.6113875   nodesDOCUMENT:DATE:LOCATION-edgesREFERENCES:SIMDATES:SIMPAGE-date_th0.3-doc_th0.5-loc_th0.35
# 9   rel3-2   saxony   11   0.6002216   nodesDOCUMENT:DATE:LOCATION-edgesREFERENCES:SIMDATES:SIMPAGE-date_th0.3-doc_th0.5-loc_th0.35
# 9   rel3-2   encyclopediabrit03newyrich_156   12   0.5887098   nodesDOCUMENT:DATE:LOCATION-edgesREFERENCES:SIMDATES:SIMPAGE-date_th0.3-doc_th0.5-loc_th0.35
# 9   rel3-2   cu31924014592566_750   13   0.55956495   nodesDOCUMENT:DATE:LOCATION-edgesREFERENCES:SIMDATES:SIMPAGE-date_th0.3-doc_th0.5-loc_th0.35
# 9   rel3-2   elbe   14   0.54005045   nodesDOCUMENT:DATE:LOCATION-edgesREFERENCES:SIMDATES:SIMPAGE-date_th0.3-doc_th0.5-loc_th0.35
# 9   rel3-2   cu31924082142666_18   15   0.49903348   nodesDOCUMENT:DATE:LOCATION-edgesREFERENCES:SIMDATES:SIMPAGE-date_th0.3-doc_th0.5-loc_th0.35
# 9   rel3-2   holstein   16   0.49444064   nodesDOCUMENT:DATE:LOCATION-edgesREFERENCES:SIMDATES:SIMPAGE-date_th0.3-doc_th0.5-loc_th0.35
# 9   rel3-2   vienna   17   0.48038632   nodesDOCUMENT:DATE:LOCATION-edgesREFERENCES:SIMDATES:SIMPAGE-date_th0.3-doc_th0.5-loc_th0.35
# 9   rel3-2   cu31924014592566_748   18   0.46211717   nodesDOCUMENT:DATE:LOCATION-edgesREFERENCES:SIMDATES:SIMPAGE-date_th0.3-doc_th0.5-loc_th0.35
# 9   rel3-2   marvelousstoryof00nort_227   19   0.45021036   nodesDOCUMENT:DATE:LOCATION-edgesREFERENCES:SIMDATES:SIMPAGE-date_th0.3-doc_th0.5-loc_th0.35
# 9   rel3-2   lifetimesofstein02seeluoft_259   20   0.44077384   nodesDOCUMENT:DATE:LOCATION-edgesREFERENCES:SIMDATES:SIMPAGE-date_th0.3-doc_th0.5-loc_th0.35
# 9   rel3-2   cu31924014592566_362   21   0.4381511   nodesDOCUMENT:DATE:LOCATION-edgesREFERENCES:SIMDATES:SIMPAGE-date_th0.3-doc_th0.5-loc_th0.35
# 9   rel3-2   ourchancellorske00buscuoft_403   22   0.43216068   nodesDOCUMENT:DATE:LOCATION-edgesREFERENCES:SIMDATES:SIMPAGE-date_th0.3-doc_th0.5-loc_th0.35
# 9   rel3-2   foundationsofger00barkuoft_97   23   0.43139943   nodesDOCUMENT:DATE:LOCATION-edgesREFERENCES:SIMDATES:SIMPAGE-date_th0.3-doc_th0.5-loc_th0.35
# 9   rel3-2   journalpolitica02socigoog_11   24   0.42867306   nodesDOCUMENT:DATE:LOCATION-edgesREFERENCES:SIMDATES:SIMPAGE-date_th0.3-doc_th0.5-loc_th0.35
# 9   rel3-2   cu31924088053800_143   25   0.42857257   nodesDOCUMENT:DATE:LOCATION-edgesREFERENCES:SIMDATES:SIMPAGE-date_th0.3-doc_th0.5-loc_th0.35
# 9   rel3-2   foundationsofger00barkuoft_248   26   0.42854428   nodesDOCUMENT:DATE:LOCATION-edgesREFERENCES:SIMDATES:SIMPAGE-date_th0.3-doc_th0.5-loc_th0.35
# 9   rel3-2   jicin   27   0.42686847   nodesDOCUMENT:DATE:LOCATION-edgesREFERENCES:SIMDATES:SIMPAGE-date_th0.3-doc_th0.5-loc_th0.35
# 9   rel3-2   menwhohavemaden00stragoog_155   28   0.42679802   nodesDOCUMENT:DATE:LOCATION-edgesREFERENCES:SIMDATES:SIMPAGE-date_th0.3-doc_th0.5-loc_th0.35
# 9   rel3-2   threegermanysgl00faygoog_392   29   0.42219427   nodesDOCUMENT:DATE:LOCATION-edgesREFERENCES:SIMDATES:SIMPAGE-date_th0.3-doc_th0.5-loc_th0.35
# 9   rel3-2   outlineseuropea04beargoog_378   30   0.42109182   nodesDOCUMENT:DATE:LOCATION-edgesREFERENCES:SIMDATES:SIMPAGE-date_th0.3-doc_th0.5-loc_th0.35
# 9   rel3-2   threegermanysgl00faygoog_397   31   0.42103443   nodesDOCUMENT:DATE:LOCATION-edgesREFERENCES:SIMDATES:SIMPAGE-date_th0.3-doc_th0.5-loc_th0.35
# 9   rel3-2   foundationsofger00barkuoft_95   32   0.42039192   nodesDOCUMENT:DATE:LOCATION-edgesREFERENCES:SIMDATES:SIMPAGE-date_th0.3-doc_th0.5-loc_th0.35
# 9   rel3-2   europe1789192000turnrich_277   33   0.418939   nodesDOCUMENT:DATE:LOCATION-edgesREFERENCES:SIMDATES:SIMPAGE-date_th0.3-doc_th0.5-loc_th0.35
# 9   rel3-2   shorthistoryofeu00terr_454   34   0.4173598   nodesDOCUMENT:DATE:LOCATION-edgesREFERENCES:SIMDATES:SIMPAGE-date_th0.3-doc_th0.5-loc_th0.35
# 9   rel3-2   threegermanysgl00faygoog_358   35   0.41639733   nodesDOCUMENT:DATE:LOCATION-edgesREFERENCES:SIMDATES:SIMPAGE-date_th0.3-doc_th0.5-loc_th0.35
# 9   rel3-2   foundationsofger00barkuoft_355   36   0.4163128   nodesDOCUMENT:DATE:LOCATION-edgesREFERENCES:SIMDATES:SIMPAGE-date_th0.3-doc_th0.5-loc_th0.35
# 9   rel3-2   1863   37   0.4163009   nodesDOCUMENT:DATE:LOCATION-edgesREFERENCES:SIMDATES:SIMPAGE-date_th0.3-doc_th0.5-loc_th0.35
# 9   rel3-2   1852   38   0.4163009   nodesDOCUMENT:DATE:LOCATION-edgesREFERENCES:SIMDATES:SIMPAGE-date_th0.3-doc_th0.5-loc_th0.35
# 9   rel3-2   foundationsofger00barkuoft_359   39   0.4161592   nodesDOCUMENT:DATE:LOCATION-edgesREFERENCES:SIMDATES:SIMPAGE-date_th0.3-doc_th0.5-loc_th0.35
# 9   rel3-2   cu31924014592566_291   40   0.41568854   nodesDOCUMENT:DATE:LOCATION-edgesREFERENCES:SIMDATES:SIMPAGE-date_th0.3-doc_th0.5-loc_th0.35
