###################################
# parameters: 
#   date_th: 0.25
#   doc_th: 0.5
#   loc_th: 0.4
#   nodestouse: DOCUMENT:DATE:LOCATION
#   relationships: REFERENCES:SIMDATES:SIMLOC

###################################
# configuration: 
#   sa.act_diff_ratio_limit = 0.01
#   sa.act_diff_ratio_limit_diff = 0.01
#   sa.function = ciir.multi.sa.function.MaxSAFunction(norm_function)
#   sa.id_property_name.DATE = dateID
#   sa.id_property_name.DOCUMENT = docID
#   sa.id_property_name.LOCATION = locID
#   sa.max_pulses = 10
#   sa.nodes_to_print = DATE:LOCATION
#   sa.nodes_to_use = DOCUMENT:DATE:LOCATION
#   sa.norm_function = ciir.multi.sa.SigmoidFunction(0.0, 1.0)
#   sa.relationships_to_use = REFERENCES:SIMDATES:SIMLOC
#   sa.spread_threshold.DATE = 0.25
#   sa.spread_threshold.DOCUMENT = 0.5
#   sa.spread_threshold.LOCATION = 0.4
#   sa.weight_property.REFERENCES = relevance
#   sa.weight_property.SIMDATES = sim
#   sa.weight_property.SIMDOC = sim
#   sa.weight_property.SIMLOC = sim
#   sa.weight_property.SIMPAGE = pagesim

###################################
# initial activations (2): 
#   cu31924031684685_795, 1
#   medievalandmode02robigoog_789, 1

###################################
# spreading activation process log: 
#   pulse 0: activated: 2, non-zero: 2, borderline: 2, overall act: 2.000, act diff: 2.000, ratio: 1.000
#   pulse 1: activated: 12, non-zero: 12, borderline: 10, overall act: 4.478, act diff: 2.478, ratio: 0.553
#   pulse 2: activated: 129740, non-zero: 129740, borderline: 129734, overall act: 12003.219, act diff: 11998.741, ratio: 1.000
#   pulse 3: activated: 129740, non-zero: 129740, borderline: 129734, overall act: 14167.801, act diff: 2164.582, ratio: 0.153
#   pulse 4: activated: 129740, non-zero: 129740, borderline: 129734, overall act: 14959.658, act diff: 791.858, ratio: 0.053
#   pulse 5: activated: 169714, non-zero: 169714, borderline: 169706, overall act: 18867.247, act diff: 3907.588, ratio: 0.207
#   pulse 6: activated: 169714, non-zero: 169714, borderline: 169706, overall act: 20319.647, act diff: 1452.400, ratio: 0.071
#   pulse 7: activated: 169716, non-zero: 169716, borderline: 169707, overall act: 21293.951, act diff: 974.304, ratio: 0.046

###################################
# spreading activation process summary: 
#   final number of activated nodes: 169716
#   final overall activation: 21294.0
#   number of spread. activ. pulses: 7
#   running time: 39541

###################################
# top k results in TREC format: 

7   rel2-3   poland   1   0.36212304   nodesDOCUMENT:DATE:LOCATION-edgesREFERENCES:SIMDATES:SIMLOC-date_th0.25-doc_th0.5-loc_th0.4
7   rel2-3   europe   2   0.21094358   nodesDOCUMENT:DATE:LOCATION-edgesREFERENCES:SIMDATES:SIMLOC-date_th0.25-doc_th0.5-loc_th0.4
7   rel2-3   russia   3   0.13430275   nodesDOCUMENT:DATE:LOCATION-edgesREFERENCES:SIMDATES:SIMLOC-date_th0.25-doc_th0.5-loc_th0.4
7   rel2-3   caucasus region   4   0.13430275   nodesDOCUMENT:DATE:LOCATION-edgesREFERENCES:SIMDATES:SIMLOC-date_th0.25-doc_th0.5-loc_th0.4
7   rel2-3   saint petersburg   5   0.13430275   nodesDOCUMENT:DATE:LOCATION-edgesREFERENCES:SIMDATES:SIMLOC-date_th0.25-doc_th0.5-loc_th0.4
7   rel2-3   warsaw   6   0.13430275   nodesDOCUMENT:DATE:LOCATION-edgesREFERENCES:SIMDATES:SIMLOC-date_th0.25-doc_th0.5-loc_th0.4

###################################
# top nodes: 

# 7   rel2-3   cu31924031684685_795   1   1.0   nodesDOCUMENT:DATE:LOCATION-edgesREFERENCES:SIMDATES:SIMLOC-date_th0.25-doc_th0.5-loc_th0.4
# 7   rel2-3   medievalandmode02robigoog_789   2   1.0   nodesDOCUMENT:DATE:LOCATION-edgesREFERENCES:SIMDATES:SIMLOC-date_th0.25-doc_th0.5-loc_th0.4
# 7   rel2-3   1830   3   0.7714373   nodesDOCUMENT:DATE:LOCATION-edgesREFERENCES:SIMDATES:SIMLOC-date_th0.25-doc_th0.5-loc_th0.4
# 7   rel2-3   1831   4   0.76942235   nodesDOCUMENT:DATE:LOCATION-edgesREFERENCES:SIMDATES:SIMLOC-date_th0.25-doc_th0.5-loc_th0.4
# 7   rel2-3   historicmorgancl00eame_250   5   0.5479653   nodesDOCUMENT:DATE:LOCATION-edgesREFERENCES:SIMDATES:SIMLOC-date_th0.25-doc_th0.5-loc_th0.4
# 7   rel2-3   hazardsregister_11phil_125   6   0.5149583   nodesDOCUMENT:DATE:LOCATION-edgesREFERENCES:SIMDATES:SIMLOC-date_th0.25-doc_th0.5-loc_th0.4
# 7   rel2-3   memorialsofcambr02coopiala_386   7   0.50296307   nodesDOCUMENT:DATE:LOCATION-edgesREFERENCES:SIMDATES:SIMLOC-date_th0.25-doc_th0.5-loc_th0.4
# 7   rel2-3   cataloguescient00unkngoog_834   8   0.5007009   nodesDOCUMENT:DATE:LOCATION-edgesREFERENCES:SIMDATES:SIMLOC-date_th0.25-doc_th0.5-loc_th0.4
# 7   rel2-3   historyoffayette00barr_276   9   0.49707094   nodesDOCUMENT:DATE:LOCATION-edgesREFERENCES:SIMDATES:SIMLOC-date_th0.25-doc_th0.5-loc_th0.4
# 7   rel2-3   americanstatepap06unit_14   10   0.4928322   nodesDOCUMENT:DATE:LOCATION-edgesREFERENCES:SIMDATES:SIMLOC-date_th0.25-doc_th0.5-loc_th0.4
# 7   rel2-3   cataloguescient00unkngoog_785   11   0.4819748   nodesDOCUMENT:DATE:LOCATION-edgesREFERENCES:SIMDATES:SIMLOC-date_th0.25-doc_th0.5-loc_th0.4
# 7   rel2-3   contributionsol01lowegoog_315   12   0.48161566   nodesDOCUMENT:DATE:LOCATION-edgesREFERENCES:SIMDATES:SIMLOC-date_th0.25-doc_th0.5-loc_th0.4
# 7   rel2-3   cataloguescient00unkngoog_85   13   0.4748296   nodesDOCUMENT:DATE:LOCATION-edgesREFERENCES:SIMDATES:SIMLOC-date_th0.25-doc_th0.5-loc_th0.4
# 7   rel2-3   historylasalleco00bald_94   14   0.46973795   nodesDOCUMENT:DATE:LOCATION-edgesREFERENCES:SIMDATES:SIMLOC-date_th0.25-doc_th0.5-loc_th0.4
# 7   rel2-3   historylasalleco00bald_443   15   0.46729058   nodesDOCUMENT:DATE:LOCATION-edgesREFERENCES:SIMDATES:SIMLOC-date_th0.25-doc_th0.5-loc_th0.4
# 7   rel2-3   woolgrowingtari05wriguoft_70   16   0.46119294   nodesDOCUMENT:DATE:LOCATION-edgesREFERENCES:SIMDATES:SIMLOC-date_th0.25-doc_th0.5-loc_th0.4
# 7   rel2-3   hazardsregister_11phil_124   17   0.46033236   nodesDOCUMENT:DATE:LOCATION-edgesREFERENCES:SIMDATES:SIMLOC-date_th0.25-doc_th0.5-loc_th0.4
# 7   rel2-3   cataloguescient00unkngoog_358   18   0.45991364   nodesDOCUMENT:DATE:LOCATION-edgesREFERENCES:SIMDATES:SIMLOC-date_th0.25-doc_th0.5-loc_th0.4
# 7   rel2-3   cataloguescient00unkngoog_625   19   0.45986763   nodesDOCUMENT:DATE:LOCATION-edgesREFERENCES:SIMDATES:SIMLOC-date_th0.25-doc_th0.5-loc_th0.4
# 7   rel2-3   remakingofmodern06marruoft_185   20   0.45552194   nodesDOCUMENT:DATE:LOCATION-edgesREFERENCES:SIMDATES:SIMLOC-date_th0.25-doc_th0.5-loc_th0.4
# 7   rel2-3   speecheshonhenr00chamgoog_211   21   0.45510158   nodesDOCUMENT:DATE:LOCATION-edgesREFERENCES:SIMDATES:SIMLOC-date_th0.25-doc_th0.5-loc_th0.4
# 7   rel2-3   hazardsregistero14phil_402   22   0.45463732   nodesDOCUMENT:DATE:LOCATION-edgesREFERENCES:SIMDATES:SIMLOC-date_th0.25-doc_th0.5-loc_th0.4
# 7   rel2-3   italyitalianisland03spal_345   23   0.4546307   nodesDOCUMENT:DATE:LOCATION-edgesREFERENCES:SIMDATES:SIMLOC-date_th0.25-doc_th0.5-loc_th0.4
# 7   rel2-3   thomascarlyleah12frougoog_278   24   0.45311245   nodesDOCUMENT:DATE:LOCATION-edgesREFERENCES:SIMDATES:SIMLOC-date_th0.25-doc_th0.5-loc_th0.4
# 7   rel2-3   speechesdukewel02hazlgoog_270   25   0.45244548   nodesDOCUMENT:DATE:LOCATION-edgesREFERENCES:SIMDATES:SIMLOC-date_th0.25-doc_th0.5-loc_th0.4
# 7   rel2-3   lorddurhamsrepor03durhiala_258   26   0.44940472   nodesDOCUMENT:DATE:LOCATION-edgesREFERENCES:SIMDATES:SIMLOC-date_th0.25-doc_th0.5-loc_th0.4
# 7   rel2-3   congressionalse175offigoog_108   27   0.44940472   nodesDOCUMENT:DATE:LOCATION-edgesREFERENCES:SIMDATES:SIMLOC-date_th0.25-doc_th0.5-loc_th0.4
# 7   rel2-3   cu31924028871544_618   28   0.44835567   nodesDOCUMENT:DATE:LOCATION-edgesREFERENCES:SIMDATES:SIMLOC-date_th0.25-doc_th0.5-loc_th0.4
# 7   rel2-3   lifeofthomascarl00garn_195   29   0.4404849   nodesDOCUMENT:DATE:LOCATION-edgesREFERENCES:SIMDATES:SIMLOC-date_th0.25-doc_th0.5-loc_th0.4
# 7   rel2-3   congressionalse175offigoog_285   30   0.43957725   nodesDOCUMENT:DATE:LOCATION-edgesREFERENCES:SIMDATES:SIMLOC-date_th0.25-doc_th0.5-loc_th0.4
# 7   rel2-3   congressionalse175offigoog_286   31   0.43732363   nodesDOCUMENT:DATE:LOCATION-edgesREFERENCES:SIMDATES:SIMLOC-date_th0.25-doc_th0.5-loc_th0.4
# 7   rel2-3   gentlemansmagaz278unkngoog_599   32   0.43556434   nodesDOCUMENT:DATE:LOCATION-edgesREFERENCES:SIMDATES:SIMLOC-date_th0.25-doc_th0.5-loc_th0.4
# 7   rel2-3   cu31924021024876_26   33   0.43556434   nodesDOCUMENT:DATE:LOCATION-edgesREFERENCES:SIMDATES:SIMLOC-date_th0.25-doc_th0.5-loc_th0.4
# 7   rel2-3   illustratedflor02brit_81   34   0.4355643   nodesDOCUMENT:DATE:LOCATION-edgesREFERENCES:SIMDATES:SIMLOC-date_th0.25-doc_th0.5-loc_th0.4
# 7   rel2-3   angloamericanli00chasgoog_196   35   0.4355643   nodesDOCUMENT:DATE:LOCATION-edgesREFERENCES:SIMDATES:SIMLOC-date_th0.25-doc_th0.5-loc_th0.4
# 7   rel2-3   1832   36   0.43478027   nodesDOCUMENT:DATE:LOCATION-edgesREFERENCES:SIMDATES:SIMLOC-date_th0.25-doc_th0.5-loc_th0.4
# 7   rel2-3   cataloguescient00unkngoog_568   37   0.4346804   nodesDOCUMENT:DATE:LOCATION-edgesREFERENCES:SIMDATES:SIMLOC-date_th0.25-doc_th0.5-loc_th0.4
# 7   rel2-3   documentsassemb56assegoog_537   38   0.43449843   nodesDOCUMENT:DATE:LOCATION-edgesREFERENCES:SIMDATES:SIMLOC-date_th0.25-doc_th0.5-loc_th0.4
# 7   rel2-3   historylasalleco00bald_294   39   0.43416324   nodesDOCUMENT:DATE:LOCATION-edgesREFERENCES:SIMDATES:SIMLOC-date_th0.25-doc_th0.5-loc_th0.4
# 7   rel2-3   cu31924014512614_19   40   0.43268856   nodesDOCUMENT:DATE:LOCATION-edgesREFERENCES:SIMDATES:SIMLOC-date_th0.25-doc_th0.5-loc_th0.4
