###################################
# parameters: 
#   decay: 0.5
#   lambda: 0.5
#   norm_threshold: 0.3
#   relationships: REFERENCES:SIMDATES:SIMLOC

###################################
# configuration: 
#   sa.act_diff_ratio_limit = 0.05
#   sa.function = ciir.multi.sa.DecayedSumSAFunction(norm_function, 0.5, 0.5)
#   sa.id_property_name.DATE = dateID
#   sa.id_property_name.DOCUMENT = docID
#   sa.id_property_name.LOCATION = locID
#   sa.max_pulses = 15
#   sa.norm_function = ciir.multi.sa.SigmoidFunction(0.3, 1.0)
#   sa.relationships_to_use = REFERENCES:SIMDATES:SIMLOC
#   sa.weight_property.REFERENCES = relevance
#   sa.weight_property.SIMDATES = sim
#   sa.weight_property.SIMLOC = sim

###################################
# initial activations: 
#   generalhistoryfo00myerrich_787: 1.0
#   selwynhouseschoo1940selw_21: 1.0
#   lifeofstratfordc02laneuoft_185: 1.0
#   historyofuniteds07good_239: 1.0
#   shorthistoryofmo00haslrich_98: 1.0
#   cambridgemodern09protgoog_449: 1.0

###################################
# spreading activation process log: 
#   pulse 0: activated nodes: 6, borderline nodes: 6, overall activation: 0.000, activation diff: 0.000, ratio: Infinity
#   pulse 1: activated nodes: 69, borderline nodes: 63, overall activation: 16.366, activation diff: 16.366, ratio: 1.000
#   pulse 2: activated nodes: 7459, borderline nodes: 7390, overall activation: 311.211, activation diff: 297.316, ratio: 0.955
#   pulse 3: activated nodes: 8990, borderline nodes: 4844, overall activation: 583.333, activation diff: 273.963, ratio: 0.470
#   pulse 4: activated nodes: 10671, borderline nodes: 5876, overall activation: 1334.528, activation diff: 751.195, ratio: 0.563
#   pulse 5: activated nodes: 10909, borderline nodes: 3906, overall activation: 2022.935, activation diff: 688.407, ratio: 0.340
#   pulse 6: activated nodes: 10950, borderline nodes: 3628, overall activation: 2528.771, activation diff: 505.835, ratio: 0.200
#   pulse 7: activated nodes: 10959, borderline nodes: 3558, overall activation: 2846.666, activation diff: 317.895, ratio: 0.112
#   pulse 8: activated nodes: 10963, borderline nodes: 3539, overall activation: 3033.881, activation diff: 187.215, ratio: 0.062
#   pulse 9: activated nodes: 10967, borderline nodes: 3530, overall activation: 3141.594, activation diff: 107.713, ratio: 0.034

###################################
# spreading activation process summary: 
#   final number of activated nodes: 10967
#   final overall activation: 3141.6
#   number of spread. activ. pulses: 9
#   running time: 1500

###################################
# top k results in TREC format: 

1   Q1   historyofuniteds07good_239   1   0.9980163   REFERENCES:SIMDATES:SIMLOC
1   Q1   selwynhouseschoo1940selw_21   2   0.99761   REFERENCES:SIMDATES:SIMLOC
1   Q1   cambridgemodern09protgoog_449   3   0.99702215   REFERENCES:SIMDATES:SIMLOC
1   Q1   shorthistoryofmo00haslrich_98   4   0.9969716   REFERENCES:SIMDATES:SIMLOC
1   Q1   generalhistoryfo00myerrich_787   5   0.99330366   REFERENCES:SIMDATES:SIMLOC
1   Q1   lifeofstratfordc02laneuoft_185   6   0.9850024   REFERENCES:SIMDATES:SIMLOC
1   Q1   englishcyclopae05kniggoog_147   7   0.49799162   REFERENCES:SIMDATES:SIMLOC
1   Q1   encyclopediaame28unkngoog_327   8   0.49793726   REFERENCES:SIMDATES:SIMLOC
1   Q1   encyclopediaame28unkngoog_325   9   0.49785453   REFERENCES:SIMDATES:SIMLOC
1   Q1   europesincenapol00leveuoft_16   10   0.49780947   REFERENCES:SIMDATES:SIMLOC
1   Q1   encyclopediaame28unkngoog_323   11   0.49775186   REFERENCES:SIMDATES:SIMLOC
1   Q1   encyclopediaame28unkngoog_318   12   0.49773666   REFERENCES:SIMDATES:SIMLOC
1   Q1   englishcyclopae05kniggoog_88   13   0.4976918   REFERENCES:SIMDATES:SIMLOC
1   Q1   ouroldworldbackg00bearrich_446   14   0.49768203   REFERENCES:SIMDATES:SIMLOC
1   Q1   europesincenapol00leveuoft_17   15   0.49768007   REFERENCES:SIMDATES:SIMLOC
1   Q1   encyclopediaame28unkngoog_326   16   0.49767226   REFERENCES:SIMDATES:SIMLOC
1   Q1   encyclopediaame28unkngoog_367   17   0.4976644   REFERENCES:SIMDATES:SIMLOC
1   Q1   politicalsketche00retsrich_96   18   0.4976642   REFERENCES:SIMDATES:SIMLOC
1   Q1   shorthistoryofmo00haslrich_23   19   0.49765724   REFERENCES:SIMDATES:SIMLOC
1   Q1   politicalsketche00retsrich_154   20   0.4976446   REFERENCES:SIMDATES:SIMLOC
