###################################
# parameters: 
#   decay: 0.5
#   lambda: 0.0
#   norm_threshold: 0.3
#   relationships: REFERENCES:SIMDATES:SIMLOC

###################################
# configuration: 
#   sa.act_diff_ratio_limit = 0.05
#   sa.function = ciir.multi.sa.DecayedSumSAFunction(norm_function, 0.5, 0.0)
#   sa.id_property_name.DATE = dateID
#   sa.id_property_name.DOCUMENT = docID
#   sa.id_property_name.LOCATION = locID
#   sa.max_pulses = 15
#   sa.norm_function = ciir.multi.sa.SigmoidFunction(0.3, 1.0)
#   sa.relationships_to_use = REFERENCES:SIMDATES:SIMLOC
#   sa.weight_property.REFERENCES = relevance
#   sa.weight_property.SIMDATES = sim
#   sa.weight_property.SIMLOC = sim

###################################
# initial activations: 
#   generalhistoryfo00myerrich_787: 1.0
#   selwynhouseschoo1940selw_21: 1.0
#   lifeofstratfordc02laneuoft_185: 1.0
#   historyofuniteds07good_239: 1.0
#   shorthistoryofmo00haslrich_98: 1.0
#   cambridgemodern09protgoog_449: 1.0

###################################
# spreading activation process log: 
#   pulse 0: activated nodes: 6, borderline nodes: 6, overall activation: 0.000, activation diff: 0.000, ratio: Infinity
#   pulse 1: activated nodes: 69, borderline nodes: 63, overall activation: 26.732, activation diff: 32.732, ratio: 1.224
#   pulse 2: activated nodes: 7459, borderline nodes: 7390, overall activation: 1165.474, activation diff: 1190.042, ratio: 1.021
#   pulse 3: activated nodes: 9398, borderline nodes: 3933, overall activation: 385.089, activation diff: 1527.150, ratio: 3.966
#   pulse 4: activated nodes: 10843, borderline nodes: 4232, overall activation: 2797.926, activation diff: 2717.220, ratio: 0.971
#   pulse 5: activated nodes: 10953, borderline nodes: 3612, overall activation: 2745.063, activation diff: 785.215, ratio: 0.286
#   pulse 6: activated nodes: 10962, borderline nodes: 3544, overall activation: 3248.259, activation diff: 508.102, ratio: 0.156
#   pulse 7: activated nodes: 10967, borderline nodes: 3530, overall activation: 3273.667, activation diff: 26.207, ratio: 0.008

###################################
# spreading activation process summary: 
#   final number of activated nodes: 10967
#   final overall activation: 3273.7
#   number of spread. activ. pulses: 7
#   running time: 1165

###################################
# top k results in TREC format: 

1   Q1   historyofuniteds07good_239   1   1.0   REFERENCES:SIMDATES:SIMLOC
1   Q1   cambridgemodern09protgoog_449   2   0.99999917   REFERENCES:SIMDATES:SIMLOC
1   Q1   selwynhouseschoo1940selw_21   3   0.99999917   REFERENCES:SIMDATES:SIMLOC
1   Q1   shorthistoryofmo00haslrich_98   4   0.99995494   REFERENCES:SIMDATES:SIMLOC
1   Q1   generalhistoryfo00myerrich_787   5   0.99754024   REFERENCES:SIMDATES:SIMLOC
1   Q1   lifeofstratfordc02laneuoft_185   6   0.99333036   REFERENCES:SIMDATES:SIMLOC
1   Q1   encyclopediaame28unkngoog_545   7   0.5   REFERENCES:SIMDATES:SIMLOC
1   Q1   essentialsinmod01howegoog_473   8   0.5   REFERENCES:SIMDATES:SIMLOC
1   Q1   encyclopediaame28unkngoog_580   9   0.5   REFERENCES:SIMDATES:SIMLOC
1   Q1   englishcyclopae05kniggoog_440   10   0.5   REFERENCES:SIMDATES:SIMLOC
1   Q1   encyclopediaame28unkngoog_522   11   0.5   REFERENCES:SIMDATES:SIMLOC
1   Q1   encyclopediaame28unkngoog_516   12   0.5   REFERENCES:SIMDATES:SIMLOC
1   Q1   encyclopediaame28unkngoog_325   13   0.5   REFERENCES:SIMDATES:SIMLOC
1   Q1   encyclopediaame28unkngoog_327   14   0.5   REFERENCES:SIMDATES:SIMLOC
1   Q1   europesincenapol00leveuoft_16   15   0.5   REFERENCES:SIMDATES:SIMLOC
1   Q1   europesincenapol00leveuoft_17   16   0.5   REFERENCES:SIMDATES:SIMLOC
1   Q1   encyclopediaame28unkngoog_83   17   0.5   REFERENCES:SIMDATES:SIMLOC
1   Q1   europesincenapol00leveuoft_353   18   0.5   REFERENCES:SIMDATES:SIMLOC
1   Q1   encyclopediaame28unkngoog_488   19   0.5   REFERENCES:SIMDATES:SIMLOC
1   Q1   encyclopediaame28unkngoog_492   20   0.5   REFERENCES:SIMDATES:SIMLOC
