###################################
# parameters: 
#   decay: 0.25
#   lambda: 0.5
#   norm_threshold: 0.2
#   relationships: REFERENCES:SIMDATES:SIMLOC

###################################
# configuration: 
#   sa.act_diff_ratio_limit = 0.05
#   sa.function = ciir.multi.sa.DecayedSumSAFunction(norm_function, 0.25, 0.5)
#   sa.id_property_name.DATE = dateID
#   sa.id_property_name.DOCUMENT = docID
#   sa.id_property_name.LOCATION = locID
#   sa.max_pulses = 15
#   sa.norm_function = ciir.multi.sa.SigmoidFunction(0.2, 1.0)
#   sa.relationships_to_use = REFERENCES:SIMDATES:SIMLOC
#   sa.weight_property.REFERENCES = relevance
#   sa.weight_property.SIMDATES = sim
#   sa.weight_property.SIMLOC = sim

###################################
# initial activations: 
#   generalhistoryfo00myerrich_787: 1.0
#   selwynhouseschoo1940selw_21: 1.0
#   lifeofstratfordc02laneuoft_185: 1.0
#   historyofuniteds07good_239: 1.0
#   shorthistoryofmo00haslrich_98: 1.0
#   cambridgemodern09protgoog_449: 1.0

###################################
# spreading activation process log: 
#   pulse 0: activated nodes: 6, borderline nodes: 6, overall activation: 0.000, activation diff: 0.000, ratio: Infinity
#   pulse 1: activated nodes: 69, borderline nodes: 63, overall activation: 17.583, activation diff: 17.583, ratio: 1.000
#   pulse 2: activated nodes: 7459, borderline nodes: 7390, overall activation: 553.935, activation diff: 537.682, ratio: 0.971
#   pulse 3: activated nodes: 9188, borderline nodes: 4940, overall activation: 1158.855, activation diff: 604.920, ratio: 0.522
#   pulse 4: activated nodes: 11315, borderline nodes: 4982, overall activation: 2846.951, activation diff: 1688.096, ratio: 0.593
#   pulse 5: activated nodes: 11415, borderline nodes: 767, overall activation: 4235.100, activation diff: 1388.148, ratio: 0.328
#   pulse 6: activated nodes: 11436, borderline nodes: 302, overall activation: 5116.003, activation diff: 880.903, ratio: 0.172
#   pulse 7: activated nodes: 11453, borderline nodes: 144, overall activation: 5632.732, activation diff: 516.730, ratio: 0.092
#   pulse 8: activated nodes: 11454, borderline nodes: 91, overall activation: 5927.170, activation diff: 294.438, ratio: 0.050

###################################
# spreading activation process summary: 
#   final number of activated nodes: 11454
#   final overall activation: 5927.2
#   number of spread. activ. pulses: 8
#   running time: 1422

###################################
# top k results in TREC format: 

1   Q1   historyofuniteds07good_239   1   0.9960693   REFERENCES:SIMDATES:SIMLOC
1   Q1   selwynhouseschoo1940selw_21   2   0.9955385   REFERENCES:SIMDATES:SIMLOC
1   Q1   cambridgemodern09protgoog_449   3   0.9948503   REFERENCES:SIMDATES:SIMLOC
1   Q1   shorthistoryofmo00haslrich_98   4   0.99459565   REFERENCES:SIMDATES:SIMLOC
1   Q1   generalhistoryfo00myerrich_787   5   0.9903077   REFERENCES:SIMDATES:SIMLOC
1   Q1   lifeofstratfordc02laneuoft_185   6   0.98038447   REFERENCES:SIMDATES:SIMLOC
1   Q1   englishcyclopae05kniggoog_147   7   0.7440524   REFERENCES:SIMDATES:SIMLOC
1   Q1   encyclopediaame28unkngoog_327   8   0.743927   REFERENCES:SIMDATES:SIMLOC
1   Q1   encyclopediaame28unkngoog_325   9   0.74378574   REFERENCES:SIMDATES:SIMLOC
1   Q1   europesincenapol00leveuoft_16   10   0.7437271   REFERENCES:SIMDATES:SIMLOC
1   Q1   encyclopediaame28unkngoog_323   11   0.74352694   REFERENCES:SIMDATES:SIMLOC
1   Q1   englishcyclopae05kniggoog_88   12   0.74351394   REFERENCES:SIMDATES:SIMLOC
1   Q1   encyclopediaame28unkngoog_318   13   0.7434855   REFERENCES:SIMDATES:SIMLOC
1   Q1   encyclopediaame28unkngoog_367   14   0.7434217   REFERENCES:SIMDATES:SIMLOC
1   Q1   europesincenapol00leveuoft_17   15   0.74339473   REFERENCES:SIMDATES:SIMLOC
1   Q1   politicalsketche00retsrich_96   16   0.7433691   REFERENCES:SIMDATES:SIMLOC
1   Q1   encyclopediaame28unkngoog_326   17   0.7433603   REFERENCES:SIMDATES:SIMLOC
1   Q1   ouroldworldbackg00bearrich_446   18   0.7433564   REFERENCES:SIMDATES:SIMLOC
1   Q1   shorthistoryofmo00haslrich_23   19   0.7433289   REFERENCES:SIMDATES:SIMLOC
1   Q1   politicalsketche00retsrich_154   20   0.74328786   REFERENCES:SIMDATES:SIMLOC
