###################################
# parameters: 
#   decay: 0.5
#   lambda: 0.0
#   norm_threshold: 0.1
#   relationships: REFERENCES:SIMDATES:SIMLOC

###################################
# configuration: 
#   sa.act_diff_ratio_limit = 0.05
#   sa.function = ciir.multi.sa.DecayedSumSAFunction(norm_function, 0.5, 0.0)
#   sa.id_property_name.DATE = dateID
#   sa.id_property_name.DOCUMENT = docID
#   sa.id_property_name.LOCATION = locID
#   sa.max_pulses = 15
#   sa.norm_function = ciir.multi.sa.SigmoidFunction(0.1, 1.0)
#   sa.relationships_to_use = REFERENCES:SIMDATES:SIMLOC
#   sa.weight_property.REFERENCES = relevance
#   sa.weight_property.SIMDATES = sim
#   sa.weight_property.SIMLOC = sim

###################################
# initial activations: 
#   generalhistoryfo00myerrich_787: 1.0
#   selwynhouseschoo1940selw_21: 1.0
#   lifeofstratfordc02laneuoft_185: 1.0
#   historyofuniteds07good_239: 1.0
#   shorthistoryofmo00haslrich_98: 1.0
#   cambridgemodern09protgoog_449: 1.0

###################################
# spreading activation process log: 
#   pulse 0: activated nodes: 6, borderline nodes: 6, overall activation: 0.000, activation diff: 0.000, ratio: Infinity
#   pulse 1: activated nodes: 69, borderline nodes: 63, overall activation: 31.499, activation diff: 37.499, ratio: 1.190
#   pulse 2: activated nodes: 7459, borderline nodes: 7390, overall activation: 1472.868, activation diff: 1498.220, ratio: 1.017
#   pulse 3: activated nodes: 9963, borderline nodes: 3894, overall activation: 660.396, activation diff: 1846.348, ratio: 2.796
#   pulse 4: activated nodes: 10924, borderline nodes: 3692, overall activation: 3115.066, activation diff: 2577.253, ratio: 0.827
#   pulse 5: activated nodes: 10968, borderline nodes: 3527, overall activation: 3287.805, activation diff: 218.595, ratio: 0.066
#   pulse 6: activated nodes: 10969, borderline nodes: 3522, overall activation: 3347.207, activation diff: 59.508, ratio: 0.018

###################################
# spreading activation process summary: 
#   final number of activated nodes: 10969
#   final overall activation: 3347.2
#   number of spread. activ. pulses: 6
#   running time: 1252

###################################
# top k results in TREC format: 

1   Q1   historyofuniteds07good_239   1   1.0   REFERENCES:SIMDATES:SIMLOC
1   Q1   cambridgemodern09protgoog_449   2   0.99999934   REFERENCES:SIMDATES:SIMLOC
1   Q1   selwynhouseschoo1940selw_21   3   0.99999934   REFERENCES:SIMDATES:SIMLOC
1   Q1   shorthistoryofmo00haslrich_98   4   0.9999631   REFERENCES:SIMDATES:SIMLOC
1   Q1   generalhistoryfo00myerrich_787   5   0.9979861   REFERENCES:SIMDATES:SIMLOC
1   Q1   lifeofstratfordc02laneuoft_185   6   0.9945361   REFERENCES:SIMDATES:SIMLOC
1   Q1   encyclopediaame28unkngoog_545   7   0.5   REFERENCES:SIMDATES:SIMLOC
1   Q1   essentialsinmod01howegoog_473   8   0.5   REFERENCES:SIMDATES:SIMLOC
1   Q1   encyclopediaame28unkngoog_580   9   0.5   REFERENCES:SIMDATES:SIMLOC
1   Q1   englishcyclopae05kniggoog_440   10   0.5   REFERENCES:SIMDATES:SIMLOC
1   Q1   encyclopediaame28unkngoog_522   11   0.5   REFERENCES:SIMDATES:SIMLOC
1   Q1   encyclopediaame28unkngoog_516   12   0.5   REFERENCES:SIMDATES:SIMLOC
1   Q1   encyclopediaame28unkngoog_325   13   0.5   REFERENCES:SIMDATES:SIMLOC
1   Q1   encyclopediaame28unkngoog_327   14   0.5   REFERENCES:SIMDATES:SIMLOC
1   Q1   europesincenapol00leveuoft_16   15   0.5   REFERENCES:SIMDATES:SIMLOC
1   Q1   europesincenapol00leveuoft_17   16   0.5   REFERENCES:SIMDATES:SIMLOC
1   Q1   encyclopediaame28unkngoog_83   17   0.5   REFERENCES:SIMDATES:SIMLOC
1   Q1   europesincenapol00leveuoft_353   18   0.5   REFERENCES:SIMDATES:SIMLOC
1   Q1   cambridgemodern09protgoog_873   19   0.5   REFERENCES:SIMDATES:SIMLOC
1   Q1   encyclopediaame28unkngoog_488   20   0.5   REFERENCES:SIMDATES:SIMLOC
