###################################
# parameters: 
#   decay: 0.2
#   lambda: 0.5
#   norm_threshold: 0.1
#   relationships: REFERENCES:SIMDATES:SIMLOC

###################################
# configuration: 
#   sa.act_diff_ratio_limit = 0.05
#   sa.function = ciir.multi.sa.DecayedSumSAFunction(norm_function, 0.2, 0.5)
#   sa.id_property_name.DATE = dateID
#   sa.id_property_name.DOCUMENT = docID
#   sa.id_property_name.LOCATION = locID
#   sa.max_pulses = 15
#   sa.norm_function = ciir.multi.sa.SigmoidFunction(0.1, 1.0)
#   sa.relationships_to_use = REFERENCES:SIMDATES:SIMLOC
#   sa.weight_property.REFERENCES = relevance
#   sa.weight_property.SIMDATES = sim
#   sa.weight_property.SIMLOC = sim

###################################
# initial activations: 
#   generalhistoryfo00myerrich_787: 1.0
#   selwynhouseschoo1940selw_21: 1.0
#   lifeofstratfordc02laneuoft_185: 1.0
#   historyofuniteds07good_239: 1.0
#   shorthistoryofmo00haslrich_98: 1.0
#   cambridgemodern09protgoog_449: 1.0

###################################
# spreading activation process log: 
#   pulse 0: activated nodes: 6, borderline nodes: 6, overall activation: 0.000, activation diff: 0.000, ratio: Infinity
#   pulse 1: activated nodes: 69, borderline nodes: 63, overall activation: 18.750, activation diff: 18.750, ratio: 1.000
#   pulse 2: activated nodes: 7459, borderline nodes: 7390, overall activation: 715.285, activation diff: 696.901, ratio: 0.974
#   pulse 3: activated nodes: 9582, borderline nodes: 3878, overall activation: 1555.692, activation diff: 840.407, ratio: 0.540
#   pulse 4: activated nodes: 11355, borderline nodes: 3071, overall activation: 3550.532, activation diff: 1994.840, ratio: 0.562
#   pulse 5: activated nodes: 11433, borderline nodes: 362, overall activation: 5054.558, activation diff: 1504.026, ratio: 0.298
#   pulse 6: activated nodes: 11453, borderline nodes: 96, overall activation: 5974.886, activation diff: 920.327, ratio: 0.154
#   pulse 7: activated nodes: 11456, borderline nodes: 52, overall activation: 6506.084, activation diff: 531.198, ratio: 0.082
#   pulse 8: activated nodes: 11459, borderline nodes: 33, overall activation: 6805.912, activation diff: 299.828, ratio: 0.044

###################################
# spreading activation process summary: 
#   final number of activated nodes: 11459
#   final overall activation: 6805.9
#   number of spread. activ. pulses: 8
#   running time: 1262

###################################
# top k results in TREC format: 

1   Q1   historyofuniteds07good_239   1   0.99608326   REFERENCES:SIMDATES:SIMLOC
1   Q1   selwynhouseschoo1940selw_21   2   0.9957316   REFERENCES:SIMDATES:SIMLOC
1   Q1   cambridgemodern09protgoog_449   3   0.9953252   REFERENCES:SIMDATES:SIMLOC
1   Q1   shorthistoryofmo00haslrich_98   4   0.99500245   REFERENCES:SIMDATES:SIMLOC
1   Q1   generalhistoryfo00myerrich_787   5   0.99113476   REFERENCES:SIMDATES:SIMLOC
1   Q1   lifeofstratfordc02laneuoft_185   6   0.9827225   REFERENCES:SIMDATES:SIMLOC
1   Q1   englishcyclopae05kniggoog_147   7   0.7936989   REFERENCES:SIMDATES:SIMLOC
1   Q1   encyclopediaame28unkngoog_327   8   0.7935989   REFERENCES:SIMDATES:SIMLOC
1   Q1   encyclopediaame28unkngoog_325   9   0.7935127   REFERENCES:SIMDATES:SIMLOC
1   Q1   europesincenapol00leveuoft_16   10   0.793491   REFERENCES:SIMDATES:SIMLOC
1   Q1   englishcyclopae05kniggoog_88   11   0.79335177   REFERENCES:SIMDATES:SIMLOC
1   Q1   encyclopediaame28unkngoog_323   12   0.7932879   REFERENCES:SIMDATES:SIMLOC
1   Q1   encyclopediaame28unkngoog_367   13   0.7932659   REFERENCES:SIMDATES:SIMLOC
1   Q1   encyclopediaame28unkngoog_318   14   0.79325247   REFERENCES:SIMDATES:SIMLOC
1   Q1   europesincenapol00leveuoft_17   15   0.7931982   REFERENCES:SIMDATES:SIMLOC
1   Q1   politicalsketche00retsrich_96   16   0.7931885   REFERENCES:SIMDATES:SIMLOC
1   Q1   encyclopediaame28unkngoog_326   17   0.7931596   REFERENCES:SIMDATES:SIMLOC
1   Q1   essentialsinmod01howegoog_474   18   0.793152   REFERENCES:SIMDATES:SIMLOC
1   Q1   ouroldworldbackg00bearrich_446   19   0.7931341   REFERENCES:SIMDATES:SIMLOC
1   Q1   shorthistoryofmo00haslrich_23   20   0.79313374   REFERENCES:SIMDATES:SIMLOC
