relationships,lambda,decay,norm_threshold,number of spread. activ. pulses,final number of activated nodes,final overall activation,running time,run-id,map,P10,P20,
,,,,,,,,22books/eyor-mini-no_cats.res,0.126,0.600,0.400,
REFERENCES:SIMDATES:SIMLOC,0.25,0.1,0.1,6,11461,9041.4,1376,22books-10loc/output-rf10-prf100-europe//query1-runREFERENCES:SIMDATES:SIMLOC/iterQ1-decay0.1-lambda0.25-norm_threshold0.1.res,0.211,0.500,0.350,
REFERENCES:SIMDATES:SIMLOC,0.25,0.1,0,6,11464,9166.0,2071,22books-10loc/output-rf10-prf100-europe//query1-runREFERENCES:SIMDATES:SIMLOC/iterQ1-decay0.1-lambda0.25-norm_threshold0.res,0.225,0.500,0.400,
REFERENCES:SIMDATES:SIMLOC,0.5,0.1,0.1,8,11461,8840.7,1214,22books-10loc/output-rf10-prf100-europe//query1-runREFERENCES:SIMDATES:SIMLOC/iterQ1-decay0.1-lambda0.5-norm_threshold0.1.res,0.254,0.500,0.500,
REFERENCES:SIMDATES:SIMLOC,0.5,0.1,0,7,11464,8753.5,1190,22books-10loc/output-rf10-prf100-europe//query1-runREFERENCES:SIMDATES:SIMLOC/iterQ1-decay0.1-lambda0.5-norm_threshold0.res,0.271,0.600,0.500,
REFERENCES:SIMDATES:SIMLOC,0.25,0.2,0.1,6,11460,7918.5,1346,22books-10loc/output-rf10-prf100-europe//query1-runREFERENCES:SIMDATES:SIMLOC/iterQ1-decay0.2-lambda0.25-norm_threshold0.1.res,0.211,0.500,0.350,
REFERENCES:SIMDATES:SIMLOC,0.25,0.2,0,6,11464,8050.1,1224,22books-10loc/output-rf10-prf100-europe//query1-runREFERENCES:SIMDATES:SIMLOC/iterQ1-decay0.2-lambda0.25-norm_threshold0.res,0.225,0.500,0.400,
REFERENCES:SIMDATES:SIMLOC,0.5,0.2,0.1,8,11460,7736.5,1270,22books-10loc/output-rf10-prf100-europe//query1-runREFERENCES:SIMDATES:SIMLOC/iterQ1-decay0.2-lambda0.5-norm_threshold0.1.res,0.254,0.500,0.500,
REFERENCES:SIMDATES:SIMLOC,0.5,0.2,0,7,11464,7688.2,1187,22books-10loc/output-rf10-prf100-europe//query1-runREFERENCES:SIMDATES:SIMLOC/iterQ1-decay0.2-lambda0.5-norm_threshold0.res,0.273,0.600,0.500,
REFERENCES:SIMDATES:SIMLOC,0.25,0.25,0.1,6,11460,7373.1,1219,22books-10loc/output-rf10-prf100-europe//query1-runREFERENCES:SIMDATES:SIMLOC/iterQ1-decay0.25-lambda0.25-norm_threshold0.1.res,0.211,0.500,0.350,
REFERENCES:SIMDATES:SIMLOC,0.25,0.25,0,6,11464,7506.8,1213,22books-10loc/output-rf10-prf100-europe//query1-runREFERENCES:SIMDATES:SIMLOC/iterQ1-decay0.25-lambda0.25-norm_threshold0.res,0.225,0.500,0.400,
REFERENCES:SIMDATES:SIMLOC,0.5,0.25,0.1,8,11460,7205.9,1214,22books-10loc/output-rf10-prf100-europe//query1-runREFERENCES:SIMDATES:SIMLOC/iterQ1-decay0.25-lambda0.5-norm_threshold0.1.res,0.254,0.500,0.500,
REFERENCES:SIMDATES:SIMLOC,0.5,0.25,0,7,11464,7166.1,1191,22books-10loc/output-rf10-prf100-europe//query1-runREFERENCES:SIMDATES:SIMLOC/iterQ1-decay0.25-lambda0.5-norm_threshold0.res,0.269,0.600,0.500,

Sig-Test:,randomized,,threshold,set,to,0.050000
