relationships,lambda,decay,norm_threshold,number of spread. activ. pulses,final number of activated nodes,final overall activation,running time,run-id,map,P10,P20,
,,,,,,,,22books/eyor-mini-no_cats.res,0.159,0.600,0.400,
REFERENCES:SIMLOC,0.0,0.1,0.1,10,11448,7471.4,2501,22books/output-log//query1-runREFERENCES:SIMLOC/iterQ1-decay0.1-lambda0.0-norm_threshold0.1.res,0.286,0.600,0.350,
REFERENCES:SIMLOC,0.0,0.1,0.2,13,11437,7018.1,1616,22books/output-log//query1-runREFERENCES:SIMLOC/iterQ1-decay0.1-lambda0.0-norm_threshold0.2.res,0.243,0.600,0.300,
REFERENCES:SIMLOC,0.0,0.1,0.3,15,3967,0.0,515,22books/output-log//query1-runREFERENCES:SIMLOC/iterQ1-decay0.1-lambda0.0-norm_threshold0.3.res,0.000,0.000,0.000,
REFERENCES:SIMLOC,0.25,0.1,0.1,10,11445,7230.5,1463,22books/output-log//query1-runREFERENCES:SIMLOC/iterQ1-decay0.1-lambda0.25-norm_threshold0.1.res,0.255,0.600,0.300,
REFERENCES:SIMLOC,0.25,0.1,0.2,15,4905,0.0,713,22books/output-log//query1-runREFERENCES:SIMLOC/iterQ1-decay0.1-lambda0.25-norm_threshold0.2.res,0.174,0.400,0.200,
REFERENCES:SIMLOC,0.25,0.1,0.3,15,3967,0.0,516,22books/output-log//query1-runREFERENCES:SIMLOC/iterQ1-decay0.1-lambda0.25-norm_threshold0.3.res,0.261,0.600,0.300,
REFERENCES:SIMLOC,0.25,0.1,0,9,11457,7694.7,1366,22books/output-log//query1-runREFERENCES:SIMLOC/iterQ1-decay0.1-lambda0.25-norm_threshold0.res,0.276,0.600,0.350,
REFERENCES:SIMLOC,0.5,0.1,0.1,13,11443,6953.8,1482,22books/output-log//query1-runREFERENCES:SIMLOC/iterQ1-decay0.1-lambda0.5-norm_threshold0.1.res,0.321,0.600,0.450,
REFERENCES:SIMLOC,0.5,0.1,0.2,15,4730,0.0,690,22books/output-log//query1-runREFERENCES:SIMLOC/iterQ1-decay0.1-lambda0.5-norm_threshold0.2.res,0.261,0.600,0.300,
REFERENCES:SIMLOC,0.5,0.1,0.3,15,3967,0.0,506,22books/output-log//query1-runREFERENCES:SIMLOC/iterQ1-decay0.1-lambda0.5-norm_threshold0.3.res,0.261,0.600,0.300,
REFERENCES:SIMLOC,0.5,0.1,0,11,11457,7370.6,1401,22books/output-log//query1-runREFERENCES:SIMLOC/iterQ1-decay0.1-lambda0.5-norm_threshold0.res,0.293,0.600,0.400,
REFERENCES:SIMLOC,0.75,0.1,0.1,15,11403,3110.4,1543,22books/output-log//query1-runREFERENCES:SIMLOC/iterQ1-decay0.1-lambda0.75-norm_threshold0.1.res,0.186,0.400,0.350,
REFERENCES:SIMLOC,0.75,0.1,0.2,15,4730,0.1,624,22books/output-log//query1-runREFERENCES:SIMLOC/iterQ1-decay0.1-lambda0.75-norm_threshold0.2.res,0.261,0.600,0.300,
REFERENCES:SIMLOC,0.75,0.1,0.3,15,3967,0.1,510,22books/output-log//query1-runREFERENCES:SIMLOC/iterQ1-decay0.1-lambda0.75-norm_threshold0.3.res,0.261,0.600,0.300,
REFERENCES:SIMLOC,0.75,0.1,0,15,11457,6128.8,1561,22books/output-log//query1-runREFERENCES:SIMLOC/iterQ1-decay0.1-lambda0.75-norm_threshold0.res,0.332,0.600,0.500,
REFERENCES:SIMLOC,0.0,0.2,0.1,11,11441,5898.0,1611,22books/output-log//query1-runREFERENCES:SIMLOC/iterQ1-decay0.2-lambda0.0-norm_threshold0.1.res,0.289,0.600,0.350,
REFERENCES:SIMLOC,0.0,0.2,0.2,14,11425,5208.3,1579,22books/output-log//query1-runREFERENCES:SIMLOC/iterQ1-decay0.2-lambda0.0-norm_threshold0.2.res,0.295,0.700,0.350,
REFERENCES:SIMLOC,0.0,0.2,0.3,15,3967,0.0,482,22books/output-log//query1-runREFERENCES:SIMLOC/iterQ1-decay0.2-lambda0.0-norm_threshold0.3.res,0.000,0.000,0.000,
REFERENCES:SIMLOC,0.0,0.2,0,9,11457,6299.0,1427,22books/output-log//query1-runREFERENCES:SIMLOC/iterQ1-decay0.2-lambda0.0-norm_threshold0.res,0.289,0.600,0.350,
REFERENCES:SIMLOC,0.25,0.2,0.1,11,11439,5768.9,1499,22books/output-log//query1-runREFERENCES:SIMLOC/iterQ1-decay0.2-lambda0.25-norm_threshold0.1.res,0.291,0.700,0.350,
REFERENCES:SIMLOC,0.25,0.2,0.2,15,4905,0.0,755,22books/output-log//query1-runREFERENCES:SIMLOC/iterQ1-decay0.2-lambda0.25-norm_threshold0.2.res,0.261,0.600,0.300,
REFERENCES:SIMLOC,0.25,0.2,0.3,15,3967,0.0,494,22books/output-log//query1-runREFERENCES:SIMLOC/iterQ1-decay0.2-lambda0.25-norm_threshold0.3.res,0.261,0.600,0.300,
REFERENCES:SIMLOC,0.25,0.2,0,9,11457,6136.4,1444,22books/output-log//query1-runREFERENCES:SIMLOC/iterQ1-decay0.2-lambda0.25-norm_threshold0.res,0.299,0.600,0.400,
REFERENCES:SIMLOC,0.5,0.2,0.1,14,11438,5573.4,1566,22books/output-log//query1-runREFERENCES:SIMLOC/iterQ1-decay0.2-lambda0.5-norm_threshold0.1.res,0.343,0.700,0.450,
REFERENCES:SIMLOC,0.5,0.2,0.2,15,4730,0.0,633,22books/output-log//query1-runREFERENCES:SIMLOC/iterQ1-decay0.2-lambda0.5-norm_threshold0.2.res,0.261,0.600,0.300,
REFERENCES:SIMLOC,0.5,0.2,0.3,15,3967,0.0,503,22books/output-log//query1-runREFERENCES:SIMLOC/iterQ1-decay0.2-lambda0.5-norm_threshold0.3.res,0.261,0.600,0.300,
REFERENCES:SIMLOC,0.5,0.2,0,11,11457,5843.9,1466,22books/output-log//query1-runREFERENCES:SIMLOC/iterQ1-decay0.2-lambda0.5-norm_threshold0.res,0.348,0.700,0.450,
REFERENCES:SIMLOC,0.75,0.2,0.1,15,11357,2240.8,1532,22books/output-log//query1-runREFERENCES:SIMLOC/iterQ1-decay0.2-lambda0.75-norm_threshold0.1.res,0.285,0.500,0.400,
REFERENCES:SIMLOC,0.75,0.2,0.2,15,4730,0.1,703,22books/output-log//query1-runREFERENCES:SIMLOC/iterQ1-decay0.2-lambda0.75-norm_threshold0.2.res,0.261,0.600,0.300,
REFERENCES:SIMLOC,0.75,0.2,0.3,15,3967,0.1,504,22books/output-log//query1-runREFERENCES:SIMLOC/iterQ1-decay0.2-lambda0.75-norm_threshold0.3.res,0.261,0.600,0.300,
REFERENCES:SIMLOC,0.75,0.2,0,15,11457,4772.2,1580,22books/output-log//query1-runREFERENCES:SIMLOC/iterQ1-decay0.2-lambda0.75-norm_threshold0.res,0.391,0.800,0.500,
REFERENCES:SIMLOC,0.0,0.25,0.1,11,11427,5120.9,1507,22books/output-log//query1-runREFERENCES:SIMLOC/iterQ1-decay0.25-lambda0.0-norm_threshold0.1.res,0.289,0.600,0.350,
REFERENCES:SIMLOC,0.0,0.25,0.2,15,11419,4367.5,1617,22books/output-log//query1-runREFERENCES:SIMLOC/iterQ1-decay0.25-lambda0.0-norm_threshold0.2.res,0.313,0.700,0.400,
REFERENCES:SIMLOC,0.0,0.25,0.3,15,3967,0.0,509,22books/output-log//query1-runREFERENCES:SIMLOC/iterQ1-decay0.25-lambda0.0-norm_threshold0.3.res,0.000,0.000,0.000,
REFERENCES:SIMLOC,0.0,0.25,0,9,11455,5549.2,1423,22books/output-log//query1-runREFERENCES:SIMLOC/iterQ1-decay0.25-lambda0.0-norm_threshold0.res,0.289,0.600,0.350,
REFERENCES:SIMLOC,0.25,0.25,0.1,11,11424,4998.0,1485,22books/output-log//query1-runREFERENCES:SIMLOC/iterQ1-decay0.25-lambda0.25-norm_threshold0.1.res,0.289,0.600,0.350,
REFERENCES:SIMLOC,0.25,0.25,0.2,15,4905,0.0,759,22books/output-log//query1-runREFERENCES:SIMLOC/iterQ1-decay0.25-lambda0.25-norm_threshold0.2.res,0.261,0.600,0.300,
REFERENCES:SIMLOC,0.25,0.25,0.3,15,3967,0.0,489,22books/output-log//query1-runREFERENCES:SIMLOC/iterQ1-decay0.25-lambda0.25-norm_threshold0.3.res,0.261,0.600,0.300,
REFERENCES:SIMLOC,0.25,0.25,0,9,11455,5390.5,1453,22books/output-log//query1-runREFERENCES:SIMLOC/iterQ1-decay0.25-lambda0.25-norm_threshold0.res,0.307,0.600,0.400,
REFERENCES:SIMLOC,0.5,0.25,0.1,14,11432,4818.0,1535,22books/output-log//query1-runREFERENCES:SIMLOC/iterQ1-decay0.25-lambda0.5-norm_threshold0.1.res,0.347,0.700,0.450,
REFERENCES:SIMLOC,0.5,0.25,0.2,15,4730,0.0,640,22books/output-log//query1-runREFERENCES:SIMLOC/iterQ1-decay0.25-lambda0.5-norm_threshold0.2.res,0.261,0.600,0.300,
REFERENCES:SIMLOC,0.5,0.25,0.3,15,3967,0.0,511,22books/output-log//query1-runREFERENCES:SIMLOC/iterQ1-decay0.25-lambda0.5-norm_threshold0.3.res,0.261,0.600,0.300,
REFERENCES:SIMLOC,0.5,0.25,0,11,11455,5117.3,1441,22books/output-log//query1-runREFERENCES:SIMLOC/iterQ1-decay0.25-lambda0.5-norm_threshold0.res,0.355,0.700,0.450,
REFERENCES:SIMLOC,0.75,0.25,0.1,15,11335,1875.1,1505,22books/output-log//query1-runREFERENCES:SIMLOC/iterQ1-decay0.25-lambda0.75-norm_threshold0.1.res,0.285,0.500,0.400,
REFERENCES:SIMLOC,0.75,0.25,0.2,15,4730,0.1,688,22books/output-log//query1-runREFERENCES:SIMLOC/iterQ1-decay0.25-lambda0.75-norm_threshold0.2.res,0.261,0.600,0.300,
REFERENCES:SIMLOC,0.75,0.25,0.3,15,3967,0.1,516,22books/output-log//query1-runREFERENCES:SIMLOC/iterQ1-decay0.25-lambda0.75-norm_threshold0.3.res,0.261,0.600,0.300,
REFERENCES:SIMLOC,0.75,0.25,0,15,11455,4139.6,1642,22books/output-log//query1-runREFERENCES:SIMLOC/iterQ1-decay0.25-lambda0.75-norm_threshold0.res,0.426,0.900,0.550,
REFERENCES:SIMLOC,0.0,0.5,0.1,13,10871,2137.3,1562,22books/output-log//query1-runREFERENCES:SIMLOC/iterQ1-decay0.5-lambda0.0-norm_threshold0.1.res,0.419,0.700,0.550,
REFERENCES:SIMLOC,0.0,0.5,0.2,15,10405,156.3,1509,22books/output-log//query1-runREFERENCES:SIMLOC/iterQ1-decay0.5-lambda0.0-norm_threshold0.2.res,0.000,0.000,0.000,
REFERENCES:SIMLOC,0.0,0.5,0.3,15,3967,0.0,513,22books/output-log//query1-runREFERENCES:SIMLOC/iterQ1-decay0.5-lambda0.0-norm_threshold0.3.res,0.000,0.000,0.000,
REFERENCES:SIMLOC,0.0,0.5,0,9,10899,2304.1,1375,22books/output-log//query1-runREFERENCES:SIMLOC/iterQ1-decay0.5-lambda0.0-norm_threshold0.res,0.417,0.700,0.550,
REFERENCES:SIMLOC,0.25,0.5,0.1,11,10867,2052.5,1465,22books/output-log//query1-runREFERENCES:SIMLOC/iterQ1-decay0.5-lambda0.25-norm_threshold0.1.res,0.422,0.700,0.550,
REFERENCES:SIMLOC,0.25,0.5,0.2,15,4905,0.0,687,22books/output-log//query1-runREFERENCES:SIMLOC/iterQ1-decay0.5-lambda0.25-norm_threshold0.2.res,0.261,0.600,0.300,
REFERENCES:SIMLOC,0.25,0.5,0.3,15,3967,0.0,508,22books/output-log//query1-runREFERENCES:SIMLOC/iterQ1-decay0.5-lambda0.25-norm_threshold0.3.res,0.261,0.600,0.300,
REFERENCES:SIMLOC,0.25,0.5,0,9,10899,2233.3,1398,22books/output-log//query1-runREFERENCES:SIMLOC/iterQ1-decay0.5-lambda0.25-norm_threshold0.res,0.417,0.700,0.550,
REFERENCES:SIMLOC,0.5,0.5,0.1,14,10860,1929.3,1495,22books/output-log//query1-runREFERENCES:SIMLOC/iterQ1-decay0.5-lambda0.5-norm_threshold0.1.res,0.429,0.800,0.550,
REFERENCES:SIMLOC,0.5,0.5,0.2,15,4730,0.0,679,22books/output-log//query1-runREFERENCES:SIMLOC/iterQ1-decay0.5-lambda0.5-norm_threshold0.2.res,0.261,0.600,0.300,
REFERENCES:SIMLOC,0.5,0.5,0.3,15,3967,0.0,599,22books/output-log//query1-runREFERENCES:SIMLOC/iterQ1-decay0.5-lambda0.5-norm_threshold0.3.res,0.261,0.600,0.300,
REFERENCES:SIMLOC,0.5,0.5,0,11,10899,2102.4,1443,22books/output-log//query1-runREFERENCES:SIMLOC/iterQ1-decay0.5-lambda0.5-norm_threshold0.res,0.426,0.800,0.550,
REFERENCES:SIMLOC,0.75,0.5,0.1,15,10596,646.6,1559,22books/output-log//query1-runREFERENCES:SIMLOC/iterQ1-decay0.5-lambda0.75-norm_threshold0.1.res,0.194,0.400,0.250,
REFERENCES:SIMLOC,0.75,0.5,0.2,15,4730,0.1,695,22books/output-log//query1-runREFERENCES:SIMLOC/iterQ1-decay0.5-lambda0.75-norm_threshold0.2.res,0.261,0.600,0.300,
REFERENCES:SIMLOC,0.75,0.5,0.3,15,3967,0.1,514,22books/output-log//query1-runREFERENCES:SIMLOC/iterQ1-decay0.5-lambda0.75-norm_threshold0.3.res,0.261,0.600,0.300,
REFERENCES:SIMLOC,0.75,0.5,0,15,10899,1668.7,1611,22books/output-log//query1-runREFERENCES:SIMLOC/iterQ1-decay0.5-lambda0.75-norm_threshold0.res,0.399,0.800,0.500,

Sig-Test:,randomized,,threshold,set,to,0.050000
