nodestouse,relationships,doc_th,date_th,loc_th,iter,seeds,number of spread. activ. pulses,final number of activated nodes,final overall activation,running time,run-id,map,P5,P10,P20,R-prec,
DOCUMENT:DATE:LOCATION,REFERENCES:SIMPAGE,0.6,0.3,0.4,rel1-1-date_th0,1,2,7,2.8,23120,book_collection_true_dates/date/query6//useDOCUMENT:DATE:LOCATIONuseREFERENCES:SIMPAGE/rel1-1-date_th0.3-doc_th0.6-loc_th0.4.res.clean,0.000,0.000,0.000,0.000,0.000,
DOCUMENT:DATE:LOCATION,REFERENCES:SIMPAGE,0.7,0.25,0.4,rel1-2,1,2,13,3.7,27019,book_collection_true_dates/date/query6//useDOCUMENT:DATE:LOCATIONuseREFERENCES:SIMPAGE/rel1-2-date_th0.25-doc_th0.7-loc_th0.4.res.clean,0.167,0.200,0.100,0.100,0.000,
DOCUMENT:DATE:LOCATION,REFERENCES:SIMPAGE,0.5,0.25,0.35,rel1-1-date_th0,1,2,7,2.8,37160,book_collection_true_dates/date/query6//useDOCUMENT:DATE:LOCATIONuseREFERENCES:SIMPAGE/rel1-1-date_th0.25-doc_th0.5-loc_th0.35.res.clean,0.000,0.000,0.000,0.000,0.000,
DOCUMENT:DATE:LOCATION,REFERENCES:SIMPAGE,0.7,0.25,0.35,rel2-1,2,3,829922,112266.7,144698,book_collection_true_dates/date/query6//useDOCUMENT:DATE:LOCATIONuseREFERENCES:SIMPAGE/rel2-1-date_th0.25-doc_th0.7-loc_th0.35.res.clean,0.167,0.200,0.100,0.100,0.000,
DOCUMENT:DATE:LOCATION,REFERENCES:SIMPAGE,0.7,0.3,0.35,rel1-1-date_th0,1,2,7,2.8,23949,book_collection_true_dates/date/query6//useDOCUMENT:DATE:LOCATIONuseREFERENCES:SIMPAGE/rel1-1-date_th0.3-doc_th0.7-loc_th0.35.res.clean,0.000,0.000,0.000,0.000,0.000,
DOCUMENT:DATE:LOCATION,REFERENCES:SIMPAGE,0.6,0.25,0.35,rel1-1-date_th0,1,2,7,2.8,23800,book_collection_true_dates/date/query6//useDOCUMENT:DATE:LOCATIONuseREFERENCES:SIMPAGE/rel1-1-date_th0.25-doc_th0.6-loc_th0.35.res.clean,0.000,0.000,0.000,0.000,0.000,
DOCUMENT:DATE:LOCATION,REFERENCES:SIMPAGE,0.5,0.25,0.4,rel1-1-date_th0,1,2,7,2.8,23741,book_collection_true_dates/date/query6//useDOCUMENT:DATE:LOCATIONuseREFERENCES:SIMPAGE/rel1-1-date_th0.25-doc_th0.5-loc_th0.4.res.clean,0.000,0.000,0.000,0.000,0.000,
DOCUMENT:DATE:LOCATION,REFERENCES:SIMPAGE,0.5,0.3,0.4,rel1-1-date_th0,1,2,7,2.8,23402,book_collection_true_dates/date/query6//useDOCUMENT:DATE:LOCATIONuseREFERENCES:SIMPAGE/rel1-1-date_th0.3-doc_th0.5-loc_th0.4.res.clean,0.000,0.000,0.000,0.000,0.000,
DOCUMENT:DATE:LOCATION,REFERENCES:SIMPAGE,0.7,0.3,0.4,rel2-1,2,3,829922,112266.7,150637,book_collection_true_dates/date/query6//useDOCUMENT:DATE:LOCATIONuseREFERENCES:SIMPAGE/rel2-1-date_th0.3-doc_th0.7-loc_th0.4.res.clean,0.167,0.200,0.100,0.100,0.000,
DOCUMENT:DATE:LOCATION,REFERENCES:SIMPAGE,0.5,0.3,0.4,rel2-1,2,3,829928,112268.2,170246,book_collection_true_dates/date/query6//useDOCUMENT:DATE:LOCATIONuseREFERENCES:SIMPAGE/rel2-1-date_th0.3-doc_th0.5-loc_th0.4.res.clean,0.167,0.200,0.100,0.100,0.000,
DOCUMENT:DATE:LOCATION,REFERENCES:SIMPAGE,0.6,0.25,0.4,rel1-2,1,2,13,3.7,26912,book_collection_true_dates/date/query6//useDOCUMENT:DATE:LOCATIONuseREFERENCES:SIMPAGE/rel1-2-date_th0.25-doc_th0.6-loc_th0.4.res.clean,0.167,0.200,0.100,0.100,0.000,
DOCUMENT:DATE:LOCATION,REFERENCES:SIMPAGE,0.7,0.25,0.35,rel1-2,1,2,13,3.7,27187,book_collection_true_dates/date/query6//useDOCUMENT:DATE:LOCATIONuseREFERENCES:SIMPAGE/rel1-2-date_th0.25-doc_th0.7-loc_th0.35.res.clean,0.167,0.200,0.100,0.100,0.000,
DOCUMENT:DATE:LOCATION,REFERENCES:SIMPAGE,0.5,0.3,0.4,rel1-2,1,2,13,3.7,27007,book_collection_true_dates/date/query6//useDOCUMENT:DATE:LOCATIONuseREFERENCES:SIMPAGE/rel1-2-date_th0.3-doc_th0.5-loc_th0.4.res.clean,0.167,0.200,0.100,0.100,0.000,
DOCUMENT:DATE:LOCATION,REFERENCES:SIMPAGE,0.5,0.3,0.35,rel2-1,2,3,829928,112268.2,168362,book_collection_true_dates/date/query6//useDOCUMENT:DATE:LOCATIONuseREFERENCES:SIMPAGE/rel2-1-date_th0.3-doc_th0.5-loc_th0.35.res.clean,0.167,0.200,0.100,0.100,0.000,
DOCUMENT:DATE:LOCATION,REFERENCES:SIMPAGE,0.7,0.3,0.4,rel1-2,1,2,13,3.7,26878,book_collection_true_dates/date/query6//useDOCUMENT:DATE:LOCATIONuseREFERENCES:SIMPAGE/rel1-2-date_th0.3-doc_th0.7-loc_th0.4.res.clean,0.167,0.200,0.100,0.100,0.000,
DOCUMENT:DATE:LOCATION,REFERENCES:SIMPAGE,0.6,0.3,0.35,rel1-2,1,2,13,3.7,27448,book_collection_true_dates/date/query6//useDOCUMENT:DATE:LOCATIONuseREFERENCES:SIMPAGE/rel1-2-date_th0.3-doc_th0.6-loc_th0.35.res.clean,0.167,0.200,0.100,0.100,0.000,
DOCUMENT:DATE:LOCATION,REFERENCES:SIMPAGE,0.6,0.3,0.35,rel1-1-date_th0,1,2,7,2.8,23760,book_collection_true_dates/date/query6//useDOCUMENT:DATE:LOCATIONuseREFERENCES:SIMPAGE/rel1-1-date_th0.3-doc_th0.6-loc_th0.35.res.clean,0.000,0.000,0.000,0.000,0.000,
DOCUMENT:DATE:LOCATION,REFERENCES:SIMPAGE,0.7,0.3,0.35,rel1-2,1,2,13,3.7,27547,book_collection_true_dates/date/query6//useDOCUMENT:DATE:LOCATIONuseREFERENCES:SIMPAGE/rel1-2-date_th0.3-doc_th0.7-loc_th0.35.res.clean,0.167,0.200,0.100,0.100,0.000,
DOCUMENT:DATE:LOCATION,REFERENCES:SIMPAGE,0.5,0.25,0.4,rel1-2,1,2,13,3.7,26936,book_collection_true_dates/date/query6//useDOCUMENT:DATE:LOCATIONuseREFERENCES:SIMPAGE/rel1-2-date_th0.25-doc_th0.5-loc_th0.4.res.clean,0.167,0.200,0.100,0.100,0.000,
DOCUMENT:DATE:LOCATION,REFERENCES:SIMPAGE,0.7,0.3,0.4,rel1-1-date_th0,1,2,7,2.8,23364,book_collection_true_dates/date/query6//useDOCUMENT:DATE:LOCATIONuseREFERENCES:SIMPAGE/rel1-1-date_th0.3-doc_th0.7-loc_th0.4.res.clean,0.000,0.000,0.000,0.000,0.000,
DOCUMENT:DATE:LOCATION,REFERENCES:SIMPAGE,0.5,0.3,0.35,rel1-2,1,2,13,3.7,27227,book_collection_true_dates/date/query6//useDOCUMENT:DATE:LOCATIONuseREFERENCES:SIMPAGE/rel1-2-date_th0.3-doc_th0.5-loc_th0.35.res.clean,0.167,0.200,0.100,0.100,0.000,
DOCUMENT:DATE:LOCATION,REFERENCES:SIMPAGE,0.6,0.25,0.4,rel2-1,2,3,829922,112266.7,147235,book_collection_true_dates/date/query6//useDOCUMENT:DATE:LOCATIONuseREFERENCES:SIMPAGE/rel2-1-date_th0.25-doc_th0.6-loc_th0.4.res.clean,0.167,0.200,0.100,0.100,0.000,
DOCUMENT:DATE:LOCATION,REFERENCES:SIMPAGE,0.5,0.25,0.35,rel2-1,2,3,829928,112268.2,170270,book_collection_true_dates/date/query6//useDOCUMENT:DATE:LOCATIONuseREFERENCES:SIMPAGE/rel2-1-date_th0.25-doc_th0.5-loc_th0.35.res.clean,0.167,0.200,0.100,0.100,0.000,
DOCUMENT:DATE:LOCATION,REFERENCES:SIMPAGE,0.6,0.3,0.4,rel2-1,2,3,829922,112266.7,145786,book_collection_true_dates/date/query6//useDOCUMENT:DATE:LOCATIONuseREFERENCES:SIMPAGE/rel2-1-date_th0.3-doc_th0.6-loc_th0.4.res.clean,0.167,0.200,0.100,0.100,0.000,
DOCUMENT:DATE:LOCATION,REFERENCES:SIMPAGE,0.7,0.25,0.4,rel1-1-date_th0,1,2,7,2.8,23979,book_collection_true_dates/date/query6//useDOCUMENT:DATE:LOCATIONuseREFERENCES:SIMPAGE/rel1-1-date_th0.25-doc_th0.7-loc_th0.4.res.clean,0.000,0.000,0.000,0.000,0.000,
DOCUMENT:DATE:LOCATION,REFERENCES:SIMPAGE,0.5,0.25,0.35,rel1-2,1,2,13,3.7,29100,book_collection_true_dates/date/query6//useDOCUMENT:DATE:LOCATIONuseREFERENCES:SIMPAGE/rel1-2-date_th0.25-doc_th0.5-loc_th0.35.res.clean,0.167,0.200,0.100,0.100,0.000,
DOCUMENT:DATE:LOCATION,REFERENCES:SIMPAGE,0.6,0.3,0.4,rel1-2,1,2,13,3.7,26923,book_collection_true_dates/date/query6//useDOCUMENT:DATE:LOCATIONuseREFERENCES:SIMPAGE/rel1-2-date_th0.3-doc_th0.6-loc_th0.4.res.clean,0.167,0.200,0.100,0.100,0.000,
DOCUMENT:DATE:LOCATION,REFERENCES:SIMPAGE,0.6,0.25,0.4,rel1-1-date_th0,1,2,7,2.8,23857,book_collection_true_dates/date/query6//useDOCUMENT:DATE:LOCATIONuseREFERENCES:SIMPAGE/rel1-1-date_th0.25-doc_th0.6-loc_th0.4.res.clean,0.000,0.000,0.000,0.000,0.000,
DOCUMENT:DATE:LOCATION,REFERENCES:SIMPAGE,0.6,0.3,0.35,rel2-1,2,3,829922,112266.7,144043,book_collection_true_dates/date/query6//useDOCUMENT:DATE:LOCATIONuseREFERENCES:SIMPAGE/rel2-1-date_th0.3-doc_th0.6-loc_th0.35.res.clean,0.167,0.200,0.100,0.100,0.000,
DOCUMENT:DATE:LOCATION,REFERENCES:SIMPAGE,0.7,0.25,0.35,rel1-1-date_th0,1,2,7,2.8,23958,book_collection_true_dates/date/query6//useDOCUMENT:DATE:LOCATIONuseREFERENCES:SIMPAGE/rel1-1-date_th0.25-doc_th0.7-loc_th0.35.res.clean,0.000,0.000,0.000,0.000,0.000,
DOCUMENT:DATE:LOCATION,REFERENCES:SIMPAGE,0.5,0.3,0.35,rel1-1-date_th0,1,2,7,2.8,23095,book_collection_true_dates/date/query6//useDOCUMENT:DATE:LOCATIONuseREFERENCES:SIMPAGE/rel1-1-date_th0.3-doc_th0.5-loc_th0.35.res.clean,0.000,0.000,0.000,0.000,0.000,
DOCUMENT:DATE:LOCATION,REFERENCES:SIMPAGE,0.5,0.25,0.4,rel2-1,2,3,829928,112268.2,163001,book_collection_true_dates/date/query6//useDOCUMENT:DATE:LOCATIONuseREFERENCES:SIMPAGE/rel2-1-date_th0.25-doc_th0.5-loc_th0.4.res.clean,0.167,0.200,0.100,0.100,0.000,
DOCUMENT:DATE:LOCATION,REFERENCES:SIMPAGE,0.7,0.3,0.35,rel2-1,2,3,829922,112266.7,148194,book_collection_true_dates/date/query6//useDOCUMENT:DATE:LOCATIONuseREFERENCES:SIMPAGE/rel2-1-date_th0.3-doc_th0.7-loc_th0.35.res.clean,0.167,0.200,0.100,0.100,0.000,
DOCUMENT:DATE:LOCATION,REFERENCES:SIMPAGE,0.6,0.25,0.35,rel2-1,2,3,829922,112266.7,146386,book_collection_true_dates/date/query6//useDOCUMENT:DATE:LOCATIONuseREFERENCES:SIMPAGE/rel2-1-date_th0.25-doc_th0.6-loc_th0.35.res.clean,0.167,0.200,0.100,0.100,0.000,
DOCUMENT:DATE:LOCATION,REFERENCES:SIMPAGE,0.7,0.25,0.4,rel2-1,2,3,829922,112266.7,146436,book_collection_true_dates/date/query6//useDOCUMENT:DATE:LOCATIONuseREFERENCES:SIMPAGE/rel2-1-date_th0.25-doc_th0.7-loc_th0.4.res.clean,0.167,0.200,0.100,0.100,0.000,
DOCUMENT:DATE:LOCATION,REFERENCES:SIMPAGE,0.6,0.25,0.35,rel1-2,1,2,13,3.7,27486,book_collection_true_dates/date/query6//useDOCUMENT:DATE:LOCATIONuseREFERENCES:SIMPAGE/rel1-2-date_th0.25-doc_th0.6-loc_th0.35.res.clean,0.167,0.200,0.100,0.100,0.000,

Sig-Test:,randomized,,threshold,set,to,0.050000
