###################################
# parameters: 
#   date_th: 0.3
#   doc_th: 0.6
#   loc_th: 0.4
#   nodestouse: DOCUMENT:DATE:LOCATION
#   relationships: REFERENCES

###################################
# configuration: 
#   sa.act_diff_ratio_limit = 0.01
#   sa.act_diff_ratio_limit_diff = 0.01
#   sa.function = ciir.multi.sa.function.MaxSAFunction(norm_function)
#   sa.id_property_name.DATE = dateID
#   sa.id_property_name.DOCUMENT = docID
#   sa.id_property_name.LOCATION = locID
#   sa.max_pulses = 10
#   sa.nodes_to_print = DATE:LOCATION
#   sa.nodes_to_use = DOCUMENT:DATE:LOCATION
#   sa.norm_function = ciir.multi.sa.SigmoidFunction(0.0, 1.0)
#   sa.relationships_to_use = REFERENCES
#   sa.spread_threshold.DATE = 0.3
#   sa.spread_threshold.DOCUMENT = 0.6
#   sa.spread_threshold.LOCATION = 0.4
#   sa.weight_property.REFERENCES = relevance
#   sa.weight_property.SIMDATES = sim
#   sa.weight_property.SIMDOC = sim
#   sa.weight_property.SIMLOC = sim
#   sa.weight_property.SIMPAGE = pagesim

###################################
# initial activations (2): 
#   sanfranciscohist01youn_192, 1
#   waterqualityreso00sacr_128, 1

###################################
# spreading activation process log: 
#   pulse 0: activated: 2, non-zero: 2, borderline: 2, overall act: 2.000, act diff: 2.000, ratio: 1.000
#   pulse 1: activated: 76, non-zero: 76, borderline: 74, overall act: 10.070, act diff: 8.070, ratio: 0.801
#   pulse 2: activated: 207491, non-zero: 207491, borderline: 207488, overall act: 25238.635, act diff: 25228.565, ratio: 1.000
#   pulse 3: activated: 207491, non-zero: 207491, borderline: 207488, overall act: 25238.635, act diff: 0.000, ratio: 0.000

###################################
# spreading activation process summary: 
#   final number of activated nodes: 207491
#   final overall activation: 25238.6
#   number of spread. activ. pulses: 3
#   running time: 84926

###################################
# top k results in TREC format: 

10   rel2-4   1848   1   0.21207042   nodesDOCUMENT:DATE:LOCATION-edgesREFERENCES-date_th0.3-doc_th0.6-loc_th0.4
10   rel2-4   1849   2   0.21207042   nodesDOCUMENT:DATE:LOCATION-edgesREFERENCES-date_th0.3-doc_th0.6-loc_th0.4
10   rel2-4   1851   3   0.08588561   nodesDOCUMENT:DATE:LOCATION-edgesREFERENCES-date_th0.3-doc_th0.6-loc_th0.4
10   rel2-4   1859   4   0.08588561   nodesDOCUMENT:DATE:LOCATION-edgesREFERENCES-date_th0.3-doc_th0.6-loc_th0.4
10   rel2-4   1857   5   0.08588561   nodesDOCUMENT:DATE:LOCATION-edgesREFERENCES-date_th0.3-doc_th0.6-loc_th0.4
10   rel2-4   1866   6   0.08588561   nodesDOCUMENT:DATE:LOCATION-edgesREFERENCES-date_th0.3-doc_th0.6-loc_th0.4
10   rel2-4   1864   7   0.08588561   nodesDOCUMENT:DATE:LOCATION-edgesREFERENCES-date_th0.3-doc_th0.6-loc_th0.4
10   rel2-4   1862   8   0.08588561   nodesDOCUMENT:DATE:LOCATION-edgesREFERENCES-date_th0.3-doc_th0.6-loc_th0.4
10   rel2-4   1860   9   0.08588561   nodesDOCUMENT:DATE:LOCATION-edgesREFERENCES-date_th0.3-doc_th0.6-loc_th0.4
10   rel2-4   1869   10   0.08588561   nodesDOCUMENT:DATE:LOCATION-edgesREFERENCES-date_th0.3-doc_th0.6-loc_th0.4
10   rel2-4   1861   11   0.08588561   nodesDOCUMENT:DATE:LOCATION-edgesREFERENCES-date_th0.3-doc_th0.6-loc_th0.4
10   rel2-4   1863   12   0.08588561   nodesDOCUMENT:DATE:LOCATION-edgesREFERENCES-date_th0.3-doc_th0.6-loc_th0.4
10   rel2-4   1865   13   0.08588561   nodesDOCUMENT:DATE:LOCATION-edgesREFERENCES-date_th0.3-doc_th0.6-loc_th0.4
10   rel2-4   1856   14   0.08588561   nodesDOCUMENT:DATE:LOCATION-edgesREFERENCES-date_th0.3-doc_th0.6-loc_th0.4
10   rel2-4   1858   15   0.08588561   nodesDOCUMENT:DATE:LOCATION-edgesREFERENCES-date_th0.3-doc_th0.6-loc_th0.4
10   rel2-4   1850   16   0.08588561   nodesDOCUMENT:DATE:LOCATION-edgesREFERENCES-date_th0.3-doc_th0.6-loc_th0.4
10   rel2-4   1852   17   0.08588561   nodesDOCUMENT:DATE:LOCATION-edgesREFERENCES-date_th0.3-doc_th0.6-loc_th0.4
10   rel2-4   1853   18   0.08588561   nodesDOCUMENT:DATE:LOCATION-edgesREFERENCES-date_th0.3-doc_th0.6-loc_th0.4
10   rel2-4   1854   19   0.08588561   nodesDOCUMENT:DATE:LOCATION-edgesREFERENCES-date_th0.3-doc_th0.6-loc_th0.4
10   rel2-4   1855   20   0.08588561   nodesDOCUMENT:DATE:LOCATION-edgesREFERENCES-date_th0.3-doc_th0.6-loc_th0.4

###################################
# top nodes: 

# 10   rel2-4   sanfranciscohist01youn_192   1   1.0   nodesDOCUMENT:DATE:LOCATION-edgesREFERENCES-date_th0.3-doc_th0.6-loc_th0.4
# 10   rel2-4   waterqualityreso00sacr_128   2   1.0   nodesDOCUMENT:DATE:LOCATION-edgesREFERENCES-date_th0.3-doc_th0.6-loc_th0.4
# 10   rel2-4   california   3   0.51681495   nodesDOCUMENT:DATE:LOCATION-edgesREFERENCES-date_th0.3-doc_th0.6-loc_th0.4
# 10   rel2-4   yerba buena   4   0.28235662   nodesDOCUMENT:DATE:LOCATION-edgesREFERENCES-date_th0.3-doc_th0.6-loc_th0.4
# 10   rel2-4   los vaqueros   5   0.2781926   nodesDOCUMENT:DATE:LOCATION-edgesREFERENCES-date_th0.3-doc_th0.6-loc_th0.4
# 10   rel2-4   buildingindustri11111cont_479   6   0.25280538   nodesDOCUMENT:DATE:LOCATION-edgesREFERENCES-date_th0.3-doc_th0.6-loc_th0.4
# 10   rel2-4   forestryinmining00browrich_1   7   0.25280538   nodesDOCUMENT:DATE:LOCATION-edgesREFERENCES-date_th0.3-doc_th0.6-loc_th0.4
# 10   rel2-4   gt4waterpowerfromge190calirich_43   8   0.25280538   nodesDOCUMENT:DATE:LOCATION-edgesREFERENCES-date_th0.3-doc_th0.6-loc_th0.4
# 10   rel2-4   herberthooverman00lckell_55   9   0.25280538   nodesDOCUMENT:DATE:LOCATION-edgesREFERENCES-date_th0.3-doc_th0.6-loc_th0.4
# 10   rel2-4   lampshield1963stan_49   10   0.25280538   nodesDOCUMENT:DATE:LOCATION-edgesREFERENCES-date_th0.3-doc_th0.6-loc_th0.4
# 10   rel2-4   mindsandmanners00horngoog_239   11   0.25280538   nodesDOCUMENT:DATE:LOCATION-edgesREFERENCES-date_th0.3-doc_th0.6-loc_th0.4
# 10   rel2-4   typologyscriptu02fairgoog_607   12   0.25280538   nodesDOCUMENT:DATE:LOCATION-edgesREFERENCES-date_th0.3-doc_th0.6-loc_th0.4
# 10   rel2-4   travelsathome00twaigoog_136   13   0.25280538   nodesDOCUMENT:DATE:LOCATION-edgesREFERENCES-date_th0.3-doc_th0.6-loc_th0.4
# 10   rel2-4   buildingindustri11111cont_461   14   0.25280538   nodesDOCUMENT:DATE:LOCATION-edgesREFERENCES-date_th0.3-doc_th0.6-loc_th0.4
# 10   rel2-4   minutesofgeneral1915pres_565   15   0.25280538   nodesDOCUMENT:DATE:LOCATION-edgesREFERENCES-date_th0.3-doc_th0.6-loc_th0.4
# 10   rel2-4   minutesofgeneral1915pres_563   16   0.25280538   nodesDOCUMENT:DATE:LOCATION-edgesREFERENCES-date_th0.3-doc_th0.6-loc_th0.4
# 10   rel2-4   minutesofgeneral1915pres_559   17   0.25280538   nodesDOCUMENT:DATE:LOCATION-edgesREFERENCES-date_th0.3-doc_th0.6-loc_th0.4
# 10   rel2-4   minutesofgeneral1915pres_557   18   0.25280538   nodesDOCUMENT:DATE:LOCATION-edgesREFERENCES-date_th0.3-doc_th0.6-loc_th0.4
# 10   rel2-4   minutesofgeneral1915pres_555   19   0.25280538   nodesDOCUMENT:DATE:LOCATION-edgesREFERENCES-date_th0.3-doc_th0.6-loc_th0.4
# 10   rel2-4   flavouringmateri00clarrich_186   20   0.25280538   nodesDOCUMENT:DATE:LOCATION-edgesREFERENCES-date_th0.3-doc_th0.6-loc_th0.4
# 10   rel2-4   minutesofgeneral1915pres_553   21   0.25280538   nodesDOCUMENT:DATE:LOCATION-edgesREFERENCES-date_th0.3-doc_th0.6-loc_th0.4
# 10   rel2-4   minutesofgeneral1915pres_551   22   0.25280538   nodesDOCUMENT:DATE:LOCATION-edgesREFERENCES-date_th0.3-doc_th0.6-loc_th0.4
# 10   rel2-4   minutesofgeneral1915pres_561   23   0.25280538   nodesDOCUMENT:DATE:LOCATION-edgesREFERENCES-date_th0.3-doc_th0.6-loc_th0.4
# 10   rel2-4   buildingindustri11111cont_415   24   0.25280538   nodesDOCUMENT:DATE:LOCATION-edgesREFERENCES-date_th0.3-doc_th0.6-loc_th0.4
# 10   rel2-4   pacificcoastvaca00morrrich_172   25   0.25280538   nodesDOCUMENT:DATE:LOCATION-edgesREFERENCES-date_th0.3-doc_th0.6-loc_th0.4
# 10   rel2-4   govuscourtsca9briefs2931_934   26   0.25280538   nodesDOCUMENT:DATE:LOCATION-edgesREFERENCES-date_th0.3-doc_th0.6-loc_th0.4
# 10   rel2-4   commercialeduca00unkngoog_2   27   0.25280538   nodesDOCUMENT:DATE:LOCATION-edgesREFERENCES-date_th0.3-doc_th0.6-loc_th0.4
# 10   rel2-4   govuscourtsca9briefs2931_961   28   0.25280538   nodesDOCUMENT:DATE:LOCATION-edgesREFERENCES-date_th0.3-doc_th0.6-loc_th0.4
# 10   rel2-4   bulletinofmuseum124harv_324   29   0.25280538   nodesDOCUMENT:DATE:LOCATION-edgesREFERENCES-date_th0.3-doc_th0.6-loc_th0.4
# 10   rel2-4   miltonmarksoral01markrich_528   30   0.25280538   nodesDOCUMENT:DATE:LOCATION-edgesREFERENCES-date_th0.3-doc_th0.6-loc_th0.4
# 10   rel2-4   ineztaleofalamo00evaniala_4   31   0.25280538   nodesDOCUMENT:DATE:LOCATION-edgesREFERENCES-date_th0.3-doc_th0.6-loc_th0.4
# 10   rel2-4   birdlore24nati_162   32   0.25280538   nodesDOCUMENT:DATE:LOCATION-edgesREFERENCES-date_th0.3-doc_th0.6-loc_th0.4
# 10   rel2-4   minutesofgeneral1915pres_549   33   0.25280538   nodesDOCUMENT:DATE:LOCATION-edgesREFERENCES-date_th0.3-doc_th0.6-loc_th0.4
# 10   rel2-4   govuscourtsca9briefs3383_921   34   0.25280538   nodesDOCUMENT:DATE:LOCATION-edgesREFERENCES-date_th0.3-doc_th0.6-loc_th0.4
# 10   rel2-4   miltonmarksoral01markrich_440   35   0.25280538   nodesDOCUMENT:DATE:LOCATION-edgesREFERENCES-date_th0.3-doc_th0.6-loc_th0.4
# 10   rel2-4   govuscourtsca9briefs3383_919   36   0.25280538   nodesDOCUMENT:DATE:LOCATION-edgesREFERENCES-date_th0.3-doc_th0.6-loc_th0.4
# 10   rel2-4   govuscourtsca9briefs3383_917   37   0.25280538   nodesDOCUMENT:DATE:LOCATION-edgesREFERENCES-date_th0.3-doc_th0.6-loc_th0.4
# 10   rel2-4   miltonmarksoral01markrich_454   38   0.25280538   nodesDOCUMENT:DATE:LOCATION-edgesREFERENCES-date_th0.3-doc_th0.6-loc_th0.4
# 10   rel2-4   govuscourtsca9briefs3383_909   39   0.25280538   nodesDOCUMENT:DATE:LOCATION-edgesREFERENCES-date_th0.3-doc_th0.6-loc_th0.4
# 10   rel2-4   birdlore24nati_103   40   0.25280538   nodesDOCUMENT:DATE:LOCATION-edgesREFERENCES-date_th0.3-doc_th0.6-loc_th0.4
