###################################
# parameters: 
#   date_th: 0.25
#   doc_th: 0.5
#   loc_th: 0.4
#   nodestouse: DOCUMENT:DATE:LOCATION
#   relationships: REFERENCES

###################################
# configuration: 
#   sa.act_diff_ratio_limit = 0.01
#   sa.act_diff_ratio_limit_diff = 0.01
#   sa.function = ciir.multi.sa.function.MaxSAFunction(norm_function)
#   sa.id_property_name.DATE = dateID
#   sa.id_property_name.DOCUMENT = docID
#   sa.id_property_name.LOCATION = locID
#   sa.max_pulses = 10
#   sa.nodes_to_print = DATE:LOCATION
#   sa.nodes_to_use = DOCUMENT:DATE:LOCATION
#   sa.norm_function = ciir.multi.sa.SigmoidFunction(0.0, 1.0)
#   sa.relationships_to_use = REFERENCES
#   sa.spread_threshold.DATE = 0.25
#   sa.spread_threshold.DOCUMENT = 0.5
#   sa.spread_threshold.LOCATION = 0.4
#   sa.weight_property.REFERENCES = relevance
#   sa.weight_property.SIMDATES = sim
#   sa.weight_property.SIMDOC = sim
#   sa.weight_property.SIMLOC = sim
#   sa.weight_property.SIMPAGE = pagesim

###################################
# initial activations (2): 
#   ingersollscentur00inge_101, 1
#   policepeaceoffic19461946sanf_79, 1

###################################
# spreading activation process log: 
#   pulse 0: activated: 2, non-zero: 2, borderline: 2, overall act: 2.000, act diff: 2.000, ratio: 1.000
#   pulse 1: activated: 26, non-zero: 26, borderline: 24, overall act: 6.178, act diff: 4.178, ratio: 0.676
#   pulse 2: activated: 335438, non-zero: 335438, borderline: 335432, overall act: 45416.301, act diff: 45410.123, ratio: 1.000
#   pulse 3: activated: 335438, non-zero: 335438, borderline: 335432, overall act: 45416.301, act diff: 0.000, ratio: 0.000

###################################
# spreading activation process summary: 
#   final number of activated nodes: 335438
#   final overall activation: 45416.3
#   number of spread. activ. pulses: 3
#   running time: 64276

###################################
# top k results in TREC format: 

10   rel2-8   1848   1   0.30731264   nodesDOCUMENT:DATE:LOCATION-edgesREFERENCES-date_th0.25-doc_th0.5-loc_th0.4
10   rel2-8   1849   2   0.30731264   nodesDOCUMENT:DATE:LOCATION-edgesREFERENCES-date_th0.25-doc_th0.5-loc_th0.4
10   rel2-8   1860   3   0.13857411   nodesDOCUMENT:DATE:LOCATION-edgesREFERENCES-date_th0.25-doc_th0.5-loc_th0.4
10   rel2-8   1946   4   0.13857411   nodesDOCUMENT:DATE:LOCATION-edgesREFERENCES-date_th0.25-doc_th0.5-loc_th0.4
10   rel2-8   1850   5   0.13857411   nodesDOCUMENT:DATE:LOCATION-edgesREFERENCES-date_th0.25-doc_th0.5-loc_th0.4
10   rel2-8   1854   6   0.13857411   nodesDOCUMENT:DATE:LOCATION-edgesREFERENCES-date_th0.25-doc_th0.5-loc_th0.4
10   rel2-8   1847   7   0.13857411   nodesDOCUMENT:DATE:LOCATION-edgesREFERENCES-date_th0.25-doc_th0.5-loc_th0.4
10   rel2-8   1844   8   0.13857411   nodesDOCUMENT:DATE:LOCATION-edgesREFERENCES-date_th0.25-doc_th0.5-loc_th0.4

###################################
# top nodes: 

# 10   rel2-8   ingersollscentur00inge_101   1   1.0   nodesDOCUMENT:DATE:LOCATION-edgesREFERENCES-date_th0.25-doc_th0.5-loc_th0.4
# 10   rel2-8   policepeaceoffic19461946sanf_79   2   1.0   nodesDOCUMENT:DATE:LOCATION-edgesREFERENCES-date_th0.25-doc_th0.5-loc_th0.4
# 10   rel2-8   california   3   0.6281759   nodesDOCUMENT:DATE:LOCATION-edgesREFERENCES-date_th0.25-doc_th0.5-loc_th0.4
# 10   rel2-8   sanfranciscohist01youn_332   4   0.4939125   nodesDOCUMENT:DATE:LOCATION-edgesREFERENCES-date_th0.25-doc_th0.5-loc_th0.4
# 10   rel2-8   pacificcoasthighways00john_249   5   0.49322566   nodesDOCUMENT:DATE:LOCATION-edgesREFERENCES-date_th0.25-doc_th0.5-loc_th0.4
# 10   rel2-8   plain00srockiesbibwagnrich_226   6   0.48589972   nodesDOCUMENT:DATE:LOCATION-edgesREFERENCES-date_th0.25-doc_th0.5-loc_th0.4
# 10   rel2-8   pictorialhistory00hals_669   7   0.48400512   nodesDOCUMENT:DATE:LOCATION-edgesREFERENCES-date_th0.25-doc_th0.5-loc_th0.4
# 10   rel2-8   makingofourcount00burn_412   8   0.47361317   nodesDOCUMENT:DATE:LOCATION-edgesREFERENCES-date_th0.25-doc_th0.5-loc_th0.4
# 10   rel2-8   storyofcaliforni02nort_261   9   0.4732164   nodesDOCUMENT:DATE:LOCATION-edgesREFERENCES-date_th0.25-doc_th0.5-loc_th0.4
# 10   rel2-8   storycalifornia05nortgoog_262   10   0.4732164   nodesDOCUMENT:DATE:LOCATION-edgesREFERENCES-date_th0.25-doc_th0.5-loc_th0.4
# 10   rel2-8   instructionsforc00kentrich_12   11   0.4732164   nodesDOCUMENT:DATE:LOCATION-edgesREFERENCES-date_th0.25-doc_th0.5-loc_th0.4
# 10   rel2-8   beginningsofsanf02eldr_201   12   0.47154075   nodesDOCUMENT:DATE:LOCATION-edgesREFERENCES-date_th0.25-doc_th0.5-loc_th0.4
# 10   rel2-8   tennesseespartne00hartrich_12   13   0.46837032   nodesDOCUMENT:DATE:LOCATION-edgesREFERENCES-date_th0.25-doc_th0.5-loc_th0.4
# 10   rel2-8   asirememberthemg00good_211   14   0.45657024   nodesDOCUMENT:DATE:LOCATION-edgesREFERENCES-date_th0.25-doc_th0.5-loc_th0.4
# 10   rel2-8   establishmentofs00good_364   15   0.45639938   nodesDOCUMENT:DATE:LOCATION-edgesREFERENCES-date_th0.25-doc_th0.5-loc_th0.4
# 10   rel2-8   lettersjohnmurr01forbrich_148   16   0.45635664   nodesDOCUMENT:DATE:LOCATION-edgesREFERENCES-date_th0.25-doc_th0.5-loc_th0.4
# 10   rel2-8   storyofcaliforni02nort_289   17   0.45635664   nodesDOCUMENT:DATE:LOCATION-edgesREFERENCES-date_th0.25-doc_th0.5-loc_th0.4
# 10   rel2-8   establishmentofs00good_260   18   0.45635664   nodesDOCUMENT:DATE:LOCATION-edgesREFERENCES-date_th0.25-doc_th0.5-loc_th0.4
# 10   rel2-8   americanjournalo24ameruoft_281   19   0.45466727   nodesDOCUMENT:DATE:LOCATION-edgesREFERENCES-date_th0.25-doc_th0.5-loc_th0.4
# 10   rel2-8   popularhistoryof02howirich_403   20   0.45195374   nodesDOCUMENT:DATE:LOCATION-edgesREFERENCES-date_th0.25-doc_th0.5-loc_th0.4
# 10   rel2-8   sanfranciscobusi51922sanf_457   21   0.4488641   nodesDOCUMENT:DATE:LOCATION-edgesREFERENCES-date_th0.25-doc_th0.5-loc_th0.4
# 10   rel2-8   historyofuniteds00gord_350   22   0.4486795   nodesDOCUMENT:DATE:LOCATION-edgesREFERENCES-date_th0.25-doc_th0.5-loc_th0.4
# 10   rel2-8   storycalifornia06nortgoog_396   23   0.4481676   nodesDOCUMENT:DATE:LOCATION-edgesREFERENCES-date_th0.25-doc_th0.5-loc_th0.4
# 10   rel2-8   san francisco   24   0.4465667   nodesDOCUMENT:DATE:LOCATION-edgesREFERENCES-date_th0.25-doc_th0.5-loc_th0.4
# 10   rel2-8   historyofsanfran00will_100   25   0.4464214   nodesDOCUMENT:DATE:LOCATION-edgesREFERENCES-date_th0.25-doc_th0.5-loc_th0.4
# 10   rel2-8   cu31924026424451_290   26   0.44478542   nodesDOCUMENT:DATE:LOCATION-edgesREFERENCES-date_th0.25-doc_th0.5-loc_th0.4
# 10   rel2-8   unitedstatesdem06lawrgoog_465   27   0.44162875   nodesDOCUMENT:DATE:LOCATION-edgesREFERENCES-date_th0.25-doc_th0.5-loc_th0.4
# 10   rel2-8   cu31924028920929_14   28   0.44068813   nodesDOCUMENT:DATE:LOCATION-edgesREFERENCES-date_th0.25-doc_th0.5-loc_th0.4
# 10   rel2-8   pamphletscollect00edwa_101   29   0.44043493   nodesDOCUMENT:DATE:LOCATION-edgesREFERENCES-date_th0.25-doc_th0.5-loc_th0.4
# 10   rel2-8   blackwoodsmagazi67edinuoft_50   30   0.43915278   nodesDOCUMENT:DATE:LOCATION-edgesREFERENCES-date_th0.25-doc_th0.5-loc_th0.4
# 10   rel2-8   historyofsanfran00will_75   31   0.43709308   nodesDOCUMENT:DATE:LOCATION-edgesREFERENCES-date_th0.25-doc_th0.5-loc_th0.4
# 10   rel2-8   californiaherald1670frii_281   32   0.43694696   nodesDOCUMENT:DATE:LOCATION-edgesREFERENCES-date_th0.25-doc_th0.5-loc_th0.4
# 10   rel2-8   beginningsofsanf02eldr_206   33   0.43637493   nodesDOCUMENT:DATE:LOCATION-edgesREFERENCES-date_th0.25-doc_th0.5-loc_th0.4
# 10   rel2-8   establishmentofs00good_111   34   0.43637493   nodesDOCUMENT:DATE:LOCATION-edgesREFERENCES-date_th0.25-doc_th0.5-loc_th0.4
# 10   rel2-8   ohiossilvertongu00bigg_210   35   0.43637493   nodesDOCUMENT:DATE:LOCATION-edgesREFERENCES-date_th0.25-doc_th0.5-loc_th0.4
# 10   rel2-8   lifeofdavidbelas02wintuoft_288   36   0.43637493   nodesDOCUMENT:DATE:LOCATION-edgesREFERENCES-date_th0.25-doc_th0.5-loc_th0.4
# 10   rel2-8   proceedingscolle15wyom_10   37   0.43637493   nodesDOCUMENT:DATE:LOCATION-edgesREFERENCES-date_th0.25-doc_th0.5-loc_th0.4
# 10   rel2-8   greathogg00thacuoft_28   38   0.43637493   nodesDOCUMENT:DATE:LOCATION-edgesREFERENCES-date_th0.25-doc_th0.5-loc_th0.4
# 10   rel2-8   worksralphwaldo14emergoog_343   39   0.43637493   nodesDOCUMENT:DATE:LOCATION-edgesREFERENCES-date_th0.25-doc_th0.5-loc_th0.4
# 10   rel2-8   schoolarithmeti00ellwgoog_219   40   0.43637493   nodesDOCUMENT:DATE:LOCATION-edgesREFERENCES-date_th0.25-doc_th0.5-loc_th0.4
