###################################
# parameters: 
#   decay: 0.2
#   lambda: 0.0
#   norm_threshold: 0.3
#   relationships: REFERENCES:SIMDATES:SIMLOC

###################################
# configuration: 
#   sa.act_diff_ratio_limit = 0.05
#   sa.function = ciir.multi.sa.DecayedSumSAFunction(norm_function, 0.2, 0.0)
#   sa.id_property_name.DATE = dateID
#   sa.id_property_name.DOCUMENT = docID
#   sa.id_property_name.LOCATION = locID
#   sa.max_pulses = 20
#   sa.norm_function = ciir.multi.sa.SigmoidFunction(0.3, 1.0)
#   sa.relationships_to_use = REFERENCES:SIMDATES:SIMLOC
#   sa.weight_property.REFERENCES = relevance
#   sa.weight_property.SIMDATES = sim
#   sa.weight_property.SIMLOC = sim

###################################
# initial activations: 
#   generalhistoryfo00myerrich_787: 1.0
#   selwynhouseschoo1940selw_21: 1.0
#   lifeofstratfordc02laneuoft_185: 1.0
#   historyofuniteds07good_239: 1.0
#   shorthistoryofmo00haslrich_98: 1.0
#   cambridgemodern09protgoog_449: 1.0

###################################
# spreading activation process log: 
#   pulse 0: activated nodes: 6, borderline nodes: 6, overall activation: 0.000, activation diff: 0.000, ratio: Infinity
#   pulse 1: activated nodes: 69, borderline nodes: 63, overall activation: 26.732, activation diff: 32.732, ratio: 1.224
#   pulse 2: activated nodes: 7459, borderline nodes: 7390, overall activation: 1860.574, activation diff: 1885.142, ratio: 1.013
#   pulse 3: activated nodes: 9398, borderline nodes: 3933, overall activation: 1104.514, activation diff: 2917.103, ratio: 2.641
#   pulse 4: activated nodes: 11342, borderline nodes: 3341, overall activation: 5964.800, activation diff: 5693.429, ratio: 0.955
#   pulse 5: activated nodes: 11429, borderline nodes: 432, overall activation: 6476.129, activation diff: 1166.748, ratio: 0.180
#   pulse 6: activated nodes: 11452, borderline nodes: 107, overall activation: 6949.415, activation diff: 479.879, ratio: 0.069
#   pulse 7: activated nodes: 11455, borderline nodes: 53, overall activation: 6985.678, activation diff: 37.122, ratio: 0.005

###################################
# spreading activation process summary: 
#   final number of activated nodes: 11455
#   final overall activation: 6985.7
#   number of spread. activ. pulses: 7
#   running time: 1309

###################################
# top k results in TREC format: 

1   Q1   historyofuniteds07good_239   1   1.0   REFERENCES:SIMDATES:SIMLOC
1   Q1   cambridgemodern09protgoog_449   2   0.99999917   REFERENCES:SIMDATES:SIMLOC
1   Q1   selwynhouseschoo1940selw_21   3   0.99999917   REFERENCES:SIMDATES:SIMLOC
1   Q1   shorthistoryofmo00haslrich_98   4   0.99995494   REFERENCES:SIMDATES:SIMLOC
1   Q1   generalhistoryfo00myerrich_787   5   0.9975412   REFERENCES:SIMDATES:SIMLOC
1   Q1   lifeofstratfordc02laneuoft_185   6   0.99333036   REFERENCES:SIMDATES:SIMLOC
1   Q1   historyofuniteds07good_349   7   0.8   REFERENCES:SIMDATES:SIMLOC
1   Q1   historyofuniteds07good_345   8   0.8   REFERENCES:SIMDATES:SIMLOC
1   Q1   historyofuniteds07good_347   9   0.8   REFERENCES:SIMDATES:SIMLOC
1   Q1   essentialsinmod01howegoog_471   10   0.8   REFERENCES:SIMDATES:SIMLOC
1   Q1   essentialsinmod01howegoog_474   11   0.8   REFERENCES:SIMDATES:SIMLOC
1   Q1   historyofuniteds07good_348   12   0.8   REFERENCES:SIMDATES:SIMLOC
1   Q1   bookman44unkngoog_930   13   0.8   REFERENCES:SIMDATES:SIMLOC
1   Q1   bostoncollegebul0405bost_139   14   0.8   REFERENCES:SIMDATES:SIMLOC
1   Q1   essentialsinmod01howegoog_461   15   0.8   REFERENCES:SIMDATES:SIMLOC
1   Q1   essentialsinmod01howegoog_462   16   0.8   REFERENCES:SIMDATES:SIMLOC
1   Q1   essentialsinmod01howegoog_460   17   0.8   REFERENCES:SIMDATES:SIMLOC
1   Q1   essentialsinmod01howegoog_469   18   0.8   REFERENCES:SIMDATES:SIMLOC
1   Q1   essentialsinmod01howegoog_468   19   0.8   REFERENCES:SIMDATES:SIMLOC
1   Q1   essentialsinmod01howegoog_465   20   0.8   REFERENCES:SIMDATES:SIMLOC
