###################################
# parameters: 
#   decay: 0.2
#   lambda: 0.5
#   norm_threshold: 0.3
#   relationships: REFERENCES:SIMDATES:SIMLOC

###################################
# configuration: 
#   sa.act_diff_ratio_limit = 0.05
#   sa.function = ciir.multi.sa.DecayedSumSAFunction(norm_function, 0.2, 0.5)
#   sa.id_property_name.DATE = dateID
#   sa.id_property_name.DOCUMENT = docID
#   sa.id_property_name.LOCATION = locID
#   sa.max_pulses = 20
#   sa.norm_function = ciir.multi.sa.SigmoidFunction(0.3, 1.0)
#   sa.relationships_to_use = REFERENCES:SIMDATES:SIMLOC
#   sa.weight_property.REFERENCES = relevance
#   sa.weight_property.SIMDATES = sim
#   sa.weight_property.SIMLOC = sim

###################################
# initial activations: 
#   generalhistoryfo00myerrich_787: 1.0
#   selwynhouseschoo1940selw_21: 1.0
#   lifeofstratfordc02laneuoft_185: 1.0
#   historyofuniteds07good_239: 1.0
#   shorthistoryofmo00haslrich_98: 1.0
#   cambridgemodern09protgoog_449: 1.0

###################################
# spreading activation process log: 
#   pulse 0: activated nodes: 6, borderline nodes: 6, overall activation: 0.000, activation diff: 0.000, ratio: Infinity
#   pulse 1: activated nodes: 69, borderline nodes: 63, overall activation: 16.366, activation diff: 16.366, ratio: 1.000
#   pulse 2: activated nodes: 7459, borderline nodes: 7390, overall activation: 487.735, activation diff: 473.839, ratio: 0.972
#   pulse 3: activated nodes: 8990, borderline nodes: 4844, overall activation: 1022.563, activation diff: 537.726, ratio: 0.526
#   pulse 4: activated nodes: 11226, borderline nodes: 5622, overall activation: 2834.741, activation diff: 1812.178, ratio: 0.639
#   pulse 5: activated nodes: 11397, borderline nodes: 1281, overall activation: 4432.997, activation diff: 1598.256, ratio: 0.361
#   pulse 6: activated nodes: 11432, borderline nodes: 415, overall activation: 5487.465, activation diff: 1054.468, ratio: 0.192
#   pulse 7: activated nodes: 11446, borderline nodes: 180, overall activation: 6118.715, activation diff: 631.250, ratio: 0.103
#   pulse 8: activated nodes: 11453, borderline nodes: 101, overall activation: 6483.345, activation diff: 364.631, ratio: 0.056
#   pulse 9: activated nodes: 11455, borderline nodes: 72, overall activation: 6690.733, activation diff: 207.387, ratio: 0.031

###################################
# spreading activation process summary: 
#   final number of activated nodes: 11455
#   final overall activation: 6690.7
#   number of spread. activ. pulses: 9
#   running time: 1405

###################################
# top k results in TREC format: 

1   Q1   historyofuniteds07good_239   1   0.9980163   REFERENCES:SIMDATES:SIMLOC
1   Q1   selwynhouseschoo1940selw_21   2   0.9976108   REFERENCES:SIMDATES:SIMLOC
1   Q1   cambridgemodern09protgoog_449   3   0.9970224   REFERENCES:SIMDATES:SIMLOC
1   Q1   shorthistoryofmo00haslrich_98   4   0.9969782   REFERENCES:SIMDATES:SIMLOC
1   Q1   generalhistoryfo00myerrich_787   5   0.9933512   REFERENCES:SIMDATES:SIMLOC
1   Q1   lifeofstratfordc02laneuoft_185   6   0.98521996   REFERENCES:SIMDATES:SIMLOC
1   Q1   englishcyclopae05kniggoog_147   7   0.79678667   REFERENCES:SIMDATES:SIMLOC
1   Q1   encyclopediaame28unkngoog_327   8   0.7967007   REFERENCES:SIMDATES:SIMLOC
1   Q1   encyclopediaame28unkngoog_325   9   0.79656744   REFERENCES:SIMDATES:SIMLOC
1   Q1   europesincenapol00leveuoft_16   10   0.7964953   REFERENCES:SIMDATES:SIMLOC
1   Q1   encyclopediaame28unkngoog_323   11   0.7964071   REFERENCES:SIMDATES:SIMLOC
1   Q1   encyclopediaame28unkngoog_318   12   0.79637957   REFERENCES:SIMDATES:SIMLOC
1   Q1   englishcyclopae05kniggoog_88   13   0.7963073   REFERENCES:SIMDATES:SIMLOC
1   Q1   ouroldworldbackg00bearrich_446   14   0.79630065   REFERENCES:SIMDATES:SIMLOC
1   Q1   europesincenapol00leveuoft_17   15   0.79629207   REFERENCES:SIMDATES:SIMLOC
1   Q1   encyclopediaame28unkngoog_326   16   0.79628026   REFERENCES:SIMDATES:SIMLOC
1   Q1   politicalsketche00retsrich_96   17   0.7962706   REFERENCES:SIMDATES:SIMLOC
1   Q1   encyclopediaame28unkngoog_367   18   0.79626703   REFERENCES:SIMDATES:SIMLOC
1   Q1   shorthistoryofmo00haslrich_23   19   0.79625607   REFERENCES:SIMDATES:SIMLOC
1   Q1   politicalsketche00retsrich_154   20   0.7962413   REFERENCES:SIMDATES:SIMLOC
