###################################
# parameters: 
#   decay: 0.1
#   lambda: 0.25
#   norm_threshold: 0.1
#   relationships: REFERENCES:SIMDATES:SIMLOC

###################################
# configuration: 
#   sa.act_diff_ratio_limit = 0.05
#   sa.function = ciir.multi.sa.DecayedSumSAFunction(norm_function, 0.1, 0.25)
#   sa.id_property_name.DATE = dateID
#   sa.id_property_name.DOCUMENT = docID
#   sa.id_property_name.LOCATION = locID
#   sa.max_pulses = 20
#   sa.norm_function = ciir.multi.sa.SigmoidFunction(0.1, 1.0)
#   sa.relationships_to_use = REFERENCES:SIMDATES:SIMLOC
#   sa.weight_property.REFERENCES = relevance
#   sa.weight_property.SIMDATES = sim
#   sa.weight_property.SIMLOC = sim

###################################
# initial activations: 
#   generalhistoryfo00myerrich_787: 1.0
#   selwynhouseschoo1940selw_21: 1.0
#   lifeofstratfordc02laneuoft_185: 1.0
#   historyofuniteds07good_239: 1.0
#   shorthistoryofmo00haslrich_98: 1.0
#   cambridgemodern09protgoog_449: 1.0

###################################
# spreading activation process log: 
#   pulse 0: activated nodes: 6, borderline nodes: 6, overall activation: 0.000, activation diff: 0.000, ratio: Infinity
#   pulse 1: activated nodes: 69, borderline nodes: 63, overall activation: 25.124, activation diff: 28.124, ratio: 1.119
#   pulse 2: activated nodes: 7459, borderline nodes: 7390, overall activation: 1647.012, activation diff: 1642.006, ratio: 0.997
#   pulse 3: activated nodes: 9885, borderline nodes: 3956, overall activation: 2707.428, activation diff: 1297.444, ratio: 0.479
#   pulse 4: activated nodes: 11396, borderline nodes: 2539, overall activation: 6488.638, activation diff: 3781.447, ratio: 0.583
#   pulse 5: activated nodes: 11447, borderline nodes: 194, overall activation: 7984.850, activation diff: 1496.212, ratio: 0.187
#   pulse 6: activated nodes: 11458, borderline nodes: 38, overall activation: 8497.610, activation diff: 512.760, ratio: 0.060
#   pulse 7: activated nodes: 11461, borderline nodes: 12, overall activation: 8667.645, activation diff: 170.035, ratio: 0.020

###################################
# spreading activation process summary: 
#   final number of activated nodes: 11461
#   final overall activation: 8667.6
#   number of spread. activ. pulses: 7
#   running time: 1369

###################################
# top k results in TREC format: 

1   Q1   historyofuniteds07good_239   1   0.9998076   REFERENCES:SIMDATES:SIMLOC
1   Q1   selwynhouseschoo1940selw_21   2   0.9997456   REFERENCES:SIMDATES:SIMLOC
1   Q1   cambridgemodern09protgoog_449   3   0.9996363   REFERENCES:SIMDATES:SIMLOC
1   Q1   shorthistoryofmo00haslrich_98   4   0.9996183   REFERENCES:SIMDATES:SIMLOC
1   Q1   generalhistoryfo00myerrich_787   5   0.9972693   REFERENCES:SIMDATES:SIMLOC
1   Q1   lifeofstratfordc02laneuoft_185   6   0.9932144   REFERENCES:SIMDATES:SIMLOC
1   Q1   englishcyclopae05kniggoog_147   7   0.8997717   REFERENCES:SIMDATES:SIMLOC
1   Q1   encyclopediaame28unkngoog_327   8   0.89973783   REFERENCES:SIMDATES:SIMLOC
1   Q1   encyclopediaame28unkngoog_325   9   0.8997005   REFERENCES:SIMDATES:SIMLOC
1   Q1   politicalsketche00retsrich_96   10   0.89970016   REFERENCES:SIMDATES:SIMLOC
1   Q1   encyclopediaame28unkngoog_367   11   0.89969695   REFERENCES:SIMDATES:SIMLOC
1   Q1   encyclopediaame28unkngoog_323   12   0.8996856   REFERENCES:SIMDATES:SIMLOC
1   Q1   encyclopediaame28unkngoog_522   13   0.899681   REFERENCES:SIMDATES:SIMLOC
1   Q1   bookman44unkngoog_717   14   0.8996803   REFERENCES:SIMDATES:SIMLOC
1   Q1   europesincenapol00leveuoft_16   15   0.8996797   REFERENCES:SIMDATES:SIMLOC
1   Q1   europesincenapol00leveuoft_17   16   0.89966524   REFERENCES:SIMDATES:SIMLOC
1   Q1   englishcyclopae05kniggoog_88   17   0.89966   REFERENCES:SIMDATES:SIMLOC
1   Q1   encyclopediaame28unkngoog_318   18   0.8996451   REFERENCES:SIMDATES:SIMLOC
1   Q1   encyclopediaame28unkngoog_545   19   0.899644   REFERENCES:SIMDATES:SIMLOC
1   Q1   politicalsketche00retsrich_154   20   0.8996356   REFERENCES:SIMDATES:SIMLOC
