###################################
# parameters: 
#   decay: 0.1
#   lambda: 0.5
#   norm_threshold: 0.2
#   relationships: REFERENCES:SIMDATES:SIMLOC

###################################
# configuration: 
#   sa.act_diff_ratio_limit = 0.05
#   sa.function = ciir.multi.sa.DecayedSumSAFunction(norm_function, 0.1, 0.5)
#   sa.id_property_name.DATE = dateID
#   sa.id_property_name.DOCUMENT = docID
#   sa.id_property_name.LOCATION = locID
#   sa.max_pulses = 20
#   sa.norm_function = ciir.multi.sa.SigmoidFunction(0.2, 1.0)
#   sa.relationships_to_use = REFERENCES:SIMDATES:SIMLOC
#   sa.weight_property.REFERENCES = relevance
#   sa.weight_property.SIMDATES = sim
#   sa.weight_property.SIMLOC = sim

###################################
# initial activations: 
#   generalhistoryfo00myerrich_787: 1.0
#   selwynhouseschoo1940selw_21: 1.0
#   lifeofstratfordc02laneuoft_185: 1.0
#   historyofuniteds07good_239: 1.0
#   shorthistoryofmo00haslrich_98: 1.0
#   cambridgemodern09protgoog_449: 1.0

###################################
# spreading activation process log: 
#   pulse 0: activated nodes: 6, borderline nodes: 6, overall activation: 0.000, activation diff: 0.000, ratio: Infinity
#   pulse 1: activated nodes: 69, borderline nodes: 63, overall activation: 17.583, activation diff: 17.583, ratio: 1.000
#   pulse 2: activated nodes: 7459, borderline nodes: 7390, overall activation: 660.877, activation diff: 644.624, ratio: 0.975
#   pulse 3: activated nodes: 9188, borderline nodes: 4940, overall activation: 1452.237, activation diff: 791.361, ratio: 0.545
#   pulse 4: activated nodes: 11322, borderline nodes: 4828, overall activation: 3866.769, activation diff: 2414.531, ratio: 0.624
#   pulse 5: activated nodes: 11422, borderline nodes: 630, overall activation: 5789.443, activation diff: 1922.674, ratio: 0.332
#   pulse 6: activated nodes: 11449, borderline nodes: 152, overall activation: 6995.784, activation diff: 1206.341, ratio: 0.172
#   pulse 7: activated nodes: 11455, borderline nodes: 60, overall activation: 7701.711, activation diff: 705.927, ratio: 0.092
#   pulse 8: activated nodes: 11456, borderline nodes: 38, overall activation: 8103.986, activation diff: 402.275, ratio: 0.050

###################################
# spreading activation process summary: 
#   final number of activated nodes: 11456
#   final overall activation: 8104.0
#   number of spread. activ. pulses: 8
#   running time: 1337

###################################
# top k results in TREC format: 

1   Q1   historyofuniteds07good_239   1   0.9960693   REFERENCES:SIMDATES:SIMLOC
1   Q1   selwynhouseschoo1940selw_21   2   0.99553883   REFERENCES:SIMDATES:SIMLOC
1   Q1   cambridgemodern09protgoog_449   3   0.9948503   REFERENCES:SIMDATES:SIMLOC
1   Q1   shorthistoryofmo00haslrich_98   4   0.9945977   REFERENCES:SIMDATES:SIMLOC
1   Q1   generalhistoryfo00myerrich_787   5   0.9903182   REFERENCES:SIMDATES:SIMLOC
1   Q1   lifeofstratfordc02laneuoft_185   6   0.9804181   REFERENCES:SIMDATES:SIMLOC
1   Q1   englishcyclopae05kniggoog_147   7   0.8928633   REFERENCES:SIMDATES:SIMLOC
1   Q1   encyclopediaame28unkngoog_327   8   0.89271355   REFERENCES:SIMDATES:SIMLOC
1   Q1   encyclopediaame28unkngoog_325   9   0.8925429   REFERENCES:SIMDATES:SIMLOC
1   Q1   europesincenapol00leveuoft_16   10   0.89247257   REFERENCES:SIMDATES:SIMLOC
1   Q1   encyclopediaame28unkngoog_323   11   0.8922359   REFERENCES:SIMDATES:SIMLOC
1   Q1   englishcyclopae05kniggoog_88   12   0.89221746   REFERENCES:SIMDATES:SIMLOC
1   Q1   encyclopediaame28unkngoog_318   13   0.89218265   REFERENCES:SIMDATES:SIMLOC
1   Q1   encyclopediaame28unkngoog_367   14   0.89211005   REFERENCES:SIMDATES:SIMLOC
1   Q1   europesincenapol00leveuoft_17   15   0.8920779   REFERENCES:SIMDATES:SIMLOC
1   Q1   politicalsketche00retsrich_96   16   0.89205194   REFERENCES:SIMDATES:SIMLOC
1   Q1   encyclopediaame28unkngoog_326   17   0.8920325   REFERENCES:SIMDATES:SIMLOC
1   Q1   ouroldworldbackg00bearrich_446   18   0.8920295   REFERENCES:SIMDATES:SIMLOC
1   Q1   shorthistoryofmo00haslrich_23   19   0.89199734   REFERENCES:SIMDATES:SIMLOC
1   Q1   politicalsketche00retsrich_154   20   0.89195096   REFERENCES:SIMDATES:SIMLOC
