###################################
# parameters: 
#   decay: 0.1
#   lambda: 0.25
#   norm_threshold: 0.3
#   relationships: REFERENCES:SIMDATES:SIMLOC

###################################
# configuration: 
#   sa.act_diff_ratio_limit = 0.05
#   sa.function = ciir.multi.sa.DecayedSumSAFunction(norm_function, 0.1, 0.25)
#   sa.id_property_name.DATE = dateID
#   sa.id_property_name.DOCUMENT = docID
#   sa.id_property_name.LOCATION = locID
#   sa.max_pulses = 20
#   sa.norm_function = ciir.multi.sa.SigmoidFunction(0.3, 1.0)
#   sa.relationships_to_use = REFERENCES:SIMDATES:SIMLOC
#   sa.weight_property.REFERENCES = relevance
#   sa.weight_property.SIMDATES = sim
#   sa.weight_property.SIMLOC = sim

###################################
# initial activations: 
#   generalhistoryfo00myerrich_787: 1.0
#   selwynhouseschoo1940selw_21: 1.0
#   lifeofstratfordc02laneuoft_185: 1.0
#   historyofuniteds07good_239: 1.0
#   shorthistoryofmo00haslrich_98: 1.0
#   cambridgemodern09protgoog_449: 1.0

###################################
# spreading activation process log: 
#   pulse 0: activated nodes: 6, borderline nodes: 6, overall activation: 0.000, activation diff: 0.000, ratio: Infinity
#   pulse 1: activated nodes: 69, borderline nodes: 63, overall activation: 21.549, activation diff: 24.549, ratio: 1.139
#   pulse 2: activated nodes: 7459, borderline nodes: 7390, overall activation: 1236.219, activation diff: 1238.052, ratio: 1.001
#   pulse 3: activated nodes: 9162, borderline nodes: 4949, overall activation: 1680.527, activation diff: 1077.774, ratio: 0.641
#   pulse 4: activated nodes: 11323, borderline nodes: 4822, overall activation: 5661.298, activation diff: 3991.485, ratio: 0.705
#   pulse 5: activated nodes: 11423, borderline nodes: 584, overall activation: 7478.688, activation diff: 1817.405, ratio: 0.243
#   pulse 6: activated nodes: 11450, borderline nodes: 131, overall activation: 8155.848, activation diff: 677.160, ratio: 0.083
#   pulse 7: activated nodes: 11455, borderline nodes: 53, overall activation: 8393.198, activation diff: 237.350, ratio: 0.028

###################################
# spreading activation process summary: 
#   final number of activated nodes: 11455
#   final overall activation: 8393.2
#   number of spread. activ. pulses: 7
#   running time: 1396

###################################
# top k results in TREC format: 

1   Q1   historyofuniteds07good_239   1   0.99970335   REFERENCES:SIMDATES:SIMLOC
1   Q1   selwynhouseschoo1940selw_21   2   0.99952704   REFERENCES:SIMDATES:SIMLOC
1   Q1   shorthistoryofmo00haslrich_98   3   0.99929446   REFERENCES:SIMDATES:SIMLOC
1   Q1   cambridgemodern09protgoog_449   4   0.9990801   REFERENCES:SIMDATES:SIMLOC
1   Q1   generalhistoryfo00myerrich_787   5   0.9964087   REFERENCES:SIMDATES:SIMLOC
1   Q1   lifeofstratfordc02laneuoft_185   6   0.9912244   REFERENCES:SIMDATES:SIMLOC
1   Q1   englishcyclopae05kniggoog_147   7   0.8996854   REFERENCES:SIMDATES:SIMLOC
1   Q1   encyclopediaame28unkngoog_327   8   0.89959216   REFERENCES:SIMDATES:SIMLOC
1   Q1   encyclopediaame28unkngoog_323   9   0.899455   REFERENCES:SIMDATES:SIMLOC
1   Q1   politicalsketche00retsrich_96   10   0.8994542   REFERENCES:SIMDATES:SIMLOC
1   Q1   encyclopediaame28unkngoog_325   11   0.899434   REFERENCES:SIMDATES:SIMLOC
1   Q1   politicalsketche00retsrich_154   12   0.8993842   REFERENCES:SIMDATES:SIMLOC
1   Q1   europesincenapol00leveuoft_17   13   0.8993759   REFERENCES:SIMDATES:SIMLOC
1   Q1   encyclopediaame28unkngoog_367   14   0.8993744   REFERENCES:SIMDATES:SIMLOC
1   Q1   encyclopediaame28unkngoog_318   15   0.899372   REFERENCES:SIMDATES:SIMLOC
1   Q1   ouroldworldbackg00bearrich_446   16   0.89934325   REFERENCES:SIMDATES:SIMLOC
1   Q1   bookman44unkngoog_717   17   0.89934266   REFERENCES:SIMDATES:SIMLOC
1   Q1   encyclopediaame28unkngoog_326   18   0.899311   REFERENCES:SIMDATES:SIMLOC
1   Q1   shorthistoryofmo00haslrich_23   19   0.89929956   REFERENCES:SIMDATES:SIMLOC
1   Q1   essentialsinmod01howegoog_293   20   0.8992949   REFERENCES:SIMDATES:SIMLOC
