###################################
# parameters: 
#   date_th: 0.3
#   doc_th: 0.6
#   loc_th: 0.35
#   nodestouse: DOCUMENT:DATE:LOCATION
#   relationships: REFERENCES:SIMDATES

###################################
# configuration: 
#   sa.act_diff_ratio_limit = 0.01
#   sa.act_diff_ratio_limit_diff = 0.01
#   sa.function = ciir.multi.sa.function.MaxSAFunction(norm_function)
#   sa.id_property_name.DATE = dateID
#   sa.id_property_name.DOCUMENT = docID
#   sa.id_property_name.LOCATION = locID
#   sa.max_pulses = 10
#   sa.nodes_to_print = DATE:LOCATION
#   sa.nodes_to_use = DOCUMENT:DATE:LOCATION
#   sa.norm_function = ciir.multi.sa.SigmoidFunction(0.0, 1.0)
#   sa.relationships_to_use = REFERENCES:SIMDATES
#   sa.spread_threshold.DATE = 0.3
#   sa.spread_threshold.DOCUMENT = 0.6
#   sa.spread_threshold.LOCATION = 0.35
#   sa.weight_property.REFERENCES = relevance
#   sa.weight_property.SIMDATES = sim
#   sa.weight_property.SIMDOC = sim
#   sa.weight_property.SIMLOC = sim
#   sa.weight_property.SIMPAGE = pagesim

###################################
# initial activations (3): 
#   cu31924014592566_749, 1
#   encyclopediabrit03newyrich_155, 1
#   cu31924082142666_16, 1

###################################
# spreading activation process log: 
#   pulse 0: activated: 3, non-zero: 3, borderline: 3, overall act: 3.000, act diff: 3.000, ratio: 1.000
#   pulse 1: activated: 70, non-zero: 70, borderline: 67, overall act: 13.279, act diff: 10.279, ratio: 0.774
#   pulse 2: activated: 127583, non-zero: 127583, borderline: 127576, overall act: 15775.310, act diff: 15762.031, ratio: 0.999
#   pulse 3: activated: 127583, non-zero: 127583, borderline: 127576, overall act: 15775.310, act diff: 0.000, ratio: 0.000

###################################
# spreading activation process summary: 
#   final number of activated nodes: 127583
#   final overall activation: 15775.3
#   number of spread. activ. pulses: 3
#   running time: 62426

###################################
# top k results in TREC format: 

9   rel3-2   1855   1   0.10363388   nodesDOCUMENT:DATE:LOCATION-edgesREFERENCES:SIMDATES-date_th0.3-doc_th0.6-loc_th0.35
9   rel3-2   1853   2   0.10363388   nodesDOCUMENT:DATE:LOCATION-edgesREFERENCES:SIMDATES-date_th0.3-doc_th0.6-loc_th0.35
9   rel3-2   1851   3   0.10363388   nodesDOCUMENT:DATE:LOCATION-edgesREFERENCES:SIMDATES-date_th0.3-doc_th0.6-loc_th0.35
9   rel3-2   1859   4   0.10363388   nodesDOCUMENT:DATE:LOCATION-edgesREFERENCES:SIMDATES-date_th0.3-doc_th0.6-loc_th0.35
9   rel3-2   1857   5   0.10363388   nodesDOCUMENT:DATE:LOCATION-edgesREFERENCES:SIMDATES-date_th0.3-doc_th0.6-loc_th0.35
9   rel3-2   1866   6   0.10363388   nodesDOCUMENT:DATE:LOCATION-edgesREFERENCES:SIMDATES-date_th0.3-doc_th0.6-loc_th0.35
9   rel3-2   1864   7   0.10363388   nodesDOCUMENT:DATE:LOCATION-edgesREFERENCES:SIMDATES-date_th0.3-doc_th0.6-loc_th0.35
9   rel3-2   1862   8   0.10363388   nodesDOCUMENT:DATE:LOCATION-edgesREFERENCES:SIMDATES-date_th0.3-doc_th0.6-loc_th0.35
9   rel3-2   1860   9   0.10363388   nodesDOCUMENT:DATE:LOCATION-edgesREFERENCES:SIMDATES-date_th0.3-doc_th0.6-loc_th0.35
9   rel3-2   1869   10   0.10363388   nodesDOCUMENT:DATE:LOCATION-edgesREFERENCES:SIMDATES-date_th0.3-doc_th0.6-loc_th0.35
9   rel3-2   1861   11   0.10363388   nodesDOCUMENT:DATE:LOCATION-edgesREFERENCES:SIMDATES-date_th0.3-doc_th0.6-loc_th0.35
9   rel3-2   1863   12   0.10363388   nodesDOCUMENT:DATE:LOCATION-edgesREFERENCES:SIMDATES-date_th0.3-doc_th0.6-loc_th0.35
9   rel3-2   1865   13   0.10363388   nodesDOCUMENT:DATE:LOCATION-edgesREFERENCES:SIMDATES-date_th0.3-doc_th0.6-loc_th0.35
9   rel3-2   1856   14   0.10363388   nodesDOCUMENT:DATE:LOCATION-edgesREFERENCES:SIMDATES-date_th0.3-doc_th0.6-loc_th0.35
9   rel3-2   1858   15   0.10363388   nodesDOCUMENT:DATE:LOCATION-edgesREFERENCES:SIMDATES-date_th0.3-doc_th0.6-loc_th0.35
9   rel3-2   1850   16   0.10363388   nodesDOCUMENT:DATE:LOCATION-edgesREFERENCES:SIMDATES-date_th0.3-doc_th0.6-loc_th0.35
9   rel3-2   1852   17   0.10363388   nodesDOCUMENT:DATE:LOCATION-edgesREFERENCES:SIMDATES-date_th0.3-doc_th0.6-loc_th0.35
9   rel3-2   1854   18   0.10363388   nodesDOCUMENT:DATE:LOCATION-edgesREFERENCES:SIMDATES-date_th0.3-doc_th0.6-loc_th0.35
9   rel3-2   1848   19   0.10363388   nodesDOCUMENT:DATE:LOCATION-edgesREFERENCES:SIMDATES-date_th0.3-doc_th0.6-loc_th0.35
9   rel3-2   1849   20   0.10363388   nodesDOCUMENT:DATE:LOCATION-edgesREFERENCES:SIMDATES-date_th0.3-doc_th0.6-loc_th0.35

###################################
# top nodes: 

# 9   rel3-2   cu31924014592566_749   1   1.0   nodesDOCUMENT:DATE:LOCATION-edgesREFERENCES:SIMDATES-date_th0.3-doc_th0.6-loc_th0.35
# 9   rel3-2   encyclopediabrit03newyrich_155   2   1.0   nodesDOCUMENT:DATE:LOCATION-edgesREFERENCES:SIMDATES-date_th0.3-doc_th0.6-loc_th0.35
# 9   rel3-2   cu31924082142666_16   3   1.0   nodesDOCUMENT:DATE:LOCATION-edgesREFERENCES:SIMDATES-date_th0.3-doc_th0.6-loc_th0.35
# 9   rel3-2   austria   4   0.61092687   nodesDOCUMENT:DATE:LOCATION-edgesREFERENCES:SIMDATES-date_th0.3-doc_th0.6-loc_th0.35
# 9   rel3-2   prussia   5   0.534032   nodesDOCUMENT:DATE:LOCATION-edgesREFERENCES:SIMDATES-date_th0.3-doc_th0.6-loc_th0.35
# 9   rel3-2   saxony   6   0.46734744   nodesDOCUMENT:DATE:LOCATION-edgesREFERENCES:SIMDATES-date_th0.3-doc_th0.6-loc_th0.35
# 9   rel3-2   marvelousstoryof00nort_227   7   0.45021036   nodesDOCUMENT:DATE:LOCATION-edgesREFERENCES:SIMDATES-date_th0.3-doc_th0.6-loc_th0.35
# 9   rel3-2   lifetimesofstein02seeluoft_259   8   0.44077384   nodesDOCUMENT:DATE:LOCATION-edgesREFERENCES:SIMDATES-date_th0.3-doc_th0.6-loc_th0.35
# 9   rel3-2   cu31924014592566_362   9   0.4381511   nodesDOCUMENT:DATE:LOCATION-edgesREFERENCES:SIMDATES-date_th0.3-doc_th0.6-loc_th0.35
# 9   rel3-2   ourchancellorske00buscuoft_403   10   0.43216068   nodesDOCUMENT:DATE:LOCATION-edgesREFERENCES:SIMDATES-date_th0.3-doc_th0.6-loc_th0.35
# 9   rel3-2   foundationsofger00barkuoft_97   11   0.43139943   nodesDOCUMENT:DATE:LOCATION-edgesREFERENCES:SIMDATES-date_th0.3-doc_th0.6-loc_th0.35
# 9   rel3-2   journalpolitica02socigoog_11   12   0.42867306   nodesDOCUMENT:DATE:LOCATION-edgesREFERENCES:SIMDATES-date_th0.3-doc_th0.6-loc_th0.35
# 9   rel3-2   cu31924088053800_143   13   0.42857257   nodesDOCUMENT:DATE:LOCATION-edgesREFERENCES:SIMDATES-date_th0.3-doc_th0.6-loc_th0.35
# 9   rel3-2   foundationsofger00barkuoft_248   14   0.42854428   nodesDOCUMENT:DATE:LOCATION-edgesREFERENCES:SIMDATES-date_th0.3-doc_th0.6-loc_th0.35
# 9   rel3-2   menwhohavemaden00stragoog_155   15   0.42679802   nodesDOCUMENT:DATE:LOCATION-edgesREFERENCES:SIMDATES-date_th0.3-doc_th0.6-loc_th0.35
# 9   rel3-2   threegermanysgl00faygoog_392   16   0.42219427   nodesDOCUMENT:DATE:LOCATION-edgesREFERENCES:SIMDATES-date_th0.3-doc_th0.6-loc_th0.35
# 9   rel3-2   outlineseuropea04beargoog_378   17   0.42109182   nodesDOCUMENT:DATE:LOCATION-edgesREFERENCES:SIMDATES-date_th0.3-doc_th0.6-loc_th0.35
# 9   rel3-2   threegermanysgl00faygoog_397   18   0.42103443   nodesDOCUMENT:DATE:LOCATION-edgesREFERENCES:SIMDATES-date_th0.3-doc_th0.6-loc_th0.35
# 9   rel3-2   foundationsofger00barkuoft_95   19   0.42039192   nodesDOCUMENT:DATE:LOCATION-edgesREFERENCES:SIMDATES-date_th0.3-doc_th0.6-loc_th0.35
# 9   rel3-2   europe1789192000turnrich_277   20   0.418939   nodesDOCUMENT:DATE:LOCATION-edgesREFERENCES:SIMDATES-date_th0.3-doc_th0.6-loc_th0.35
# 9   rel3-2   shorthistoryofeu00terr_454   21   0.4173598   nodesDOCUMENT:DATE:LOCATION-edgesREFERENCES:SIMDATES-date_th0.3-doc_th0.6-loc_th0.35
# 9   rel3-2   threegermanysgl00faygoog_358   22   0.41639733   nodesDOCUMENT:DATE:LOCATION-edgesREFERENCES:SIMDATES-date_th0.3-doc_th0.6-loc_th0.35
# 9   rel3-2   foundationsofger00barkuoft_355   23   0.4163128   nodesDOCUMENT:DATE:LOCATION-edgesREFERENCES:SIMDATES-date_th0.3-doc_th0.6-loc_th0.35
# 9   rel3-2   foundationsofger00barkuoft_359   24   0.4161592   nodesDOCUMENT:DATE:LOCATION-edgesREFERENCES:SIMDATES-date_th0.3-doc_th0.6-loc_th0.35
# 9   rel3-2   cu31924014592566_291   25   0.41568854   nodesDOCUMENT:DATE:LOCATION-edgesREFERENCES:SIMDATES-date_th0.3-doc_th0.6-loc_th0.35
# 9   rel3-2   lifetimesofstein02seeluoft_358   26   0.41501385   nodesDOCUMENT:DATE:LOCATION-edgesREFERENCES:SIMDATES-date_th0.3-doc_th0.6-loc_th0.35
# 9   rel3-2   travelsinnorthg00dwiggoog_356   27   0.4120073   nodesDOCUMENT:DATE:LOCATION-edgesREFERENCES:SIMDATES-date_th0.3-doc_th0.6-loc_th0.35
# 9   rel3-2   ourchancellorske00buscuoft_354   28   0.41015857   nodesDOCUMENT:DATE:LOCATION-edgesREFERENCES:SIMDATES-date_th0.3-doc_th0.6-loc_th0.35
# 9   rel3-2   cu31924082142666_334   29   0.40823767   nodesDOCUMENT:DATE:LOCATION-edgesREFERENCES:SIMDATES-date_th0.3-doc_th0.6-loc_th0.35
# 9   rel3-2   politicalliferi05stapgoog_26   30   0.40781617   nodesDOCUMENT:DATE:LOCATION-edgesREFERENCES:SIMDATES-date_th0.3-doc_th0.6-loc_th0.35
# 9   rel3-2   europe1789192000turnrich_275   31   0.4074076   nodesDOCUMENT:DATE:LOCATION-edgesREFERENCES:SIMDATES-date_th0.3-doc_th0.6-loc_th0.35
# 9   rel3-2   commentariesupon01philuoft_251   32   0.40706715   nodesDOCUMENT:DATE:LOCATION-edgesREFERENCES:SIMDATES-date_th0.3-doc_th0.6-loc_th0.35
# 9   rel3-2   cu31924082142666_25   33   0.40328336   nodesDOCUMENT:DATE:LOCATION-edgesREFERENCES:SIMDATES-date_th0.3-doc_th0.6-loc_th0.35
# 9   rel3-2   worldshistoryits06sandiala_247   34   0.40210712   nodesDOCUMENT:DATE:LOCATION-edgesREFERENCES:SIMDATES-date_th0.3-doc_th0.6-loc_th0.35
# 9   rel3-2   theglobe02philuoft_246   35   0.40152532   nodesDOCUMENT:DATE:LOCATION-edgesREFERENCES:SIMDATES-date_th0.3-doc_th0.6-loc_th0.35
# 9   rel3-2   greatbritainprus00lodguoft_68   36   0.4010329   nodesDOCUMENT:DATE:LOCATION-edgesREFERENCES:SIMDATES-date_th0.3-doc_th0.6-loc_th0.35
# 9   rel3-2   no11candidquarte06londuoft_129   37   0.40081078   nodesDOCUMENT:DATE:LOCATION-edgesREFERENCES:SIMDATES-date_th0.3-doc_th0.6-loc_th0.35
# 9   rel3-2   lifeofnapoleonbu00scot_443   38   0.40075928   nodesDOCUMENT:DATE:LOCATION-edgesREFERENCES:SIMDATES-date_th0.3-doc_th0.6-loc_th0.35
# 9   rel3-2   lifetimesofstein02seeluoft_364   39   0.40055582   nodesDOCUMENT:DATE:LOCATION-edgesREFERENCES:SIMDATES-date_th0.3-doc_th0.6-loc_th0.35
# 9   rel3-2   bebelsreminiscen00bebe_154   40   0.40018126   nodesDOCUMENT:DATE:LOCATION-edgesREFERENCES:SIMDATES-date_th0.3-doc_th0.6-loc_th0.35
