###################################
# parameters: 
#   date_th: 0.25
#   doc_th: 0.6
#   loc_th: 0.35
#   nodestouse: DOCUMENT:DATE:LOCATION
#   relationships: REFERENCES:SIMLOC

###################################
# configuration: 
#   sa.act_diff_ratio_limit = 0.01
#   sa.act_diff_ratio_limit_diff = 0.01
#   sa.function = ciir.multi.sa.function.MaxSAFunction(norm_function)
#   sa.id_property_name.DATE = dateID
#   sa.id_property_name.DOCUMENT = docID
#   sa.id_property_name.LOCATION = locID
#   sa.max_pulses = 10
#   sa.nodes_to_print = DATE:LOCATION
#   sa.nodes_to_use = DOCUMENT:DATE:LOCATION
#   sa.norm_function = ciir.multi.sa.SigmoidFunction(0.0, 1.0)
#   sa.relationships_to_use = REFERENCES:SIMLOC
#   sa.spread_threshold.DATE = 0.25
#   sa.spread_threshold.DOCUMENT = 0.6
#   sa.spread_threshold.LOCATION = 0.35
#   sa.weight_property.REFERENCES = relevance
#   sa.weight_property.SIMDATES = sim
#   sa.weight_property.SIMDOC = sim
#   sa.weight_property.SIMLOC = sim
#   sa.weight_property.SIMPAGE = pagesim

###################################
# initial activations (3): 
#   englandsfightwit00wals_354, 1
#   cu31924029563875_157, 1
#   hallamsworks04halliala_600, 1

###################################
# spreading activation process log: 
#   pulse 0: activated: 3, non-zero: 3, borderline: 3, overall act: 3.000, act diff: 3.000, ratio: 1.000
#   pulse 1: activated: 21, non-zero: 21, borderline: 18, overall act: 7.352, act diff: 4.352, ratio: 0.592
#   pulse 2: activated: 879945, non-zero: 879945, borderline: 879937, overall act: 112390.253, act diff: 112382.902, ratio: 1.000
#   pulse 3: activated: 879959, non-zero: 879959, borderline: 879906, overall act: 112396.959, act diff: 6.705, ratio: 0.000

###################################
# spreading activation process summary: 
#   final number of activated nodes: 879959
#   final overall activation: 112397.0
#   number of spread. activ. pulses: 3
#   running time: 143152

###################################
# top k results in TREC format: 

2   rel3-2   1641   1   1.0   nodesDOCUMENT:DATE:LOCATION-edgesREFERENCES:SIMLOC-date_th0.25-doc_th0.6-loc_th0.35
2   rel3-2   1845   2   0.30540052   nodesDOCUMENT:DATE:LOCATION-edgesREFERENCES:SIMLOC-date_th0.25-doc_th0.6-loc_th0.35
2   rel3-2   1689   3   0.16514042   nodesDOCUMENT:DATE:LOCATION-edgesREFERENCES:SIMLOC-date_th0.25-doc_th0.6-loc_th0.35
2   rel3-2   1701   4   0.16514042   nodesDOCUMENT:DATE:LOCATION-edgesREFERENCES:SIMLOC-date_th0.25-doc_th0.6-loc_th0.35
2   rel3-2   1699   5   0.16514042   nodesDOCUMENT:DATE:LOCATION-edgesREFERENCES:SIMLOC-date_th0.25-doc_th0.6-loc_th0.35
2   rel3-2   1690   6   0.16514042   nodesDOCUMENT:DATE:LOCATION-edgesREFERENCES:SIMLOC-date_th0.25-doc_th0.6-loc_th0.35
2   rel3-2   1651   7   0.16514042   nodesDOCUMENT:DATE:LOCATION-edgesREFERENCES:SIMLOC-date_th0.25-doc_th0.6-loc_th0.35
2   rel3-2   1643   8   0.16514042   nodesDOCUMENT:DATE:LOCATION-edgesREFERENCES:SIMLOC-date_th0.25-doc_th0.6-loc_th0.35

###################################
# top nodes: 

# 2   rel3-2   cu31924029563875_157   1   1.0   nodesDOCUMENT:DATE:LOCATION-edgesREFERENCES:SIMLOC-date_th0.25-doc_th0.6-loc_th0.35
# 2   rel3-2   ireland   2   1.0   nodesDOCUMENT:DATE:LOCATION-edgesREFERENCES:SIMLOC-date_th0.25-doc_th0.6-loc_th0.35
# 2   rel3-2   1641   3   1.0   nodesDOCUMENT:DATE:LOCATION-edgesREFERENCES:SIMLOC-date_th0.25-doc_th0.6-loc_th0.35
# 2   rel3-2   hallamsworks04halliala_600   4   1.0   nodesDOCUMENT:DATE:LOCATION-edgesREFERENCES:SIMLOC-date_th0.25-doc_th0.6-loc_th0.35
# 2   rel3-2   englandsfightwit00wals_354   5   1.0   nodesDOCUMENT:DATE:LOCATION-edgesREFERENCES:SIMLOC-date_th0.25-doc_th0.6-loc_th0.35
# 2   rel3-2   dublin   6   0.98966235   nodesDOCUMENT:DATE:LOCATION-edgesREFERENCES:SIMLOC-date_th0.25-doc_th0.6-loc_th0.35
# 2   rel3-2   london   7   0.83866245   nodesDOCUMENT:DATE:LOCATION-edgesREFERENCES:SIMLOC-date_th0.25-doc_th0.6-loc_th0.35
# 2   rel3-2   causeofirelandpl00orei_24   8   0.6349712   nodesDOCUMENT:DATE:LOCATION-edgesREFERENCES:SIMLOC-date_th0.25-doc_th0.6-loc_th0.35
# 2   rel3-2   causeofirelandpl00orei_432   9   0.6323343   nodesDOCUMENT:DATE:LOCATION-edgesREFERENCES:SIMLOC-date_th0.25-doc_th0.6-loc_th0.35
# 2   rel3-2   strangerinirelan00carr_91   10   0.63231665   nodesDOCUMENT:DATE:LOCATION-edgesREFERENCES:SIMLOC-date_th0.25-doc_th0.6-loc_th0.35
# 2   rel3-2   cu31924091770861_873   11   0.62753767   nodesDOCUMENT:DATE:LOCATION-edgesREFERENCES:SIMLOC-date_th0.25-doc_th0.6-loc_th0.35
# 2   rel3-2   historyofireland02daltuoft_409   12   0.619015   nodesDOCUMENT:DATE:LOCATION-edgesREFERENCES:SIMLOC-date_th0.25-doc_th0.6-loc_th0.35
# 2   rel3-2   olivercromwell00rossgoog_134   13   0.619015   nodesDOCUMENT:DATE:LOCATION-edgesREFERENCES:SIMLOC-date_th0.25-doc_th0.6-loc_th0.35
# 2   rel3-2   politicalstudies00broduoft_385   14   0.6183103   nodesDOCUMENT:DATE:LOCATION-edgesREFERENCES:SIMLOC-date_th0.25-doc_th0.6-loc_th0.35
# 2   rel3-2   bibliothecagrenv03grenrich_31   15   0.61736053   nodesDOCUMENT:DATE:LOCATION-edgesREFERENCES:SIMLOC-date_th0.25-doc_th0.6-loc_th0.35
# 2   rel3-2   landwarinireland00godk_205   16   0.61627054   nodesDOCUMENT:DATE:LOCATION-edgesREFERENCES:SIMLOC-date_th0.25-doc_th0.6-loc_th0.35
# 2   rel3-2   irelandonehundre00walsrich_38   17   0.61627054   nodesDOCUMENT:DATE:LOCATION-edgesREFERENCES:SIMLOC-date_th0.25-doc_th0.6-loc_th0.35
# 2   rel3-2   compendiumofhist02lawl_189   18   0.61627054   nodesDOCUMENT:DATE:LOCATION-edgesREFERENCES:SIMLOC-date_th0.25-doc_th0.6-loc_th0.35
# 2   rel3-2   commercialrestra00hely_255   19   0.61627054   nodesDOCUMENT:DATE:LOCATION-edgesREFERENCES:SIMLOC-date_th0.25-doc_th0.6-loc_th0.35
# 2   rel3-2   viceroyspostbag02macdgoog_266   20   0.61533123   nodesDOCUMENT:DATE:LOCATION-edgesREFERENCES:SIMLOC-date_th0.25-doc_th0.6-loc_th0.35
# 2   rel3-2   historyengland00macagoog_517   21   0.6124737   nodesDOCUMENT:DATE:LOCATION-edgesREFERENCES:SIMLOC-date_th0.25-doc_th0.6-loc_th0.35
# 2   rel3-2   cu31924027975733_414   22   0.6124737   nodesDOCUMENT:DATE:LOCATION-edgesREFERENCES:SIMLOC-date_th0.25-doc_th0.6-loc_th0.35
# 2   rel3-2   cangort park   23   0.6109669   nodesDOCUMENT:DATE:LOCATION-edgesREFERENCES:SIMLOC-date_th0.25-doc_th0.6-loc_th0.35
# 2   rel3-2   socialstateofgre00berm_196   24   0.6066881   nodesDOCUMENT:DATE:LOCATION-edgesREFERENCES:SIMLOC-date_th0.25-doc_th0.6-loc_th0.35
# 2   rel3-2   cu31924091770861_319   25   0.6040615   nodesDOCUMENT:DATE:LOCATION-edgesREFERENCES:SIMLOC-date_th0.25-doc_th0.6-loc_th0.35
# 2   rel3-2   cu31924091770861_286   26   0.6040615   nodesDOCUMENT:DATE:LOCATION-edgesREFERENCES:SIMLOC-date_th0.25-doc_th0.6-loc_th0.35
# 2   rel3-2   economichistoryo00obri_321   27   0.6040615   nodesDOCUMENT:DATE:LOCATION-edgesREFERENCES:SIMLOC-date_th0.25-doc_th0.6-loc_th0.35
# 2   rel3-2   constitutionalhi03hall_414   28   0.6040615   nodesDOCUMENT:DATE:LOCATION-edgesREFERENCES:SIMLOC-date_th0.25-doc_th0.6-loc_th0.35
# 2   rel3-2   fastiecclesiaeh02cottgoog_20   29   0.6040615   nodesDOCUMENT:DATE:LOCATION-edgesREFERENCES:SIMLOC-date_th0.25-doc_th0.6-loc_th0.35
# 2   rel3-2   treatiseofexcheq02howa_413   30   0.6040615   nodesDOCUMENT:DATE:LOCATION-edgesREFERENCES:SIMLOC-date_th0.25-doc_th0.6-loc_th0.35
# 2   rel3-2   treatiseofexcheq02howa_411   31   0.6040615   nodesDOCUMENT:DATE:LOCATION-edgesREFERENCES:SIMLOC-date_th0.25-doc_th0.6-loc_th0.35
# 2   rel3-2   treatiseofexcheq02howa_130   32   0.6040615   nodesDOCUMENT:DATE:LOCATION-edgesREFERENCES:SIMLOC-date_th0.25-doc_th0.6-loc_th0.35
# 2   rel3-2   statechurcheskin00allerich_587   33   0.6040615   nodesDOCUMENT:DATE:LOCATION-edgesREFERENCES:SIMLOC-date_th0.25-doc_th0.6-loc_th0.35
# 2   rel3-2   treatiseofexcheq02howa_421   34   0.6040615   nodesDOCUMENT:DATE:LOCATION-edgesREFERENCES:SIMLOC-date_th0.25-doc_th0.6-loc_th0.35
# 2   rel3-2   memoirsandcorre02castgoog_42   35   0.6040615   nodesDOCUMENT:DATE:LOCATION-edgesREFERENCES:SIMLOC-date_th0.25-doc_th0.6-loc_th0.35
# 2   rel3-2   proceedingsofro22roya_307   36   0.6040615   nodesDOCUMENT:DATE:LOCATION-edgesREFERENCES:SIMLOC-date_th0.25-doc_th0.6-loc_th0.35
# 2   rel3-2   compendiumofhist02lawl_76   37   0.6040615   nodesDOCUMENT:DATE:LOCATION-edgesREFERENCES:SIMLOC-date_th0.25-doc_th0.6-loc_th0.35
# 2   rel3-2   revolutionaryir00mahagoog_100   38   0.6040615   nodesDOCUMENT:DATE:LOCATION-edgesREFERENCES:SIMLOC-date_th0.25-doc_th0.6-loc_th0.35
# 2   rel3-2   causeofirelandpl00orei_345   39   0.6040615   nodesDOCUMENT:DATE:LOCATION-edgesREFERENCES:SIMLOC-date_th0.25-doc_th0.6-loc_th0.35
# 2   rel3-2   causeofirelandpl00orei_291   40   0.6040615   nodesDOCUMENT:DATE:LOCATION-edgesREFERENCES:SIMLOC-date_th0.25-doc_th0.6-loc_th0.35
