nodestouse,relationships,doc_th,date_th,loc_th,iter,seeds,number of spread. activ. pulses,final number of activated nodes,final overall activation,running time,run-id,map,P5,P10,P20,R-prec,
DOCUMENT:DATE:LOCATION,REFERENCES:SIMLOC:SIMPAGE,0.7,0.25,0.35,rel2-2,2,3,79734,9201.7,32353,book_collection_true_dates/date/query7//useDOCUMENT:DATE:LOCATIONuseREFERENCES:SIMLOC:SIMPAGE/rel2-2-date_th0.25-doc_th0.7-loc_th0.35.res.clean,0.250,0.200,0.100,0.100,0.250,
DOCUMENT:DATE:LOCATION,REFERENCES:SIMLOC:SIMPAGE,0.6,0.3,0.4,rel1-1,1,3,79732,6178.4,32073,book_collection_true_dates/date/query7//useDOCUMENT:DATE:LOCATIONuseREFERENCES:SIMLOC:SIMPAGE/rel1-1-date_th0.3-doc_th0.6-loc_th0.4.res.clean,0.250,0.200,0.100,0.100,0.250,
DOCUMENT:DATE:LOCATION,REFERENCES:SIMLOC:SIMPAGE,0.7,0.25,0.4,rel1-2,1,2,13,3.7,9023,book_collection_true_dates/date/query7//useDOCUMENT:DATE:LOCATIONuseREFERENCES:SIMLOC:SIMPAGE/rel1-2-date_th0.25-doc_th0.7-loc_th0.4.res.clean,0.250,0.200,0.100,0.100,0.250,
DOCUMENT:DATE:LOCATION,REFERENCES:SIMLOC:SIMPAGE,0.5,0.25,0.35,rel1-1,1,3,79732,6178.4,44630,book_collection_true_dates/date/query7//useDOCUMENT:DATE:LOCATIONuseREFERENCES:SIMLOC:SIMPAGE/rel1-1-date_th0.25-doc_th0.5-loc_th0.35.res.clean,0.250,0.200,0.100,0.100,0.250,
DOCUMENT:DATE:LOCATION,REFERENCES:SIMLOC:SIMPAGE,0.5,0.25,0.35,rel1-3,1,2,5,1.7,1713,book_collection_true_dates/date/query7//useDOCUMENT:DATE:LOCATIONuseREFERENCES:SIMLOC:SIMPAGE/rel1-3-date_th0.25-doc_th0.5-loc_th0.35.res.clean,0.083,0.200,0.100,0.100,0.250,
DOCUMENT:DATE:LOCATION,REFERENCES:SIMLOC:SIMPAGE,0.7,0.25,0.35,rel2-1,2,3,569202,55812.2,104310,book_collection_true_dates/date/query7//useDOCUMENT:DATE:LOCATIONuseREFERENCES:SIMLOC:SIMPAGE/rel2-1-date_th0.25-doc_th0.7-loc_th0.35.res.clean,0.250,0.200,0.100,0.100,0.250,
DOCUMENT:DATE:LOCATION,REFERENCES:SIMLOC:SIMPAGE,0.6,0.25,0.35,rel2-3,2,3,164555,14591.5,45121,book_collection_true_dates/date/query7//useDOCUMENT:DATE:LOCATIONuseREFERENCES:SIMLOC:SIMPAGE/rel2-3-date_th0.25-doc_th0.6-loc_th0.35.res.clean,0.125,0.200,0.100,0.100,0.250,
DOCUMENT:DATE:LOCATION,REFERENCES:SIMLOC:SIMPAGE,0.7,0.3,0.4,rel2-2,2,3,79734,9201.7,33058,book_collection_true_dates/date/query7//useDOCUMENT:DATE:LOCATIONuseREFERENCES:SIMLOC:SIMPAGE/rel2-2-date_th0.3-doc_th0.7-loc_th0.4.res.clean,0.250,0.200,0.100,0.100,0.250,
DOCUMENT:DATE:LOCATION,REFERENCES:SIMLOC:SIMPAGE,0.7,0.25,0.35,rel3-1,3,3,614223,63417.0,117926,book_collection_true_dates/date/query7//useDOCUMENT:DATE:LOCATIONuseREFERENCES:SIMLOC:SIMPAGE/rel3-1-date_th0.25-doc_th0.7-loc_th0.35.res.clean,0.250,0.200,0.100,0.100,0.250,
DOCUMENT:DATE:LOCATION,REFERENCES:SIMLOC:SIMPAGE,0.7,0.3,0.35,rel2-3,2,3,164555,14591.5,45001,book_collection_true_dates/date/query7//useDOCUMENT:DATE:LOCATIONuseREFERENCES:SIMLOC:SIMPAGE/rel2-3-date_th0.3-doc_th0.7-loc_th0.35.res.clean,0.125,0.200,0.100,0.100,0.250,
DOCUMENT:DATE:LOCATION,REFERENCES:SIMLOC:SIMPAGE,0.7,0.3,0.35,rel1-1,1,3,79732,6178.4,31510,book_collection_true_dates/date/query7//useDOCUMENT:DATE:LOCATIONuseREFERENCES:SIMLOC:SIMPAGE/rel1-1-date_th0.3-doc_th0.7-loc_th0.35.res.clean,0.250,0.200,0.100,0.100,0.250,
DOCUMENT:DATE:LOCATION,REFERENCES:SIMLOC:SIMPAGE,0.6,0.25,0.35,rel1-1,1,3,79732,6178.4,33239,book_collection_true_dates/date/query7//useDOCUMENT:DATE:LOCATIONuseREFERENCES:SIMLOC:SIMPAGE/rel1-1-date_th0.25-doc_th0.6-loc_th0.35.res.clean,0.250,0.200,0.100,0.100,0.250,
DOCUMENT:DATE:LOCATION,REFERENCES:SIMLOC:SIMPAGE,0.5,0.25,0.4,rel1-1,1,3,79732,6178.4,33774,book_collection_true_dates/date/query7//useDOCUMENT:DATE:LOCATIONuseREFERENCES:SIMLOC:SIMPAGE/rel1-1-date_th0.25-doc_th0.5-loc_th0.4.res.clean,0.250,0.200,0.100,0.100,0.250,
DOCUMENT:DATE:LOCATION,REFERENCES:SIMLOC:SIMPAGE,0.6,0.25,0.4,rel3-1,3,3,164557,21215.1,57435,book_collection_true_dates/date/query7//useDOCUMENT:DATE:LOCATIONuseREFERENCES:SIMLOC:SIMPAGE/rel3-1-date_th0.25-doc_th0.6-loc_th0.4.res.clean,0.250,0.200,0.100,0.100,0.250,
DOCUMENT:DATE:LOCATION,REFERENCES:SIMLOC:SIMPAGE,0.5,0.3,0.35,rel3-1,3,3,614301,63456.2,203234,book_collection_true_dates/date/query7//useDOCUMENT:DATE:LOCATIONuseREFERENCES:SIMLOC:SIMPAGE/rel3-1-date_th0.3-doc_th0.5-loc_th0.35.res.clean,0.321,0.200,0.200,0.200,0.250,
DOCUMENT:DATE:LOCATION,REFERENCES:SIMLOC:SIMPAGE,0.6,0.3,0.35,rel2-3,2,3,164555,14591.5,44683,book_collection_true_dates/date/query7//useDOCUMENT:DATE:LOCATIONuseREFERENCES:SIMLOC:SIMPAGE/rel2-3-date_th0.3-doc_th0.6-loc_th0.35.res.clean,0.125,0.200,0.100,0.100,0.250,
DOCUMENT:DATE:LOCATION,REFERENCES:SIMLOC:SIMPAGE,0.7,0.25,0.4,rel1-3,1,2,5,1.7,1705,book_collection_true_dates/date/query7//useDOCUMENT:DATE:LOCATIONuseREFERENCES:SIMLOC:SIMPAGE/rel1-3-date_th0.25-doc_th0.7-loc_th0.4.res.clean,0.083,0.200,0.100,0.100,0.250,
DOCUMENT:DATE:LOCATION,REFERENCES:SIMLOC:SIMPAGE,0.5,0.25,0.35,rel2-3,2,3,164563,14592.5,64865,book_collection_true_dates/date/query7//useDOCUMENT:DATE:LOCATIONuseREFERENCES:SIMLOC:SIMPAGE/rel2-3-date_th0.25-doc_th0.5-loc_th0.35.res.clean,0.125,0.200,0.100,0.100,0.250,
DOCUMENT:DATE:LOCATION,REFERENCES:SIMLOC:SIMPAGE,0.7,0.25,0.4,rel2-3,2,3,129736,12002.8,34960,book_collection_true_dates/date/query7//useDOCUMENT:DATE:LOCATIONuseREFERENCES:SIMLOC:SIMPAGE/rel2-3-date_th0.25-doc_th0.7-loc_th0.4.res.clean,0.125,0.200,0.100,0.100,0.250,
DOCUMENT:DATE:LOCATION,REFERENCES:SIMLOC:SIMPAGE,0.5,0.3,0.4,rel1-1,1,3,79732,6178.4,31407,book_collection_true_dates/date/query7//useDOCUMENT:DATE:LOCATIONuseREFERENCES:SIMLOC:SIMPAGE/rel1-1-date_th0.3-doc_th0.5-loc_th0.4.res.clean,0.250,0.200,0.100,0.100,0.250,
DOCUMENT:DATE:LOCATION,REFERENCES:SIMLOC:SIMPAGE,0.5,0.25,0.35,rel3-1,3,3,614301,63456.2,419952,book_collection_true_dates/date/query7//useDOCUMENT:DATE:LOCATIONuseREFERENCES:SIMLOC:SIMPAGE/rel3-1-date_th0.25-doc_th0.5-loc_th0.35.res.clean,0.321,0.200,0.200,0.200,0.250,
DOCUMENT:DATE:LOCATION,REFERENCES:SIMLOC:SIMPAGE,0.5,0.3,0.4,rel1-3,1,2,5,1.7,1734,book_collection_true_dates/date/query7//useDOCUMENT:DATE:LOCATIONuseREFERENCES:SIMLOC:SIMPAGE/rel1-3-date_th0.3-doc_th0.5-loc_th0.4.res.clean,0.083,0.200,0.100,0.100,0.250,
DOCUMENT:DATE:LOCATION,REFERENCES:SIMLOC:SIMPAGE,0.7,0.3,0.4,rel2-1,2,3,115009,13597.5,42749,book_collection_true_dates/date/query7//useDOCUMENT:DATE:LOCATIONuseREFERENCES:SIMLOC:SIMPAGE/rel2-1-date_th0.3-doc_th0.7-loc_th0.4.res.clean,0.250,0.200,0.100,0.100,0.250,
DOCUMENT:DATE:LOCATION,REFERENCES:SIMLOC:SIMPAGE,0.5,0.3,0.4,rel2-1,2,3,115016,13598.4,60726,book_collection_true_dates/date/query7//useDOCUMENT:DATE:LOCATIONuseREFERENCES:SIMLOC:SIMPAGE/rel2-1-date_th0.3-doc_th0.5-loc_th0.4.res.clean,0.250,0.200,0.100,0.100,0.250,
DOCUMENT:DATE:LOCATION,REFERENCES:SIMLOC:SIMPAGE,0.7,0.3,0.4,rel2-3,2,3,129736,12002.8,34354,book_collection_true_dates/date/query7//useDOCUMENT:DATE:LOCATIONuseREFERENCES:SIMLOC:SIMPAGE/rel2-3-date_th0.3-doc_th0.7-loc_th0.4.res.clean,0.125,0.200,0.100,0.100,0.250,
DOCUMENT:DATE:LOCATION,REFERENCES:SIMLOC:SIMPAGE,0.6,0.25,0.35,rel2-2,2,3,79734,9201.7,32288,book_collection_true_dates/date/query7//useDOCUMENT:DATE:LOCATIONuseREFERENCES:SIMLOC:SIMPAGE/rel2-2-date_th0.25-doc_th0.6-loc_th0.35.res.clean,0.250,0.200,0.100,0.100,0.250,
DOCUMENT:DATE:LOCATION,REFERENCES:SIMLOC:SIMPAGE,0.7,0.25,0.35,rel2-3,2,3,164555,14591.5,45227,book_collection_true_dates/date/query7//useDOCUMENT:DATE:LOCATIONuseREFERENCES:SIMLOC:SIMPAGE/rel2-3-date_th0.25-doc_th0.7-loc_th0.35.res.clean,0.125,0.200,0.100,0.100,0.250,
DOCUMENT:DATE:LOCATION,REFERENCES:SIMLOC:SIMPAGE,0.5,0.25,0.4,rel2-3,2,3,129736,12002.8,34462,book_collection_true_dates/date/query7//useDOCUMENT:DATE:LOCATIONuseREFERENCES:SIMLOC:SIMPAGE/rel2-3-date_th0.25-doc_th0.5-loc_th0.4.res.clean,0.125,0.200,0.100,0.100,0.250,
DOCUMENT:DATE:LOCATION,REFERENCES:SIMLOC:SIMPAGE,0.6,0.25,0.4,rel1-2,1,2,13,3.7,9009,book_collection_true_dates/date/query7//useDOCUMENT:DATE:LOCATIONuseREFERENCES:SIMLOC:SIMPAGE/rel1-2-date_th0.25-doc_th0.6-loc_th0.4.res.clean,0.250,0.200,0.100,0.100,0.250,
DOCUMENT:DATE:LOCATION,REFERENCES:SIMLOC:SIMPAGE,0.6,0.25,0.35,rel3-1,3,3,614231,63420.1,137689,book_collection_true_dates/date/query7//useDOCUMENT:DATE:LOCATIONuseREFERENCES:SIMLOC:SIMPAGE/rel3-1-date_th0.25-doc_th0.6-loc_th0.35.res.clean,0.250,0.200,0.100,0.100,0.250,
DOCUMENT:DATE:LOCATION,REFERENCES:SIMLOC:SIMPAGE,0.7,0.25,0.35,rel1-2,1,3,36028,2594.0,19100,book_collection_true_dates/date/query7//useDOCUMENT:DATE:LOCATIONuseREFERENCES:SIMLOC:SIMPAGE/rel1-2-date_th0.25-doc_th0.7-loc_th0.35.res.clean,0.125,0.200,0.100,0.100,0.250,
DOCUMENT:DATE:LOCATION,REFERENCES:SIMLOC:SIMPAGE,0.7,0.25,0.4,rel2-2,2,3,79734,9201.7,32836,book_collection_true_dates/date/query7//useDOCUMENT:DATE:LOCATIONuseREFERENCES:SIMLOC:SIMPAGE/rel2-2-date_th0.25-doc_th0.7-loc_th0.4.res.clean,0.250,0.200,0.100,0.100,0.250,
DOCUMENT:DATE:LOCATION,REFERENCES:SIMLOC:SIMPAGE,0.6,0.3,0.4,rel2-3,2,3,129736,12002.8,34349,book_collection_true_dates/date/query7//useDOCUMENT:DATE:LOCATIONuseREFERENCES:SIMLOC:SIMPAGE/rel2-3-date_th0.3-doc_th0.6-loc_th0.4.res.clean,0.125,0.200,0.100,0.100,0.250,
DOCUMENT:DATE:LOCATION,REFERENCES:SIMLOC:SIMPAGE,0.7,0.25,0.35,rel1-3,1,2,5,1.7,1700,book_collection_true_dates/date/query7//useDOCUMENT:DATE:LOCATIONuseREFERENCES:SIMLOC:SIMPAGE/rel1-3-date_th0.25-doc_th0.7-loc_th0.35.res.clean,0.083,0.200,0.100,0.100,0.250,
DOCUMENT:DATE:LOCATION,REFERENCES:SIMLOC:SIMPAGE,0.5,0.3,0.4,rel1-2,1,2,13,3.7,8976,book_collection_true_dates/date/query7//useDOCUMENT:DATE:LOCATIONuseREFERENCES:SIMLOC:SIMPAGE/rel1-2-date_th0.3-doc_th0.5-loc_th0.4.res.clean,0.250,0.200,0.100,0.100,0.250,
DOCUMENT:DATE:LOCATION,REFERENCES:SIMLOC:SIMPAGE,0.7,0.3,0.35,rel3-1,3,3,614223,63417.0,116581,book_collection_true_dates/date/query7//useDOCUMENT:DATE:LOCATIONuseREFERENCES:SIMLOC:SIMPAGE/rel3-1-date_th0.3-doc_th0.7-loc_th0.35.res.clean,0.250,0.200,0.100,0.100,0.250,
DOCUMENT:DATE:LOCATION,REFERENCES:SIMLOC:SIMPAGE,0.5,0.3,0.35,rel2-2,2,3,79734,9201.7,32398,book_collection_true_dates/date/query7//useDOCUMENT:DATE:LOCATIONuseREFERENCES:SIMLOC:SIMPAGE/rel2-2-date_th0.3-doc_th0.5-loc_th0.35.res.clean,0.250,0.200,0.100,0.100,0.250,
DOCUMENT:DATE:LOCATION,REFERENCES:SIMLOC:SIMPAGE,0.5,0.3,0.35,rel2-1,2,3,569232,55826.8,146050,book_collection_true_dates/date/query7//useDOCUMENT:DATE:LOCATIONuseREFERENCES:SIMLOC:SIMPAGE/rel2-1-date_th0.3-doc_th0.5-loc_th0.35.res.clean,0.250,0.200,0.100,0.100,0.250,
DOCUMENT:DATE:LOCATION,REFERENCES:SIMLOC:SIMPAGE,0.7,0.3,0.4,rel3-1,3,3,164557,21215.1,55691,book_collection_true_dates/date/query7//useDOCUMENT:DATE:LOCATIONuseREFERENCES:SIMLOC:SIMPAGE/rel3-1-date_th0.3-doc_th0.7-loc_th0.4.res.clean,0.250,0.200,0.100,0.100,0.250,
DOCUMENT:DATE:LOCATION,REFERENCES:SIMLOC:SIMPAGE,0.6,0.3,0.35,rel2-2,2,3,79734,9201.7,32413,book_collection_true_dates/date/query7//useDOCUMENT:DATE:LOCATIONuseREFERENCES:SIMLOC:SIMPAGE/rel2-2-date_th0.3-doc_th0.6-loc_th0.35.res.clean,0.250,0.200,0.100,0.100,0.250,
DOCUMENT:DATE:LOCATION,REFERENCES:SIMLOC:SIMPAGE,0.7,0.3,0.4,rel1-2,1,2,13,3.7,8986,book_collection_true_dates/date/query7//useDOCUMENT:DATE:LOCATIONuseREFERENCES:SIMLOC:SIMPAGE/rel1-2-date_th0.3-doc_th0.7-loc_th0.4.res.clean,0.250,0.200,0.100,0.100,0.250,
DOCUMENT:DATE:LOCATION,REFERENCES:SIMLOC:SIMPAGE,0.6,0.3,0.35,rel1-2,1,3,36028,2594.0,18978,book_collection_true_dates/date/query7//useDOCUMENT:DATE:LOCATIONuseREFERENCES:SIMLOC:SIMPAGE/rel1-2-date_th0.3-doc_th0.6-loc_th0.35.res.clean,0.125,0.200,0.100,0.100,0.250,
DOCUMENT:DATE:LOCATION,REFERENCES:SIMLOC:SIMPAGE,0.6,0.3,0.4,rel1-3,1,2,5,1.7,1707,book_collection_true_dates/date/query7//useDOCUMENT:DATE:LOCATIONuseREFERENCES:SIMLOC:SIMPAGE/rel1-3-date_th0.3-doc_th0.6-loc_th0.4.res.clean,0.083,0.200,0.100,0.100,0.250,
DOCUMENT:DATE:LOCATION,REFERENCES:SIMLOC:SIMPAGE,0.6,0.3,0.35,rel1-1,1,3,79732,6178.4,32224,book_collection_true_dates/date/query7//useDOCUMENT:DATE:LOCATIONuseREFERENCES:SIMLOC:SIMPAGE/rel1-1-date_th0.3-doc_th0.6-loc_th0.35.res.clean,0.250,0.200,0.100,0.100,0.250,
DOCUMENT:DATE:LOCATION,REFERENCES:SIMLOC:SIMPAGE,0.6,0.3,0.4,rel2-2,2,3,79734,9201.7,32626,book_collection_true_dates/date/query7//useDOCUMENT:DATE:LOCATIONuseREFERENCES:SIMLOC:SIMPAGE/rel2-2-date_th0.3-doc_th0.6-loc_th0.4.res.clean,0.250,0.200,0.100,0.100,0.250,
DOCUMENT:DATE:LOCATION,REFERENCES:SIMLOC:SIMPAGE,0.7,0.3,0.35,rel1-2,1,3,36028,2594.0,19471,book_collection_true_dates/date/query7//useDOCUMENT:DATE:LOCATIONuseREFERENCES:SIMLOC:SIMPAGE/rel1-2-date_th0.3-doc_th0.7-loc_th0.35.res.clean,0.125,0.200,0.100,0.100,0.250,
DOCUMENT:DATE:LOCATION,REFERENCES:SIMLOC:SIMPAGE,0.6,0.25,0.4,rel1-3,1,2,5,1.7,1701,book_collection_true_dates/date/query7//useDOCUMENT:DATE:LOCATIONuseREFERENCES:SIMLOC:SIMPAGE/rel1-3-date_th0.25-doc_th0.6-loc_th0.4.res.clean,0.083,0.200,0.100,0.100,0.250,
DOCUMENT:DATE:LOCATION,REFERENCES:SIMLOC:SIMPAGE,0.5,0.25,0.4,rel1-2,1,2,13,3.7,9101,book_collection_true_dates/date/query7//useDOCUMENT:DATE:LOCATIONuseREFERENCES:SIMLOC:SIMPAGE/rel1-2-date_th0.25-doc_th0.5-loc_th0.4.res.clean,0.250,0.200,0.100,0.100,0.250,
DOCUMENT:DATE:LOCATION,REFERENCES:SIMLOC:SIMPAGE,0.6,0.3,0.35,rel1-3,1,2,5,1.7,1707,book_collection_true_dates/date/query7//useDOCUMENT:DATE:LOCATIONuseREFERENCES:SIMLOC:SIMPAGE/rel1-3-date_th0.3-doc_th0.6-loc_th0.35.res.clean,0.083,0.200,0.100,0.100,0.250,
DOCUMENT:DATE:LOCATION,REFERENCES:SIMLOC:SIMPAGE,0.7,0.3,0.4,rel1-1,1,3,79732,6178.4,32321,book_collection_true_dates/date/query7//useDOCUMENT:DATE:LOCATIONuseREFERENCES:SIMLOC:SIMPAGE/rel1-1-date_th0.3-doc_th0.7-loc_th0.4.res.clean,0.250,0.200,0.100,0.100,0.250,
DOCUMENT:DATE:LOCATION,REFERENCES:SIMLOC:SIMPAGE,0.5,0.3,0.35,rel1-2,1,3,36036,2594.9,39103,book_collection_true_dates/date/query7//useDOCUMENT:DATE:LOCATIONuseREFERENCES:SIMLOC:SIMPAGE/rel1-2-date_th0.3-doc_th0.5-loc_th0.35.res.clean,0.125,0.200,0.100,0.100,0.250,
DOCUMENT:DATE:LOCATION,REFERENCES:SIMLOC:SIMPAGE,0.6,0.25,0.4,rel2-1,2,3,115009,13597.5,44565,book_collection_true_dates/date/query7//useDOCUMENT:DATE:LOCATIONuseREFERENCES:SIMLOC:SIMPAGE/rel2-1-date_th0.25-doc_th0.6-loc_th0.4.res.clean,0.250,0.200,0.100,0.100,0.250,
DOCUMENT:DATE:LOCATION,REFERENCES:SIMLOC:SIMPAGE,0.5,0.25,0.35,rel2-1,2,3,569232,55826.8,321093,book_collection_true_dates/date/query7//useDOCUMENT:DATE:LOCATIONuseREFERENCES:SIMLOC:SIMPAGE/rel2-1-date_th0.25-doc_th0.5-loc_th0.35.res.clean,0.250,0.200,0.100,0.100,0.250,
DOCUMENT:DATE:LOCATION,REFERENCES:SIMLOC:SIMPAGE,0.5,0.3,0.35,rel2-3,2,3,164563,14592.5,63740,book_collection_true_dates/date/query7//useDOCUMENT:DATE:LOCATIONuseREFERENCES:SIMLOC:SIMPAGE/rel2-3-date_th0.3-doc_th0.5-loc_th0.35.res.clean,0.125,0.200,0.100,0.100,0.250,
DOCUMENT:DATE:LOCATION,REFERENCES:SIMLOC:SIMPAGE,0.6,0.3,0.4,rel2-1,2,3,115009,13597.5,41935,book_collection_true_dates/date/query7//useDOCUMENT:DATE:LOCATIONuseREFERENCES:SIMLOC:SIMPAGE/rel2-1-date_th0.3-doc_th0.6-loc_th0.4.res.clean,0.250,0.200,0.100,0.100,0.250,
DOCUMENT:DATE:LOCATION,REFERENCES:SIMLOC:SIMPAGE,0.5,0.3,0.35,rel1-3,1,2,5,1.7,1750,book_collection_true_dates/date/query7//useDOCUMENT:DATE:LOCATIONuseREFERENCES:SIMLOC:SIMPAGE/rel1-3-date_th0.3-doc_th0.5-loc_th0.35.res.clean,0.083,0.200,0.100,0.100,0.250,
DOCUMENT:DATE:LOCATION,REFERENCES:SIMLOC:SIMPAGE,0.7,0.25,0.4,rel3-1,3,3,164557,21215.1,57892,book_collection_true_dates/date/query7//useDOCUMENT:DATE:LOCATIONuseREFERENCES:SIMLOC:SIMPAGE/rel3-1-date_th0.25-doc_th0.7-loc_th0.4.res.clean,0.250,0.200,0.100,0.100,0.250,
DOCUMENT:DATE:LOCATION,REFERENCES:SIMLOC:SIMPAGE,0.7,0.25,0.4,rel1-1,1,3,79732,6178.4,32027,book_collection_true_dates/date/query7//useDOCUMENT:DATE:LOCATIONuseREFERENCES:SIMLOC:SIMPAGE/rel1-1-date_th0.25-doc_th0.7-loc_th0.4.res.clean,0.250,0.200,0.100,0.100,0.250,
DOCUMENT:DATE:LOCATION,REFERENCES:SIMLOC:SIMPAGE,0.5,0.25,0.35,rel2-2,2,3,79734,9201.7,32263,book_collection_true_dates/date/query7//useDOCUMENT:DATE:LOCATIONuseREFERENCES:SIMLOC:SIMPAGE/rel2-2-date_th0.25-doc_th0.5-loc_th0.35.res.clean,0.250,0.200,0.100,0.100,0.250,
DOCUMENT:DATE:LOCATION,REFERENCES:SIMLOC:SIMPAGE,0.5,0.25,0.4,rel2-2,2,3,79734,9201.7,32705,book_collection_true_dates/date/query7//useDOCUMENT:DATE:LOCATIONuseREFERENCES:SIMLOC:SIMPAGE/rel2-2-date_th0.25-doc_th0.5-loc_th0.4.res.clean,0.250,0.200,0.100,0.100,0.250,
DOCUMENT:DATE:LOCATION,REFERENCES:SIMLOC:SIMPAGE,0.7,0.3,0.4,rel1-3,1,2,5,1.7,1701,book_collection_true_dates/date/query7//useDOCUMENT:DATE:LOCATIONuseREFERENCES:SIMLOC:SIMPAGE/rel1-3-date_th0.3-doc_th0.7-loc_th0.4.res.clean,0.083,0.200,0.100,0.100,0.250,
DOCUMENT:DATE:LOCATION,REFERENCES:SIMLOC:SIMPAGE,0.6,0.3,0.35,rel3-1,3,3,614231,63420.1,134844,book_collection_true_dates/date/query7//useDOCUMENT:DATE:LOCATIONuseREFERENCES:SIMLOC:SIMPAGE/rel3-1-date_th0.3-doc_th0.6-loc_th0.35.res.clean,0.250,0.200,0.100,0.100,0.250,
DOCUMENT:DATE:LOCATION,REFERENCES:SIMLOC:SIMPAGE,0.5,0.25,0.35,rel1-2,1,3,36036,2594.9,39215,book_collection_true_dates/date/query7//useDOCUMENT:DATE:LOCATIONuseREFERENCES:SIMLOC:SIMPAGE/rel1-2-date_th0.25-doc_th0.5-loc_th0.35.res.clean,0.125,0.200,0.100,0.100,0.250,
DOCUMENT:DATE:LOCATION,REFERENCES:SIMLOC:SIMPAGE,0.6,0.3,0.4,rel1-2,1,2,13,3.7,8969,book_collection_true_dates/date/query7//useDOCUMENT:DATE:LOCATIONuseREFERENCES:SIMLOC:SIMPAGE/rel1-2-date_th0.3-doc_th0.6-loc_th0.4.res.clean,0.250,0.200,0.100,0.100,0.250,
DOCUMENT:DATE:LOCATION,REFERENCES:SIMLOC:SIMPAGE,0.6,0.25,0.4,rel1-1,1,3,79732,6178.4,32107,book_collection_true_dates/date/query7//useDOCUMENT:DATE:LOCATIONuseREFERENCES:SIMLOC:SIMPAGE/rel1-1-date_th0.25-doc_th0.6-loc_th0.4.res.clean,0.250,0.200,0.100,0.100,0.250,
DOCUMENT:DATE:LOCATION,REFERENCES:SIMLOC:SIMPAGE,0.5,0.3,0.4,rel2-3,2,3,129736,12002.8,35419,book_collection_true_dates/date/query7//useDOCUMENT:DATE:LOCATIONuseREFERENCES:SIMLOC:SIMPAGE/rel2-3-date_th0.3-doc_th0.5-loc_th0.4.res.clean,0.125,0.200,0.100,0.100,0.250,
DOCUMENT:DATE:LOCATION,REFERENCES:SIMLOC:SIMPAGE,0.6,0.3,0.35,rel2-1,2,3,569209,55813.3,124723,book_collection_true_dates/date/query7//useDOCUMENT:DATE:LOCATIONuseREFERENCES:SIMLOC:SIMPAGE/rel2-1-date_th0.3-doc_th0.6-loc_th0.35.res.clean,0.250,0.200,0.100,0.100,0.250,
DOCUMENT:DATE:LOCATION,REFERENCES:SIMLOC:SIMPAGE,0.7,0.25,0.35,rel1-1,1,3,79732,6178.4,31831,book_collection_true_dates/date/query7//useDOCUMENT:DATE:LOCATIONuseREFERENCES:SIMLOC:SIMPAGE/rel1-1-date_th0.25-doc_th0.7-loc_th0.35.res.clean,0.250,0.200,0.100,0.100,0.250,
DOCUMENT:DATE:LOCATION,REFERENCES:SIMLOC:SIMPAGE,0.6,0.25,0.4,rel2-3,2,3,129736,12002.8,34440,book_collection_true_dates/date/query7//useDOCUMENT:DATE:LOCATIONuseREFERENCES:SIMLOC:SIMPAGE/rel2-3-date_th0.25-doc_th0.6-loc_th0.4.res.clean,0.125,0.200,0.100,0.100,0.250,
DOCUMENT:DATE:LOCATION,REFERENCES:SIMLOC:SIMPAGE,0.5,0.3,0.35,rel1-1,1,3,79732,6178.4,32041,book_collection_true_dates/date/query7//useDOCUMENT:DATE:LOCATIONuseREFERENCES:SIMLOC:SIMPAGE/rel1-1-date_th0.3-doc_th0.5-loc_th0.35.res.clean,0.250,0.200,0.100,0.100,0.250,
DOCUMENT:DATE:LOCATION,REFERENCES:SIMLOC:SIMPAGE,0.5,0.25,0.4,rel2-1,2,3,115016,13598.4,58017,book_collection_true_dates/date/query7//useDOCUMENT:DATE:LOCATIONuseREFERENCES:SIMLOC:SIMPAGE/rel2-1-date_th0.25-doc_th0.5-loc_th0.4.res.clean,0.250,0.200,0.100,0.100,0.250,
DOCUMENT:DATE:LOCATION,REFERENCES:SIMLOC:SIMPAGE,0.6,0.25,0.4,rel2-2,2,3,79734,9201.7,32923,book_collection_true_dates/date/query7//useDOCUMENT:DATE:LOCATIONuseREFERENCES:SIMLOC:SIMPAGE/rel2-2-date_th0.25-doc_th0.6-loc_th0.4.res.clean,0.250,0.200,0.100,0.100,0.250,
DOCUMENT:DATE:LOCATION,REFERENCES:SIMLOC:SIMPAGE,0.6,0.3,0.4,rel3-1,3,3,164557,21215.1,57651,book_collection_true_dates/date/query7//useDOCUMENT:DATE:LOCATIONuseREFERENCES:SIMLOC:SIMPAGE/rel3-1-date_th0.3-doc_th0.6-loc_th0.4.res.clean,0.250,0.200,0.100,0.100,0.250,
DOCUMENT:DATE:LOCATION,REFERENCES:SIMLOC:SIMPAGE,0.5,0.25,0.4,rel3-1,3,3,164573,21222.8,70037,book_collection_true_dates/date/query7//useDOCUMENT:DATE:LOCATIONuseREFERENCES:SIMLOC:SIMPAGE/rel3-1-date_th0.25-doc_th0.5-loc_th0.4.res.clean,0.250,0.200,0.100,0.100,0.250,
DOCUMENT:DATE:LOCATION,REFERENCES:SIMLOC:SIMPAGE,0.7,0.3,0.35,rel1-3,1,2,5,1.7,1713,book_collection_true_dates/date/query7//useDOCUMENT:DATE:LOCATIONuseREFERENCES:SIMLOC:SIMPAGE/rel1-3-date_th0.3-doc_th0.7-loc_th0.35.res.clean,0.083,0.200,0.100,0.100,0.250,
DOCUMENT:DATE:LOCATION,REFERENCES:SIMLOC:SIMPAGE,0.7,0.3,0.35,rel2-1,2,3,569202,55812.2,101434,book_collection_true_dates/date/query7//useDOCUMENT:DATE:LOCATIONuseREFERENCES:SIMLOC:SIMPAGE/rel2-1-date_th0.3-doc_th0.7-loc_th0.35.res.clean,0.250,0.200,0.100,0.100,0.250,
DOCUMENT:DATE:LOCATION,REFERENCES:SIMLOC:SIMPAGE,0.6,0.25,0.35,rel2-1,2,3,569209,55813.3,123297,book_collection_true_dates/date/query7//useDOCUMENT:DATE:LOCATIONuseREFERENCES:SIMLOC:SIMPAGE/rel2-1-date_th0.25-doc_th0.6-loc_th0.35.res.clean,0.250,0.200,0.100,0.100,0.250,
DOCUMENT:DATE:LOCATION,REFERENCES:SIMLOC:SIMPAGE,0.5,0.25,0.4,rel1-3,1,2,5,1.7,1718,book_collection_true_dates/date/query7//useDOCUMENT:DATE:LOCATIONuseREFERENCES:SIMLOC:SIMPAGE/rel1-3-date_th0.25-doc_th0.5-loc_th0.4.res.clean,0.083,0.200,0.100,0.100,0.250,
DOCUMENT:DATE:LOCATION,REFERENCES:SIMLOC:SIMPAGE,0.6,0.25,0.35,rel1-3,1,2,5,1.7,1709,book_collection_true_dates/date/query7//useDOCUMENT:DATE:LOCATIONuseREFERENCES:SIMLOC:SIMPAGE/rel1-3-date_th0.25-doc_th0.6-loc_th0.35.res.clean,0.083,0.200,0.100,0.100,0.250,
DOCUMENT:DATE:LOCATION,REFERENCES:SIMLOC:SIMPAGE,0.7,0.3,0.35,rel2-2,2,3,79734,9201.7,32198,book_collection_true_dates/date/query7//useDOCUMENT:DATE:LOCATIONuseREFERENCES:SIMLOC:SIMPAGE/rel2-2-date_th0.3-doc_th0.7-loc_th0.35.res.clean,0.250,0.200,0.100,0.100,0.250,
DOCUMENT:DATE:LOCATION,REFERENCES:SIMLOC:SIMPAGE,0.7,0.25,0.4,rel2-1,2,3,115009,13597.5,44501,book_collection_true_dates/date/query7//useDOCUMENT:DATE:LOCATIONuseREFERENCES:SIMLOC:SIMPAGE/rel2-1-date_th0.25-doc_th0.7-loc_th0.4.res.clean,0.250,0.200,0.100,0.100,0.250,
DOCUMENT:DATE:LOCATION,REFERENCES:SIMLOC:SIMPAGE,0.5,0.3,0.4,rel2-2,2,3,79734,9201.7,32870,book_collection_true_dates/date/query7//useDOCUMENT:DATE:LOCATIONuseREFERENCES:SIMLOC:SIMPAGE/rel2-2-date_th0.3-doc_th0.5-loc_th0.4.res.clean,0.250,0.200,0.100,0.100,0.250,
DOCUMENT:DATE:LOCATION,REFERENCES:SIMLOC:SIMPAGE,0.5,0.3,0.4,rel3-1,3,3,164573,21222.8,71146,book_collection_true_dates/date/query7//useDOCUMENT:DATE:LOCATIONuseREFERENCES:SIMLOC:SIMPAGE/rel3-1-date_th0.3-doc_th0.5-loc_th0.4.res.clean,0.250,0.200,0.100,0.100,0.250,
DOCUMENT:DATE:LOCATION,REFERENCES:SIMLOC:SIMPAGE,0.6,0.25,0.35,rel1-2,1,3,36028,2594.0,19466,book_collection_true_dates/date/query7//useDOCUMENT:DATE:LOCATIONuseREFERENCES:SIMLOC:SIMPAGE/rel1-2-date_th0.25-doc_th0.6-loc_th0.35.res.clean,0.125,0.200,0.100,0.100,0.250,

Sig-Test:,randomized,,threshold,set,to,0.050000
