###################################
# parameters: 
#   date_th: 0.25
#   doc_th: 0.5
#   loc_th: 0.4
#   nodestouse: DOCUMENT:DATE:LOCATION
#   relationships: REFERENCES

###################################
# configuration: 
#   sa.act_diff_ratio_limit = 0.01
#   sa.act_diff_ratio_limit_diff = 0.01
#   sa.function = ciir.multi.sa.function.MaxSAFunction(norm_function)
#   sa.id_property_name.DATE = dateID
#   sa.id_property_name.DOCUMENT = docID
#   sa.id_property_name.LOCATION = locID
#   sa.max_pulses = 10
#   sa.nodes_to_print = DATE:LOCATION
#   sa.nodes_to_use = DOCUMENT:DATE:LOCATION
#   sa.norm_function = ciir.multi.sa.SigmoidFunction(0.0, 1.0)
#   sa.relationships_to_use = REFERENCES
#   sa.spread_threshold.DATE = 0.25
#   sa.spread_threshold.DOCUMENT = 0.5
#   sa.spread_threshold.LOCATION = 0.4
#   sa.weight_property.REFERENCES = relevance
#   sa.weight_property.SIMDATES = sim
#   sa.weight_property.SIMDOC = sim
#   sa.weight_property.SIMLOC = sim
#   sa.weight_property.SIMPAGE = pagesim

###################################
# initial activations (1): 
#   iswardiminishin00baltgoog_75, 1

###################################
# spreading activation process log: 
#   pulse 0: activated: 1, non-zero: 1, borderline: 1, overall act: 1.000, act diff: 1.000, ratio: 1.000
#   pulse 1: activated: 118, non-zero: 118, borderline: 117, overall act: 10.185, act diff: 9.185, ratio: 0.902
#   pulse 2: activated: 118, non-zero: 118, borderline: 117, overall act: 10.185, act diff: 0.000, ratio: 0.000

###################################
# spreading activation process summary: 
#   final number of activated nodes: 118
#   final overall activation: 10.2
#   number of spread. activ. pulses: 2
#   running time: 37932

###################################
# top k results in TREC format: 

3   rel1-1   england   1   0.39380008   nodesDOCUMENT:DATE:LOCATION-edgesREFERENCES-date_th0.25-doc_th0.5-loc_th0.4
3   rel1-1   paris   2   0.13057499   nodesDOCUMENT:DATE:LOCATION-edgesREFERENCES-date_th0.25-doc_th0.5-loc_th0.4
3   rel1-1   guyenne   3   0.13057499   nodesDOCUMENT:DATE:LOCATION-edgesREFERENCES-date_th0.25-doc_th0.5-loc_th0.4
3   rel1-1   calais   4   0.13057499   nodesDOCUMENT:DATE:LOCATION-edgesREFERENCES-date_th0.25-doc_th0.5-loc_th0.4
3   rel1-1   poitiers   5   0.13057499   nodesDOCUMENT:DATE:LOCATION-edgesREFERENCES-date_th0.25-doc_th0.5-loc_th0.4
3   rel1-1   france   6   0.13057499   nodesDOCUMENT:DATE:LOCATION-edgesREFERENCES-date_th0.25-doc_th0.5-loc_th0.4
3   rel1-1   1338   7   0.07331817   nodesDOCUMENT:DATE:LOCATION-edgesREFERENCES-date_th0.25-doc_th0.5-loc_th0.4
3   rel1-1   1336   8   0.07331817   nodesDOCUMENT:DATE:LOCATION-edgesREFERENCES-date_th0.25-doc_th0.5-loc_th0.4
3   rel1-1   1334   9   0.07331817   nodesDOCUMENT:DATE:LOCATION-edgesREFERENCES-date_th0.25-doc_th0.5-loc_th0.4
3   rel1-1   1332   10   0.07331817   nodesDOCUMENT:DATE:LOCATION-edgesREFERENCES-date_th0.25-doc_th0.5-loc_th0.4
3   rel1-1   1339   11   0.07331817   nodesDOCUMENT:DATE:LOCATION-edgesREFERENCES-date_th0.25-doc_th0.5-loc_th0.4
3   rel1-1   1351   12   0.07331817   nodesDOCUMENT:DATE:LOCATION-edgesREFERENCES-date_th0.25-doc_th0.5-loc_th0.4
3   rel1-1   1349   13   0.07331817   nodesDOCUMENT:DATE:LOCATION-edgesREFERENCES-date_th0.25-doc_th0.5-loc_th0.4
3   rel1-1   1347   14   0.07331817   nodesDOCUMENT:DATE:LOCATION-edgesREFERENCES-date_th0.25-doc_th0.5-loc_th0.4
3   rel1-1   1345   15   0.07331817   nodesDOCUMENT:DATE:LOCATION-edgesREFERENCES-date_th0.25-doc_th0.5-loc_th0.4
3   rel1-1   1344   16   0.07331817   nodesDOCUMENT:DATE:LOCATION-edgesREFERENCES-date_th0.25-doc_th0.5-loc_th0.4
3   rel1-1   1346   17   0.07331817   nodesDOCUMENT:DATE:LOCATION-edgesREFERENCES-date_th0.25-doc_th0.5-loc_th0.4
3   rel1-1   1348   18   0.07331817   nodesDOCUMENT:DATE:LOCATION-edgesREFERENCES-date_th0.25-doc_th0.5-loc_th0.4
3   rel1-1   1350   19   0.07331817   nodesDOCUMENT:DATE:LOCATION-edgesREFERENCES-date_th0.25-doc_th0.5-loc_th0.4
3   rel1-1   1352   20   0.07331817   nodesDOCUMENT:DATE:LOCATION-edgesREFERENCES-date_th0.25-doc_th0.5-loc_th0.4

###################################
# top nodes: 

# 3   rel1-1   iswardiminishin00baltgoog_75   1   1.0   nodesDOCUMENT:DATE:LOCATION-edgesREFERENCES-date_th0.25-doc_th0.5-loc_th0.4
# 3   rel1-1   england   2   0.39380008   nodesDOCUMENT:DATE:LOCATION-edgesREFERENCES-date_th0.25-doc_th0.5-loc_th0.4
# 3   rel1-1   guyenne   3   0.13057499   nodesDOCUMENT:DATE:LOCATION-edgesREFERENCES-date_th0.25-doc_th0.5-loc_th0.4
# 3   rel1-1   calais   4   0.13057499   nodesDOCUMENT:DATE:LOCATION-edgesREFERENCES-date_th0.25-doc_th0.5-loc_th0.4
# 3   rel1-1   poitiers   5   0.13057499   nodesDOCUMENT:DATE:LOCATION-edgesREFERENCES-date_th0.25-doc_th0.5-loc_th0.4
# 3   rel1-1   paris   6   0.13057499   nodesDOCUMENT:DATE:LOCATION-edgesREFERENCES-date_th0.25-doc_th0.5-loc_th0.4
# 3   rel1-1   france   7   0.13057499   nodesDOCUMENT:DATE:LOCATION-edgesREFERENCES-date_th0.25-doc_th0.5-loc_th0.4
# 3   rel1-1   1338   8   0.07331817   nodesDOCUMENT:DATE:LOCATION-edgesREFERENCES-date_th0.25-doc_th0.5-loc_th0.4
# 3   rel1-1   1336   9   0.07331817   nodesDOCUMENT:DATE:LOCATION-edgesREFERENCES-date_th0.25-doc_th0.5-loc_th0.4
# 3   rel1-1   1334   10   0.07331817   nodesDOCUMENT:DATE:LOCATION-edgesREFERENCES-date_th0.25-doc_th0.5-loc_th0.4
# 3   rel1-1   1332   11   0.07331817   nodesDOCUMENT:DATE:LOCATION-edgesREFERENCES-date_th0.25-doc_th0.5-loc_th0.4
# 3   rel1-1   1339   12   0.07331817   nodesDOCUMENT:DATE:LOCATION-edgesREFERENCES-date_th0.25-doc_th0.5-loc_th0.4
# 3   rel1-1   1351   13   0.07331817   nodesDOCUMENT:DATE:LOCATION-edgesREFERENCES-date_th0.25-doc_th0.5-loc_th0.4
# 3   rel1-1   1349   14   0.07331817   nodesDOCUMENT:DATE:LOCATION-edgesREFERENCES-date_th0.25-doc_th0.5-loc_th0.4
# 3   rel1-1   1347   15   0.07331817   nodesDOCUMENT:DATE:LOCATION-edgesREFERENCES-date_th0.25-doc_th0.5-loc_th0.4
# 3   rel1-1   1345   16   0.07331817   nodesDOCUMENT:DATE:LOCATION-edgesREFERENCES-date_th0.25-doc_th0.5-loc_th0.4
# 3   rel1-1   1343   17   0.07331817   nodesDOCUMENT:DATE:LOCATION-edgesREFERENCES-date_th0.25-doc_th0.5-loc_th0.4
# 3   rel1-1   1363   18   0.07331817   nodesDOCUMENT:DATE:LOCATION-edgesREFERENCES-date_th0.25-doc_th0.5-loc_th0.4
# 3   rel1-1   1359   19   0.07331817   nodesDOCUMENT:DATE:LOCATION-edgesREFERENCES-date_th0.25-doc_th0.5-loc_th0.4
# 3   rel1-1   1357   20   0.07331817   nodesDOCUMENT:DATE:LOCATION-edgesREFERENCES-date_th0.25-doc_th0.5-loc_th0.4
# 3   rel1-1   1355   21   0.07331817   nodesDOCUMENT:DATE:LOCATION-edgesREFERENCES-date_th0.25-doc_th0.5-loc_th0.4
# 3   rel1-1   1353   22   0.07331817   nodesDOCUMENT:DATE:LOCATION-edgesREFERENCES-date_th0.25-doc_th0.5-loc_th0.4
# 3   rel1-1   1373   23   0.07331817   nodesDOCUMENT:DATE:LOCATION-edgesREFERENCES-date_th0.25-doc_th0.5-loc_th0.4
# 3   rel1-1   1371   24   0.07331817   nodesDOCUMENT:DATE:LOCATION-edgesREFERENCES-date_th0.25-doc_th0.5-loc_th0.4
# 3   rel1-1   1404   25   0.07331817   nodesDOCUMENT:DATE:LOCATION-edgesREFERENCES-date_th0.25-doc_th0.5-loc_th0.4
# 3   rel1-1   1369   26   0.07331817   nodesDOCUMENT:DATE:LOCATION-edgesREFERENCES-date_th0.25-doc_th0.5-loc_th0.4
# 3   rel1-1   1402   27   0.07331817   nodesDOCUMENT:DATE:LOCATION-edgesREFERENCES-date_th0.25-doc_th0.5-loc_th0.4
# 3   rel1-1   1403   28   0.07331817   nodesDOCUMENT:DATE:LOCATION-edgesREFERENCES-date_th0.25-doc_th0.5-loc_th0.4
# 3   rel1-1   1370   29   0.07331817   nodesDOCUMENT:DATE:LOCATION-edgesREFERENCES-date_th0.25-doc_th0.5-loc_th0.4
# 3   rel1-1   1372   30   0.07331817   nodesDOCUMENT:DATE:LOCATION-edgesREFERENCES-date_th0.25-doc_th0.5-loc_th0.4
# 3   rel1-1   1374   31   0.07331817   nodesDOCUMENT:DATE:LOCATION-edgesREFERENCES-date_th0.25-doc_th0.5-loc_th0.4
# 3   rel1-1   1354   32   0.07331817   nodesDOCUMENT:DATE:LOCATION-edgesREFERENCES-date_th0.25-doc_th0.5-loc_th0.4
# 3   rel1-1   1356   33   0.07331817   nodesDOCUMENT:DATE:LOCATION-edgesREFERENCES-date_th0.25-doc_th0.5-loc_th0.4
# 3   rel1-1   1358   34   0.07331817   nodesDOCUMENT:DATE:LOCATION-edgesREFERENCES-date_th0.25-doc_th0.5-loc_th0.4
# 3   rel1-1   1360   35   0.07331817   nodesDOCUMENT:DATE:LOCATION-edgesREFERENCES-date_th0.25-doc_th0.5-loc_th0.4
# 3   rel1-1   1342   36   0.07331817   nodesDOCUMENT:DATE:LOCATION-edgesREFERENCES-date_th0.25-doc_th0.5-loc_th0.4
# 3   rel1-1   1344   37   0.07331817   nodesDOCUMENT:DATE:LOCATION-edgesREFERENCES-date_th0.25-doc_th0.5-loc_th0.4
# 3   rel1-1   1346   38   0.07331817   nodesDOCUMENT:DATE:LOCATION-edgesREFERENCES-date_th0.25-doc_th0.5-loc_th0.4
# 3   rel1-1   1348   39   0.07331817   nodesDOCUMENT:DATE:LOCATION-edgesREFERENCES-date_th0.25-doc_th0.5-loc_th0.4
# 3   rel1-1   1350   40   0.07331817   nodesDOCUMENT:DATE:LOCATION-edgesREFERENCES-date_th0.25-doc_th0.5-loc_th0.4
