###################################
# parameters: 
#   date_th: 0.3
#   doc_th: 0.6
#   loc_th: 0.35
#   nodestouse: DOCUMENT:DATE:LOCATION
#   relationships: REFERENCES:SIMDATES

###################################
# configuration: 
#   sa.act_diff_ratio_limit = 0.01
#   sa.act_diff_ratio_limit_diff = 0.01
#   sa.function = ciir.multi.sa.function.MaxSAFunction(norm_function)
#   sa.id_property_name.DATE = dateID
#   sa.id_property_name.DOCUMENT = docID
#   sa.id_property_name.LOCATION = locID
#   sa.max_pulses = 10
#   sa.nodes_to_print = DATE:LOCATION
#   sa.nodes_to_use = DOCUMENT:DATE:LOCATION
#   sa.norm_function = ciir.multi.sa.SigmoidFunction(0.0, 1.0)
#   sa.relationships_to_use = REFERENCES:SIMDATES
#   sa.spread_threshold.DATE = 0.3
#   sa.spread_threshold.DOCUMENT = 0.6
#   sa.spread_threshold.LOCATION = 0.35
#   sa.weight_property.REFERENCES = relevance
#   sa.weight_property.SIMDATES = sim
#   sa.weight_property.SIMDOC = sim
#   sa.weight_property.SIMLOC = sim
#   sa.weight_property.SIMPAGE = pagesim

###################################
# initial activations (1): 
#   newannualarmylis1874hart_228, 1

###################################
# spreading activation process log: 
#   pulse 0: activated: 1, non-zero: 1, borderline: 1, overall act: 1.000, act diff: 1.000, ratio: 1.000
#   pulse 1: activated: 24, non-zero: 24, borderline: 23, overall act: 4.101, act diff: 3.101, ratio: 0.756
#   pulse 2: activated: 5097, non-zero: 5097, borderline: 5095, overall act: 456.044, act diff: 451.943, ratio: 0.991
#   pulse 3: activated: 5097, non-zero: 5097, borderline: 5095, overall act: 456.044, act diff: 0.000, ratio: 0.000

###################################
# spreading activation process summary: 
#   final number of activated nodes: 5097
#   final overall activation: 456.0
#   number of spread. activ. pulses: 3
#   running time: 7750

###################################
# top k results in TREC format: 

1   rel1-8   1847   1   0.121718764   nodesDOCUMENT:DATE:LOCATION-edgesREFERENCES:SIMDATES-date_th0.3-doc_th0.6-loc_th0.35
1   rel1-8   1845   2   0.121718764   nodesDOCUMENT:DATE:LOCATION-edgesREFERENCES:SIMDATES-date_th0.3-doc_th0.6-loc_th0.35
1   rel1-8   1853   3   0.121718764   nodesDOCUMENT:DATE:LOCATION-edgesREFERENCES:SIMDATES-date_th0.3-doc_th0.6-loc_th0.35
1   rel1-8   1851   4   0.121718764   nodesDOCUMENT:DATE:LOCATION-edgesREFERENCES:SIMDATES-date_th0.3-doc_th0.6-loc_th0.35
1   rel1-8   1858   5   0.121718764   nodesDOCUMENT:DATE:LOCATION-edgesREFERENCES:SIMDATES-date_th0.3-doc_th0.6-loc_th0.35
1   rel1-8   1856   6   0.121718764   nodesDOCUMENT:DATE:LOCATION-edgesREFERENCES:SIMDATES-date_th0.3-doc_th0.6-loc_th0.35
1   rel1-8   1857   7   0.121718764   nodesDOCUMENT:DATE:LOCATION-edgesREFERENCES:SIMDATES-date_th0.3-doc_th0.6-loc_th0.35
1   rel1-8   1859   8   0.121718764   nodesDOCUMENT:DATE:LOCATION-edgesREFERENCES:SIMDATES-date_th0.3-doc_th0.6-loc_th0.35
1   rel1-8   1852   9   0.121718764   nodesDOCUMENT:DATE:LOCATION-edgesREFERENCES:SIMDATES-date_th0.3-doc_th0.6-loc_th0.35
1   rel1-8   1855   10   0.121718764   nodesDOCUMENT:DATE:LOCATION-edgesREFERENCES:SIMDATES-date_th0.3-doc_th0.6-loc_th0.35
1   rel1-8   1846   11   0.121718764   nodesDOCUMENT:DATE:LOCATION-edgesREFERENCES:SIMDATES-date_th0.3-doc_th0.6-loc_th0.35
1   rel1-8   1848   12   0.121718764   nodesDOCUMENT:DATE:LOCATION-edgesREFERENCES:SIMDATES-date_th0.3-doc_th0.6-loc_th0.35
1   rel1-8   1849   13   0.121718764   nodesDOCUMENT:DATE:LOCATION-edgesREFERENCES:SIMDATES-date_th0.3-doc_th0.6-loc_th0.35

###################################
# top nodes: 

# 1   rel1-8   newannualarmylis1874hart_228   1   1.0   nodesDOCUMENT:DATE:LOCATION-edgesREFERENCES:SIMDATES-date_th0.3-doc_th0.6-loc_th0.35
# 1   rel1-8   lucknow   2   0.3802589   nodesDOCUMENT:DATE:LOCATION-edgesREFERENCES:SIMDATES-date_th0.3-doc_th0.6-loc_th0.35
# 1   rel1-8   chanda   3   0.23942329   nodesDOCUMENT:DATE:LOCATION-edgesREFERENCES:SIMDATES-date_th0.3-doc_th0.6-loc_th0.35
# 1   rel1-8   apersonaljourna00andegoog_121   4   0.18787108   nodesDOCUMENT:DATE:LOCATION-edgesREFERENCES:SIMDATES-date_th0.3-doc_th0.6-loc_th0.35
# 1   rel1-8   systemsoflandte00cobd_226   5   0.18787108   nodesDOCUMENT:DATE:LOCATION-edgesREFERENCES:SIMDATES-date_th0.3-doc_th0.6-loc_th0.35
# 1   rel1-8   reportsofmission1896pres_306   6   0.18787108   nodesDOCUMENT:DATE:LOCATION-edgesREFERENCES:SIMDATES-date_th0.3-doc_th0.6-loc_th0.35
# 1   rel1-8   apersonaljourna00andegoog_110   7   0.18787108   nodesDOCUMENT:DATE:LOCATION-edgesREFERENCES:SIMDATES-date_th0.3-doc_th0.6-loc_th0.35
# 1   rel1-8   tennysonhisarta01broogoog_251   8   0.18787108   nodesDOCUMENT:DATE:LOCATION-edgesREFERENCES:SIMDATES-date_th0.3-doc_th0.6-loc_th0.35
# 1   rel1-8   journalofroyalin7188183roya_413   9   0.18787108   nodesDOCUMENT:DATE:LOCATION-edgesREFERENCES:SIMDATES-date_th0.3-doc_th0.6-loc_th0.35
# 1   rel1-8   phoeberowe01thob_185   10   0.18787108   nodesDOCUMENT:DATE:LOCATION-edgesREFERENCES:SIMDATES-date_th0.3-doc_th0.6-loc_th0.35
# 1   rel1-8   narrativemutini00hutcgoog_6   11   0.18787108   nodesDOCUMENT:DATE:LOCATION-edgesREFERENCES:SIMDATES-date_th0.3-doc_th0.6-loc_th0.35
# 1   rel1-8   fortyoneyearsini00robe_316   12   0.18787108   nodesDOCUMENT:DATE:LOCATION-edgesREFERENCES:SIMDATES-date_th0.3-doc_th0.6-loc_th0.35
# 1   rel1-8   lifeofclaudmarti00hill_182   13   0.18787108   nodesDOCUMENT:DATE:LOCATION-edgesREFERENCES:SIMDATES-date_th0.3-doc_th0.6-loc_th0.35
# 1   rel1-8   reminiscencesofb00edwauoft_279   14   0.18787108   nodesDOCUMENT:DATE:LOCATION-edgesREFERENCES:SIMDATES-date_th0.3-doc_th0.6-loc_th0.35
# 1   rel1-8   libraryofworldsbe22warn_51   15   0.18787108   nodesDOCUMENT:DATE:LOCATION-edgesREFERENCES:SIMDATES-date_th0.3-doc_th0.6-loc_th0.35
# 1   rel1-8   reminiscencesofb00edwauoft_267   16   0.18787108   nodesDOCUMENT:DATE:LOCATION-edgesREFERENCES:SIMDATES-date_th0.3-doc_th0.6-loc_th0.35
# 1   rel1-8   memoirofsirwilli00veitrich_344   17   0.18787108   nodesDOCUMENT:DATE:LOCATION-edgesREFERENCES:SIMDATES-date_th0.3-doc_th0.6-loc_th0.35
# 1   rel1-8   newannualarmylis1898lond_946   18   0.18787108   nodesDOCUMENT:DATE:LOCATION-edgesREFERENCES:SIMDATES-date_th0.3-doc_th0.6-loc_th0.35
# 1   rel1-8   reminiscencesofb00edwauoft_211   19   0.18787108   nodesDOCUMENT:DATE:LOCATION-edgesREFERENCES:SIMDATES-date_th0.3-doc_th0.6-loc_th0.35
# 1   rel1-8   reminiscencesofb00edwauoft_234   20   0.18787108   nodesDOCUMENT:DATE:LOCATION-edgesREFERENCES:SIMDATES-date_th0.3-doc_th0.6-loc_th0.35
# 1   rel1-8   reminiscencesofb00edwauoft_231   21   0.18787108   nodesDOCUMENT:DATE:LOCATION-edgesREFERENCES:SIMDATES-date_th0.3-doc_th0.6-loc_th0.35
# 1   rel1-8   reminiscencesofb00edwauoft_230   22   0.18787108   nodesDOCUMENT:DATE:LOCATION-edgesREFERENCES:SIMDATES-date_th0.3-doc_th0.6-loc_th0.35
# 1   rel1-8   passionsanimals00thomgoog_139   23   0.18787108   nodesDOCUMENT:DATE:LOCATION-edgesREFERENCES:SIMDATES-date_th0.3-doc_th0.6-loc_th0.35
# 1   rel1-8   historyofindianm01forr_16   24   0.18787108   nodesDOCUMENT:DATE:LOCATION-edgesREFERENCES:SIMDATES-date_th0.3-doc_th0.6-loc_th0.35
# 1   rel1-8   historyofindianm01forr_14   25   0.18787108   nodesDOCUMENT:DATE:LOCATION-edgesREFERENCES:SIMDATES-date_th0.3-doc_th0.6-loc_th0.35
# 1   rel1-8   historyofindianm01forr_29   26   0.18787108   nodesDOCUMENT:DATE:LOCATION-edgesREFERENCES:SIMDATES-date_th0.3-doc_th0.6-loc_th0.35
# 1   rel1-8   memorialsoflife02edwa_52   27   0.18787108   nodesDOCUMENT:DATE:LOCATION-edgesREFERENCES:SIMDATES-date_th0.3-doc_th0.6-loc_th0.35
# 1   rel1-8   recordsofindianm06indi_263   28   0.18787108   nodesDOCUMENT:DATE:LOCATION-edgesREFERENCES:SIMDATES-date_th0.3-doc_th0.6-loc_th0.35
# 1   rel1-8   macmillansmagazi43macmuoft_261   29   0.18787108   nodesDOCUMENT:DATE:LOCATION-edgesREFERENCES:SIMDATES-date_th0.3-doc_th0.6-loc_th0.35
# 1   rel1-8   memorialsoflife02edwa_49   30   0.18787108   nodesDOCUMENT:DATE:LOCATION-edgesREFERENCES:SIMDATES-date_th0.3-doc_th0.6-loc_th0.35
# 1   rel1-8   livesofindianoff02kayeiala_346   31   0.18787108   nodesDOCUMENT:DATE:LOCATION-edgesREFERENCES:SIMDATES-date_th0.3-doc_th0.6-loc_th0.35
# 1   rel1-8   livesofindianoff02kayeiala_348   32   0.18787108   nodesDOCUMENT:DATE:LOCATION-edgesREFERENCES:SIMDATES-date_th0.3-doc_th0.6-loc_th0.35
# 1   rel1-8   cu31924022927283_266   33   0.18787108   nodesDOCUMENT:DATE:LOCATION-edgesREFERENCES:SIMDATES-date_th0.3-doc_th0.6-loc_th0.35
# 1   rel1-8   cu31924013563865_47   34   0.18787108   nodesDOCUMENT:DATE:LOCATION-edgesREFERENCES:SIMDATES-date_th0.3-doc_th0.6-loc_th0.35
# 1   rel1-8   lifeofisabellath00thobrich_290   35   0.18787108   nodesDOCUMENT:DATE:LOCATION-edgesREFERENCES:SIMDATES-date_th0.3-doc_th0.6-loc_th0.35
# 1   rel1-8   lifeofisabellath00thobrich_286   36   0.18787108   nodesDOCUMENT:DATE:LOCATION-edgesREFERENCES:SIMDATES-date_th0.3-doc_th0.6-loc_th0.35
# 1   rel1-8   troubadourselect00gibbuoft_36   37   0.18787108   nodesDOCUMENT:DATE:LOCATION-edgesREFERENCES:SIMDATES-date_th0.3-doc_th0.6-loc_th0.35
# 1   rel1-8   journaloftravels00wina_252   38   0.18787108   nodesDOCUMENT:DATE:LOCATION-edgesREFERENCES:SIMDATES-date_th0.3-doc_th0.6-loc_th0.35
# 1   rel1-8   journaloftravels00wina_251   39   0.18787108   nodesDOCUMENT:DATE:LOCATION-edgesREFERENCES:SIMDATES-date_th0.3-doc_th0.6-loc_th0.35
# 1   rel1-8   lifeofclaudmarti00hill_170   40   0.18787108   nodesDOCUMENT:DATE:LOCATION-edgesREFERENCES:SIMDATES-date_th0.3-doc_th0.6-loc_th0.35
