###################################
# parameters: 
#   date_th: 0.25
#   doc_th: 0.6
#   loc_th: 0.4
#   nodestouse: DOCUMENT:DATE:LOCATION
#   relationships: REFERENCES:SIMDATES:SIMLOC

###################################
# configuration: 
#   sa.act_diff_ratio_limit = 0.01
#   sa.act_diff_ratio_limit_diff = 0.01
#   sa.function = ciir.multi.sa.function.MaxSAFunction(norm_function)
#   sa.id_property_name.DATE = dateID
#   sa.id_property_name.DOCUMENT = docID
#   sa.id_property_name.LOCATION = locID
#   sa.max_pulses = 10
#   sa.nodes_to_print = DATE:LOCATION
#   sa.nodes_to_use = DOCUMENT:DATE:LOCATION
#   sa.norm_function = ciir.multi.sa.SigmoidFunction(0.0, 1.0)
#   sa.relationships_to_use = REFERENCES:SIMDATES:SIMLOC
#   sa.spread_threshold.DATE = 0.25
#   sa.spread_threshold.DOCUMENT = 0.6
#   sa.spread_threshold.LOCATION = 0.4
#   sa.weight_property.REFERENCES = relevance
#   sa.weight_property.SIMDATES = sim
#   sa.weight_property.SIMDOC = sim
#   sa.weight_property.SIMLOC = sim
#   sa.weight_property.SIMPAGE = pagesim

###################################
# initial activations (3): 
#   cu31924088053800_313, 1
#   cu31924031684685_795, 1
#   medievalandmode02robigoog_789, 1

###################################
# spreading activation process log: 
#   pulse 0: activated: 3, non-zero: 3, borderline: 3, overall act: 3.000, act diff: 3.000, ratio: 1.000
#   pulse 1: activated: 14, non-zero: 14, borderline: 11, overall act: 7.167, act diff: 4.167, ratio: 0.581
#   pulse 2: activated: 164561, non-zero: 164561, borderline: 164553, overall act: 21215.031, act diff: 21207.864, ratio: 1.000
#   pulse 3: activated: 263751, non-zero: 263751, borderline: 263740, overall act: 33662.866, act diff: 12447.835, ratio: 0.370
#   pulse 4: activated: 282009, non-zero: 282009, borderline: 281996, overall act: 38840.867, act diff: 5178.001, ratio: 0.133
#   pulse 5: activated: 282009, non-zero: 282009, borderline: 281995, overall act: 44195.074, act diff: 5354.207, ratio: 0.121
#   pulse 6: activated: 282063, non-zero: 282063, borderline: 282026, overall act: 46650.784, act diff: 2455.710, ratio: 0.053

###################################
# spreading activation process summary: 
#   final number of activated nodes: 282063
#   final overall activation: 46650.8
#   number of spread. activ. pulses: 6
#   running time: 142328

###################################
# top k results in TREC format: 

7   rel3-1   poland   1   0.99999404   nodesDOCUMENT:DATE:LOCATION-edgesREFERENCES:SIMDATES:SIMLOC-date_th0.25-doc_th0.6-loc_th0.4
7   rel3-1   1831   2   0.99979764   nodesDOCUMENT:DATE:LOCATION-edgesREFERENCES:SIMDATES:SIMLOC-date_th0.25-doc_th0.6-loc_th0.4
7   rel3-1   1863   3   0.9993199   nodesDOCUMENT:DATE:LOCATION-edgesREFERENCES:SIMDATES:SIMLOC-date_th0.25-doc_th0.6-loc_th0.4
7   rel3-1   1830   4   0.9983085   nodesDOCUMENT:DATE:LOCATION-edgesREFERENCES:SIMDATES:SIMLOC-date_th0.25-doc_th0.6-loc_th0.4
7   rel3-1   russia   5   0.94927263   nodesDOCUMENT:DATE:LOCATION-edgesREFERENCES:SIMDATES:SIMLOC-date_th0.25-doc_th0.6-loc_th0.4
7   rel3-1   europe   6   0.7755873   nodesDOCUMENT:DATE:LOCATION-edgesREFERENCES:SIMDATES:SIMLOC-date_th0.25-doc_th0.6-loc_th0.4
7   rel3-1   1832   7   0.7272108   nodesDOCUMENT:DATE:LOCATION-edgesREFERENCES:SIMDATES:SIMLOC-date_th0.25-doc_th0.6-loc_th0.4
7   rel3-1   warsaw   8   0.5538483   nodesDOCUMENT:DATE:LOCATION-edgesREFERENCES:SIMDATES:SIMLOC-date_th0.25-doc_th0.6-loc_th0.4
7   rel3-1   1825   9   0.5116361   nodesDOCUMENT:DATE:LOCATION-edgesREFERENCES:SIMDATES:SIMLOC-date_th0.25-doc_th0.6-loc_th0.4
7   rel3-1   france   10   0.48951992   nodesDOCUMENT:DATE:LOCATION-edgesREFERENCES:SIMDATES:SIMLOC-date_th0.25-doc_th0.6-loc_th0.4
7   rel3-1   italy   11   0.47861338   nodesDOCUMENT:DATE:LOCATION-edgesREFERENCES:SIMDATES:SIMLOC-date_th0.25-doc_th0.6-loc_th0.4
7   rel3-1   1829   12   0.45821068   nodesDOCUMENT:DATE:LOCATION-edgesREFERENCES:SIMDATES:SIMLOC-date_th0.25-doc_th0.6-loc_th0.4
7   rel3-1   1862   13   0.41913325   nodesDOCUMENT:DATE:LOCATION-edgesREFERENCES:SIMDATES:SIMLOC-date_th0.25-doc_th0.6-loc_th0.4
7   rel3-1   libiya   14   0.4084225   nodesDOCUMENT:DATE:LOCATION-edgesREFERENCES:SIMDATES:SIMLOC-date_th0.25-doc_th0.6-loc_th0.4
7   rel3-1   blue tower   15   0.40840244   nodesDOCUMENT:DATE:LOCATION-edgesREFERENCES:SIMDATES:SIMLOC-date_th0.25-doc_th0.6-loc_th0.4
7   rel3-1   as sifarah al qatariyah   16   0.40777722   nodesDOCUMENT:DATE:LOCATION-edgesREFERENCES:SIMDATES:SIMLOC-date_th0.25-doc_th0.6-loc_th0.4
7   rel3-1   damascus governorate   17   0.4076872   nodesDOCUMENT:DATE:LOCATION-edgesREFERENCES:SIMDATES:SIMLOC-date_th0.25-doc_th0.6-loc_th0.4
7   rel3-1   arnous   18   0.40665257   nodesDOCUMENT:DATE:LOCATION-edgesREFERENCES:SIMDATES:SIMLOC-date_th0.25-doc_th0.6-loc_th0.4
7   rel3-1   jaddat as salihiyah   19   0.40664506   nodesDOCUMENT:DATE:LOCATION-edgesREFERENCES:SIMDATES:SIMLOC-date_th0.25-doc_th0.6-loc_th0.4
7   rel3-1   netherlands   20   0.4065635   nodesDOCUMENT:DATE:LOCATION-edgesREFERENCES:SIMDATES:SIMLOC-date_th0.25-doc_th0.6-loc_th0.4

###################################
# top nodes: 

# 7   rel3-1   medievalandmode02robigoog_789   1   1.0   nodesDOCUMENT:DATE:LOCATION-edgesREFERENCES:SIMDATES:SIMLOC-date_th0.25-doc_th0.6-loc_th0.4
# 7   rel3-1   cu31924031684685_795   2   1.0   nodesDOCUMENT:DATE:LOCATION-edgesREFERENCES:SIMDATES:SIMLOC-date_th0.25-doc_th0.6-loc_th0.4
# 7   rel3-1   cu31924088053800_313   3   1.0   nodesDOCUMENT:DATE:LOCATION-edgesREFERENCES:SIMDATES:SIMLOC-date_th0.25-doc_th0.6-loc_th0.4
# 7   rel3-1   poland   4   0.99999404   nodesDOCUMENT:DATE:LOCATION-edgesREFERENCES:SIMDATES:SIMLOC-date_th0.25-doc_th0.6-loc_th0.4
# 7   rel3-1   1831   5   0.99979764   nodesDOCUMENT:DATE:LOCATION-edgesREFERENCES:SIMDATES:SIMLOC-date_th0.25-doc_th0.6-loc_th0.4
# 7   rel3-1   1863   6   0.9993199   nodesDOCUMENT:DATE:LOCATION-edgesREFERENCES:SIMDATES:SIMLOC-date_th0.25-doc_th0.6-loc_th0.4
# 7   rel3-1   1830   7   0.9983085   nodesDOCUMENT:DATE:LOCATION-edgesREFERENCES:SIMDATES:SIMLOC-date_th0.25-doc_th0.6-loc_th0.4
# 7   rel3-1   russia   8   0.94927263   nodesDOCUMENT:DATE:LOCATION-edgesREFERENCES:SIMDATES:SIMLOC-date_th0.25-doc_th0.6-loc_th0.4
# 7   rel3-1   europe   9   0.7755873   nodesDOCUMENT:DATE:LOCATION-edgesREFERENCES:SIMDATES:SIMLOC-date_th0.25-doc_th0.6-loc_th0.4
# 7   rel3-1   russiaasitis00gurouoft_44   10   0.7577261   nodesDOCUMENT:DATE:LOCATION-edgesREFERENCES:SIMDATES:SIMLOC-date_th0.25-doc_th0.6-loc_th0.4
# 7   rel3-1   1832   11   0.7272108   nodesDOCUMENT:DATE:LOCATION-edgesREFERENCES:SIMDATES:SIMLOC-date_th0.25-doc_th0.6-loc_th0.4
# 7   rel3-1   anthologyofmoder00selviala_126   12   0.72024107   nodesDOCUMENT:DATE:LOCATION-edgesREFERENCES:SIMDATES:SIMLOC-date_th0.25-doc_th0.6-loc_th0.4
# 7   rel3-1   peacehandbooks08grea_81   13   0.6892226   nodesDOCUMENT:DATE:LOCATION-edgesREFERENCES:SIMDATES:SIMLOC-date_th0.25-doc_th0.6-loc_th0.4
# 7   rel3-1   englishwomaninr00unkngoog_305   14   0.6876672   nodesDOCUMENT:DATE:LOCATION-edgesREFERENCES:SIMDATES:SIMLOC-date_th0.25-doc_th0.6-loc_th0.4
# 7   rel3-1   russiaitspeople00gurouoft_43   15   0.67824346   nodesDOCUMENT:DATE:LOCATION-edgesREFERENCES:SIMDATES:SIMLOC-date_th0.25-doc_th0.6-loc_th0.4
# 7   rel3-1   polishpeasantine01thomuoft_216   16   0.6766468   nodesDOCUMENT:DATE:LOCATION-edgesREFERENCES:SIMDATES:SIMLOC-date_th0.25-doc_th0.6-loc_th0.4
# 7   rel3-1   selectionsfromsp02russuoft_420   17   0.6766468   nodesDOCUMENT:DATE:LOCATION-edgesREFERENCES:SIMDATES:SIMLOC-date_th0.25-doc_th0.6-loc_th0.4
# 7   rel3-1   cu31924073899001_164   18   0.6766468   nodesDOCUMENT:DATE:LOCATION-edgesREFERENCES:SIMDATES:SIMLOC-date_th0.25-doc_th0.6-loc_th0.4
# 7   rel3-1   cu31924073899001_150   19   0.6766468   nodesDOCUMENT:DATE:LOCATION-edgesREFERENCES:SIMDATES:SIMLOC-date_th0.25-doc_th0.6-loc_th0.4
# 7   rel3-1   russianpolitica02kovagoog_288   20   0.6752228   nodesDOCUMENT:DATE:LOCATION-edgesREFERENCES:SIMDATES:SIMLOC-date_th0.25-doc_th0.6-loc_th0.4
# 7   rel3-1   foundingofgerman02sybeuoft_555   21   0.6737328   nodesDOCUMENT:DATE:LOCATION-edgesREFERENCES:SIMDATES:SIMLOC-date_th0.25-doc_th0.6-loc_th0.4
# 7   rel3-1   americanhistoric19151916jame_633   22   0.6724221   nodesDOCUMENT:DATE:LOCATION-edgesREFERENCES:SIMDATES:SIMLOC-date_th0.25-doc_th0.6-loc_th0.4
# 7   rel3-1   russiaitspeople00gurouoft_231   23   0.6696698   nodesDOCUMENT:DATE:LOCATION-edgesREFERENCES:SIMDATES:SIMLOC-date_th0.25-doc_th0.6-loc_th0.4
# 7   rel3-1   polishexperienc02hallgoog_20   24   0.657513   nodesDOCUMENT:DATE:LOCATION-edgesREFERENCES:SIMDATES:SIMLOC-date_th0.25-doc_th0.6-loc_th0.4
# 7   rel3-1   historicmorgancl00eame_250   25   0.6564837   nodesDOCUMENT:DATE:LOCATION-edgesREFERENCES:SIMDATES:SIMLOC-date_th0.25-doc_th0.6-loc_th0.4
# 7   rel3-1   secretsocieties01heckgoog_192   26   0.648652   nodesDOCUMENT:DATE:LOCATION-edgesREFERENCES:SIMDATES:SIMLOC-date_th0.25-doc_th0.6-loc_th0.4
# 7   rel3-1   bookofmemoriesof00halluoft_375   27   0.6466843   nodesDOCUMENT:DATE:LOCATION-edgesREFERENCES:SIMDATES:SIMLOC-date_th0.25-doc_th0.6-loc_th0.4
# 7   rel3-1   cu31924073899001_127   28   0.6466843   nodesDOCUMENT:DATE:LOCATION-edgesREFERENCES:SIMDATES:SIMLOC-date_th0.25-doc_th0.6-loc_th0.4
# 7   rel3-1   kosciuszkobiogra00gard_151   29   0.6426174   nodesDOCUMENT:DATE:LOCATION-edgesREFERENCES:SIMDATES:SIMLOC-date_th0.25-doc_th0.6-loc_th0.4
# 7   rel3-1   selectionsfromsp02russuoft_426   30   0.6424725   nodesDOCUMENT:DATE:LOCATION-edgesREFERENCES:SIMDATES:SIMLOC-date_th0.25-doc_th0.6-loc_th0.4
# 7   rel3-1   stormssunshineof01mackuoft_43   31   0.6401767   nodesDOCUMENT:DATE:LOCATION-edgesREFERENCES:SIMDATES:SIMLOC-date_th0.25-doc_th0.6-loc_th0.4
# 7   rel3-1   lectureonsocialp00tochrich_22   32   0.63796467   nodesDOCUMENT:DATE:LOCATION-edgesREFERENCES:SIMDATES:SIMLOC-date_th0.25-doc_th0.6-loc_th0.4
# 7   rel3-1   historytenyears06blangoog_465   33   0.6377053   nodesDOCUMENT:DATE:LOCATION-edgesREFERENCES:SIMDATES:SIMLOC-date_th0.25-doc_th0.6-loc_th0.4
# 7   rel3-1   selectionsfromsp02russuoft_245   34   0.63735235   nodesDOCUMENT:DATE:LOCATION-edgesREFERENCES:SIMDATES:SIMLOC-date_th0.25-doc_th0.6-loc_th0.4
# 7   rel3-1   cu31924073899001_33   35   0.6364296   nodesDOCUMENT:DATE:LOCATION-edgesREFERENCES:SIMDATES:SIMLOC-date_th0.25-doc_th0.6-loc_th0.4
# 7   rel3-1   advocateofpeace82amerrich_327   36   0.6360483   nodesDOCUMENT:DATE:LOCATION-edgesREFERENCES:SIMDATES:SIMLOC-date_th0.25-doc_th0.6-loc_th0.4
# 7   rel3-1   someproblemspea00goog_191   37   0.63360316   nodesDOCUMENT:DATE:LOCATION-edgesREFERENCES:SIMDATES:SIMLOC-date_th0.25-doc_th0.6-loc_th0.4
# 7   rel3-1   selectionsfromsp02russuoft_388   38   0.63360316   nodesDOCUMENT:DATE:LOCATION-edgesREFERENCES:SIMDATES:SIMLOC-date_th0.25-doc_th0.6-loc_th0.4
# 7   rel3-1   austriaviennapr00kohlgoog_511   39   0.6335351   nodesDOCUMENT:DATE:LOCATION-edgesREFERENCES:SIMDATES:SIMLOC-date_th0.25-doc_th0.6-loc_th0.4
# 7   rel3-1   conquestsofcross02hodd_183   40   0.63336635   nodesDOCUMENT:DATE:LOCATION-edgesREFERENCES:SIMDATES:SIMLOC-date_th0.25-doc_th0.6-loc_th0.4
