###################################
# parameters: 
#   date_th: 0.25
#   doc_th: 0.6
#   loc_th: 0.4
#   nodestouse: DOCUMENT:DATE:LOCATION
#   relationships: REFERENCES:SIMDATES:SIMLOC

###################################
# configuration: 
#   sa.act_diff_ratio_limit = 0.01
#   sa.act_diff_ratio_limit_diff = 0.01
#   sa.function = ciir.multi.sa.function.MaxSAFunction(norm_function)
#   sa.id_property_name.DATE = dateID
#   sa.id_property_name.DOCUMENT = docID
#   sa.id_property_name.LOCATION = locID
#   sa.max_pulses = 10
#   sa.nodes_to_print = DATE:LOCATION
#   sa.nodes_to_use = DOCUMENT:DATE:LOCATION
#   sa.norm_function = ciir.multi.sa.SigmoidFunction(0.0, 1.0)
#   sa.relationships_to_use = REFERENCES:SIMDATES:SIMLOC
#   sa.spread_threshold.DATE = 0.25
#   sa.spread_threshold.DOCUMENT = 0.6
#   sa.spread_threshold.LOCATION = 0.4
#   sa.weight_property.REFERENCES = relevance
#   sa.weight_property.SIMDATES = sim
#   sa.weight_property.SIMDOC = sim
#   sa.weight_property.SIMLOC = sim
#   sa.weight_property.SIMPAGE = pagesim

###################################
# initial activations (1): 
#   newannualarmylis1874hart_228, 1

###################################
# spreading activation process log: 
#   pulse 0: activated: 1, non-zero: 1, borderline: 1, overall act: 1.000, act diff: 1.000, ratio: 1.000
#   pulse 1: activated: 24, non-zero: 24, borderline: 23, overall act: 4.101, act diff: 3.101, ratio: 0.756
#   pulse 2: activated: 24, non-zero: 24, borderline: 23, overall act: 4.101, act diff: 0.000, ratio: 0.000

###################################
# spreading activation process summary: 
#   final number of activated nodes: 24
#   final overall activation: 4.1
#   number of spread. activ. pulses: 2
#   running time: 5642

###################################
# top k results in TREC format: 

1   rel1-8   lucknow   1   0.3802589   nodesDOCUMENT:DATE:LOCATION-edgesREFERENCES:SIMDATES:SIMLOC-date_th0.25-doc_th0.6-loc_th0.4
1   rel1-8   chanda   2   0.23942329   nodesDOCUMENT:DATE:LOCATION-edgesREFERENCES:SIMDATES:SIMLOC-date_th0.25-doc_th0.6-loc_th0.4
1   rel1-8   arrah   3   0.16514042   nodesDOCUMENT:DATE:LOCATION-edgesREFERENCES:SIMDATES:SIMLOC-date_th0.25-doc_th0.6-loc_th0.4
1   rel1-8   1851   4   0.121718764   nodesDOCUMENT:DATE:LOCATION-edgesREFERENCES:SIMDATES:SIMLOC-date_th0.25-doc_th0.6-loc_th0.4
1   rel1-8   1852   5   0.121718764   nodesDOCUMENT:DATE:LOCATION-edgesREFERENCES:SIMDATES:SIMLOC-date_th0.25-doc_th0.6-loc_th0.4
1   rel1-8   1853   6   0.121718764   nodesDOCUMENT:DATE:LOCATION-edgesREFERENCES:SIMDATES:SIMLOC-date_th0.25-doc_th0.6-loc_th0.4
1   rel1-8   1859   7   0.121718764   nodesDOCUMENT:DATE:LOCATION-edgesREFERENCES:SIMDATES:SIMLOC-date_th0.25-doc_th0.6-loc_th0.4
1   rel1-8   1848   8   0.121718764   nodesDOCUMENT:DATE:LOCATION-edgesREFERENCES:SIMDATES:SIMLOC-date_th0.25-doc_th0.6-loc_th0.4
1   rel1-8   1847   9   0.121718764   nodesDOCUMENT:DATE:LOCATION-edgesREFERENCES:SIMDATES:SIMLOC-date_th0.25-doc_th0.6-loc_th0.4
1   rel1-8   1856   10   0.121718764   nodesDOCUMENT:DATE:LOCATION-edgesREFERENCES:SIMDATES:SIMLOC-date_th0.25-doc_th0.6-loc_th0.4
1   rel1-8   1845   11   0.121718764   nodesDOCUMENT:DATE:LOCATION-edgesREFERENCES:SIMDATES:SIMLOC-date_th0.25-doc_th0.6-loc_th0.4
1   rel1-8   1857   12   0.121718764   nodesDOCUMENT:DATE:LOCATION-edgesREFERENCES:SIMDATES:SIMLOC-date_th0.25-doc_th0.6-loc_th0.4
1   rel1-8   1846   13   0.121718764   nodesDOCUMENT:DATE:LOCATION-edgesREFERENCES:SIMDATES:SIMLOC-date_th0.25-doc_th0.6-loc_th0.4
1   rel1-8   1858   14   0.121718764   nodesDOCUMENT:DATE:LOCATION-edgesREFERENCES:SIMDATES:SIMLOC-date_th0.25-doc_th0.6-loc_th0.4
1   rel1-8   1849   15   0.121718764   nodesDOCUMENT:DATE:LOCATION-edgesREFERENCES:SIMDATES:SIMLOC-date_th0.25-doc_th0.6-loc_th0.4
1   rel1-8   1855   16   0.121718764   nodesDOCUMENT:DATE:LOCATION-edgesREFERENCES:SIMDATES:SIMLOC-date_th0.25-doc_th0.6-loc_th0.4
1   rel1-8   benares   17   0.10476908   nodesDOCUMENT:DATE:LOCATION-edgesREFERENCES:SIMDATES:SIMLOC-date_th0.25-doc_th0.6-loc_th0.4
1   rel1-8   shahabad   18   0.10476908   nodesDOCUMENT:DATE:LOCATION-edgesREFERENCES:SIMDATES:SIMLOC-date_th0.25-doc_th0.6-loc_th0.4
1   rel1-8   sebastopol   19   0.10476908   nodesDOCUMENT:DATE:LOCATION-edgesREFERENCES:SIMDATES:SIMLOC-date_th0.25-doc_th0.6-loc_th0.4
1   rel1-8   danapur   20   0.10476908   nodesDOCUMENT:DATE:LOCATION-edgesREFERENCES:SIMDATES:SIMLOC-date_th0.25-doc_th0.6-loc_th0.4

###################################
# top nodes: 

# 1   rel1-8   newannualarmylis1874hart_228   1   1.0   nodesDOCUMENT:DATE:LOCATION-edgesREFERENCES:SIMDATES:SIMLOC-date_th0.25-doc_th0.6-loc_th0.4
# 1   rel1-8   lucknow   2   0.3802589   nodesDOCUMENT:DATE:LOCATION-edgesREFERENCES:SIMDATES:SIMLOC-date_th0.25-doc_th0.6-loc_th0.4
# 1   rel1-8   chanda   3   0.23942329   nodesDOCUMENT:DATE:LOCATION-edgesREFERENCES:SIMDATES:SIMLOC-date_th0.25-doc_th0.6-loc_th0.4
# 1   rel1-8   arrah   4   0.16514042   nodesDOCUMENT:DATE:LOCATION-edgesREFERENCES:SIMDATES:SIMLOC-date_th0.25-doc_th0.6-loc_th0.4
# 1   rel1-8   1851   5   0.121718764   nodesDOCUMENT:DATE:LOCATION-edgesREFERENCES:SIMDATES:SIMLOC-date_th0.25-doc_th0.6-loc_th0.4
# 1   rel1-8   1852   6   0.121718764   nodesDOCUMENT:DATE:LOCATION-edgesREFERENCES:SIMDATES:SIMLOC-date_th0.25-doc_th0.6-loc_th0.4
# 1   rel1-8   1849   7   0.121718764   nodesDOCUMENT:DATE:LOCATION-edgesREFERENCES:SIMDATES:SIMLOC-date_th0.25-doc_th0.6-loc_th0.4
# 1   rel1-8   1848   8   0.121718764   nodesDOCUMENT:DATE:LOCATION-edgesREFERENCES:SIMDATES:SIMLOC-date_th0.25-doc_th0.6-loc_th0.4
# 1   rel1-8   1858   9   0.121718764   nodesDOCUMENT:DATE:LOCATION-edgesREFERENCES:SIMDATES:SIMLOC-date_th0.25-doc_th0.6-loc_th0.4
# 1   rel1-8   1846   10   0.121718764   nodesDOCUMENT:DATE:LOCATION-edgesREFERENCES:SIMDATES:SIMLOC-date_th0.25-doc_th0.6-loc_th0.4
# 1   rel1-8   1845   11   0.121718764   nodesDOCUMENT:DATE:LOCATION-edgesREFERENCES:SIMDATES:SIMLOC-date_th0.25-doc_th0.6-loc_th0.4
# 1   rel1-8   1856   12   0.121718764   nodesDOCUMENT:DATE:LOCATION-edgesREFERENCES:SIMDATES:SIMLOC-date_th0.25-doc_th0.6-loc_th0.4
# 1   rel1-8   1857   13   0.121718764   nodesDOCUMENT:DATE:LOCATION-edgesREFERENCES:SIMDATES:SIMLOC-date_th0.25-doc_th0.6-loc_th0.4
# 1   rel1-8   1847   14   0.121718764   nodesDOCUMENT:DATE:LOCATION-edgesREFERENCES:SIMDATES:SIMLOC-date_th0.25-doc_th0.6-loc_th0.4
# 1   rel1-8   1859   15   0.121718764   nodesDOCUMENT:DATE:LOCATION-edgesREFERENCES:SIMDATES:SIMLOC-date_th0.25-doc_th0.6-loc_th0.4
# 1   rel1-8   1853   16   0.121718764   nodesDOCUMENT:DATE:LOCATION-edgesREFERENCES:SIMDATES:SIMLOC-date_th0.25-doc_th0.6-loc_th0.4
# 1   rel1-8   1855   17   0.121718764   nodesDOCUMENT:DATE:LOCATION-edgesREFERENCES:SIMDATES:SIMLOC-date_th0.25-doc_th0.6-loc_th0.4
# 1   rel1-8   benares   18   0.10476908   nodesDOCUMENT:DATE:LOCATION-edgesREFERENCES:SIMDATES:SIMLOC-date_th0.25-doc_th0.6-loc_th0.4
# 1   rel1-8   shahabad   19   0.10476908   nodesDOCUMENT:DATE:LOCATION-edgesREFERENCES:SIMDATES:SIMLOC-date_th0.25-doc_th0.6-loc_th0.4
# 1   rel1-8   sebastopol   20   0.10476908   nodesDOCUMENT:DATE:LOCATION-edgesREFERENCES:SIMDATES:SIMLOC-date_th0.25-doc_th0.6-loc_th0.4
# 1   rel1-8   danapur   21   0.10476908   nodesDOCUMENT:DATE:LOCATION-edgesREFERENCES:SIMDATES:SIMLOC-date_th0.25-doc_th0.6-loc_th0.4
# 1   rel1-8   redan   22   0.10476908   nodesDOCUMENT:DATE:LOCATION-edgesREFERENCES:SIMDATES:SIMLOC-date_th0.25-doc_th0.6-loc_th0.4
# 1   rel1-8   windham   23   0.10476908   nodesDOCUMENT:DATE:LOCATION-edgesREFERENCES:SIMDATES:SIMLOC-date_th0.25-doc_th0.6-loc_th0.4
# 1   rel1-8   mosque   24   0.10476908   nodesDOCUMENT:DATE:LOCATION-edgesREFERENCES:SIMDATES:SIMLOC-date_th0.25-doc_th0.6-loc_th0.4
