###################################
# parameters: 
#   decay: 0.2
#   lambda: 0.0
#   norm_threshold: 0.1
#   relationships: REFERENCES

###################################
# configuration: 
#   sa.act_diff_ratio_limit = 0.05
#   sa.function = ciir.multi.sa.DecayedSumSALogNormFunction(norm_function, 0.2, 0.0)
#   sa.id_property_name.DATE = dateID
#   sa.id_property_name.DOCUMENT = docID
#   sa.id_property_name.LOCATION = locID
#   sa.max_pulses = 15
#   sa.norm_function = ciir.multi.sa.SigmoidFunction(0.1, 1.0)
#   sa.relationships_to_use = REFERENCES
#   sa.weight_property.REFERENCES = relevance
#   sa.weight_property.SIMDATES = sim
#   sa.weight_property.SIMLOC = sim

###################################
# initial activations: 
#   generalhistoryfo00myerrich_787: 1.0
#   selwynhouseschoo1940selw_21: 1.0
#   lifeofstratfordc02laneuoft_185: 1.0
#   historyofuniteds07good_239: 1.0
#   shorthistoryofmo00haslrich_98: 1.0
#   cambridgemodern09protgoog_449: 1.0

###################################
# spreading activation process log: 
#   pulse 0: activated nodes: 6, borderline nodes: 6, overall activation: 0.000, activation diff: 0.000, ratio: Infinity
#   pulse 1: activated nodes: 69, borderline nodes: 63, overall activation: 17.656, activation diff: 23.656, ratio: 1.340
#   pulse 2: activated nodes: 5255, borderline nodes: 5186, overall activation: 1419.443, activation diff: 1437.099, ratio: 1.012
#   pulse 3: activated nodes: 8627, borderline nodes: 3418, overall activation: 980.665, activation diff: 2400.108, ratio: 2.447
#   pulse 4: activated nodes: 10760, borderline nodes: 2425, overall activation: 4686.547, activation diff: 5667.212, ratio: 1.209
#   pulse 5: activated nodes: 11260, borderline nodes: 755, overall activation: 1969.252, activation diff: 6655.799, ratio: 3.380
#   pulse 6: activated nodes: 11327, borderline nodes: 81, overall activation: 4801.079, activation diff: 6770.331, ratio: 1.410
#   pulse 7: activated nodes: 11333, borderline nodes: 40, overall activation: 1990.685, activation diff: 6791.764, ratio: 3.412
#   pulse 8: activated nodes: 11335, borderline nodes: 31, overall activation: 4805.547, activation diff: 6796.232, ratio: 1.414
#   pulse 9: activated nodes: 11335, borderline nodes: 31, overall activation: 1991.758, activation diff: 6797.305, ratio: 3.413
#   pulse 10: activated nodes: 11335, borderline nodes: 31, overall activation: 4805.906, activation diff: 6797.664, ratio: 1.414
#   pulse 11: activated nodes: 11335, borderline nodes: 31, overall activation: 1991.869, activation diff: 6797.775, ratio: 3.413
#   pulse 12: activated nodes: 11335, borderline nodes: 31, overall activation: 4805.949, activation diff: 6797.818, ratio: 1.414
#   pulse 13: activated nodes: 11335, borderline nodes: 31, overall activation: 1991.884, activation diff: 6797.833, ratio: 3.413
#   pulse 14: activated nodes: 11335, borderline nodes: 31, overall activation: 4805.955, activation diff: 6797.839, ratio: 1.414
#   pulse 15: activated nodes: 11335, borderline nodes: 31, overall activation: 1991.886, activation diff: 6797.841, ratio: 3.413

###################################
# spreading activation process summary: 
#   final number of activated nodes: 11335
#   final overall activation: 1991.9
#   number of spread. activ. pulses: 15
#   running time: 685

###################################
# top k results in TREC format: 

1   Q1   miningcampsstudy00shin_200   1   0.0   REFERENCES
1   Q1   miningcampsstudy00shin_202   2   0.0   REFERENCES
1   Q1   bostoncollegebul0405bost_192   3   0.0   REFERENCES
1   Q1   bostoncollegebul0405bost_193   4   0.0   REFERENCES
1   Q1   bostoncollegebul0405bost_195   5   0.0   REFERENCES
1   Q1   miningcampsstudy00shin_204   6   0.0   REFERENCES
1   Q1   miningcampsstudy00shin_206   7   0.0   REFERENCES
1   Q1   bostoncollegebul0405bost_188   8   0.0   REFERENCES
1   Q1   miningcampsstudy00shin_214   9   0.0   REFERENCES
1   Q1   historyofuniteds07good_350   10   0.0   REFERENCES
1   Q1   historyofuniteds07good_351   11   0.0   REFERENCES
1   Q1   bostoncollegebul0405bost_190   12   0.0   REFERENCES
1   Q1   bostoncollegebul0405bost_197   13   0.0   REFERENCES
1   Q1   bostoncollegebul0405bost_196   14   0.0   REFERENCES
1   Q1   miningcampsstudy00shin_205   15   0.0   REFERENCES
1   Q1   miningcampsstudy00shin_208   16   0.0   REFERENCES
1   Q1   bostoncollegebul0405bost_191   17   0.0   REFERENCES
1   Q1   miningcampsstudy00shin_203   18   0.0   REFERENCES
1   Q1   bostoncollegebul0405bost_199   19   0.0   REFERENCES
1   Q1   miningcampsstudy00shin_201   20   0.0   REFERENCES
