###################################
# parameters: 
#   date_th: 0.25
#   doc_th: 0.5
#   loc_th: 0.4
#   nodestouse: DOCUMENT:DATE:LOCATION
#   relationships: REFERENCES:SIMLOC

###################################
# configuration: 
#   sa.act_diff_ratio_limit = 0.01
#   sa.act_diff_ratio_limit_diff = 0.01
#   sa.function = ciir.multi.sa.function.MaxSAFunction(norm_function)
#   sa.id_property_name.DATE = dateID
#   sa.id_property_name.DOCUMENT = docID
#   sa.id_property_name.LOCATION = locID
#   sa.max_pulses = 10
#   sa.nodes_to_print = DATE:LOCATION
#   sa.nodes_to_use = DOCUMENT:DATE:LOCATION
#   sa.norm_function = ciir.multi.sa.SigmoidFunction(0.0, 1.0)
#   sa.relationships_to_use = REFERENCES:SIMLOC
#   sa.spread_threshold.DATE = 0.25
#   sa.spread_threshold.DOCUMENT = 0.5
#   sa.spread_threshold.LOCATION = 0.4
#   sa.weight_property.REFERENCES = relevance
#   sa.weight_property.SIMDATES = sim
#   sa.weight_property.SIMDOC = sim
#   sa.weight_property.SIMLOC = sim
#   sa.weight_property.SIMPAGE = pagesim

###################################
# initial activations (3): 
#   englandsfightwit00wals_354, 1
#   cu31924029563875_157, 1
#   hallamsworks04halliala_600, 1

###################################
# spreading activation process log: 
#   pulse 0: activated: 3, non-zero: 3, borderline: 3, overall act: 3.000, act diff: 3.000, ratio: 1.000
#   pulse 1: activated: 21, non-zero: 21, borderline: 18, overall act: 7.352, act diff: 4.352, ratio: 0.592
#   pulse 2: activated: 264020, non-zero: 264020, borderline: 264014, overall act: 46264.676, act diff: 46257.324, ratio: 1.000
#   pulse 3: activated: 264147, non-zero: 264147, borderline: 263974, overall act: 46287.700, act diff: 23.025, ratio: 0.000

###################################
# spreading activation process summary: 
#   final number of activated nodes: 264147
#   final overall activation: 46287.7
#   number of spread. activ. pulses: 3
#   running time: 125043

###################################
# top k results in TREC format: 

2   rel3-2   1641   1   1.0   nodesDOCUMENT:DATE:LOCATION-edgesREFERENCES:SIMLOC-date_th0.25-doc_th0.5-loc_th0.4
2   rel3-2   ireland   2   1.0   nodesDOCUMENT:DATE:LOCATION-edgesREFERENCES:SIMLOC-date_th0.25-doc_th0.5-loc_th0.4
2   rel3-2   england   3   0.99999875   nodesDOCUMENT:DATE:LOCATION-edgesREFERENCES:SIMLOC-date_th0.25-doc_th0.5-loc_th0.4
2   rel3-2   dublin   4   0.9982653   nodesDOCUMENT:DATE:LOCATION-edgesREFERENCES:SIMLOC-date_th0.25-doc_th0.5-loc_th0.4
2   rel3-2   london   5   0.9126157   nodesDOCUMENT:DATE:LOCATION-edgesREFERENCES:SIMLOC-date_th0.25-doc_th0.5-loc_th0.4
2   rel3-2   scotland   6   0.77424175   nodesDOCUMENT:DATE:LOCATION-edgesREFERENCES:SIMLOC-date_th0.25-doc_th0.5-loc_th0.4
2   rel3-2   munster   7   0.75455904   nodesDOCUMENT:DATE:LOCATION-edgesREFERENCES:SIMLOC-date_th0.25-doc_th0.5-loc_th0.4
2   rel3-2   fairfax   8   0.6442473   nodesDOCUMENT:DATE:LOCATION-edgesREFERENCES:SIMLOC-date_th0.25-doc_th0.5-loc_th0.4
2   rel3-2   strafford   9   0.57026225   nodesDOCUMENT:DATE:LOCATION-edgesREFERENCES:SIMLOC-date_th0.25-doc_th0.5-loc_th0.4
2   rel3-2   kingdom   10   0.54630965   nodesDOCUMENT:DATE:LOCATION-edgesREFERENCES:SIMLOC-date_th0.25-doc_th0.5-loc_th0.4
2   rel3-2   france   11   0.5162392   nodesDOCUMENT:DATE:LOCATION-edgesREFERENCES:SIMLOC-date_th0.25-doc_th0.5-loc_th0.4
2   rel3-2   limerick   12   0.4837414   nodesDOCUMENT:DATE:LOCATION-edgesREFERENCES:SIMLOC-date_th0.25-doc_th0.5-loc_th0.4
2   rel3-2   spain   13   0.41885406   nodesDOCUMENT:DATE:LOCATION-edgesREFERENCES:SIMLOC-date_th0.25-doc_th0.5-loc_th0.4
2   rel3-2   1640   14   0.4075367   nodesDOCUMENT:DATE:LOCATION-edgesREFERENCES:SIMLOC-date_th0.25-doc_th0.5-loc_th0.4
2   rel3-2   clifton house   15   0.36210883   nodesDOCUMENT:DATE:LOCATION-edgesREFERENCES:SIMLOC-date_th0.25-doc_th0.5-loc_th0.4
2   rel3-2   cangort   16   0.3536148   nodesDOCUMENT:DATE:LOCATION-edgesREFERENCES:SIMLOC-date_th0.25-doc_th0.5-loc_th0.4
2   rel3-2   europe   17   0.35298395   nodesDOCUMENT:DATE:LOCATION-edgesREFERENCES:SIMLOC-date_th0.25-doc_th0.5-loc_th0.4
2   rel3-2   cangort park   18   0.34887496   nodesDOCUMENT:DATE:LOCATION-edgesREFERENCES:SIMLOC-date_th0.25-doc_th0.5-loc_th0.4
2   rel3-2   rome   19   0.34814852   nodesDOCUMENT:DATE:LOCATION-edgesREFERENCES:SIMLOC-date_th0.25-doc_th0.5-loc_th0.4
2   rel3-2   sopwell hall   20   0.3471836   nodesDOCUMENT:DATE:LOCATION-edgesREFERENCES:SIMLOC-date_th0.25-doc_th0.5-loc_th0.4

###################################
# top nodes: 

# 2   rel3-2   hallamsworks04halliala_600   1   1.0   nodesDOCUMENT:DATE:LOCATION-edgesREFERENCES:SIMLOC-date_th0.25-doc_th0.5-loc_th0.4
# 2   rel3-2   cu31924029563875_157   2   1.0   nodesDOCUMENT:DATE:LOCATION-edgesREFERENCES:SIMLOC-date_th0.25-doc_th0.5-loc_th0.4
# 2   rel3-2   1641   3   1.0   nodesDOCUMENT:DATE:LOCATION-edgesREFERENCES:SIMLOC-date_th0.25-doc_th0.5-loc_th0.4
# 2   rel3-2   englandsfightwit00wals_354   4   1.0   nodesDOCUMENT:DATE:LOCATION-edgesREFERENCES:SIMLOC-date_th0.25-doc_th0.5-loc_th0.4
# 2   rel3-2   ireland   5   1.0   nodesDOCUMENT:DATE:LOCATION-edgesREFERENCES:SIMLOC-date_th0.25-doc_th0.5-loc_th0.4
# 2   rel3-2   england   6   0.99999875   nodesDOCUMENT:DATE:LOCATION-edgesREFERENCES:SIMLOC-date_th0.25-doc_th0.5-loc_th0.4
# 2   rel3-2   dublin   7   0.9982653   nodesDOCUMENT:DATE:LOCATION-edgesREFERENCES:SIMLOC-date_th0.25-doc_th0.5-loc_th0.4
# 2   rel3-2   london   8   0.9126157   nodesDOCUMENT:DATE:LOCATION-edgesREFERENCES:SIMLOC-date_th0.25-doc_th0.5-loc_th0.4
# 2   rel3-2   scotland   9   0.77424175   nodesDOCUMENT:DATE:LOCATION-edgesREFERENCES:SIMLOC-date_th0.25-doc_th0.5-loc_th0.4
# 2   rel3-2   munster   10   0.75455904   nodesDOCUMENT:DATE:LOCATION-edgesREFERENCES:SIMLOC-date_th0.25-doc_th0.5-loc_th0.4
# 2   rel3-2   fairfax   11   0.6442473   nodesDOCUMENT:DATE:LOCATION-edgesREFERENCES:SIMLOC-date_th0.25-doc_th0.5-loc_th0.4
# 2   rel3-2   causeofirelandpl00orei_291   12   0.6040615   nodesDOCUMENT:DATE:LOCATION-edgesREFERENCES:SIMLOC-date_th0.25-doc_th0.5-loc_th0.4
# 2   rel3-2   treatiseofexcheq02howa_411   13   0.6040615   nodesDOCUMENT:DATE:LOCATION-edgesREFERENCES:SIMLOC-date_th0.25-doc_th0.5-loc_th0.4
# 2   rel3-2   compendiumofhist02lawl_76   14   0.6040615   nodesDOCUMENT:DATE:LOCATION-edgesREFERENCES:SIMLOC-date_th0.25-doc_th0.5-loc_th0.4
# 2   rel3-2   treatiseofexcheq02howa_130   15   0.6040615   nodesDOCUMENT:DATE:LOCATION-edgesREFERENCES:SIMLOC-date_th0.25-doc_th0.5-loc_th0.4
# 2   rel3-2   causeofirelandpl00orei_345   16   0.6040615   nodesDOCUMENT:DATE:LOCATION-edgesREFERENCES:SIMLOC-date_th0.25-doc_th0.5-loc_th0.4
# 2   rel3-2   economichistoryo00obri_321   17   0.6040615   nodesDOCUMENT:DATE:LOCATION-edgesREFERENCES:SIMLOC-date_th0.25-doc_th0.5-loc_th0.4
# 2   rel3-2   calendarstatepa12offigoog_335   18   0.6040615   nodesDOCUMENT:DATE:LOCATION-edgesREFERENCES:SIMLOC-date_th0.25-doc_th0.5-loc_th0.4
# 2   rel3-2   statechurcheskin00allerich_587   19   0.6040615   nodesDOCUMENT:DATE:LOCATION-edgesREFERENCES:SIMLOC-date_th0.25-doc_th0.5-loc_th0.4
# 2   rel3-2   memoirsandcorre02castgoog_42   20   0.6040615   nodesDOCUMENT:DATE:LOCATION-edgesREFERENCES:SIMLOC-date_th0.25-doc_th0.5-loc_th0.4
# 2   rel3-2   revolutionaryir00mahagoog_100   21   0.6040615   nodesDOCUMENT:DATE:LOCATION-edgesREFERENCES:SIMLOC-date_th0.25-doc_th0.5-loc_th0.4
# 2   rel3-2   historymoderneu11russgoog_386   22   0.6040615   nodesDOCUMENT:DATE:LOCATION-edgesREFERENCES:SIMLOC-date_th0.25-doc_th0.5-loc_th0.4
# 2   rel3-2   treatiseofexcheq02howa_413   23   0.6040615   nodesDOCUMENT:DATE:LOCATION-edgesREFERENCES:SIMLOC-date_th0.25-doc_th0.5-loc_th0.4
# 2   rel3-2   historyofdiocese02healiala_23   24   0.6040615   nodesDOCUMENT:DATE:LOCATION-edgesREFERENCES:SIMLOC-date_th0.25-doc_th0.5-loc_th0.4
# 2   rel3-2   historyofireland3_00will_307   25   0.6040615   nodesDOCUMENT:DATE:LOCATION-edgesREFERENCES:SIMLOC-date_th0.25-doc_th0.5-loc_th0.4
# 2   rel3-2   irishtangleandwa1920john_53   26   0.6040615   nodesDOCUMENT:DATE:LOCATION-edgesREFERENCES:SIMLOC-date_th0.25-doc_th0.5-loc_th0.4
# 2   rel3-2   constitutionalhi03hall_414   27   0.6040615   nodesDOCUMENT:DATE:LOCATION-edgesREFERENCES:SIMLOC-date_th0.25-doc_th0.5-loc_th0.4
# 2   rel3-2   proceedingsofro22roya_307   28   0.6040615   nodesDOCUMENT:DATE:LOCATION-edgesREFERENCES:SIMLOC-date_th0.25-doc_th0.5-loc_th0.4
# 2   rel3-2   fastiecclesiaeh02cottgoog_20   29   0.6040615   nodesDOCUMENT:DATE:LOCATION-edgesREFERENCES:SIMLOC-date_th0.25-doc_th0.5-loc_th0.4
# 2   rel3-2   cu31924091770861_319   30   0.6040615   nodesDOCUMENT:DATE:LOCATION-edgesREFERENCES:SIMLOC-date_th0.25-doc_th0.5-loc_th0.4
# 2   rel3-2   cu31924091770861_286   31   0.6040615   nodesDOCUMENT:DATE:LOCATION-edgesREFERENCES:SIMLOC-date_th0.25-doc_th0.5-loc_th0.4
# 2   rel3-2   cu31924091786628_78   32   0.6040615   nodesDOCUMENT:DATE:LOCATION-edgesREFERENCES:SIMLOC-date_th0.25-doc_th0.5-loc_th0.4
# 2   rel3-2   castlesofireland00adamiala_301   33   0.6040615   nodesDOCUMENT:DATE:LOCATION-edgesREFERENCES:SIMLOC-date_th0.25-doc_th0.5-loc_th0.4
# 2   rel3-2   confederationofk00meeh_10   34   0.6040615   nodesDOCUMENT:DATE:LOCATION-edgesREFERENCES:SIMLOC-date_th0.25-doc_th0.5-loc_th0.4
# 2   rel3-2   englishinireland03frou_309   35   0.6040615   nodesDOCUMENT:DATE:LOCATION-edgesREFERENCES:SIMLOC-date_th0.25-doc_th0.5-loc_th0.4
# 2   rel3-2   englishinireland03frou_118   36   0.6040615   nodesDOCUMENT:DATE:LOCATION-edgesREFERENCES:SIMLOC-date_th0.25-doc_th0.5-loc_th0.4
# 2   rel3-2   treatiseofexcheq02howa_421   37   0.6040615   nodesDOCUMENT:DATE:LOCATION-edgesREFERENCES:SIMLOC-date_th0.25-doc_th0.5-loc_th0.4
# 2   rel3-2   politicalstudies00broduoft_370   38   0.59268457   nodesDOCUMENT:DATE:LOCATION-edgesREFERENCES:SIMLOC-date_th0.25-doc_th0.5-loc_th0.4
# 2   rel3-2   politicalstudies00broduoft_382   39   0.588027   nodesDOCUMENT:DATE:LOCATION-edgesREFERENCES:SIMLOC-date_th0.25-doc_th0.5-loc_th0.4
# 2   rel3-2   causeofirelandpl00orei_249   40   0.5802522   nodesDOCUMENT:DATE:LOCATION-edgesREFERENCES:SIMLOC-date_th0.25-doc_th0.5-loc_th0.4
