###################################
# parameters: 
#   decay: 0.25
#   lambda: 0.25
#   norm_threshold: 0.3
#   relationships: REFERENCES:SIMDATES

###################################
# configuration: 
#   sa.act_diff_ratio_limit = 0.05
#   sa.function = ciir.multi.sa.DecayedSumSAFunction(norm_function, 0.25, 0.25)
#   sa.id_property_name.DATE = dateID
#   sa.id_property_name.DOCUMENT = docID
#   sa.id_property_name.LOCATION = locID
#   sa.max_pulses = 20
#   sa.norm_function = ciir.multi.sa.SigmoidFunction(0.3, 1.0)
#   sa.relationships_to_use = REFERENCES:SIMDATES
#   sa.weight_property.REFERENCES = relevance
#   sa.weight_property.SIMDATES = sim
#   sa.weight_property.SIMLOC = sim

###################################
# initial activations: 
#   generalhistoryfo00myerrich_787: 1.0
#   selwynhouseschoo1940selw_21: 1.0
#   lifeofstratfordc02laneuoft_185: 1.0
#   historyofuniteds07good_239: 1.0
#   shorthistoryofmo00haslrich_98: 1.0
#   cambridgemodern09protgoog_449: 1.0

###################################
# spreading activation process log: 
#   pulse 0: activated nodes: 6, borderline nodes: 6, overall activation: 0.000, activation diff: 0.000, ratio: Infinity
#   pulse 1: activated nodes: 69, borderline nodes: 63, overall activation: 21.549, activation diff: 24.549, ratio: 1.139
#   pulse 2: activated nodes: 5321, borderline nodes: 5252, overall activation: 1026.873, activation diff: 1031.243, ratio: 1.004
#   pulse 3: activated nodes: 8333, borderline nodes: 4229, overall activation: 1121.632, activation diff: 747.027, ratio: 0.666
#   pulse 4: activated nodes: 10507, borderline nodes: 4287, overall activation: 3153.405, activation diff: 2090.584, ratio: 0.663
#   pulse 5: activated nodes: 11209, borderline nodes: 1913, overall activation: 4148.670, activation diff: 995.391, ratio: 0.240
#   pulse 6: activated nodes: 11242, borderline nodes: 776, overall activation: 4552.690, activation diff: 404.020, ratio: 0.089
#   pulse 7: activated nodes: 11280, borderline nodes: 619, overall activation: 4701.810, activation diff: 149.119, ratio: 0.032

###################################
# spreading activation process summary: 
#   final number of activated nodes: 11280
#   final overall activation: 4701.8
#   number of spread. activ. pulses: 7
#   running time: 472

###################################
# top k results in TREC format: 

1   Q1   historyofuniteds07good_239   1   0.99967897   REFERENCES:SIMDATES
1   Q1   selwynhouseschoo1940selw_21   2   0.99933976   REFERENCES:SIMDATES
1   Q1   cambridgemodern09protgoog_449   3   0.9990612   REFERENCES:SIMDATES
1   Q1   shorthistoryofmo00haslrich_98   4   0.9989512   REFERENCES:SIMDATES
1   Q1   generalhistoryfo00myerrich_787   5   0.9963558   REFERENCES:SIMDATES
1   Q1   lifeofstratfordc02laneuoft_185   6   0.9909064   REFERENCES:SIMDATES
1   Q1   englishcyclopae05kniggoog_147   7   0.7496668   REFERENCES:SIMDATES
1   Q1   encyclopediaame28unkngoog_327   8   0.749591   REFERENCES:SIMDATES
1   Q1   encyclopediaame28unkngoog_325   9   0.7495076   REFERENCES:SIMDATES
1   Q1   encyclopediaame28unkngoog_318   10   0.7494137   REFERENCES:SIMDATES
1   Q1   encyclopediaame28unkngoog_323   11   0.7494136   REFERENCES:SIMDATES
1   Q1   ouroldworldbackg00bearrich_446   12   0.7493882   REFERENCES:SIMDATES
1   Q1   encyclopediaame28unkngoog_326   13   0.74935794   REFERENCES:SIMDATES
1   Q1   politicalsketche00retsrich_96   14   0.74935186   REFERENCES:SIMDATES
1   Q1   shorthistoryofmo00haslrich_23   15   0.74934864   REFERENCES:SIMDATES
1   Q1   europesincenapol00leveuoft_16   16   0.7493337   REFERENCES:SIMDATES
1   Q1   encyclopediaame28unkngoog_328   17   0.7493297   REFERENCES:SIMDATES
1   Q1   essentialsinmod01howegoog_293   18   0.749316   REFERENCES:SIMDATES
1   Q1   politicalsketche00retsrich_154   19   0.7493131   REFERENCES:SIMDATES
1   Q1   encyclopediaame28unkngoog_319   20   0.7493034   REFERENCES:SIMDATES
