###################################
# parameters: 
#   date_th: 0.3
#   doc_th: 0.5
#   loc_th: 0.35
#   nodestouse: DOCUMENT:DATE:LOCATION
#   relationships: REFERENCES:SIMDATES:SIMPAGE

###################################
# configuration: 
#   sa.act_diff_ratio_limit = 0.01
#   sa.act_diff_ratio_limit_diff = 0.01
#   sa.function = ciir.multi.sa.function.MaxSAFunction(norm_function)
#   sa.id_property_name.DATE = dateID
#   sa.id_property_name.DOCUMENT = docID
#   sa.id_property_name.LOCATION = locID
#   sa.max_pulses = 10
#   sa.nodes_to_print = DATE:LOCATION
#   sa.nodes_to_use = DOCUMENT:DATE:LOCATION
#   sa.norm_function = ciir.multi.sa.SigmoidFunction(0.0, 1.0)
#   sa.relationships_to_use = REFERENCES:SIMDATES:SIMPAGE
#   sa.spread_threshold.DATE = 0.3
#   sa.spread_threshold.DOCUMENT = 0.5
#   sa.spread_threshold.LOCATION = 0.35
#   sa.weight_property.REFERENCES = relevance
#   sa.weight_property.SIMDATES = sim
#   sa.weight_property.SIMDOC = sim
#   sa.weight_property.SIMLOC = sim
#   sa.weight_property.SIMPAGE = pagesim

###################################
# initial activations (2): 
#   encyclopediabrit03newyrich_155, 1
#   cu31924082142666_16, 1

###################################
# spreading activation process log: 
#   pulse 0: activated: 2, non-zero: 2, borderline: 2, overall act: 2.000, act diff: 2.000, ratio: 1.000
#   pulse 1: activated: 38, non-zero: 38, borderline: 36, overall act: 8.953, act diff: 6.953, ratio: 0.777
#   pulse 2: activated: 110034, non-zero: 110034, borderline: 110030, overall act: 10169.987, act diff: 10161.034, ratio: 0.999
#   pulse 3: activated: 110087, non-zero: 110087, borderline: 110079, overall act: 10178.176, act diff: 8.190, ratio: 0.001

###################################
# spreading activation process summary: 
#   final number of activated nodes: 110087
#   final overall activation: 10178.2
#   number of spread. activ. pulses: 3
#   running time: 89047

###################################
# top k results in TREC format: 

9   rel2-5   austria   1   0.78373283   nodesDOCUMENT:DATE:LOCATION-edgesREFERENCES:SIMDATES:SIMPAGE-date_th0.3-doc_th0.5-loc_th0.35
9   rel2-5   prussia   2   0.6783994   nodesDOCUMENT:DATE:LOCATION-edgesREFERENCES:SIMDATES:SIMPAGE-date_th0.3-doc_th0.5-loc_th0.35
9   rel2-5   saxony   3   0.48319882   nodesDOCUMENT:DATE:LOCATION-edgesREFERENCES:SIMDATES:SIMPAGE-date_th0.3-doc_th0.5-loc_th0.35
9   rel2-5   holstein   4   0.47974977   nodesDOCUMENT:DATE:LOCATION-edgesREFERENCES:SIMDATES:SIMPAGE-date_th0.3-doc_th0.5-loc_th0.35
9   rel2-5   vienna   5   0.44952342   nodesDOCUMENT:DATE:LOCATION-edgesREFERENCES:SIMDATES:SIMPAGE-date_th0.3-doc_th0.5-loc_th0.35
9   rel2-5   germany   6   0.38905   nodesDOCUMENT:DATE:LOCATION-edgesREFERENCES:SIMDATES:SIMPAGE-date_th0.3-doc_th0.5-loc_th0.35
9   rel2-5   1863   7   0.30125496   nodesDOCUMENT:DATE:LOCATION-edgesREFERENCES:SIMDATES:SIMPAGE-date_th0.3-doc_th0.5-loc_th0.35
9   rel2-5   1852   8   0.30125496   nodesDOCUMENT:DATE:LOCATION-edgesREFERENCES:SIMDATES:SIMPAGE-date_th0.3-doc_th0.5-loc_th0.35
9   rel2-5   hungary   9   0.28550196   nodesDOCUMENT:DATE:LOCATION-edgesREFERENCES:SIMDATES:SIMPAGE-date_th0.3-doc_th0.5-loc_th0.35
9   rel2-5   hanover   10   0.27869135   nodesDOCUMENT:DATE:LOCATION-edgesREFERENCES:SIMDATES:SIMPAGE-date_th0.3-doc_th0.5-loc_th0.35
9   rel2-5   italy   11   0.26852146   nodesDOCUMENT:DATE:LOCATION-edgesREFERENCES:SIMDATES:SIMPAGE-date_th0.3-doc_th0.5-loc_th0.35
9   rel2-5   jicin   12   0.2641291   nodesDOCUMENT:DATE:LOCATION-edgesREFERENCES:SIMDATES:SIMPAGE-date_th0.3-doc_th0.5-loc_th0.35
9   rel2-5   frankfort   13   0.23104966   nodesDOCUMENT:DATE:LOCATION-edgesREFERENCES:SIMDATES:SIMPAGE-date_th0.3-doc_th0.5-loc_th0.35
9   rel2-5   koniggratz   14   0.23058592   nodesDOCUMENT:DATE:LOCATION-edgesREFERENCES:SIMDATES:SIMPAGE-date_th0.3-doc_th0.5-loc_th0.35
9   rel2-5   france   15   0.202307   nodesDOCUMENT:DATE:LOCATION-edgesREFERENCES:SIMDATES:SIMPAGE-date_th0.3-doc_th0.5-loc_th0.35
9   rel2-5   berlin   16   0.2010266   nodesDOCUMENT:DATE:LOCATION-edgesREFERENCES:SIMDATES:SIMPAGE-date_th0.3-doc_th0.5-loc_th0.35
9   rel2-5   moravia   17   0.2010266   nodesDOCUMENT:DATE:LOCATION-edgesREFERENCES:SIMDATES:SIMPAGE-date_th0.3-doc_th0.5-loc_th0.35
9   rel2-5   trutnowo   18   0.2010266   nodesDOCUMENT:DATE:LOCATION-edgesREFERENCES:SIMDATES:SIMPAGE-date_th0.3-doc_th0.5-loc_th0.35
9   rel2-5   silesia   19   0.19729143   nodesDOCUMENT:DATE:LOCATION-edgesREFERENCES:SIMDATES:SIMPAGE-date_th0.3-doc_th0.5-loc_th0.35
9   rel2-5   denmark   20   0.18646522   nodesDOCUMENT:DATE:LOCATION-edgesREFERENCES:SIMDATES:SIMPAGE-date_th0.3-doc_th0.5-loc_th0.35

###################################
# top nodes: 

# 9   rel2-5   encyclopediabrit03newyrich_155   1   1.0   nodesDOCUMENT:DATE:LOCATION-edgesREFERENCES:SIMDATES:SIMPAGE-date_th0.3-doc_th0.5-loc_th0.35
# 9   rel2-5   cu31924082142666_16   2   1.0   nodesDOCUMENT:DATE:LOCATION-edgesREFERENCES:SIMDATES:SIMPAGE-date_th0.3-doc_th0.5-loc_th0.35
# 9   rel2-5   austria   3   0.78373283   nodesDOCUMENT:DATE:LOCATION-edgesREFERENCES:SIMDATES:SIMPAGE-date_th0.3-doc_th0.5-loc_th0.35
# 9   rel2-5   prussia   4   0.6783994   nodesDOCUMENT:DATE:LOCATION-edgesREFERENCES:SIMDATES:SIMPAGE-date_th0.3-doc_th0.5-loc_th0.35
# 9   rel2-5   encyclopediabrit03newyrich_154   5   0.635461   nodesDOCUMENT:DATE:LOCATION-edgesREFERENCES:SIMDATES:SIMPAGE-date_th0.3-doc_th0.5-loc_th0.35
# 9   rel2-5   cu31924082142666_15   6   0.6081361   nodesDOCUMENT:DATE:LOCATION-edgesREFERENCES:SIMDATES:SIMPAGE-date_th0.3-doc_th0.5-loc_th0.35
# 9   rel2-5   cu31924082142666_17   7   0.5689918   nodesDOCUMENT:DATE:LOCATION-edgesREFERENCES:SIMDATES:SIMPAGE-date_th0.3-doc_th0.5-loc_th0.35
# 9   rel2-5   encyclopediabrit03newyrich_156   8   0.53354925   nodesDOCUMENT:DATE:LOCATION-edgesREFERENCES:SIMDATES:SIMPAGE-date_th0.3-doc_th0.5-loc_th0.35
# 9   rel2-5   cu31924082142666_14   9   0.5286388   nodesDOCUMENT:DATE:LOCATION-edgesREFERENCES:SIMDATES:SIMPAGE-date_th0.3-doc_th0.5-loc_th0.35
# 9   rel2-5   encyclopediabrit03newyrich_153   10   0.52065754   nodesDOCUMENT:DATE:LOCATION-edgesREFERENCES:SIMDATES:SIMPAGE-date_th0.3-doc_th0.5-loc_th0.35
# 9   rel2-5   saxony   11   0.48319882   nodesDOCUMENT:DATE:LOCATION-edgesREFERENCES:SIMDATES:SIMPAGE-date_th0.3-doc_th0.5-loc_th0.35
# 9   rel2-5   holstein   12   0.47974977   nodesDOCUMENT:DATE:LOCATION-edgesREFERENCES:SIMDATES:SIMPAGE-date_th0.3-doc_th0.5-loc_th0.35
# 9   rel2-5   vienna   13   0.44952342   nodesDOCUMENT:DATE:LOCATION-edgesREFERENCES:SIMDATES:SIMPAGE-date_th0.3-doc_th0.5-loc_th0.35
# 9   rel2-5   cu31924082142666_18   14   0.39101392   nodesDOCUMENT:DATE:LOCATION-edgesREFERENCES:SIMDATES:SIMPAGE-date_th0.3-doc_th0.5-loc_th0.35
# 9   rel2-5   germany   15   0.38905   nodesDOCUMENT:DATE:LOCATION-edgesREFERENCES:SIMDATES:SIMPAGE-date_th0.3-doc_th0.5-loc_th0.35
# 9   rel2-5   lifetimesofstein02seeluoft_364   16   0.30337334   nodesDOCUMENT:DATE:LOCATION-edgesREFERENCES:SIMDATES:SIMPAGE-date_th0.3-doc_th0.5-loc_th0.35
# 9   rel2-5   ourchancellorske00buscuoft_352   17   0.30178598   nodesDOCUMENT:DATE:LOCATION-edgesREFERENCES:SIMDATES:SIMPAGE-date_th0.3-doc_th0.5-loc_th0.35
# 9   rel2-5   1863   18   0.30125496   nodesDOCUMENT:DATE:LOCATION-edgesREFERENCES:SIMDATES:SIMPAGE-date_th0.3-doc_th0.5-loc_th0.35
# 9   rel2-5   1852   19   0.30125496   nodesDOCUMENT:DATE:LOCATION-edgesREFERENCES:SIMDATES:SIMPAGE-date_th0.3-doc_th0.5-loc_th0.35
# 9   rel2-5   ourchancellorske00buscuoft_365   20   0.3011069   nodesDOCUMENT:DATE:LOCATION-edgesREFERENCES:SIMDATES:SIMPAGE-date_th0.3-doc_th0.5-loc_th0.35
# 9   rel2-5   foundingofgerman02sybeuoft_32   21   0.3011069   nodesDOCUMENT:DATE:LOCATION-edgesREFERENCES:SIMDATES:SIMPAGE-date_th0.3-doc_th0.5-loc_th0.35
# 9   rel2-5   serbiaeurope00mark_142   22   0.29991737   nodesDOCUMENT:DATE:LOCATION-edgesREFERENCES:SIMDATES:SIMPAGE-date_th0.3-doc_th0.5-loc_th0.35
# 9   rel2-5   foundingofgerman02sybeuoft_96   23   0.29926082   nodesDOCUMENT:DATE:LOCATION-edgesREFERENCES:SIMDATES:SIMPAGE-date_th0.3-doc_th0.5-loc_th0.35
# 9   rel2-5   historyofeuropef00holt_116   24   0.29766142   nodesDOCUMENT:DATE:LOCATION-edgesREFERENCES:SIMDATES:SIMPAGE-date_th0.3-doc_th0.5-loc_th0.35
# 9   rel2-5   historyofcontemp00seiguoft_295   25   0.2969326   nodesDOCUMENT:DATE:LOCATION-edgesREFERENCES:SIMDATES:SIMPAGE-date_th0.3-doc_th0.5-loc_th0.35
# 9   rel2-5   historyofcontemp00seigrich_299   26   0.2969326   nodesDOCUMENT:DATE:LOCATION-edgesREFERENCES:SIMDATES:SIMPAGE-date_th0.3-doc_th0.5-loc_th0.35
# 9   rel2-5   cu31924082142666_119   27   0.29687622   nodesDOCUMENT:DATE:LOCATION-edgesREFERENCES:SIMDATES:SIMPAGE-date_th0.3-doc_th0.5-loc_th0.35
# 9   rel2-5   europe1789192000turnrich_282   28   0.29516795   nodesDOCUMENT:DATE:LOCATION-edgesREFERENCES:SIMDATES:SIMPAGE-date_th0.3-doc_th0.5-loc_th0.35
# 9   rel2-5   universalantho25garn_415   29   0.2945559   nodesDOCUMENT:DATE:LOCATION-edgesREFERENCES:SIMDATES:SIMPAGE-date_th0.3-doc_th0.5-loc_th0.35
# 9   rel2-5   reckoningdiscuss00beckrich_146   30   0.2921813   nodesDOCUMENT:DATE:LOCATION-edgesREFERENCES:SIMDATES:SIMPAGE-date_th0.3-doc_th0.5-loc_th0.35
# 9   rel2-5   lifetimesofstein02seeluoft_37   31   0.29072815   nodesDOCUMENT:DATE:LOCATION-edgesREFERENCES:SIMDATES:SIMPAGE-date_th0.3-doc_th0.5-loc_th0.35
# 9   rel2-5   cu31924031684685_715   32   0.2903676   nodesDOCUMENT:DATE:LOCATION-edgesREFERENCES:SIMDATES:SIMPAGE-date_th0.3-doc_th0.5-loc_th0.35
# 9   rel2-5   ourchancellorske00buscuoft_301   33   0.28978553   nodesDOCUMENT:DATE:LOCATION-edgesREFERENCES:SIMDATES:SIMPAGE-date_th0.3-doc_th0.5-loc_th0.35
# 9   rel2-5   ourchancellorske00buscuoft_357   34   0.28973222   nodesDOCUMENT:DATE:LOCATION-edgesREFERENCES:SIMDATES:SIMPAGE-date_th0.3-doc_th0.5-loc_th0.35
# 9   rel2-5   shorthistoryofeu00terr_459   35   0.289004   nodesDOCUMENT:DATE:LOCATION-edgesREFERENCES:SIMDATES:SIMPAGE-date_th0.3-doc_th0.5-loc_th0.35
# 9   rel2-5   outlineseuropea04beargoog_378   36   0.28842348   nodesDOCUMENT:DATE:LOCATION-edgesREFERENCES:SIMDATES:SIMPAGE-date_th0.3-doc_th0.5-loc_th0.35
# 9   rel2-5   storygreatwar04ruhlgoog_345   37   0.28808984   nodesDOCUMENT:DATE:LOCATION-edgesREFERENCES:SIMDATES:SIMPAGE-date_th0.3-doc_th0.5-loc_th0.35
# 9   rel2-5   foundationsofger00barkuoft_248   38   0.28776932   nodesDOCUMENT:DATE:LOCATION-edgesREFERENCES:SIMDATES:SIMPAGE-date_th0.3-doc_th0.5-loc_th0.35
# 9   rel2-5   foundingofgerman02sybeuoft_537   39   0.28754726   nodesDOCUMENT:DATE:LOCATION-edgesREFERENCES:SIMDATES:SIMPAGE-date_th0.3-doc_th0.5-loc_th0.35
# 9   rel2-5   briefhistoryofna00fish_538   40   0.2875003   nodesDOCUMENT:DATE:LOCATION-edgesREFERENCES:SIMDATES:SIMPAGE-date_th0.3-doc_th0.5-loc_th0.35
