###################################
# parameters: 
#   date_th: 0.25
#   doc_th: 0.5
#   loc_th: 0.4
#   nodestouse: DOCUMENT:DATE:LOCATION
#   relationships: REFERENCES:SIMDATES

###################################
# configuration: 
#   sa.act_diff_ratio_limit = 0.01
#   sa.act_diff_ratio_limit_diff = 0.01
#   sa.function = ciir.multi.sa.function.MaxSAFunction(norm_function)
#   sa.id_property_name.DATE = dateID
#   sa.id_property_name.DOCUMENT = docID
#   sa.id_property_name.LOCATION = locID
#   sa.max_pulses = 10
#   sa.nodes_to_print = DATE:LOCATION
#   sa.nodes_to_use = DOCUMENT:DATE:LOCATION
#   sa.norm_function = ciir.multi.sa.SigmoidFunction(0.0, 1.0)
#   sa.relationships_to_use = REFERENCES:SIMDATES
#   sa.spread_threshold.DATE = 0.25
#   sa.spread_threshold.DOCUMENT = 0.5
#   sa.spread_threshold.LOCATION = 0.4
#   sa.weight_property.REFERENCES = relevance
#   sa.weight_property.SIMDATES = sim
#   sa.weight_property.SIMDOC = sim
#   sa.weight_property.SIMLOC = sim
#   sa.weight_property.SIMPAGE = pagesim

###################################
# initial activations (3): 
#   englandsfightwit00wals_354, 1
#   viceroysofirelan00omahuoft_97, 1
#   hallamsworks04halliala_600, 1

###################################
# spreading activation process log: 
#   pulse 0: activated: 3, non-zero: 3, borderline: 3, overall act: 3.000, act diff: 3.000, ratio: 1.000
#   pulse 1: activated: 9, non-zero: 9, borderline: 6, overall act: 5.685, act diff: 2.685, ratio: 0.472
#   pulse 2: activated: 1015990, non-zero: 1015990, borderline: 1015983, overall act: 141068.748, act diff: 141063.063, ratio: 1.000
#   pulse 3: activated: 1023656, non-zero: 1023656, borderline: 1023427, overall act: 141897.772, act diff: 829.024, ratio: 0.006

###################################
# spreading activation process summary: 
#   final number of activated nodes: 1023656
#   final overall activation: 141897.8
#   number of spread. activ. pulses: 3
#   running time: 236722

###################################
# top k results in TREC format: 

2   rel3-3   ireland   1   1.0   nodesDOCUMENT:DATE:LOCATION-edgesREFERENCES:SIMDATES-date_th0.25-doc_th0.5-loc_th0.4
2   rel3-3   england   2   1.0   nodesDOCUMENT:DATE:LOCATION-edgesREFERENCES:SIMDATES-date_th0.25-doc_th0.5-loc_th0.4
2   rel3-3   dublin   3   0.99678564   nodesDOCUMENT:DATE:LOCATION-edgesREFERENCES:SIMDATES-date_th0.25-doc_th0.5-loc_th0.4
2   rel3-3   scotland   4   0.87746125   nodesDOCUMENT:DATE:LOCATION-edgesREFERENCES:SIMDATES-date_th0.25-doc_th0.5-loc_th0.4
2   rel3-3   london   5   0.8687772   nodesDOCUMENT:DATE:LOCATION-edgesREFERENCES:SIMDATES-date_th0.25-doc_th0.5-loc_th0.4
2   rel3-3   france   6   0.71973217   nodesDOCUMENT:DATE:LOCATION-edgesREFERENCES:SIMDATES-date_th0.25-doc_th0.5-loc_th0.4
2   rel3-3   spain   7   0.65633446   nodesDOCUMENT:DATE:LOCATION-edgesREFERENCES:SIMDATES-date_th0.25-doc_th0.5-loc_th0.4
2   rel3-3   strafford   8   0.5977206   nodesDOCUMENT:DATE:LOCATION-edgesREFERENCES:SIMDATES-date_th0.25-doc_th0.5-loc_th0.4
2   rel3-3   fairfax   9   0.5644477   nodesDOCUMENT:DATE:LOCATION-edgesREFERENCES:SIMDATES-date_th0.25-doc_th0.5-loc_th0.4
2   rel3-3   limerick   10   0.48175916   nodesDOCUMENT:DATE:LOCATION-edgesREFERENCES:SIMDATES-date_th0.25-doc_th0.5-loc_th0.4
2   rel3-3   kingdom   11   0.44298232   nodesDOCUMENT:DATE:LOCATION-edgesREFERENCES:SIMDATES-date_th0.25-doc_th0.5-loc_th0.4
2   rel3-3   great britain   12   0.44080803   nodesDOCUMENT:DATE:LOCATION-edgesREFERENCES:SIMDATES-date_th0.25-doc_th0.5-loc_th0.4
2   rel3-3   derry   13   0.43601674   nodesDOCUMENT:DATE:LOCATION-edgesREFERENCES:SIMDATES-date_th0.25-doc_th0.5-loc_th0.4
2   rel3-3   munster   14   0.39690784   nodesDOCUMENT:DATE:LOCATION-edgesREFERENCES:SIMDATES-date_th0.25-doc_th0.5-loc_th0.4
2   rel3-3   drogheda   15   0.3687854   nodesDOCUMENT:DATE:LOCATION-edgesREFERENCES:SIMDATES-date_th0.25-doc_th0.5-loc_th0.4
2   rel3-3   rome   16   0.36671168   nodesDOCUMENT:DATE:LOCATION-edgesREFERENCES:SIMDATES-date_th0.25-doc_th0.5-loc_th0.4
2   rel3-3   europe   17   0.34002045   nodesDOCUMENT:DATE:LOCATION-edgesREFERENCES:SIMDATES-date_th0.25-doc_th0.5-loc_th0.4
2   rel3-3   america   18   0.3135581   nodesDOCUMENT:DATE:LOCATION-edgesREFERENCES:SIMDATES-date_th0.25-doc_th0.5-loc_th0.4
2   rel3-3   londonderry   19   0.3053853   nodesDOCUMENT:DATE:LOCATION-edgesREFERENCES:SIMDATES-date_th0.25-doc_th0.5-loc_th0.4
2   rel3-3   enniskillen   20   0.3052459   nodesDOCUMENT:DATE:LOCATION-edgesREFERENCES:SIMDATES-date_th0.25-doc_th0.5-loc_th0.4

###################################
# top nodes: 

# 2   rel3-3   england   1   1.0   nodesDOCUMENT:DATE:LOCATION-edgesREFERENCES:SIMDATES-date_th0.25-doc_th0.5-loc_th0.4
# 2   rel3-3   1641   2   1.0   nodesDOCUMENT:DATE:LOCATION-edgesREFERENCES:SIMDATES-date_th0.25-doc_th0.5-loc_th0.4
# 2   rel3-3   hallamsworks04halliala_600   3   1.0   nodesDOCUMENT:DATE:LOCATION-edgesREFERENCES:SIMDATES-date_th0.25-doc_th0.5-loc_th0.4
# 2   rel3-3   viceroysofirelan00omahuoft_97   4   1.0   nodesDOCUMENT:DATE:LOCATION-edgesREFERENCES:SIMDATES-date_th0.25-doc_th0.5-loc_th0.4
# 2   rel3-3   ireland   5   1.0   nodesDOCUMENT:DATE:LOCATION-edgesREFERENCES:SIMDATES-date_th0.25-doc_th0.5-loc_th0.4
# 2   rel3-3   1845   6   1.0   nodesDOCUMENT:DATE:LOCATION-edgesREFERENCES:SIMDATES-date_th0.25-doc_th0.5-loc_th0.4
# 2   rel3-3   englandsfightwit00wals_354   7   1.0   nodesDOCUMENT:DATE:LOCATION-edgesREFERENCES:SIMDATES-date_th0.25-doc_th0.5-loc_th0.4
# 2   rel3-3   dublin   8   0.99678564   nodesDOCUMENT:DATE:LOCATION-edgesREFERENCES:SIMDATES-date_th0.25-doc_th0.5-loc_th0.4
# 2   rel3-3   scotland   9   0.87746125   nodesDOCUMENT:DATE:LOCATION-edgesREFERENCES:SIMDATES-date_th0.25-doc_th0.5-loc_th0.4
# 2   rel3-3   london   10   0.8687772   nodesDOCUMENT:DATE:LOCATION-edgesREFERENCES:SIMDATES-date_th0.25-doc_th0.5-loc_th0.4
# 2   rel3-3   france   11   0.71973217   nodesDOCUMENT:DATE:LOCATION-edgesREFERENCES:SIMDATES-date_th0.25-doc_th0.5-loc_th0.4
# 2   rel3-3   1640   12   0.6917996   nodesDOCUMENT:DATE:LOCATION-edgesREFERENCES:SIMDATES-date_th0.25-doc_th0.5-loc_th0.4
# 2   rel3-3   spain   13   0.65633446   nodesDOCUMENT:DATE:LOCATION-edgesREFERENCES:SIMDATES-date_th0.25-doc_th0.5-loc_th0.4
# 2   rel3-3   causeofirelandpl00orei_315   14   0.6241031   nodesDOCUMENT:DATE:LOCATION-edgesREFERENCES:SIMDATES-date_th0.25-doc_th0.5-loc_th0.4
# 2   rel3-3   calendarstatepa00levagoog_361   15   0.62015265   nodesDOCUMENT:DATE:LOCATION-edgesREFERENCES:SIMDATES-date_th0.25-doc_th0.5-loc_th0.4
# 2   rel3-3   constitutionalhi03hall_415   16   0.6172136   nodesDOCUMENT:DATE:LOCATION-edgesREFERENCES:SIMDATES-date_th0.25-doc_th0.5-loc_th0.4
# 2   rel3-3   historyirishper01maddgoog_67   17   0.61489016   nodesDOCUMENT:DATE:LOCATION-edgesREFERENCES:SIMDATES-date_th0.25-doc_th0.5-loc_th0.4
# 2   rel3-3   causeofirelandpl00orei_431   18   0.61383706   nodesDOCUMENT:DATE:LOCATION-edgesREFERENCES:SIMDATES-date_th0.25-doc_th0.5-loc_th0.4
# 2   rel3-3   selectspeecheswi00cannuoft_358   19   0.6137229   nodesDOCUMENT:DATE:LOCATION-edgesREFERENCES:SIMDATES-date_th0.25-doc_th0.5-loc_th0.4
# 2   rel3-3   completehistoryo0306kenn_434   20   0.61180645   nodesDOCUMENT:DATE:LOCATION-edgesREFERENCES:SIMDATES-date_th0.25-doc_th0.5-loc_th0.4
# 2   rel3-3   cu31924091770861_898   21   0.61069614   nodesDOCUMENT:DATE:LOCATION-edgesREFERENCES:SIMDATES-date_th0.25-doc_th0.5-loc_th0.4
# 2   rel3-3   causeofirelandpl00orei_249   22   0.60823846   nodesDOCUMENT:DATE:LOCATION-edgesREFERENCES:SIMDATES-date_th0.25-doc_th0.5-loc_th0.4
# 2   rel3-3   politicalstudies00broduoft_382   23   0.60815203   nodesDOCUMENT:DATE:LOCATION-edgesREFERENCES:SIMDATES-date_th0.25-doc_th0.5-loc_th0.4
# 2   rel3-3   historyirishper01maddgoog_229   24   0.6072254   nodesDOCUMENT:DATE:LOCATION-edgesREFERENCES:SIMDATES-date_th0.25-doc_th0.5-loc_th0.4
# 2   rel3-3   calendarstatepa12offigoog_21   25   0.6067627   nodesDOCUMENT:DATE:LOCATION-edgesREFERENCES:SIMDATES-date_th0.25-doc_th0.5-loc_th0.4
# 2   rel3-3   historyirelanda00smilgoog_120   26   0.60632265   nodesDOCUMENT:DATE:LOCATION-edgesREFERENCES:SIMDATES-date_th0.25-doc_th0.5-loc_th0.4
# 2   rel3-3   studentshistoryo03garduoft_42   27   0.60477144   nodesDOCUMENT:DATE:LOCATION-edgesREFERENCES:SIMDATES-date_th0.25-doc_th0.5-loc_th0.4
# 2   rel3-3   harleianmiscell00oldygoog_332   28   0.6039614   nodesDOCUMENT:DATE:LOCATION-edgesREFERENCES:SIMDATES-date_th0.25-doc_th0.5-loc_th0.4
# 2   rel3-3   irelandsaintpatr00morriala_201   29   0.60325634   nodesDOCUMENT:DATE:LOCATION-edgesREFERENCES:SIMDATES-date_th0.25-doc_th0.5-loc_th0.4
# 2   rel3-3   dublinreview14londuoft_194   30   0.60325634   nodesDOCUMENT:DATE:LOCATION-edgesREFERENCES:SIMDATES-date_th0.25-doc_th0.5-loc_th0.4
# 2   rel3-3   pt3historyofirel00wriguoft_306   31   0.60325634   nodesDOCUMENT:DATE:LOCATION-edgesREFERENCES:SIMDATES-date_th0.25-doc_th0.5-loc_th0.4
# 2   rel3-3   politicalstudies00broduoft_351   32   0.6016643   nodesDOCUMENT:DATE:LOCATION-edgesREFERENCES:SIMDATES-date_th0.25-doc_th0.5-loc_th0.4
# 2   rel3-3   strafford   33   0.5977206   nodesDOCUMENT:DATE:LOCATION-edgesREFERENCES:SIMDATES-date_th0.25-doc_th0.5-loc_th0.4
# 2   rel3-3   hallamsworks04halliala_612   34   0.5956615   nodesDOCUMENT:DATE:LOCATION-edgesREFERENCES:SIMDATES-date_th0.25-doc_th0.5-loc_th0.4
# 2   rel3-3   worksrighthonor37burkgoog_439   35   0.5956615   nodesDOCUMENT:DATE:LOCATION-edgesREFERENCES:SIMDATES-date_th0.25-doc_th0.5-loc_th0.4
# 2   rel3-3   fairfaxcorrespon01johniala_870   36   0.5956615   nodesDOCUMENT:DATE:LOCATION-edgesREFERENCES:SIMDATES-date_th0.25-doc_th0.5-loc_th0.4
# 2   rel3-3   historyirelanda00smilgoog_312   37   0.5956615   nodesDOCUMENT:DATE:LOCATION-edgesREFERENCES:SIMDATES-date_th0.25-doc_th0.5-loc_th0.4
# 2   rel3-3   methodistmagazin1834meth_610   38   0.5956615   nodesDOCUMENT:DATE:LOCATION-edgesREFERENCES:SIMDATES-date_th0.25-doc_th0.5-loc_th0.4
# 2   rel3-3   publications13irisuoft_16   39   0.5900143   nodesDOCUMENT:DATE:LOCATION-edgesREFERENCES:SIMDATES-date_th0.25-doc_th0.5-loc_th0.4
# 2   rel3-3   thomasharrisonr00wessgoog_83   40   0.5846675   nodesDOCUMENT:DATE:LOCATION-edgesREFERENCES:SIMDATES-date_th0.25-doc_th0.5-loc_th0.4
