###################################
# parameters: 
#   date_th: 0.25
#   doc_th: 0.7
#   loc_th: 0.35
#   nodestouse: DOCUMENT:DATE:LOCATION
#   relationships: REFERENCES

###################################
# configuration: 
#   sa.act_diff_ratio_limit = 0.01
#   sa.act_diff_ratio_limit_diff = 0.01
#   sa.function = ciir.multi.sa.function.MaxSAFunction(norm_function)
#   sa.id_property_name.DATE = dateID
#   sa.id_property_name.DOCUMENT = docID
#   sa.id_property_name.LOCATION = locID
#   sa.max_pulses = 10
#   sa.nodes_to_print = DATE:LOCATION
#   sa.nodes_to_use = DOCUMENT:DATE:LOCATION
#   sa.norm_function = ciir.multi.sa.SigmoidFunction(0.0, 1.0)
#   sa.relationships_to_use = REFERENCES
#   sa.spread_threshold.DATE = 0.25
#   sa.spread_threshold.DOCUMENT = 0.7
#   sa.spread_threshold.LOCATION = 0.35
#   sa.weight_property.REFERENCES = relevance
#   sa.weight_property.SIMDATES = sim
#   sa.weight_property.SIMDOC = sim
#   sa.weight_property.SIMLOC = sim
#   sa.weight_property.SIMPAGE = pagesim

###################################
# initial activations (2): 
#   englandsfightwit00wals_354, 1
#   hallamsworks04halliala_600, 1

###################################
# spreading activation process log: 
#   pulse 0: activated: 2, non-zero: 2, borderline: 2, overall act: 2.000, act diff: 2.000, ratio: 1.000
#   pulse 1: activated: 7, non-zero: 7, borderline: 5, overall act: 3.942, act diff: 1.942, ratio: 0.493
#   pulse 2: activated: 263993, non-zero: 263993, borderline: 263988, overall act: 38696.344, act diff: 38692.401, ratio: 1.000
#   pulse 3: activated: 263993, non-zero: 263993, borderline: 263988, overall act: 38696.344, act diff: 0.000, ratio: 0.000

###################################
# spreading activation process summary: 
#   final number of activated nodes: 263993
#   final overall activation: 38696.3
#   number of spread. activ. pulses: 3
#   running time: 50828

###################################
# top k results in TREC format: 

2   rel2-3   1641   1   0.5120209   nodesDOCUMENT:DATE:LOCATION-edgesREFERENCES-date_th0.25-doc_th0.7-loc_th0.35
2   rel2-3   1845   2   0.30540052   nodesDOCUMENT:DATE:LOCATION-edgesREFERENCES-date_th0.25-doc_th0.7-loc_th0.35

###################################
# top nodes: 

# 2   rel2-3   englandsfightwit00wals_354   1   1.0   nodesDOCUMENT:DATE:LOCATION-edgesREFERENCES-date_th0.25-doc_th0.7-loc_th0.35
# 2   rel2-3   hallamsworks04halliala_600   2   1.0   nodesDOCUMENT:DATE:LOCATION-edgesREFERENCES-date_th0.25-doc_th0.7-loc_th0.35
# 2   rel2-3   ireland   3   0.63514894   nodesDOCUMENT:DATE:LOCATION-edgesREFERENCES-date_th0.25-doc_th0.7-loc_th0.35
# 2   rel2-3   causeofirelandpl00orei_291   4   0.5179872   nodesDOCUMENT:DATE:LOCATION-edgesREFERENCES-date_th0.25-doc_th0.7-loc_th0.35
# 2   rel2-3   treatiseofexcheq02howa_411   5   0.5179872   nodesDOCUMENT:DATE:LOCATION-edgesREFERENCES-date_th0.25-doc_th0.7-loc_th0.35
# 2   rel2-3   treatiseofexcheq02howa_130   6   0.5179872   nodesDOCUMENT:DATE:LOCATION-edgesREFERENCES-date_th0.25-doc_th0.7-loc_th0.35
# 2   rel2-3   fastiecclesiaeh02cottgoog_20   7   0.5179872   nodesDOCUMENT:DATE:LOCATION-edgesREFERENCES-date_th0.25-doc_th0.7-loc_th0.35
# 2   rel2-3   compendiumofhist02lawl_76   8   0.5179872   nodesDOCUMENT:DATE:LOCATION-edgesREFERENCES-date_th0.25-doc_th0.7-loc_th0.35
# 2   rel2-3   causeofirelandpl00orei_345   9   0.5179872   nodesDOCUMENT:DATE:LOCATION-edgesREFERENCES-date_th0.25-doc_th0.7-loc_th0.35
# 2   rel2-3   calendarstatepa12offigoog_335   10   0.5179872   nodesDOCUMENT:DATE:LOCATION-edgesREFERENCES-date_th0.25-doc_th0.7-loc_th0.35
# 2   rel2-3   castlesofireland00adamiala_301   11   0.5179872   nodesDOCUMENT:DATE:LOCATION-edgesREFERENCES-date_th0.25-doc_th0.7-loc_th0.35
# 2   rel2-3   confederationofk00meeh_10   12   0.5179872   nodesDOCUMENT:DATE:LOCATION-edgesREFERENCES-date_th0.25-doc_th0.7-loc_th0.35
# 2   rel2-3   englishinireland03frou_309   13   0.5179872   nodesDOCUMENT:DATE:LOCATION-edgesREFERENCES-date_th0.25-doc_th0.7-loc_th0.35
# 2   rel2-3   englishinireland03frou_118   14   0.5179872   nodesDOCUMENT:DATE:LOCATION-edgesREFERENCES-date_th0.25-doc_th0.7-loc_th0.35
# 2   rel2-3   treatiseofexcheq02howa_413   15   0.5179872   nodesDOCUMENT:DATE:LOCATION-edgesREFERENCES-date_th0.25-doc_th0.7-loc_th0.35
# 2   rel2-3   economichistoryo00obri_321   16   0.5179872   nodesDOCUMENT:DATE:LOCATION-edgesREFERENCES-date_th0.25-doc_th0.7-loc_th0.35
# 2   rel2-3   statechurcheskin00allerich_587   17   0.5179872   nodesDOCUMENT:DATE:LOCATION-edgesREFERENCES-date_th0.25-doc_th0.7-loc_th0.35
# 2   rel2-3   memoirsandcorre02castgoog_42   18   0.5179872   nodesDOCUMENT:DATE:LOCATION-edgesREFERENCES-date_th0.25-doc_th0.7-loc_th0.35
# 2   rel2-3   historyofireland3_00will_307   19   0.5179872   nodesDOCUMENT:DATE:LOCATION-edgesREFERENCES-date_th0.25-doc_th0.7-loc_th0.35
# 2   rel2-3   revolutionaryir00mahagoog_100   20   0.5179872   nodesDOCUMENT:DATE:LOCATION-edgesREFERENCES-date_th0.25-doc_th0.7-loc_th0.35
# 2   rel2-3   historymoderneu11russgoog_386   21   0.5179872   nodesDOCUMENT:DATE:LOCATION-edgesREFERENCES-date_th0.25-doc_th0.7-loc_th0.35
# 2   rel2-3   historyofdiocese02healiala_23   22   0.5179872   nodesDOCUMENT:DATE:LOCATION-edgesREFERENCES-date_th0.25-doc_th0.7-loc_th0.35
# 2   rel2-3   irishtangleandwa1920john_53   23   0.5179872   nodesDOCUMENT:DATE:LOCATION-edgesREFERENCES-date_th0.25-doc_th0.7-loc_th0.35
# 2   rel2-3   constitutionalhi03hall_414   24   0.5179872   nodesDOCUMENT:DATE:LOCATION-edgesREFERENCES-date_th0.25-doc_th0.7-loc_th0.35
# 2   rel2-3   proceedingsofro22roya_307   25   0.5179872   nodesDOCUMENT:DATE:LOCATION-edgesREFERENCES-date_th0.25-doc_th0.7-loc_th0.35
# 2   rel2-3   cu31924091770861_319   26   0.5179872   nodesDOCUMENT:DATE:LOCATION-edgesREFERENCES-date_th0.25-doc_th0.7-loc_th0.35
# 2   rel2-3   cu31924091770861_286   27   0.5179872   nodesDOCUMENT:DATE:LOCATION-edgesREFERENCES-date_th0.25-doc_th0.7-loc_th0.35
# 2   rel2-3   cu31924091786628_78   28   0.5179872   nodesDOCUMENT:DATE:LOCATION-edgesREFERENCES-date_th0.25-doc_th0.7-loc_th0.35
# 2   rel2-3   treatiseofexcheq02howa_421   29   0.5179872   nodesDOCUMENT:DATE:LOCATION-edgesREFERENCES-date_th0.25-doc_th0.7-loc_th0.35
# 2   rel2-3   1641   30   0.5120209   nodesDOCUMENT:DATE:LOCATION-edgesREFERENCES-date_th0.25-doc_th0.7-loc_th0.35
# 2   rel2-3   politicalstudies00broduoft_370   31   0.50727487   nodesDOCUMENT:DATE:LOCATION-edgesREFERENCES-date_th0.25-doc_th0.7-loc_th0.35
# 2   rel2-3   politicalstudies00broduoft_382   32   0.50290865   nodesDOCUMENT:DATE:LOCATION-edgesREFERENCES-date_th0.25-doc_th0.7-loc_th0.35
# 2   rel2-3   causeofirelandpl00orei_249   33   0.49564424   nodesDOCUMENT:DATE:LOCATION-edgesREFERENCES-date_th0.25-doc_th0.7-loc_th0.35
# 2   rel2-3   historyirelanda00smilgoog_120   34   0.49394864   nodesDOCUMENT:DATE:LOCATION-edgesREFERENCES-date_th0.25-doc_th0.7-loc_th0.35
# 2   rel2-3   cu31924091770861_873   35   0.49394864   nodesDOCUMENT:DATE:LOCATION-edgesREFERENCES-date_th0.25-doc_th0.7-loc_th0.35
# 2   rel2-3   causeofirelandpl00orei_315   36   0.49184215   nodesDOCUMENT:DATE:LOCATION-edgesREFERENCES-date_th0.25-doc_th0.7-loc_th0.35
# 2   rel2-3   irelandsaintpatr00morriala_17   37   0.49091214   nodesDOCUMENT:DATE:LOCATION-edgesREFERENCES-date_th0.25-doc_th0.7-loc_th0.35
# 2   rel2-3   causeofirelandpl00orei_432   38   0.49091214   nodesDOCUMENT:DATE:LOCATION-edgesREFERENCES-date_th0.25-doc_th0.7-loc_th0.35
# 2   rel2-3   constitutionalhi03hall_415   39   0.48511335   nodesDOCUMENT:DATE:LOCATION-edgesREFERENCES-date_th0.25-doc_th0.7-loc_th0.35
# 2   rel2-3   irelandundercomm02dunluoft_177   40   0.48511335   nodesDOCUMENT:DATE:LOCATION-edgesREFERENCES-date_th0.25-doc_th0.7-loc_th0.35
