###################################
# parameters: 
#   date_th: 0.3
#   doc_th: 0.5
#   loc_th: 0.35
#   nodestouse: DOCUMENT:DATE:LOCATION
#   relationships: REFERENCES

###################################
# configuration: 
#   sa.act_diff_ratio_limit = 0.01
#   sa.act_diff_ratio_limit_diff = 0.01
#   sa.function = ciir.multi.sa.function.MaxSAFunction(norm_function)
#   sa.id_property_name.DATE = dateID
#   sa.id_property_name.DOCUMENT = docID
#   sa.id_property_name.LOCATION = locID
#   sa.max_pulses = 10
#   sa.nodes_to_print = DATE:LOCATION
#   sa.nodes_to_use = DOCUMENT:DATE:LOCATION
#   sa.norm_function = ciir.multi.sa.SigmoidFunction(0.0, 1.0)
#   sa.relationships_to_use = REFERENCES
#   sa.spread_threshold.DATE = 0.3
#   sa.spread_threshold.DOCUMENT = 0.5
#   sa.spread_threshold.LOCATION = 0.35
#   sa.weight_property.REFERENCES = relevance
#   sa.weight_property.SIMDATES = sim
#   sa.weight_property.SIMDOC = sim
#   sa.weight_property.SIMLOC = sim
#   sa.weight_property.SIMPAGE = pagesim

###################################
# initial activations (3): 
#   englandsfightwit00wals_354, 1
#   viceroysofirelan00omahuoft_97, 1
#   hallamsworks04halliala_600, 1

###################################
# spreading activation process log: 
#   pulse 0: activated: 3, non-zero: 3, borderline: 3, overall act: 3.000, act diff: 3.000, ratio: 1.000
#   pulse 1: activated: 9, non-zero: 9, borderline: 6, overall act: 5.685, act diff: 2.685, ratio: 0.472
#   pulse 2: activated: 1052085, non-zero: 1052085, borderline: 1052077, overall act: 147123.701, act diff: 147118.015, ratio: 1.000
#   pulse 3: activated: 1052344, non-zero: 1052344, borderline: 1052068, overall act: 147166.693, act diff: 42.992, ratio: 0.000

###################################
# spreading activation process summary: 
#   final number of activated nodes: 1052344
#   final overall activation: 147166.7
#   number of spread. activ. pulses: 3
#   running time: 214997

###################################
# top k results in TREC format: 

2   rel3-3   1845   1   1.0   nodesDOCUMENT:DATE:LOCATION-edgesREFERENCES-date_th0.3-doc_th0.5-loc_th0.35
2   rel3-3   1641   2   1.0   nodesDOCUMENT:DATE:LOCATION-edgesREFERENCES-date_th0.3-doc_th0.5-loc_th0.35
2   rel3-3   1688   3   0.61729634   nodesDOCUMENT:DATE:LOCATION-edgesREFERENCES-date_th0.3-doc_th0.5-loc_th0.35
2   rel3-3   1649   4   0.5594116   nodesDOCUMENT:DATE:LOCATION-edgesREFERENCES-date_th0.3-doc_th0.5-loc_th0.35
2   rel3-3   1640   5   0.53376   nodesDOCUMENT:DATE:LOCATION-edgesREFERENCES-date_th0.3-doc_th0.5-loc_th0.35
2   rel3-3   1689   6   0.38510615   nodesDOCUMENT:DATE:LOCATION-edgesREFERENCES-date_th0.3-doc_th0.5-loc_th0.35
2   rel3-3   1667   7   0.3046173   nodesDOCUMENT:DATE:LOCATION-edgesREFERENCES-date_th0.3-doc_th0.5-loc_th0.35
2   rel3-3   1630   8   0.2832046   nodesDOCUMENT:DATE:LOCATION-edgesREFERENCES-date_th0.3-doc_th0.5-loc_th0.35
2   rel3-3   1830   9   0.27363715   nodesDOCUMENT:DATE:LOCATION-edgesREFERENCES-date_th0.3-doc_th0.5-loc_th0.35
2   rel3-3   1652   10   0.2657883   nodesDOCUMENT:DATE:LOCATION-edgesREFERENCES-date_th0.3-doc_th0.5-loc_th0.35
2   rel3-3   1687   11   0.25722107   nodesDOCUMENT:DATE:LOCATION-edgesREFERENCES-date_th0.3-doc_th0.5-loc_th0.35
2   rel3-3   1821   12   0.24783595   nodesDOCUMENT:DATE:LOCATION-edgesREFERENCES-date_th0.3-doc_th0.5-loc_th0.35
2   rel3-3   1663   13   0.2209002   nodesDOCUMENT:DATE:LOCATION-edgesREFERENCES-date_th0.3-doc_th0.5-loc_th0.35
2   rel3-3   1885   14   0.21459906   nodesDOCUMENT:DATE:LOCATION-edgesREFERENCES-date_th0.3-doc_th0.5-loc_th0.35
2   rel3-3   1846   15   0.21328233   nodesDOCUMENT:DATE:LOCATION-edgesREFERENCES-date_th0.3-doc_th0.5-loc_th0.35
2   rel3-3   1642   16   0.2057647   nodesDOCUMENT:DATE:LOCATION-edgesREFERENCES-date_th0.3-doc_th0.5-loc_th0.35
2   rel3-3   1670   17   0.19011897   nodesDOCUMENT:DATE:LOCATION-edgesREFERENCES-date_th0.3-doc_th0.5-loc_th0.35
2   rel3-3   1819   18   0.17529237   nodesDOCUMENT:DATE:LOCATION-edgesREFERENCES-date_th0.3-doc_th0.5-loc_th0.35
2   rel3-3   1695   19   0.17529237   nodesDOCUMENT:DATE:LOCATION-edgesREFERENCES-date_th0.3-doc_th0.5-loc_th0.35
2   rel3-3   1796   20   0.1738852   nodesDOCUMENT:DATE:LOCATION-edgesREFERENCES-date_th0.3-doc_th0.5-loc_th0.35

###################################
# top nodes: 

# 2   rel3-3   englandsfightwit00wals_354   1   1.0   nodesDOCUMENT:DATE:LOCATION-edgesREFERENCES-date_th0.3-doc_th0.5-loc_th0.35
# 2   rel3-3   hallamsworks04halliala_600   2   1.0   nodesDOCUMENT:DATE:LOCATION-edgesREFERENCES-date_th0.3-doc_th0.5-loc_th0.35
# 2   rel3-3   viceroysofirelan00omahuoft_97   3   1.0   nodesDOCUMENT:DATE:LOCATION-edgesREFERENCES-date_th0.3-doc_th0.5-loc_th0.35
# 2   rel3-3   england   4   1.0   nodesDOCUMENT:DATE:LOCATION-edgesREFERENCES-date_th0.3-doc_th0.5-loc_th0.35
# 2   rel3-3   ireland   5   1.0   nodesDOCUMENT:DATE:LOCATION-edgesREFERENCES-date_th0.3-doc_th0.5-loc_th0.35
# 2   rel3-3   1845   6   1.0   nodesDOCUMENT:DATE:LOCATION-edgesREFERENCES-date_th0.3-doc_th0.5-loc_th0.35
# 2   rel3-3   1641   7   1.0   nodesDOCUMENT:DATE:LOCATION-edgesREFERENCES-date_th0.3-doc_th0.5-loc_th0.35
# 2   rel3-3   dublin   8   1.0   nodesDOCUMENT:DATE:LOCATION-edgesREFERENCES-date_th0.3-doc_th0.5-loc_th0.35
# 2   rel3-3   london   9   0.9784362   nodesDOCUMENT:DATE:LOCATION-edgesREFERENCES-date_th0.3-doc_th0.5-loc_th0.35
# 2   rel3-3   scotland   10   0.9643316   nodesDOCUMENT:DATE:LOCATION-edgesREFERENCES-date_th0.3-doc_th0.5-loc_th0.35
# 2   rel3-3   strafford   11   0.780546   nodesDOCUMENT:DATE:LOCATION-edgesREFERENCES-date_th0.3-doc_th0.5-loc_th0.35
# 2   rel3-3   france   12   0.76255596   nodesDOCUMENT:DATE:LOCATION-edgesREFERENCES-date_th0.3-doc_th0.5-loc_th0.35
# 2   rel3-3   limerick   13   0.7164269   nodesDOCUMENT:DATE:LOCATION-edgesREFERENCES-date_th0.3-doc_th0.5-loc_th0.35
# 2   rel3-3   spain   14   0.7159989   nodesDOCUMENT:DATE:LOCATION-edgesREFERENCES-date_th0.3-doc_th0.5-loc_th0.35
# 2   rel3-3   studentshistoryo03garduoft_42   15   0.6329048   nodesDOCUMENT:DATE:LOCATION-edgesREFERENCES-date_th0.3-doc_th0.5-loc_th0.35
# 2   rel3-3   harleianmiscell00oldygoog_332   16   0.62778425   nodesDOCUMENT:DATE:LOCATION-edgesREFERENCES-date_th0.3-doc_th0.5-loc_th0.35
# 2   rel3-3   causeofirelandpl00orei_315   17   0.6241031   nodesDOCUMENT:DATE:LOCATION-edgesREFERENCES-date_th0.3-doc_th0.5-loc_th0.35
# 2   rel3-3   calendarstatepa00levagoog_361   18   0.62015265   nodesDOCUMENT:DATE:LOCATION-edgesREFERENCES-date_th0.3-doc_th0.5-loc_th0.35
# 2   rel3-3   thomasharrisonr00wessgoog_83   19   0.61850405   nodesDOCUMENT:DATE:LOCATION-edgesREFERENCES-date_th0.3-doc_th0.5-loc_th0.35
# 2   rel3-3   1688   20   0.61729634   nodesDOCUMENT:DATE:LOCATION-edgesREFERENCES-date_th0.3-doc_th0.5-loc_th0.35
# 2   rel3-3   constitutionalhi03hall_415   21   0.6172136   nodesDOCUMENT:DATE:LOCATION-edgesREFERENCES-date_th0.3-doc_th0.5-loc_th0.35
# 2   rel3-3   historyirishper01maddgoog_67   22   0.61489016   nodesDOCUMENT:DATE:LOCATION-edgesREFERENCES-date_th0.3-doc_th0.5-loc_th0.35
# 2   rel3-3   causeofirelandpl00orei_431   23   0.61383706   nodesDOCUMENT:DATE:LOCATION-edgesREFERENCES-date_th0.3-doc_th0.5-loc_th0.35
# 2   rel3-3   selectspeecheswi00cannuoft_358   24   0.6137229   nodesDOCUMENT:DATE:LOCATION-edgesREFERENCES-date_th0.3-doc_th0.5-loc_th0.35
# 2   rel3-3   completehistoryo0306kenn_434   25   0.61180645   nodesDOCUMENT:DATE:LOCATION-edgesREFERENCES-date_th0.3-doc_th0.5-loc_th0.35
# 2   rel3-3   causeofirelandpl00orei_249   26   0.60823846   nodesDOCUMENT:DATE:LOCATION-edgesREFERENCES-date_th0.3-doc_th0.5-loc_th0.35
# 2   rel3-3   politicalstudies00broduoft_382   27   0.60815203   nodesDOCUMENT:DATE:LOCATION-edgesREFERENCES-date_th0.3-doc_th0.5-loc_th0.35
# 2   rel3-3   historyirishper01maddgoog_229   28   0.6072254   nodesDOCUMENT:DATE:LOCATION-edgesREFERENCES-date_th0.3-doc_th0.5-loc_th0.35
# 2   rel3-3   historyirelanda00smilgoog_172   29   0.60681516   nodesDOCUMENT:DATE:LOCATION-edgesREFERENCES-date_th0.3-doc_th0.5-loc_th0.35
# 2   rel3-3   calendarstatepa12offigoog_21   30   0.6067627   nodesDOCUMENT:DATE:LOCATION-edgesREFERENCES-date_th0.3-doc_th0.5-loc_th0.35
# 2   rel3-3   historyirelanda00smilgoog_120   31   0.60632265   nodesDOCUMENT:DATE:LOCATION-edgesREFERENCES-date_th0.3-doc_th0.5-loc_th0.35
# 2   rel3-3   redeemerstearsw00urwigoog_21   32   0.60359144   nodesDOCUMENT:DATE:LOCATION-edgesREFERENCES-date_th0.3-doc_th0.5-loc_th0.35
# 2   rel3-3   dublinreview14londuoft_194   33   0.60325634   nodesDOCUMENT:DATE:LOCATION-edgesREFERENCES-date_th0.3-doc_th0.5-loc_th0.35
# 2   rel3-3   irelandsaintpatr00morriala_201   34   0.60325634   nodesDOCUMENT:DATE:LOCATION-edgesREFERENCES-date_th0.3-doc_th0.5-loc_th0.35
# 2   rel3-3   pt3historyofirel00wriguoft_306   35   0.60325634   nodesDOCUMENT:DATE:LOCATION-edgesREFERENCES-date_th0.3-doc_th0.5-loc_th0.35
# 2   rel3-3   causeofirelandpl00orei_24   36   0.6024419   nodesDOCUMENT:DATE:LOCATION-edgesREFERENCES-date_th0.3-doc_th0.5-loc_th0.35
# 2   rel3-3   politicalstudies00broduoft_351   37   0.6016643   nodesDOCUMENT:DATE:LOCATION-edgesREFERENCES-date_th0.3-doc_th0.5-loc_th0.35
# 2   rel3-3   strangerinirelan00carr_91   38   0.6007721   nodesDOCUMENT:DATE:LOCATION-edgesREFERENCES-date_th0.3-doc_th0.5-loc_th0.35
# 2   rel3-3   cu31924091770861_873   39   0.5973563   nodesDOCUMENT:DATE:LOCATION-edgesREFERENCES-date_th0.3-doc_th0.5-loc_th0.35
# 2   rel3-3   worksrighthonor37burkgoog_439   40   0.5956615   nodesDOCUMENT:DATE:LOCATION-edgesREFERENCES-date_th0.3-doc_th0.5-loc_th0.35
