###################################
# parameters: 
#   date_th: 0.3
#   doc_th: 0.6
#   loc_th: 0.4
#   nodestouse: DOCUMENT:DATE:LOCATION
#   relationships: REFERENCES:SIMDATES:SIMLOC

###################################
# configuration: 
#   sa.act_diff_ratio_limit = 0.01
#   sa.act_diff_ratio_limit_diff = 0.01
#   sa.function = ciir.multi.sa.function.MaxSAFunction(norm_function)
#   sa.id_property_name.DATE = dateID
#   sa.id_property_name.DOCUMENT = docID
#   sa.id_property_name.LOCATION = locID
#   sa.max_pulses = 10
#   sa.nodes_to_print = DATE:LOCATION
#   sa.nodes_to_use = DOCUMENT:DATE:LOCATION
#   sa.norm_function = ciir.multi.sa.SigmoidFunction(0.0, 1.0)
#   sa.relationships_to_use = REFERENCES:SIMDATES:SIMLOC
#   sa.spread_threshold.DATE = 0.3
#   sa.spread_threshold.DOCUMENT = 0.6
#   sa.spread_threshold.LOCATION = 0.4
#   sa.weight_property.REFERENCES = relevance
#   sa.weight_property.SIMDATES = sim
#   sa.weight_property.SIMDOC = sim
#   sa.weight_property.SIMLOC = sim
#   sa.weight_property.SIMPAGE = pagesim

###################################
# initial activations (3): 
#   englandsfightwit00wals_354, 1
#   viceroysofirelan00omahuoft_97, 1
#   hallamsworks04halliala_600, 1

###################################
# spreading activation process log: 
#   pulse 0: activated: 3, non-zero: 3, borderline: 3, overall act: 3.000, act diff: 3.000, ratio: 1.000
#   pulse 1: activated: 9, non-zero: 9, borderline: 6, overall act: 5.685, act diff: 2.685, ratio: 0.472
#   pulse 2: activated: 1016014, non-zero: 1016014, borderline: 1016007, overall act: 141075.606, act diff: 141069.921, ratio: 1.000
#   pulse 3: activated: 1016031, non-zero: 1016031, borderline: 1016006, overall act: 141078.361, act diff: 2.755, ratio: 0.000

###################################
# spreading activation process summary: 
#   final number of activated nodes: 1016031
#   final overall activation: 141078.4
#   number of spread. activ. pulses: 3
#   running time: 128840

###################################
# top k results in TREC format: 

2   rel3-3   1641   1   0.9999889   nodesDOCUMENT:DATE:LOCATION-edgesREFERENCES:SIMDATES:SIMLOC-date_th0.3-doc_th0.6-loc_th0.4
2   rel3-3   ireland   2   0.99997354   nodesDOCUMENT:DATE:LOCATION-edgesREFERENCES:SIMDATES:SIMLOC-date_th0.3-doc_th0.6-loc_th0.4
2   rel3-3   england   3   0.998054   nodesDOCUMENT:DATE:LOCATION-edgesREFERENCES:SIMDATES:SIMLOC-date_th0.3-doc_th0.6-loc_th0.4
2   rel3-3   dublin   4   0.48842165   nodesDOCUMENT:DATE:LOCATION-edgesREFERENCES:SIMDATES:SIMLOC-date_th0.3-doc_th0.6-loc_th0.4
2   rel3-3   clifton house   5   0.3729699   nodesDOCUMENT:DATE:LOCATION-edgesREFERENCES:SIMDATES:SIMLOC-date_th0.3-doc_th0.6-loc_th0.4
2   rel3-3   cangort   6   0.36427334   nodesDOCUMENT:DATE:LOCATION-edgesREFERENCES:SIMDATES:SIMLOC-date_th0.3-doc_th0.6-loc_th0.4
2   rel3-3   cangort park   7   0.3594188   nodesDOCUMENT:DATE:LOCATION-edgesREFERENCES:SIMDATES:SIMLOC-date_th0.3-doc_th0.6-loc_th0.4
2   rel3-3   sopwell hall   8   0.35768622   nodesDOCUMENT:DATE:LOCATION-edgesREFERENCES:SIMDATES:SIMLOC-date_th0.3-doc_th0.6-loc_th0.4
2   rel3-3   kilcomin   9   0.35323116   nodesDOCUMENT:DATE:LOCATION-edgesREFERENCES:SIMDATES:SIMLOC-date_th0.3-doc_th0.6-loc_th0.4
2   rel3-3   ballincor   10   0.35001552   nodesDOCUMENT:DATE:LOCATION-edgesREFERENCES:SIMDATES:SIMLOC-date_th0.3-doc_th0.6-loc_th0.4
2   rel3-3   corolanty   11   0.3473329   nodesDOCUMENT:DATE:LOCATION-edgesREFERENCES:SIMDATES:SIMLOC-date_th0.3-doc_th0.6-loc_th0.4
2   rel3-3   loughkeen   12   0.34596506   nodesDOCUMENT:DATE:LOCATION-edgesREFERENCES:SIMDATES:SIMLOC-date_th0.3-doc_th0.6-loc_th0.4
2   rel3-3   ivy hall   13   0.3447351   nodesDOCUMENT:DATE:LOCATION-edgesREFERENCES:SIMDATES:SIMLOC-date_th0.3-doc_th0.6-loc_th0.4
2   rel3-3   shinrone   14   0.3442811   nodesDOCUMENT:DATE:LOCATION-edgesREFERENCES:SIMDATES:SIMLOC-date_th0.3-doc_th0.6-loc_th0.4
2   rel3-3   modreeny   15   0.33839312   nodesDOCUMENT:DATE:LOCATION-edgesREFERENCES:SIMDATES:SIMLOC-date_th0.3-doc_th0.6-loc_th0.4
2   rel3-3   cloughjordan   16   0.33410951   nodesDOCUMENT:DATE:LOCATION-edgesREFERENCES:SIMDATES:SIMLOC-date_th0.3-doc_th0.6-loc_th0.4
2   rel3-3   fort nisbett   17   0.33204314   nodesDOCUMENT:DATE:LOCATION-edgesREFERENCES:SIMDATES:SIMLOC-date_th0.3-doc_th0.6-loc_th0.4
2   rel3-3   borrisokane   18   0.32464334   nodesDOCUMENT:DATE:LOCATION-edgesREFERENCES:SIMDATES:SIMLOC-date_th0.3-doc_th0.6-loc_th0.4
2   rel3-3   1845   19   0.30540052   nodesDOCUMENT:DATE:LOCATION-edgesREFERENCES:SIMDATES:SIMLOC-date_th0.3-doc_th0.6-loc_th0.4
2   rel3-3   1640   20   0.2505602   nodesDOCUMENT:DATE:LOCATION-edgesREFERENCES:SIMDATES:SIMLOC-date_th0.3-doc_th0.6-loc_th0.4

###################################
# top nodes: 

# 2   rel3-3   viceroysofirelan00omahuoft_97   1   1.0   nodesDOCUMENT:DATE:LOCATION-edgesREFERENCES:SIMDATES:SIMLOC-date_th0.3-doc_th0.6-loc_th0.4
# 2   rel3-3   hallamsworks04halliala_600   2   1.0   nodesDOCUMENT:DATE:LOCATION-edgesREFERENCES:SIMDATES:SIMLOC-date_th0.3-doc_th0.6-loc_th0.4
# 2   rel3-3   englandsfightwit00wals_354   3   1.0   nodesDOCUMENT:DATE:LOCATION-edgesREFERENCES:SIMDATES:SIMLOC-date_th0.3-doc_th0.6-loc_th0.4
# 2   rel3-3   1641   4   0.9999889   nodesDOCUMENT:DATE:LOCATION-edgesREFERENCES:SIMDATES:SIMLOC-date_th0.3-doc_th0.6-loc_th0.4
# 2   rel3-3   ireland   5   0.99997354   nodesDOCUMENT:DATE:LOCATION-edgesREFERENCES:SIMDATES:SIMLOC-date_th0.3-doc_th0.6-loc_th0.4
# 2   rel3-3   england   6   0.998054   nodesDOCUMENT:DATE:LOCATION-edgesREFERENCES:SIMDATES:SIMLOC-date_th0.3-doc_th0.6-loc_th0.4
# 2   rel3-3   causeofirelandpl00orei_315   7   0.6241031   nodesDOCUMENT:DATE:LOCATION-edgesREFERENCES:SIMDATES:SIMLOC-date_th0.3-doc_th0.6-loc_th0.4
# 2   rel3-3   calendarstatepa00levagoog_361   8   0.62015265   nodesDOCUMENT:DATE:LOCATION-edgesREFERENCES:SIMDATES:SIMLOC-date_th0.3-doc_th0.6-loc_th0.4
# 2   rel3-3   constitutionalhi03hall_415   9   0.6172136   nodesDOCUMENT:DATE:LOCATION-edgesREFERENCES:SIMDATES:SIMLOC-date_th0.3-doc_th0.6-loc_th0.4
# 2   rel3-3   historyirishper01maddgoog_67   10   0.61489016   nodesDOCUMENT:DATE:LOCATION-edgesREFERENCES:SIMDATES:SIMLOC-date_th0.3-doc_th0.6-loc_th0.4
# 2   rel3-3   causeofirelandpl00orei_431   11   0.61383706   nodesDOCUMENT:DATE:LOCATION-edgesREFERENCES:SIMDATES:SIMLOC-date_th0.3-doc_th0.6-loc_th0.4
# 2   rel3-3   selectspeecheswi00cannuoft_358   12   0.6137229   nodesDOCUMENT:DATE:LOCATION-edgesREFERENCES:SIMDATES:SIMLOC-date_th0.3-doc_th0.6-loc_th0.4
# 2   rel3-3   completehistoryo0306kenn_434   13   0.61180645   nodesDOCUMENT:DATE:LOCATION-edgesREFERENCES:SIMDATES:SIMLOC-date_th0.3-doc_th0.6-loc_th0.4
# 2   rel3-3   causeofirelandpl00orei_249   14   0.60823846   nodesDOCUMENT:DATE:LOCATION-edgesREFERENCES:SIMDATES:SIMLOC-date_th0.3-doc_th0.6-loc_th0.4
# 2   rel3-3   politicalstudies00broduoft_382   15   0.60815203   nodesDOCUMENT:DATE:LOCATION-edgesREFERENCES:SIMDATES:SIMLOC-date_th0.3-doc_th0.6-loc_th0.4
# 2   rel3-3   historyirishper01maddgoog_229   16   0.6072254   nodesDOCUMENT:DATE:LOCATION-edgesREFERENCES:SIMDATES:SIMLOC-date_th0.3-doc_th0.6-loc_th0.4
# 2   rel3-3   calendarstatepa12offigoog_21   17   0.6067627   nodesDOCUMENT:DATE:LOCATION-edgesREFERENCES:SIMDATES:SIMLOC-date_th0.3-doc_th0.6-loc_th0.4
# 2   rel3-3   historyirelanda00smilgoog_120   18   0.60632265   nodesDOCUMENT:DATE:LOCATION-edgesREFERENCES:SIMDATES:SIMLOC-date_th0.3-doc_th0.6-loc_th0.4
# 2   rel3-3   studentshistoryo03garduoft_42   19   0.60477144   nodesDOCUMENT:DATE:LOCATION-edgesREFERENCES:SIMDATES:SIMLOC-date_th0.3-doc_th0.6-loc_th0.4
# 2   rel3-3   harleianmiscell00oldygoog_332   20   0.6039614   nodesDOCUMENT:DATE:LOCATION-edgesREFERENCES:SIMDATES:SIMLOC-date_th0.3-doc_th0.6-loc_th0.4
# 2   rel3-3   irelandsaintpatr00morriala_201   21   0.60325634   nodesDOCUMENT:DATE:LOCATION-edgesREFERENCES:SIMDATES:SIMLOC-date_th0.3-doc_th0.6-loc_th0.4
# 2   rel3-3   dublinreview14londuoft_194   22   0.60325634   nodesDOCUMENT:DATE:LOCATION-edgesREFERENCES:SIMDATES:SIMLOC-date_th0.3-doc_th0.6-loc_th0.4
# 2   rel3-3   pt3historyofirel00wriguoft_306   23   0.60325634   nodesDOCUMENT:DATE:LOCATION-edgesREFERENCES:SIMDATES:SIMLOC-date_th0.3-doc_th0.6-loc_th0.4
# 2   rel3-3   politicalstudies00broduoft_351   24   0.6016643   nodesDOCUMENT:DATE:LOCATION-edgesREFERENCES:SIMDATES:SIMLOC-date_th0.3-doc_th0.6-loc_th0.4
# 2   rel3-3   worksrighthonor37burkgoog_439   25   0.5956615   nodesDOCUMENT:DATE:LOCATION-edgesREFERENCES:SIMDATES:SIMLOC-date_th0.3-doc_th0.6-loc_th0.4
# 2   rel3-3   fairfaxcorrespon01johniala_870   26   0.5956615   nodesDOCUMENT:DATE:LOCATION-edgesREFERENCES:SIMDATES:SIMLOC-date_th0.3-doc_th0.6-loc_th0.4
# 2   rel3-3   historyirelanda00smilgoog_312   27   0.5956615   nodesDOCUMENT:DATE:LOCATION-edgesREFERENCES:SIMDATES:SIMLOC-date_th0.3-doc_th0.6-loc_th0.4
# 2   rel3-3   hallamsworks04halliala_612   28   0.5956615   nodesDOCUMENT:DATE:LOCATION-edgesREFERENCES:SIMDATES:SIMLOC-date_th0.3-doc_th0.6-loc_th0.4
# 2   rel3-3   methodistmagazin1834meth_610   29   0.5956615   nodesDOCUMENT:DATE:LOCATION-edgesREFERENCES:SIMDATES:SIMLOC-date_th0.3-doc_th0.6-loc_th0.4
# 2   rel3-3   publications13irisuoft_16   30   0.5900143   nodesDOCUMENT:DATE:LOCATION-edgesREFERENCES:SIMDATES:SIMLOC-date_th0.3-doc_th0.6-loc_th0.4
# 2   rel3-3   thomasharrisonr00wessgoog_83   31   0.5846675   nodesDOCUMENT:DATE:LOCATION-edgesREFERENCES:SIMDATES:SIMLOC-date_th0.3-doc_th0.6-loc_th0.4
# 2   rel3-3   calendarstatepa12offigoog_373   32   0.58458275   nodesDOCUMENT:DATE:LOCATION-edgesREFERENCES:SIMDATES:SIMLOC-date_th0.3-doc_th0.6-loc_th0.4
# 2   rel3-3   fairfaxcorrespon01johniala_705   33   0.5843118   nodesDOCUMENT:DATE:LOCATION-edgesREFERENCES:SIMDATES:SIMLOC-date_th0.3-doc_th0.6-loc_th0.4
# 2   rel3-3   politicalstudies00broduoft_380   34   0.5843118   nodesDOCUMENT:DATE:LOCATION-edgesREFERENCES:SIMDATES:SIMLOC-date_th0.3-doc_th0.6-loc_th0.4
# 2   rel3-3   collinsspeerageof07coll_161   35   0.5843117   nodesDOCUMENT:DATE:LOCATION-edgesREFERENCES:SIMDATES:SIMLOC-date_th0.3-doc_th0.6-loc_th0.4
# 2   rel3-3   historyforreadyr03larnuoft_235   36   0.58422774   nodesDOCUMENT:DATE:LOCATION-edgesREFERENCES:SIMDATES:SIMLOC-date_th0.3-doc_th0.6-loc_th0.4
# 2   rel3-3   projectofcommonw00curt_470   37   0.57756805   nodesDOCUMENT:DATE:LOCATION-edgesREFERENCES:SIMDATES:SIMLOC-date_th0.3-doc_th0.6-loc_th0.4
# 2   rel3-3   memoirsandcorre02castgoog_67   38   0.57617295   nodesDOCUMENT:DATE:LOCATION-edgesREFERENCES:SIMDATES:SIMLOC-date_th0.3-doc_th0.6-loc_th0.4
# 2   rel3-3   confederationofk00meeh_10   39   0.57580715   nodesDOCUMENT:DATE:LOCATION-edgesREFERENCES:SIMDATES:SIMLOC-date_th0.3-doc_th0.6-loc_th0.4
# 2   rel3-3   fastiecclesiaeh02cottgoog_20   40   0.57580715   nodesDOCUMENT:DATE:LOCATION-edgesREFERENCES:SIMDATES:SIMLOC-date_th0.3-doc_th0.6-loc_th0.4
