###################################
# parameters: 
#   date_th: 0.3
#   doc_th: 0.6
#   loc_th: 0.35
#   nodestouse: DOCUMENT:DATE:LOCATION
#   relationships: REFERENCES:SIMDATES:SIMPAGE

###################################
# configuration: 
#   sa.act_diff_ratio_limit = 0.01
#   sa.act_diff_ratio_limit_diff = 0.01
#   sa.function = ciir.multi.sa.function.MaxSAFunction(norm_function)
#   sa.id_property_name.DATE = dateID
#   sa.id_property_name.DOCUMENT = docID
#   sa.id_property_name.LOCATION = locID
#   sa.max_pulses = 10
#   sa.nodes_to_print = DATE:LOCATION
#   sa.nodes_to_use = DOCUMENT:DATE:LOCATION
#   sa.norm_function = ciir.multi.sa.SigmoidFunction(0.0, 1.0)
#   sa.relationships_to_use = REFERENCES:SIMDATES:SIMPAGE
#   sa.spread_threshold.DATE = 0.3
#   sa.spread_threshold.DOCUMENT = 0.6
#   sa.spread_threshold.LOCATION = 0.35
#   sa.weight_property.REFERENCES = relevance
#   sa.weight_property.SIMDATES = sim
#   sa.weight_property.SIMDOC = sim
#   sa.weight_property.SIMLOC = sim
#   sa.weight_property.SIMPAGE = pagesim

###################################
# initial activations (3): 
#   englandsfightwit00wals_354, 1
#   cu31924029563875_157, 1
#   hallamsworks04halliala_600, 1

###################################
# spreading activation process log: 
#   pulse 0: activated: 3, non-zero: 3, borderline: 3, overall act: 3.000, act diff: 3.000, ratio: 1.000
#   pulse 1: activated: 27, non-zero: 27, borderline: 24, overall act: 10.124, act diff: 7.124, ratio: 0.704
#   pulse 2: activated: 879910, non-zero: 879910, borderline: 879902, overall act: 112384.017, act diff: 112373.893, ratio: 1.000
#   pulse 3: activated: 888328, non-zero: 888328, borderline: 888272, overall act: 113374.825, act diff: 990.808, ratio: 0.009

###################################
# spreading activation process summary: 
#   final number of activated nodes: 888328
#   final overall activation: 113374.8
#   number of spread. activ. pulses: 3
#   running time: 139561

###################################
# top k results in TREC format: 

2   rel3-2   ireland   1   1.0   nodesDOCUMENT:DATE:LOCATION-edgesREFERENCES:SIMDATES:SIMPAGE-date_th0.3-doc_th0.6-loc_th0.35
2   rel3-2   dublin   2   0.9934089   nodesDOCUMENT:DATE:LOCATION-edgesREFERENCES:SIMDATES:SIMPAGE-date_th0.3-doc_th0.6-loc_th0.35
2   rel3-2   london   3   0.83866245   nodesDOCUMENT:DATE:LOCATION-edgesREFERENCES:SIMDATES:SIMPAGE-date_th0.3-doc_th0.6-loc_th0.35
2   rel3-2   england   4   0.40544972   nodesDOCUMENT:DATE:LOCATION-edgesREFERENCES:SIMDATES:SIMPAGE-date_th0.3-doc_th0.6-loc_th0.35
2   rel3-2   strafford   5   0.29786587   nodesDOCUMENT:DATE:LOCATION-edgesREFERENCES:SIMDATES:SIMPAGE-date_th0.3-doc_th0.6-loc_th0.35
2   rel3-2   city   6   0.17853984   nodesDOCUMENT:DATE:LOCATION-edgesREFERENCES:SIMDATES:SIMPAGE-date_th0.3-doc_th0.6-loc_th0.35
2   rel3-2   dublin castle   7   0.12249064   nodesDOCUMENT:DATE:LOCATION-edgesREFERENCES:SIMDATES:SIMPAGE-date_th0.3-doc_th0.6-loc_th0.35
2   rel3-2   scotland   8   0.11671053   nodesDOCUMENT:DATE:LOCATION-edgesREFERENCES:SIMDATES:SIMPAGE-date_th0.3-doc_th0.6-loc_th0.35
2   rel3-2   borlase   9   0.11671053   nodesDOCUMENT:DATE:LOCATION-edgesREFERENCES:SIMDATES:SIMPAGE-date_th0.3-doc_th0.6-loc_th0.35
2   rel3-2   shoreditch   10   0.108621895   nodesDOCUMENT:DATE:LOCATION-edgesREFERENCES:SIMDATES:SIMPAGE-date_th0.3-doc_th0.6-loc_th0.35
2   rel3-2   europe   11   0.108621895   nodesDOCUMENT:DATE:LOCATION-edgesREFERENCES:SIMDATES:SIMPAGE-date_th0.3-doc_th0.6-loc_th0.35
2   rel3-2   town   12   0.108621895   nodesDOCUMENT:DATE:LOCATION-edgesREFERENCES:SIMDATES:SIMPAGE-date_th0.3-doc_th0.6-loc_th0.35
2   rel3-2   peacock   13   0.108621895   nodesDOCUMENT:DATE:LOCATION-edgesREFERENCES:SIMDATES:SIMPAGE-date_th0.3-doc_th0.6-loc_th0.35
2   rel3-2   limerick   14   0.108621895   nodesDOCUMENT:DATE:LOCATION-edgesREFERENCES:SIMDATES:SIMPAGE-date_th0.3-doc_th0.6-loc_th0.35
2   rel3-2   essex   15   0.1083053   nodesDOCUMENT:DATE:LOCATION-edgesREFERENCES:SIMDATES:SIMPAGE-date_th0.3-doc_th0.6-loc_th0.35
2   rel3-2   mansion house   16   0.10763475   nodesDOCUMENT:DATE:LOCATION-edgesREFERENCES:SIMDATES:SIMPAGE-date_th0.3-doc_th0.6-loc_th0.35
2   rel3-2   tipperary   17   0.10219717   nodesDOCUMENT:DATE:LOCATION-edgesREFERENCES:SIMDATES:SIMPAGE-date_th0.3-doc_th0.6-loc_th0.35
2   rel3-2   netherlands   18   0.096817054   nodesDOCUMENT:DATE:LOCATION-edgesREFERENCES:SIMDATES:SIMPAGE-date_th0.3-doc_th0.6-loc_th0.35
2   rel3-2   rome   19   0.096817054   nodesDOCUMENT:DATE:LOCATION-edgesREFERENCES:SIMDATES:SIMPAGE-date_th0.3-doc_th0.6-loc_th0.35
2   rel3-2   belgium   20   0.096817054   nodesDOCUMENT:DATE:LOCATION-edgesREFERENCES:SIMDATES:SIMPAGE-date_th0.3-doc_th0.6-loc_th0.35

###################################
# top nodes: 

# 2   rel3-2   cu31924029563875_157   1   1.0   nodesDOCUMENT:DATE:LOCATION-edgesREFERENCES:SIMDATES:SIMPAGE-date_th0.3-doc_th0.6-loc_th0.35
# 2   rel3-2   ireland   2   1.0   nodesDOCUMENT:DATE:LOCATION-edgesREFERENCES:SIMDATES:SIMPAGE-date_th0.3-doc_th0.6-loc_th0.35
# 2   rel3-2   1641   3   1.0   nodesDOCUMENT:DATE:LOCATION-edgesREFERENCES:SIMDATES:SIMPAGE-date_th0.3-doc_th0.6-loc_th0.35
# 2   rel3-2   hallamsworks04halliala_600   4   1.0   nodesDOCUMENT:DATE:LOCATION-edgesREFERENCES:SIMDATES:SIMPAGE-date_th0.3-doc_th0.6-loc_th0.35
# 2   rel3-2   englandsfightwit00wals_354   5   1.0   nodesDOCUMENT:DATE:LOCATION-edgesREFERENCES:SIMDATES:SIMPAGE-date_th0.3-doc_th0.6-loc_th0.35
# 2   rel3-2   dublin   6   0.9934089   nodesDOCUMENT:DATE:LOCATION-edgesREFERENCES:SIMDATES:SIMPAGE-date_th0.3-doc_th0.6-loc_th0.35
# 2   rel3-2   london   7   0.83866245   nodesDOCUMENT:DATE:LOCATION-edgesREFERENCES:SIMDATES:SIMPAGE-date_th0.3-doc_th0.6-loc_th0.35
# 2   rel3-2   constitutionalhi03hall_415   8   0.7388591   nodesDOCUMENT:DATE:LOCATION-edgesREFERENCES:SIMDATES:SIMPAGE-date_th0.3-doc_th0.6-loc_th0.35
# 2   rel3-2   causeofirelandpl00orei_431   9   0.72212327   nodesDOCUMENT:DATE:LOCATION-edgesREFERENCES:SIMDATES:SIMPAGE-date_th0.3-doc_th0.6-loc_th0.35
# 2   rel3-2   hallamsworks04halliala_601   10   0.68934315   nodesDOCUMENT:DATE:LOCATION-edgesREFERENCES:SIMDATES:SIMPAGE-date_th0.3-doc_th0.6-loc_th0.35
# 2   rel3-2   englandsfightwit00wals_355   11   0.6719688   nodesDOCUMENT:DATE:LOCATION-edgesREFERENCES:SIMDATES:SIMPAGE-date_th0.3-doc_th0.6-loc_th0.35
# 2   rel3-2   hallamsworks04halliala_599   12   0.65829563   nodesDOCUMENT:DATE:LOCATION-edgesREFERENCES:SIMDATES:SIMPAGE-date_th0.3-doc_th0.6-loc_th0.35
# 2   rel3-2   revolutionaryir00mahagoog_99   13   0.6482439   nodesDOCUMENT:DATE:LOCATION-edgesREFERENCES:SIMDATES:SIMPAGE-date_th0.3-doc_th0.6-loc_th0.35
# 2   rel3-2   hallamsworks04halliala_602   14   0.64495826   nodesDOCUMENT:DATE:LOCATION-edgesREFERENCES:SIMDATES:SIMPAGE-date_th0.3-doc_th0.6-loc_th0.35
# 2   rel3-2   bibliothecagrenv03grenrich_30   15   0.63895833   nodesDOCUMENT:DATE:LOCATION-edgesREFERENCES:SIMDATES:SIMPAGE-date_th0.3-doc_th0.6-loc_th0.35
# 2   rel3-2   causeofirelandpl00orei_23   16   0.635488   nodesDOCUMENT:DATE:LOCATION-edgesREFERENCES:SIMDATES:SIMPAGE-date_th0.3-doc_th0.6-loc_th0.35
# 2   rel3-2   causeofirelandpl00orei_24   17   0.6349712   nodesDOCUMENT:DATE:LOCATION-edgesREFERENCES:SIMDATES:SIMPAGE-date_th0.3-doc_th0.6-loc_th0.35
# 2   rel3-2   causeofirelandpl00orei_292   18   0.6342092   nodesDOCUMENT:DATE:LOCATION-edgesREFERENCES:SIMDATES:SIMPAGE-date_th0.3-doc_th0.6-loc_th0.35
# 2   rel3-2   causeofirelandpl00orei_432   19   0.6323343   nodesDOCUMENT:DATE:LOCATION-edgesREFERENCES:SIMDATES:SIMPAGE-date_th0.3-doc_th0.6-loc_th0.35
# 2   rel3-2   strangerinirelan00carr_91   20   0.63231665   nodesDOCUMENT:DATE:LOCATION-edgesREFERENCES:SIMDATES:SIMPAGE-date_th0.3-doc_th0.6-loc_th0.35
# 2   rel3-2   cu31924091770861_873   21   0.62753767   nodesDOCUMENT:DATE:LOCATION-edgesREFERENCES:SIMDATES:SIMPAGE-date_th0.3-doc_th0.6-loc_th0.35
# 2   rel3-2   historyofireland02daltuoft_409   22   0.619015   nodesDOCUMENT:DATE:LOCATION-edgesREFERENCES:SIMDATES:SIMPAGE-date_th0.3-doc_th0.6-loc_th0.35
# 2   rel3-2   olivercromwell00rossgoog_134   23   0.619015   nodesDOCUMENT:DATE:LOCATION-edgesREFERENCES:SIMDATES:SIMPAGE-date_th0.3-doc_th0.6-loc_th0.35
# 2   rel3-2   politicalstudies00broduoft_385   24   0.6183103   nodesDOCUMENT:DATE:LOCATION-edgesREFERENCES:SIMDATES:SIMPAGE-date_th0.3-doc_th0.6-loc_th0.35
# 2   rel3-2   bibliothecagrenv03grenrich_31   25   0.61736053   nodesDOCUMENT:DATE:LOCATION-edgesREFERENCES:SIMDATES:SIMPAGE-date_th0.3-doc_th0.6-loc_th0.35
# 2   rel3-2   historyofdiocese02healiala_24   26   0.6167234   nodesDOCUMENT:DATE:LOCATION-edgesREFERENCES:SIMDATES:SIMPAGE-date_th0.3-doc_th0.6-loc_th0.35
# 2   rel3-2   irelandonehundre00walsrich_38   27   0.61627054   nodesDOCUMENT:DATE:LOCATION-edgesREFERENCES:SIMDATES:SIMPAGE-date_th0.3-doc_th0.6-loc_th0.35
# 2   rel3-2   landwarinireland00godk_205   28   0.61627054   nodesDOCUMENT:DATE:LOCATION-edgesREFERENCES:SIMDATES:SIMPAGE-date_th0.3-doc_th0.6-loc_th0.35
# 2   rel3-2   compendiumofhist02lawl_189   29   0.61627054   nodesDOCUMENT:DATE:LOCATION-edgesREFERENCES:SIMDATES:SIMPAGE-date_th0.3-doc_th0.6-loc_th0.35
# 2   rel3-2   commercialrestra00hely_255   30   0.61627054   nodesDOCUMENT:DATE:LOCATION-edgesREFERENCES:SIMDATES:SIMPAGE-date_th0.3-doc_th0.6-loc_th0.35
# 2   rel3-2   viceroyspostbag02macdgoog_266   31   0.61533123   nodesDOCUMENT:DATE:LOCATION-edgesREFERENCES:SIMDATES:SIMPAGE-date_th0.3-doc_th0.6-loc_th0.35
# 2   rel3-2   historyengland00macagoog_517   32   0.6124737   nodesDOCUMENT:DATE:LOCATION-edgesREFERENCES:SIMDATES:SIMPAGE-date_th0.3-doc_th0.6-loc_th0.35
# 2   rel3-2   cu31924027975733_414   33   0.6124737   nodesDOCUMENT:DATE:LOCATION-edgesREFERENCES:SIMDATES:SIMPAGE-date_th0.3-doc_th0.6-loc_th0.35
# 2   rel3-2   socialstateofgre00berm_196   34   0.6066881   nodesDOCUMENT:DATE:LOCATION-edgesREFERENCES:SIMDATES:SIMPAGE-date_th0.3-doc_th0.6-loc_th0.35
# 2   rel3-2   treatiseofexcheq02howa_413   35   0.6040615   nodesDOCUMENT:DATE:LOCATION-edgesREFERENCES:SIMDATES:SIMPAGE-date_th0.3-doc_th0.6-loc_th0.35
# 2   rel3-2   treatiseofexcheq02howa_411   36   0.6040615   nodesDOCUMENT:DATE:LOCATION-edgesREFERENCES:SIMDATES:SIMPAGE-date_th0.3-doc_th0.6-loc_th0.35
# 2   rel3-2   statechurcheskin00allerich_587   37   0.6040615   nodesDOCUMENT:DATE:LOCATION-edgesREFERENCES:SIMDATES:SIMPAGE-date_th0.3-doc_th0.6-loc_th0.35
# 2   rel3-2   treatiseofexcheq02howa_130   38   0.6040615   nodesDOCUMENT:DATE:LOCATION-edgesREFERENCES:SIMDATES:SIMPAGE-date_th0.3-doc_th0.6-loc_th0.35
# 2   rel3-2   memoirsandcorre02castgoog_42   39   0.6040615   nodesDOCUMENT:DATE:LOCATION-edgesREFERENCES:SIMDATES:SIMPAGE-date_th0.3-doc_th0.6-loc_th0.35
# 2   rel3-2   proceedingsofro22roya_307   40   0.6040615   nodesDOCUMENT:DATE:LOCATION-edgesREFERENCES:SIMDATES:SIMPAGE-date_th0.3-doc_th0.6-loc_th0.35
