###################################
# parameters: 
#   date_th: 0.25
#   doc_th: 0.5
#   loc_th: 0.35
#   nodestouse: DOCUMENT:DATE:LOCATION
#   relationships: REFERENCES:SIMDATES:SIMPAGE

###################################
# configuration: 
#   sa.act_diff_ratio_limit = 0.01
#   sa.act_diff_ratio_limit_diff = 0.01
#   sa.function = ciir.multi.sa.function.MaxSAFunction(norm_function)
#   sa.id_property_name.DATE = dateID
#   sa.id_property_name.DOCUMENT = docID
#   sa.id_property_name.LOCATION = locID
#   sa.max_pulses = 10
#   sa.nodes_to_print = DATE:LOCATION
#   sa.nodes_to_use = DOCUMENT:DATE:LOCATION
#   sa.norm_function = ciir.multi.sa.SigmoidFunction(0.0, 1.0)
#   sa.relationships_to_use = REFERENCES:SIMDATES:SIMPAGE
#   sa.spread_threshold.DATE = 0.25
#   sa.spread_threshold.DOCUMENT = 0.5
#   sa.spread_threshold.LOCATION = 0.35
#   sa.weight_property.REFERENCES = relevance
#   sa.weight_property.SIMDATES = sim
#   sa.weight_property.SIMDOC = sim
#   sa.weight_property.SIMLOC = sim
#   sa.weight_property.SIMPAGE = pagesim

###################################
# initial activations (3): 
#   englandsfightwit00wals_354, 1
#   cu31924029563875_157, 1
#   viceroysofirelan00omahuoft_97, 1

###################################
# spreading activation process log: 
#   pulse 0: activated: 3, non-zero: 3, borderline: 3, overall act: 3.000, act diff: 3.000, ratio: 1.000
#   pulse 1: activated: 27, non-zero: 27, borderline: 24, overall act: 9.762, act diff: 6.762, ratio: 0.693
#   pulse 2: activated: 819367, non-zero: 819367, borderline: 819361, overall act: 104639.510, act diff: 104629.748, ratio: 1.000
#   pulse 3: activated: 819437, non-zero: 819437, borderline: 819383, overall act: 104667.213, act diff: 27.703, ratio: 0.000

###################################
# spreading activation process summary: 
#   final number of activated nodes: 819437
#   final overall activation: 104667.2
#   number of spread. activ. pulses: 3
#   running time: 176236

###################################
# top k results in TREC format: 

2   rel3-1   ireland   1   1.0   nodesDOCUMENT:DATE:LOCATION-edgesREFERENCES:SIMDATES:SIMPAGE-date_th0.25-doc_th0.5-loc_th0.35
2   rel3-1   london   2   0.9619621   nodesDOCUMENT:DATE:LOCATION-edgesREFERENCES:SIMDATES:SIMPAGE-date_th0.25-doc_th0.5-loc_th0.35
2   rel3-1   england   3   0.7483106   nodesDOCUMENT:DATE:LOCATION-edgesREFERENCES:SIMDATES:SIMPAGE-date_th0.25-doc_th0.5-loc_th0.35
2   rel3-1   dublin   4   0.53996646   nodesDOCUMENT:DATE:LOCATION-edgesREFERENCES:SIMDATES:SIMPAGE-date_th0.25-doc_th0.5-loc_th0.35
2   rel3-1   strafford   5   0.4139366   nodesDOCUMENT:DATE:LOCATION-edgesREFERENCES:SIMDATES:SIMPAGE-date_th0.25-doc_th0.5-loc_th0.35
2   rel3-1   city   6   0.167034   nodesDOCUMENT:DATE:LOCATION-edgesREFERENCES:SIMDATES:SIMPAGE-date_th0.25-doc_th0.5-loc_th0.35
2   rel3-1   galway   7   0.15028077   nodesDOCUMENT:DATE:LOCATION-edgesREFERENCES:SIMDATES:SIMPAGE-date_th0.25-doc_th0.5-loc_th0.35
2   rel3-1   scotland   8   0.13415854   nodesDOCUMENT:DATE:LOCATION-edgesREFERENCES:SIMDATES:SIMPAGE-date_th0.25-doc_th0.5-loc_th0.35
2   rel3-1   malay archipelago   9   0.11597154   nodesDOCUMENT:DATE:LOCATION-edgesREFERENCES:SIMDATES:SIMPAGE-date_th0.25-doc_th0.5-loc_th0.35
2   rel3-1   shoreditch   10   0.108621895   nodesDOCUMENT:DATE:LOCATION-edgesREFERENCES:SIMDATES:SIMPAGE-date_th0.25-doc_th0.5-loc_th0.35
2   rel3-1   europe   11   0.108621895   nodesDOCUMENT:DATE:LOCATION-edgesREFERENCES:SIMDATES:SIMPAGE-date_th0.25-doc_th0.5-loc_th0.35
2   rel3-1   peacock   12   0.108621895   nodesDOCUMENT:DATE:LOCATION-edgesREFERENCES:SIMDATES:SIMPAGE-date_th0.25-doc_th0.5-loc_th0.35
2   rel3-1   town   13   0.108621895   nodesDOCUMENT:DATE:LOCATION-edgesREFERENCES:SIMDATES:SIMPAGE-date_th0.25-doc_th0.5-loc_th0.35
2   rel3-1   limerick   14   0.108621895   nodesDOCUMENT:DATE:LOCATION-edgesREFERENCES:SIMDATES:SIMPAGE-date_th0.25-doc_th0.5-loc_th0.35
2   rel3-1   tyrconnel   15   0.09879347   nodesDOCUMENT:DATE:LOCATION-edgesREFERENCES:SIMDATES:SIMPAGE-date_th0.25-doc_th0.5-loc_th0.35
2   rel3-1   rome   16   0.09797848   nodesDOCUMENT:DATE:LOCATION-edgesREFERENCES:SIMDATES:SIMPAGE-date_th0.25-doc_th0.5-loc_th0.35
2   rel3-1   belgium   17   0.09797848   nodesDOCUMENT:DATE:LOCATION-edgesREFERENCES:SIMDATES:SIMPAGE-date_th0.25-doc_th0.5-loc_th0.35
2   rel3-1   netherlands   18   0.09797848   nodesDOCUMENT:DATE:LOCATION-edgesREFERENCES:SIMDATES:SIMPAGE-date_th0.25-doc_th0.5-loc_th0.35
2   rel3-1   germany   19   0.09797848   nodesDOCUMENT:DATE:LOCATION-edgesREFERENCES:SIMDATES:SIMPAGE-date_th0.25-doc_th0.5-loc_th0.35
2   rel3-1   india   20   0.09205926   nodesDOCUMENT:DATE:LOCATION-edgesREFERENCES:SIMDATES:SIMPAGE-date_th0.25-doc_th0.5-loc_th0.35

###################################
# top nodes: 

# 2   rel3-1   cu31924029563875_157   1   1.0   nodesDOCUMENT:DATE:LOCATION-edgesREFERENCES:SIMDATES:SIMPAGE-date_th0.25-doc_th0.5-loc_th0.35
# 2   rel3-1   ireland   2   1.0   nodesDOCUMENT:DATE:LOCATION-edgesREFERENCES:SIMDATES:SIMPAGE-date_th0.25-doc_th0.5-loc_th0.35
# 2   rel3-1   1641   3   1.0   nodesDOCUMENT:DATE:LOCATION-edgesREFERENCES:SIMDATES:SIMPAGE-date_th0.25-doc_th0.5-loc_th0.35
# 2   rel3-1   viceroysofirelan00omahuoft_97   4   1.0   nodesDOCUMENT:DATE:LOCATION-edgesREFERENCES:SIMDATES:SIMPAGE-date_th0.25-doc_th0.5-loc_th0.35
# 2   rel3-1   englandsfightwit00wals_354   5   1.0   nodesDOCUMENT:DATE:LOCATION-edgesREFERENCES:SIMDATES:SIMPAGE-date_th0.25-doc_th0.5-loc_th0.35
# 2   rel3-1   london   6   0.9619621   nodesDOCUMENT:DATE:LOCATION-edgesREFERENCES:SIMDATES:SIMPAGE-date_th0.25-doc_th0.5-loc_th0.35
# 2   rel3-1   england   7   0.7483106   nodesDOCUMENT:DATE:LOCATION-edgesREFERENCES:SIMDATES:SIMPAGE-date_th0.25-doc_th0.5-loc_th0.35
# 2   rel3-1   englandsfightwit00wals_355   8   0.68008155   nodesDOCUMENT:DATE:LOCATION-edgesREFERENCES:SIMDATES:SIMPAGE-date_th0.25-doc_th0.5-loc_th0.35
# 2   rel3-1   constitutionalhi03hall_415   9   0.67299247   nodesDOCUMENT:DATE:LOCATION-edgesREFERENCES:SIMDATES:SIMPAGE-date_th0.25-doc_th0.5-loc_th0.35
# 2   rel3-1   causeofirelandpl00orei_431   10   0.65208036   nodesDOCUMENT:DATE:LOCATION-edgesREFERENCES:SIMDATES:SIMPAGE-date_th0.25-doc_th0.5-loc_th0.35
# 2   rel3-1   viceroysofirelan00omahuoft_96   11   0.63442165   nodesDOCUMENT:DATE:LOCATION-edgesREFERENCES:SIMDATES:SIMPAGE-date_th0.25-doc_th0.5-loc_th0.35
# 2   rel3-1   historicalreview02plow_30   12   0.59899795   nodesDOCUMENT:DATE:LOCATION-edgesREFERENCES:SIMDATES:SIMPAGE-date_th0.25-doc_th0.5-loc_th0.35
# 2   rel3-1   olivercromwell00rossgoog_133   13   0.593303   nodesDOCUMENT:DATE:LOCATION-edgesREFERENCES:SIMDATES:SIMPAGE-date_th0.25-doc_th0.5-loc_th0.35
# 2   rel3-1   treatiseofexcheq02howa_414   14   0.5884338   nodesDOCUMENT:DATE:LOCATION-edgesREFERENCES:SIMDATES:SIMPAGE-date_th0.25-doc_th0.5-loc_th0.35
# 2   rel3-1   fastiecclesiaeh02cottgoog_21   15   0.5884338   nodesDOCUMENT:DATE:LOCATION-edgesREFERENCES:SIMDATES:SIMPAGE-date_th0.25-doc_th0.5-loc_th0.35
# 2   rel3-1   fastiecclesiaeh02cottgoog_19   16   0.5884338   nodesDOCUMENT:DATE:LOCATION-edgesREFERENCES:SIMDATES:SIMPAGE-date_th0.25-doc_th0.5-loc_th0.35
# 2   rel3-1   treatiseofexcheq02howa_131   17   0.5884338   nodesDOCUMENT:DATE:LOCATION-edgesREFERENCES:SIMDATES:SIMPAGE-date_th0.25-doc_th0.5-loc_th0.35
# 2   rel3-1   englishinireland03frou_308   18   0.5884338   nodesDOCUMENT:DATE:LOCATION-edgesREFERENCES:SIMDATES:SIMPAGE-date_th0.25-doc_th0.5-loc_th0.35
# 2   rel3-1   economichistoryo00obri_320   19   0.5884338   nodesDOCUMENT:DATE:LOCATION-edgesREFERENCES:SIMDATES:SIMPAGE-date_th0.25-doc_th0.5-loc_th0.35
# 2   rel3-1   calendarstatepa12offigoog_336   20   0.5884338   nodesDOCUMENT:DATE:LOCATION-edgesREFERENCES:SIMDATES:SIMPAGE-date_th0.25-doc_th0.5-loc_th0.35
# 2   rel3-1   historyirelanda00smilgoog_119   21   0.5785611   nodesDOCUMENT:DATE:LOCATION-edgesREFERENCES:SIMDATES:SIMPAGE-date_th0.25-doc_th0.5-loc_th0.35
# 2   rel3-1   constitutionalhi03hall_413   22   0.5711393   nodesDOCUMENT:DATE:LOCATION-edgesREFERENCES:SIMDATES:SIMPAGE-date_th0.25-doc_th0.5-loc_th0.35
# 2   rel3-1   causeofirelandpl00orei_432   23   0.5692939   nodesDOCUMENT:DATE:LOCATION-edgesREFERENCES:SIMDATES:SIMPAGE-date_th0.25-doc_th0.5-loc_th0.35
# 2   rel3-1   politicalstudies00broduoft_369   24   0.5666405   nodesDOCUMENT:DATE:LOCATION-edgesREFERENCES:SIMDATES:SIMPAGE-date_th0.25-doc_th0.5-loc_th0.35
# 2   rel3-1   causeofirelandpl00orei_292   25   0.56579196   nodesDOCUMENT:DATE:LOCATION-edgesREFERENCES:SIMDATES:SIMPAGE-date_th0.25-doc_th0.5-loc_th0.35
# 2   rel3-1   cu31924029563875_158   26   0.5628241   nodesDOCUMENT:DATE:LOCATION-edgesREFERENCES:SIMDATES:SIMPAGE-date_th0.25-doc_th0.5-loc_th0.35
# 2   rel3-1   cu31924091770861_320   27   0.56078666   nodesDOCUMENT:DATE:LOCATION-edgesREFERENCES:SIMDATES:SIMPAGE-date_th0.25-doc_th0.5-loc_th0.35
# 2   rel3-1   bibliothecagrenv03grenrich_30   28   0.56011885   nodesDOCUMENT:DATE:LOCATION-edgesREFERENCES:SIMDATES:SIMPAGE-date_th0.25-doc_th0.5-loc_th0.35
# 2   rel3-1   cu31924091770861_298   29   0.55873954   nodesDOCUMENT:DATE:LOCATION-edgesREFERENCES:SIMDATES:SIMPAGE-date_th0.25-doc_th0.5-loc_th0.35
# 2   rel3-1   historyofireland02daltuoft_409   30   0.5540048   nodesDOCUMENT:DATE:LOCATION-edgesREFERENCES:SIMDATES:SIMPAGE-date_th0.25-doc_th0.5-loc_th0.35
# 2   rel3-1   olivercromwell00rossgoog_134   31   0.5540048   nodesDOCUMENT:DATE:LOCATION-edgesREFERENCES:SIMDATES:SIMPAGE-date_th0.25-doc_th0.5-loc_th0.35
# 2   rel3-1   compendiumofhist02lawl_75   32   0.55396056   nodesDOCUMENT:DATE:LOCATION-edgesREFERENCES:SIMDATES:SIMPAGE-date_th0.25-doc_th0.5-loc_th0.35
# 2   rel3-1   dublin   33   0.53996646   nodesDOCUMENT:DATE:LOCATION-edgesREFERENCES:SIMDATES:SIMPAGE-date_th0.25-doc_th0.5-loc_th0.35
# 2   rel3-1   irishtangleandwa1920john_53   34   0.53904253   nodesDOCUMENT:DATE:LOCATION-edgesREFERENCES:SIMDATES:SIMPAGE-date_th0.25-doc_th0.5-loc_th0.35
# 2   rel3-1   castlesofireland00adamiala_301   35   0.53904253   nodesDOCUMENT:DATE:LOCATION-edgesREFERENCES:SIMDATES:SIMPAGE-date_th0.25-doc_th0.5-loc_th0.35
# 2   rel3-1   historyofdiocese02healiala_23   36   0.53904253   nodesDOCUMENT:DATE:LOCATION-edgesREFERENCES:SIMDATES:SIMPAGE-date_th0.25-doc_th0.5-loc_th0.35
# 2   rel3-1   cu31924091786628_78   37   0.53904253   nodesDOCUMENT:DATE:LOCATION-edgesREFERENCES:SIMDATES:SIMPAGE-date_th0.25-doc_th0.5-loc_th0.35
# 2   rel3-1   englishinireland03frou_309   38   0.53904253   nodesDOCUMENT:DATE:LOCATION-edgesREFERENCES:SIMDATES:SIMPAGE-date_th0.25-doc_th0.5-loc_th0.35
# 2   rel3-1   cu31924091770861_286   39   0.53904253   nodesDOCUMENT:DATE:LOCATION-edgesREFERENCES:SIMDATES:SIMPAGE-date_th0.25-doc_th0.5-loc_th0.35
# 2   rel3-1   englishinireland03frou_118   40   0.53904253   nodesDOCUMENT:DATE:LOCATION-edgesREFERENCES:SIMDATES:SIMPAGE-date_th0.25-doc_th0.5-loc_th0.35
