###################################
# parameters: 
#   date_th: 0.25
#   doc_th: 0.7
#   loc_th: 0.35
#   nodestouse: DOCUMENT:DATE:LOCATION
#   relationships: REFERENCES:SIMDATES:SIMPAGE

###################################
# configuration: 
#   sa.act_diff_ratio_limit = 0.01
#   sa.act_diff_ratio_limit_diff = 0.01
#   sa.function = ciir.multi.sa.function.MaxSAFunction(norm_function)
#   sa.id_property_name.DATE = dateID
#   sa.id_property_name.DOCUMENT = docID
#   sa.id_property_name.LOCATION = locID
#   sa.max_pulses = 10
#   sa.nodes_to_print = DATE:LOCATION
#   sa.nodes_to_use = DOCUMENT:DATE:LOCATION
#   sa.norm_function = ciir.multi.sa.SigmoidFunction(0.0, 1.0)
#   sa.relationships_to_use = REFERENCES:SIMDATES:SIMPAGE
#   sa.spread_threshold.DATE = 0.25
#   sa.spread_threshold.DOCUMENT = 0.7
#   sa.spread_threshold.LOCATION = 0.35
#   sa.weight_property.REFERENCES = relevance
#   sa.weight_property.SIMDATES = sim
#   sa.weight_property.SIMDOC = sim
#   sa.weight_property.SIMLOC = sim
#   sa.weight_property.SIMPAGE = pagesim

###################################
# initial activations (3): 
#   englandsfightwit00wals_354, 1
#   cu31924029563875_157, 1
#   viceroysofirelan00omahuoft_97, 1

###################################
# spreading activation process log: 
#   pulse 0: activated: 3, non-zero: 3, borderline: 3, overall act: 3.000, act diff: 3.000, ratio: 1.000
#   pulse 1: activated: 27, non-zero: 27, borderline: 24, overall act: 9.762, act diff: 6.762, ratio: 0.693
#   pulse 2: activated: 819367, non-zero: 819367, borderline: 819361, overall act: 104639.510, act diff: 104629.748, ratio: 1.000
#   pulse 3: activated: 819367, non-zero: 819367, borderline: 819361, overall act: 104639.510, act diff: 0.000, ratio: 0.000

###################################
# spreading activation process summary: 
#   final number of activated nodes: 819367
#   final overall activation: 104639.5
#   number of spread. activ. pulses: 3
#   running time: 116447

###################################
# top k results in TREC format: 

2   rel3-1   ireland   1   0.8114913   nodesDOCUMENT:DATE:LOCATION-edgesREFERENCES:SIMDATES:SIMPAGE-date_th0.25-doc_th0.7-loc_th0.35
2   rel3-1   london   2   0.36032423   nodesDOCUMENT:DATE:LOCATION-edgesREFERENCES:SIMDATES:SIMPAGE-date_th0.25-doc_th0.7-loc_th0.35
2   rel3-1   dublin   3   0.3125406   nodesDOCUMENT:DATE:LOCATION-edgesREFERENCES:SIMDATES:SIMPAGE-date_th0.25-doc_th0.7-loc_th0.35
2   rel3-1   england   4   0.23413575   nodesDOCUMENT:DATE:LOCATION-edgesREFERENCES:SIMDATES:SIMPAGE-date_th0.25-doc_th0.7-loc_th0.35
2   rel3-1   strafford   5   0.23413575   nodesDOCUMENT:DATE:LOCATION-edgesREFERENCES:SIMDATES:SIMPAGE-date_th0.25-doc_th0.7-loc_th0.35
2   rel3-1   town   6   0.108621895   nodesDOCUMENT:DATE:LOCATION-edgesREFERENCES:SIMDATES:SIMPAGE-date_th0.25-doc_th0.7-loc_th0.35
2   rel3-1   europe   7   0.108621895   nodesDOCUMENT:DATE:LOCATION-edgesREFERENCES:SIMDATES:SIMPAGE-date_th0.25-doc_th0.7-loc_th0.35
2   rel3-1   shoreditch   8   0.108621895   nodesDOCUMENT:DATE:LOCATION-edgesREFERENCES:SIMDATES:SIMPAGE-date_th0.25-doc_th0.7-loc_th0.35
2   rel3-1   peacock   9   0.108621895   nodesDOCUMENT:DATE:LOCATION-edgesREFERENCES:SIMDATES:SIMPAGE-date_th0.25-doc_th0.7-loc_th0.35
2   rel3-1   limerick   10   0.108621895   nodesDOCUMENT:DATE:LOCATION-edgesREFERENCES:SIMDATES:SIMPAGE-date_th0.25-doc_th0.7-loc_th0.35
2   rel3-1   city   11   0.108621895   nodesDOCUMENT:DATE:LOCATION-edgesREFERENCES:SIMDATES:SIMPAGE-date_th0.25-doc_th0.7-loc_th0.35

###################################
# top nodes: 

# 2   rel3-1   cu31924029563875_157   1   1.0   nodesDOCUMENT:DATE:LOCATION-edgesREFERENCES:SIMDATES:SIMPAGE-date_th0.25-doc_th0.7-loc_th0.35
# 2   rel3-1   viceroysofirelan00omahuoft_97   2   1.0   nodesDOCUMENT:DATE:LOCATION-edgesREFERENCES:SIMDATES:SIMPAGE-date_th0.25-doc_th0.7-loc_th0.35
# 2   rel3-1   englandsfightwit00wals_354   3   1.0   nodesDOCUMENT:DATE:LOCATION-edgesREFERENCES:SIMDATES:SIMPAGE-date_th0.25-doc_th0.7-loc_th0.35
# 2   rel3-1   ireland   4   0.8114913   nodesDOCUMENT:DATE:LOCATION-edgesREFERENCES:SIMDATES:SIMPAGE-date_th0.25-doc_th0.7-loc_th0.35
# 2   rel3-1   englandsfightwit00wals_355   5   0.68008155   nodesDOCUMENT:DATE:LOCATION-edgesREFERENCES:SIMDATES:SIMPAGE-date_th0.25-doc_th0.7-loc_th0.35
# 2   rel3-1   viceroysofirelan00omahuoft_96   6   0.63442165   nodesDOCUMENT:DATE:LOCATION-edgesREFERENCES:SIMDATES:SIMPAGE-date_th0.25-doc_th0.7-loc_th0.35
# 2   rel3-1   causeofirelandpl00orei_432   7   0.5692939   nodesDOCUMENT:DATE:LOCATION-edgesREFERENCES:SIMDATES:SIMPAGE-date_th0.25-doc_th0.7-loc_th0.35
# 2   rel3-1   cu31924029563875_158   8   0.5628241   nodesDOCUMENT:DATE:LOCATION-edgesREFERENCES:SIMDATES:SIMPAGE-date_th0.25-doc_th0.7-loc_th0.35
# 2   rel3-1   historyofireland02daltuoft_409   9   0.5540048   nodesDOCUMENT:DATE:LOCATION-edgesREFERENCES:SIMDATES:SIMPAGE-date_th0.25-doc_th0.7-loc_th0.35
# 2   rel3-1   olivercromwell00rossgoog_134   10   0.5540048   nodesDOCUMENT:DATE:LOCATION-edgesREFERENCES:SIMDATES:SIMPAGE-date_th0.25-doc_th0.7-loc_th0.35
# 2   rel3-1   cu31924091770861_286   11   0.53904253   nodesDOCUMENT:DATE:LOCATION-edgesREFERENCES:SIMDATES:SIMPAGE-date_th0.25-doc_th0.7-loc_th0.35
# 2   rel3-1   historyofdiocese02healiala_23   12   0.53904253   nodesDOCUMENT:DATE:LOCATION-edgesREFERENCES:SIMDATES:SIMPAGE-date_th0.25-doc_th0.7-loc_th0.35
# 2   rel3-1   castlesofireland00adamiala_301   13   0.53904253   nodesDOCUMENT:DATE:LOCATION-edgesREFERENCES:SIMDATES:SIMPAGE-date_th0.25-doc_th0.7-loc_th0.35
# 2   rel3-1   confederationofk00meeh_10   14   0.53904253   nodesDOCUMENT:DATE:LOCATION-edgesREFERENCES:SIMDATES:SIMPAGE-date_th0.25-doc_th0.7-loc_th0.35
# 2   rel3-1   englishinireland03frou_309   15   0.53904253   nodesDOCUMENT:DATE:LOCATION-edgesREFERENCES:SIMDATES:SIMPAGE-date_th0.25-doc_th0.7-loc_th0.35
# 2   rel3-1   englishinireland03frou_118   16   0.53904253   nodesDOCUMENT:DATE:LOCATION-edgesREFERENCES:SIMDATES:SIMPAGE-date_th0.25-doc_th0.7-loc_th0.35
# 2   rel3-1   economichistoryo00obri_321   17   0.53904253   nodesDOCUMENT:DATE:LOCATION-edgesREFERENCES:SIMDATES:SIMPAGE-date_th0.25-doc_th0.7-loc_th0.35
# 2   rel3-1   fastiecclesiaeh02cottgoog_20   18   0.53904253   nodesDOCUMENT:DATE:LOCATION-edgesREFERENCES:SIMDATES:SIMPAGE-date_th0.25-doc_th0.7-loc_th0.35
# 2   rel3-1   treatiseofexcheq02howa_413   19   0.53904253   nodesDOCUMENT:DATE:LOCATION-edgesREFERENCES:SIMDATES:SIMPAGE-date_th0.25-doc_th0.7-loc_th0.35
# 2   rel3-1   historyofireland3_00will_307   20   0.53904253   nodesDOCUMENT:DATE:LOCATION-edgesREFERENCES:SIMDATES:SIMPAGE-date_th0.25-doc_th0.7-loc_th0.35
# 2   rel3-1   treatiseofexcheq02howa_411   21   0.53904253   nodesDOCUMENT:DATE:LOCATION-edgesREFERENCES:SIMDATES:SIMPAGE-date_th0.25-doc_th0.7-loc_th0.35
# 2   rel3-1   historymoderneu11russgoog_386   22   0.53904253   nodesDOCUMENT:DATE:LOCATION-edgesREFERENCES:SIMDATES:SIMPAGE-date_th0.25-doc_th0.7-loc_th0.35
# 2   rel3-1   constitutionalhi03hall_414   23   0.53904253   nodesDOCUMENT:DATE:LOCATION-edgesREFERENCES:SIMDATES:SIMPAGE-date_th0.25-doc_th0.7-loc_th0.35
# 2   rel3-1   treatiseofexcheq02howa_130   24   0.53904253   nodesDOCUMENT:DATE:LOCATION-edgesREFERENCES:SIMDATES:SIMPAGE-date_th0.25-doc_th0.7-loc_th0.35
# 2   rel3-1   statechurcheskin00allerich_587   25   0.53904253   nodesDOCUMENT:DATE:LOCATION-edgesREFERENCES:SIMDATES:SIMPAGE-date_th0.25-doc_th0.7-loc_th0.35
# 2   rel3-1   memoirsandcorre02castgoog_42   26   0.53904253   nodesDOCUMENT:DATE:LOCATION-edgesREFERENCES:SIMDATES:SIMPAGE-date_th0.25-doc_th0.7-loc_th0.35
# 2   rel3-1   proceedingsofro22roya_307   27   0.53904253   nodesDOCUMENT:DATE:LOCATION-edgesREFERENCES:SIMDATES:SIMPAGE-date_th0.25-doc_th0.7-loc_th0.35
# 2   rel3-1   compendiumofhist02lawl_76   28   0.53904253   nodesDOCUMENT:DATE:LOCATION-edgesREFERENCES:SIMDATES:SIMPAGE-date_th0.25-doc_th0.7-loc_th0.35
# 2   rel3-1   causeofirelandpl00orei_345   29   0.53904253   nodesDOCUMENT:DATE:LOCATION-edgesREFERENCES:SIMDATES:SIMPAGE-date_th0.25-doc_th0.7-loc_th0.35
# 2   rel3-1   causeofirelandpl00orei_291   30   0.53904253   nodesDOCUMENT:DATE:LOCATION-edgesREFERENCES:SIMDATES:SIMPAGE-date_th0.25-doc_th0.7-loc_th0.35
# 2   rel3-1   treatiseofexcheq02howa_421   31   0.53904253   nodesDOCUMENT:DATE:LOCATION-edgesREFERENCES:SIMDATES:SIMPAGE-date_th0.25-doc_th0.7-loc_th0.35
# 2   rel3-1   irishtangleandwa1920john_53   32   0.53904253   nodesDOCUMENT:DATE:LOCATION-edgesREFERENCES:SIMDATES:SIMPAGE-date_th0.25-doc_th0.7-loc_th0.35
# 2   rel3-1   revolutionaryir00mahagoog_100   33   0.53904253   nodesDOCUMENT:DATE:LOCATION-edgesREFERENCES:SIMDATES:SIMPAGE-date_th0.25-doc_th0.7-loc_th0.35
# 2   rel3-1   cu31924091770861_319   34   0.53904253   nodesDOCUMENT:DATE:LOCATION-edgesREFERENCES:SIMDATES:SIMPAGE-date_th0.25-doc_th0.7-loc_th0.35
# 2   rel3-1   cu31924091786628_78   35   0.53904253   nodesDOCUMENT:DATE:LOCATION-edgesREFERENCES:SIMDATES:SIMPAGE-date_th0.25-doc_th0.7-loc_th0.35
# 2   rel3-1   calendarstatepa12offigoog_335   36   0.53904253   nodesDOCUMENT:DATE:LOCATION-edgesREFERENCES:SIMDATES:SIMPAGE-date_th0.25-doc_th0.7-loc_th0.35
# 2   rel3-1   politicalstudies00broduoft_370   37   0.52573967   nodesDOCUMENT:DATE:LOCATION-edgesREFERENCES:SIMDATES:SIMPAGE-date_th0.25-doc_th0.7-loc_th0.35
# 2   rel3-1   politicalstudies00broduoft_382   38   0.52029926   nodesDOCUMENT:DATE:LOCATION-edgesREFERENCES:SIMDATES:SIMPAGE-date_th0.25-doc_th0.7-loc_th0.35
# 2   rel3-1   calendarstatepa12offigoog_475   39   0.51620394   nodesDOCUMENT:DATE:LOCATION-edgesREFERENCES:SIMDATES:SIMPAGE-date_th0.25-doc_th0.7-loc_th0.35
# 2   rel3-1   bibliothecagrenv03grenrich_31   40   0.51484394   nodesDOCUMENT:DATE:LOCATION-edgesREFERENCES:SIMDATES:SIMPAGE-date_th0.25-doc_th0.7-loc_th0.35
