###################################
# parameters: 
#   date_th: 0.3
#   doc_th: 0.6
#   loc_th: 0.35
#   nodestouse: DOCUMENT:DATE:LOCATION
#   relationships: REFERENCES:SIMDATES:SIMPAGE

###################################
# configuration: 
#   sa.act_diff_ratio_limit = 0.01
#   sa.act_diff_ratio_limit_diff = 0.01
#   sa.function = ciir.multi.sa.function.MaxSAFunction(norm_function)
#   sa.id_property_name.DATE = dateID
#   sa.id_property_name.DOCUMENT = docID
#   sa.id_property_name.LOCATION = locID
#   sa.max_pulses = 10
#   sa.nodes_to_print = DATE:LOCATION
#   sa.nodes_to_use = DOCUMENT:DATE:LOCATION
#   sa.norm_function = ciir.multi.sa.SigmoidFunction(0.0, 1.0)
#   sa.relationships_to_use = REFERENCES:SIMDATES:SIMPAGE
#   sa.spread_threshold.DATE = 0.3
#   sa.spread_threshold.DOCUMENT = 0.6
#   sa.spread_threshold.LOCATION = 0.35
#   sa.weight_property.REFERENCES = relevance
#   sa.weight_property.SIMDATES = sim
#   sa.weight_property.SIMDOC = sim
#   sa.weight_property.SIMLOC = sim
#   sa.weight_property.SIMPAGE = pagesim

###################################
# initial activations (4): 
#   englandsfightwit00wals_354, 1
#   cu31924029563875_157, 1
#   viceroysofirelan00omahuoft_97, 1
#   hallamsworks04halliala_600, 1

###################################
# spreading activation process log: 
#   pulse 0: activated: 4, non-zero: 4, borderline: 4, overall act: 4.000, act diff: 4.000, ratio: 1.000
#   pulse 1: activated: 31, non-zero: 31, borderline: 27, overall act: 12.716, act diff: 8.716, ratio: 0.685
#   pulse 2: activated: 1512025, non-zero: 1512025, borderline: 1512015, overall act: 213051.035, act diff: 213038.319, ratio: 1.000
#   pulse 3: activated: 1518503, non-zero: 1518503, borderline: 1518354, overall act: 214094.680, act diff: 1043.644, ratio: 0.005

###################################
# spreading activation process summary: 
#   final number of activated nodes: 1518503
#   final overall activation: 214094.7
#   number of spread. activ. pulses: 3
#   running time: 328906

###################################
# top k results in TREC format: 

2   rel4-1   ireland   1   1.0   nodesDOCUMENT:DATE:LOCATION-edgesREFERENCES:SIMDATES:SIMPAGE-date_th0.3-doc_th0.6-loc_th0.35
2   rel4-1   england   2   1.0   nodesDOCUMENT:DATE:LOCATION-edgesREFERENCES:SIMDATES:SIMPAGE-date_th0.3-doc_th0.6-loc_th0.35
2   rel4-1   dublin   3   0.9999994   nodesDOCUMENT:DATE:LOCATION-edgesREFERENCES:SIMDATES:SIMPAGE-date_th0.3-doc_th0.6-loc_th0.35
2   rel4-1   london   4   0.99889284   nodesDOCUMENT:DATE:LOCATION-edgesREFERENCES:SIMDATES:SIMPAGE-date_th0.3-doc_th0.6-loc_th0.35
2   rel4-1   strafford   5   0.82931924   nodesDOCUMENT:DATE:LOCATION-edgesREFERENCES:SIMDATES:SIMPAGE-date_th0.3-doc_th0.6-loc_th0.35
2   rel4-1   scotland   6   0.71763396   nodesDOCUMENT:DATE:LOCATION-edgesREFERENCES:SIMDATES:SIMPAGE-date_th0.3-doc_th0.6-loc_th0.35
2   rel4-1   limerick   7   0.58194804   nodesDOCUMENT:DATE:LOCATION-edgesREFERENCES:SIMDATES:SIMPAGE-date_th0.3-doc_th0.6-loc_th0.35
2   rel4-1   munster   8   0.42149752   nodesDOCUMENT:DATE:LOCATION-edgesREFERENCES:SIMDATES:SIMPAGE-date_th0.3-doc_th0.6-loc_th0.35
2   rel4-1   fairfax   9   0.41709816   nodesDOCUMENT:DATE:LOCATION-edgesREFERENCES:SIMDATES:SIMPAGE-date_th0.3-doc_th0.6-loc_th0.35
2   rel4-1   londonderry   10   0.41660264   nodesDOCUMENT:DATE:LOCATION-edgesREFERENCES:SIMDATES:SIMPAGE-date_th0.3-doc_th0.6-loc_th0.35
2   rel4-1   drogheda   11   0.40592065   nodesDOCUMENT:DATE:LOCATION-edgesREFERENCES:SIMDATES:SIMPAGE-date_th0.3-doc_th0.6-loc_th0.35
2   rel4-1   spain   12   0.40462184   nodesDOCUMENT:DATE:LOCATION-edgesREFERENCES:SIMDATES:SIMPAGE-date_th0.3-doc_th0.6-loc_th0.35
2   rel4-1   kingdom   13   0.37160468   nodesDOCUMENT:DATE:LOCATION-edgesREFERENCES:SIMDATES:SIMPAGE-date_th0.3-doc_th0.6-loc_th0.35
2   rel4-1   derry   14   0.34777528   nodesDOCUMENT:DATE:LOCATION-edgesREFERENCES:SIMDATES:SIMPAGE-date_th0.3-doc_th0.6-loc_th0.35
2   rel4-1   dublin castle   15   0.3311887   nodesDOCUMENT:DATE:LOCATION-edgesREFERENCES:SIMDATES:SIMPAGE-date_th0.3-doc_th0.6-loc_th0.35
2   rel4-1   connaught   16   0.30306274   nodesDOCUMENT:DATE:LOCATION-edgesREFERENCES:SIMDATES:SIMPAGE-date_th0.3-doc_th0.6-loc_th0.35
2   rel4-1   city   17   0.2577635   nodesDOCUMENT:DATE:LOCATION-edgesREFERENCES:SIMDATES:SIMPAGE-date_th0.3-doc_th0.6-loc_th0.35
2   rel4-1   france   18   0.2577474   nodesDOCUMENT:DATE:LOCATION-edgesREFERENCES:SIMDATES:SIMPAGE-date_th0.3-doc_th0.6-loc_th0.35
2   rel4-1   bristol   19   0.25580874   nodesDOCUMENT:DATE:LOCATION-edgesREFERENCES:SIMDATES:SIMPAGE-date_th0.3-doc_th0.6-loc_th0.35
2   rel4-1   clarendon   20   0.22886816   nodesDOCUMENT:DATE:LOCATION-edgesREFERENCES:SIMDATES:SIMPAGE-date_th0.3-doc_th0.6-loc_th0.35

###################################
# top nodes: 

# 2   rel4-1   cu31924029563875_157   1   1.0   nodesDOCUMENT:DATE:LOCATION-edgesREFERENCES:SIMDATES:SIMPAGE-date_th0.3-doc_th0.6-loc_th0.35
# 2   rel4-1   hallamsworks04halliala_600   2   1.0   nodesDOCUMENT:DATE:LOCATION-edgesREFERENCES:SIMDATES:SIMPAGE-date_th0.3-doc_th0.6-loc_th0.35
# 2   rel4-1   viceroysofirelan00omahuoft_97   3   1.0   nodesDOCUMENT:DATE:LOCATION-edgesREFERENCES:SIMDATES:SIMPAGE-date_th0.3-doc_th0.6-loc_th0.35
# 2   rel4-1   england   4   1.0   nodesDOCUMENT:DATE:LOCATION-edgesREFERENCES:SIMDATES:SIMPAGE-date_th0.3-doc_th0.6-loc_th0.35
# 2   rel4-1   ireland   5   1.0   nodesDOCUMENT:DATE:LOCATION-edgesREFERENCES:SIMDATES:SIMPAGE-date_th0.3-doc_th0.6-loc_th0.35
# 2   rel4-1   1641   6   1.0   nodesDOCUMENT:DATE:LOCATION-edgesREFERENCES:SIMDATES:SIMPAGE-date_th0.3-doc_th0.6-loc_th0.35
# 2   rel4-1   englandsfightwit00wals_354   7   1.0   nodesDOCUMENT:DATE:LOCATION-edgesREFERENCES:SIMDATES:SIMPAGE-date_th0.3-doc_th0.6-loc_th0.35
# 2   rel4-1   dublin   8   0.9999994   nodesDOCUMENT:DATE:LOCATION-edgesREFERENCES:SIMDATES:SIMPAGE-date_th0.3-doc_th0.6-loc_th0.35
# 2   rel4-1   london   9   0.99889284   nodesDOCUMENT:DATE:LOCATION-edgesREFERENCES:SIMDATES:SIMPAGE-date_th0.3-doc_th0.6-loc_th0.35
# 2   rel4-1   strafford   10   0.82931924   nodesDOCUMENT:DATE:LOCATION-edgesREFERENCES:SIMDATES:SIMPAGE-date_th0.3-doc_th0.6-loc_th0.35
# 2   rel4-1   causeofirelandpl00orei_431   11   0.8112878   nodesDOCUMENT:DATE:LOCATION-edgesREFERENCES:SIMDATES:SIMPAGE-date_th0.3-doc_th0.6-loc_th0.35
# 2   rel4-1   constitutionalhi03hall_415   12   0.81100243   nodesDOCUMENT:DATE:LOCATION-edgesREFERENCES:SIMDATES:SIMPAGE-date_th0.3-doc_th0.6-loc_th0.35
# 2   rel4-1   causeofirelandpl00orei_432   13   0.809218   nodesDOCUMENT:DATE:LOCATION-edgesREFERENCES:SIMDATES:SIMPAGE-date_th0.3-doc_th0.6-loc_th0.35
# 2   rel4-1   historyforreadyr03larnuoft_236   14   0.8086368   nodesDOCUMENT:DATE:LOCATION-edgesREFERENCES:SIMDATES:SIMPAGE-date_th0.3-doc_th0.6-loc_th0.35
# 2   rel4-1   historyforreadyr03larnuoft_235   15   0.7964654   nodesDOCUMENT:DATE:LOCATION-edgesREFERENCES:SIMDATES:SIMPAGE-date_th0.3-doc_th0.6-loc_th0.35
# 2   rel4-1   constitutionalhi03hall_414   16   0.7961591   nodesDOCUMENT:DATE:LOCATION-edgesREFERENCES:SIMDATES:SIMPAGE-date_th0.3-doc_th0.6-loc_th0.35
# 2   rel4-1   revolutionaryir00mahagoog_99   17   0.75741476   nodesDOCUMENT:DATE:LOCATION-edgesREFERENCES:SIMDATES:SIMPAGE-date_th0.3-doc_th0.6-loc_th0.35
# 2   rel4-1   hallamsworks04halliala_613   18   0.7562776   nodesDOCUMENT:DATE:LOCATION-edgesREFERENCES:SIMDATES:SIMPAGE-date_th0.3-doc_th0.6-loc_th0.35
# 2   rel4-1   hallamsworks04halliala_601   19   0.7512844   nodesDOCUMENT:DATE:LOCATION-edgesREFERENCES:SIMDATES:SIMPAGE-date_th0.3-doc_th0.6-loc_th0.35
# 2   rel4-1   viceroysofirelan00omahuoft_96   20   0.743369   nodesDOCUMENT:DATE:LOCATION-edgesREFERENCES:SIMDATES:SIMPAGE-date_th0.3-doc_th0.6-loc_th0.35
# 2   rel4-1   hallamsworks04halliala_602   21   0.73656374   nodesDOCUMENT:DATE:LOCATION-edgesREFERENCES:SIMDATES:SIMPAGE-date_th0.3-doc_th0.6-loc_th0.35
# 2   rel4-1   publications13irisuoft_17   22   0.73535556   nodesDOCUMENT:DATE:LOCATION-edgesREFERENCES:SIMDATES:SIMPAGE-date_th0.3-doc_th0.6-loc_th0.35
# 2   rel4-1   politicalstudies00broduoft_381   23   0.730032   nodesDOCUMENT:DATE:LOCATION-edgesREFERENCES:SIMDATES:SIMPAGE-date_th0.3-doc_th0.6-loc_th0.35
# 2   rel4-1   calendarstatepa12offigoog_636   24   0.72835165   nodesDOCUMENT:DATE:LOCATION-edgesREFERENCES:SIMDATES:SIMPAGE-date_th0.3-doc_th0.6-loc_th0.35
# 2   rel4-1   scotland   25   0.71763396   nodesDOCUMENT:DATE:LOCATION-edgesREFERENCES:SIMDATES:SIMPAGE-date_th0.3-doc_th0.6-loc_th0.35
# 2   rel4-1   historyirishper01maddgoog_68   26   0.707184   nodesDOCUMENT:DATE:LOCATION-edgesREFERENCES:SIMDATES:SIMPAGE-date_th0.3-doc_th0.6-loc_th0.35
# 2   rel4-1   causeofirelandpl00orei_25   27   0.7043432   nodesDOCUMENT:DATE:LOCATION-edgesREFERENCES:SIMDATES:SIMPAGE-date_th0.3-doc_th0.6-loc_th0.35
# 2   rel4-1   completehistoryo0306kenn_435   28   0.7036122   nodesDOCUMENT:DATE:LOCATION-edgesREFERENCES:SIMDATES:SIMPAGE-date_th0.3-doc_th0.6-loc_th0.35
# 2   rel4-1   selectspeecheswi00cannuoft_357   29   0.70238817   nodesDOCUMENT:DATE:LOCATION-edgesREFERENCES:SIMDATES:SIMPAGE-date_th0.3-doc_th0.6-loc_th0.35
# 2   rel4-1   cu31924091770861_287   30   0.6990484   nodesDOCUMENT:DATE:LOCATION-edgesREFERENCES:SIMDATES:SIMPAGE-date_th0.3-doc_th0.6-loc_th0.35
# 2   rel4-1   causeofirelandpl00orei_430   31   0.6961846   nodesDOCUMENT:DATE:LOCATION-edgesREFERENCES:SIMDATES:SIMPAGE-date_th0.3-doc_th0.6-loc_th0.35
# 2   rel4-1   englandsfightwit00wals_355   32   0.69500595   nodesDOCUMENT:DATE:LOCATION-edgesREFERENCES:SIMDATES:SIMPAGE-date_th0.3-doc_th0.6-loc_th0.35
# 2   rel4-1   historyforreadyr03larnuoft_237   33   0.69444615   nodesDOCUMENT:DATE:LOCATION-edgesREFERENCES:SIMDATES:SIMPAGE-date_th0.3-doc_th0.6-loc_th0.35
# 2   rel4-1   bibliothecagrenv03grenrich_30   34   0.6931493   nodesDOCUMENT:DATE:LOCATION-edgesREFERENCES:SIMDATES:SIMPAGE-date_th0.3-doc_th0.6-loc_th0.35
# 2   rel4-1   causeofirelandpl00orei_23   35   0.6917561   nodesDOCUMENT:DATE:LOCATION-edgesREFERENCES:SIMDATES:SIMPAGE-date_th0.3-doc_th0.6-loc_th0.35
# 2   rel4-1   studentshistoryo03garduoft_42   36   0.6908953   nodesDOCUMENT:DATE:LOCATION-edgesREFERENCES:SIMDATES:SIMPAGE-date_th0.3-doc_th0.6-loc_th0.35
# 2   rel4-1   historyengland00macagoog_518   37   0.68964297   nodesDOCUMENT:DATE:LOCATION-edgesREFERENCES:SIMDATES:SIMPAGE-date_th0.3-doc_th0.6-loc_th0.35
# 2   rel4-1   hallamsworks04halliala_599   38   0.6863355   nodesDOCUMENT:DATE:LOCATION-edgesREFERENCES:SIMDATES:SIMPAGE-date_th0.3-doc_th0.6-loc_th0.35
# 2   rel4-1   causeofirelandpl00orei_292   39   0.686227   nodesDOCUMENT:DATE:LOCATION-edgesREFERENCES:SIMDATES:SIMPAGE-date_th0.3-doc_th0.6-loc_th0.35
# 2   rel4-1   harleianmiscell00oldygoog_332   40   0.68371445   nodesDOCUMENT:DATE:LOCATION-edgesREFERENCES:SIMDATES:SIMPAGE-date_th0.3-doc_th0.6-loc_th0.35
