1 Q0 graduateschoolof9192bran_51 1 -5.97437470 galago
1 Q0 encyclopediaame28unkngoog_326 2 -5.98608456 galago
1 Q0 youngmidshipman00morrgoog_88 3 -6.01842007 galago
1 Q0 historyofuniteds07good_239 4 -6.13291293 galago
1 Q0 generalhistoryfo00myerrich_787 5 -6.13343840 galago
1 Q0 shorthistoryofmo00haslrich_98 6 -6.13365454 galago
1 Q0 lifeofstratfordc02laneuoft_185 7 -6.15037452 galago
1 Q0 englishcyclopae05kniggoog_40 8 -6.16988160 galago
1 Q0 selwynhouseschoo1940selw_21 9 -6.17550080 galago
1 Q0 cambridgemodern09protgoog_449 10 -6.19778948 galago
1 Q0 ouroldworldbackg00bearrich_13 11 -6.21561708 galago
1 Q0 timetable1974752univ_231 12 -6.21670615 galago
1 Q0 essentialsinmod01howegoog_452 13 -6.22996801 galago
1 Q0 millsapscollegec1996mill_75 14 -6.23188243 galago
1 Q0 frenchschoolsth02instgoog_149 15 -6.23222051 galago
1 Q0 europesincenapol00leveuoft_193 16 -6.24013555 galago
1 Q0 cu31924030898922_52 17 -6.24054290 galago
1 Q0 politicalsketche00retsrich_92 18 -6.24344728 galago
1 Q0 bostoncollegebul0405bost_132 19 -6.25127157 galago
1 Q0 miningcampsstudy00shin_121 20 -6.26569662 galago
1 Q0 bookman44unkngoog_855 21 -6.28731617 galago
1 Q0 neweasterneurop00butlgoog_162 22 -6.29730444 galago
1 Q0 essentialsinmod01howegoog_259 23 -6.32790606 galago
1 Q0 englishcyclopae05kniggoog_41 24 -6.32986152 galago
1 Q0 youngmidshipman00morrgoog_87 25 -6.33150500 galago
1 Q0 bostoncollegebul0405bost_129 26 -6.33921181 galago
1 Q0 lifeofstratfordc02laneuoft_191 27 -6.34358659 galago
1 Q0 essentialsinmod01howegoog_143 28 -6.36462709 galago
1 Q0 encyclopediaame28unkngoog_321 29 -6.38183625 galago
1 Q0 essentialsinmod01howegoog_388 30 -6.40225962 galago
1 Q0 lifeofstratfordc02laneuoft_193 31 -6.42563252 galago
1 Q0 shorthistoryofmo00haslrich_264 32 -6.42744044 galago
1 Q0 essentialsinmod01howegoog_142 33 -6.46183717 galago
1 Q0 graduateschoolof9192bran_117 34 -6.47270417 galago
1 Q0 europesincenapol00leveuoft_344 35 -6.47934586 galago
1 Q0 europesincenapol00leveuoft_57 36 -6.50463028 galago
1 Q0 essentialsinmod01howegoog_450 37 -6.51745240 galago
1 Q0 essentialsinmod01howegoog_12 38 -6.51898625 galago
1 Q0 politicalsketche00retsrich_96 39 -6.52140857 galago
1 Q0 millsapscollegec1996mill_74 40 -6.52394629 galago
1 Q0 timetable1974752univ_232 41 -6.53170690 galago
1 Q0 ouroldworldbackg00bearrich_276 42 -6.53831642 galago
1 Q0 essentialsinmod01howegoog_208 43 -6.55363736 galago
1 Q0 youngmidshipman00morrgoog_89 44 -6.56179981 galago
1 Q0 neweasterneurop00butlgoog_55 45 -6.57176977 galago
1 Q0 graduateschoolof9192bran_99 46 -6.57192743 galago
1 Q0 essentialsinmod01howegoog_11 47 -6.57220036 galago
1 Q0 essentialsinmod01howegoog_244 48 -6.58608924 galago
1 Q0 bostoncollegebul0405bost_133 49 -6.58740141 galago
1 Q0 lifeofstratfordc02laneuoft_15 50 -6.58913721 galago
1 Q0 essentialsinmod01howegoog_140 51 -6.58992609 galago
1 Q0 shorthistoryofmo00haslrich_29 52 -6.59054923 galago
1 Q0 essentialsinmod01howegoog_45 53 -6.59144250 galago
1 Q0 essentialsinmod01howegoog_166 54 -6.59318189 galago
1 Q0 shorthistoryofmo00haslrich_153 55 -6.59333502 galago
1 Q0 graduateschoolof9192bran_69 56 -6.59397742 galago
1 Q0 essentialsinmod01howegoog_170 57 -6.59612775 galago
1 Q0 essentialsinmod01howegoog_110 58 -6.59813661 galago
1 Q0 graduateschoolof9192bran_79 59 -6.59944372 galago
1 Q0 shorthistoryofmo00haslrich_105 60 -6.60987785 galago
1 Q0 shorthistoryofmo00haslrich_85 61 -6.61323146 galago
1 Q0 essentialsinmod01howegoog_214 62 -6.61449295 galago
1 Q0 politicalsketche00retsrich_48 63 -6.62554780 galago
1 Q0 politicalsketche00retsrich_108 64 -6.63109292 galago
1 Q0 lifeofstratfordc02laneuoft_199 65 -6.63160890 galago
1 Q0 shorthistoryofmo00haslrich_80 66 -6.63191441 galago
1 Q0 essentialsinmod01howegoog_269 67 -6.64469634 galago
1 Q0 essentialsinmod01howegoog_282 68 -6.64514568 galago
1 Q0 essentialsinmod01howegoog_169 69 -6.64698620 galago
1 Q0 lifeofstratfordc02laneuoft_144 70 -6.64733607 galago
1 Q0 bostoncollegebul0405bost_29 71 -6.64772774 galago
1 Q0 europesincenapol00leveuoft_263 72 -6.64836781 galago
1 Q0 essentialsinmod01howegoog_243 73 -6.64939348 galago
1 Q0 timetable1974752univ_49 74 -6.65333603 galago
1 Q0 essentialsinmod01howegoog_319 75 -6.65470616 galago
1 Q0 politicalsketche00retsrich_41 76 -6.65635882 galago
1 Q0 neweasterneurop00butlgoog_38 77 -6.65641500 galago
1 Q0 essentialsinmod01howegoog_111 78 -6.65971146 galago
1 Q0 shorthistoryofmo00haslrich_242 79 -6.66472784 galago
1 Q0 shorthistoryofmo00haslrich_23 80 -6.66738872 galago
1 Q0 politicalsketche00retsrich_148 81 -6.66809999 galago
1 Q0 millsapscollegec1996mill_49 82 -6.67453955 galago
1 Q0 europesincenapol00leveuoft_318 83 -6.67597119 galago
1 Q0 essentialsinmod01howegoog_451 84 -6.67677504 galago
1 Q0 generalhistoryfo00myerrich_761 85 -6.67922821 galago
1 Q0 essentialsinmod01howegoog_390 86 -6.68282288 galago
1 Q0 essentialsinmod01howegoog_364 87 -6.68565493 galago
1 Q0 politicalsketche00retsrich_40 88 -6.68596993 galago
1 Q0 ouroldworldbackg00bearrich_354 89 -6.68667943 galago
1 Q0 lifeofstratfordc02laneuoft_187 90 -6.68803600 galago
1 Q0 essentialsinmod01howegoog_334 91 -6.68915919 galago
1 Q0 englishcyclopae05kniggoog_42 92 -6.69124859 galago
1 Q0 englishcyclopae05kniggoog_39 93 -6.69460993 galago
1 Q0 cu31924030898922_55 94 -6.69545923 galago
1 Q0 neweasterneurop00butlgoog_15 95 -6.69610300 galago
1 Q0 millsapscollegec1996mill_113 96 -6.70148463 galago
1 Q0 politicalsketche00retsrich_149 97 -6.70582006 galago
1 Q0 shorthistoryofmo00haslrich_10 98 -6.70658146 galago
1 Q0 shorthistoryofmo00haslrich_14 99 -6.71187428 galago
1 Q0 shorthistoryofmo00haslrich_185 100 -6.71212156 galago
