1 Q0 graduateschoolof9192bran_51 1 -5.97437470 galago
1 Q0 encyclopediaame28unkngoog_326 2 -5.98608456 galago
1 Q0 youngmidshipman00morrgoog_88 3 -6.01842007 galago
1 Q0 historyofuniteds07good_239 4 -6.13291293 galago
1 Q0 generalhistoryfo00myerrich_787 5 -6.13343840 galago
1 Q0 shorthistoryofmo00haslrich_98 6 -6.13365454 galago
1 Q0 lifeofstratfordc02laneuoft_185 7 -6.15037452 galago
1 Q0 englishcyclopae05kniggoog_40 8 -6.16988160 galago
1 Q0 selwynhouseschoo1940selw_21 9 -6.17550080 galago
1 Q0 cambridgemodern09protgoog_449 10 -6.19778948 galago
1 Q0 ouroldworldbackg00bearrich_13 11 -6.21561708 galago
1 Q0 timetable1974752univ_231 12 -6.21670615 galago
1 Q0 essentialsinmod01howegoog_452 13 -6.22996801 galago
1 Q0 millsapscollegec1996mill_75 14 -6.23188243 galago
1 Q0 frenchschoolsth02instgoog_149 15 -6.23222051 galago
1 Q0 europesincenapol00leveuoft_193 16 -6.24013555 galago
1 Q0 cu31924030898922_52 17 -6.24054290 galago
1 Q0 politicalsketche00retsrich_92 18 -6.24344728 galago
1 Q0 bostoncollegebul0405bost_132 19 -6.25127157 galago
1 Q0 miningcampsstudy00shin_121 20 -6.26569662 galago
