###################################
# parameters: 
#   date_th: 0.3
#   doc_th: 0.5
#   loc_th: 0.35
#   nodestouse: DOCUMENT:DATE:LOCATION
#   relationships: REFERENCES:SIMLOC

###################################
# configuration: 
#   sa.act_diff_ratio_limit = 0.01
#   sa.act_diff_ratio_limit_diff = 0.01
#   sa.function = ciir.multi.sa.function.MaxSAFunction(norm_function)
#   sa.id_property_name.DATE = dateID
#   sa.id_property_name.DOCUMENT = docID
#   sa.id_property_name.LOCATION = locID
#   sa.max_pulses = 10
#   sa.nodes_to_print = DATE:LOCATION
#   sa.nodes_to_use = DOCUMENT:DATE:LOCATION
#   sa.norm_function = ciir.multi.sa.SigmoidFunction(0.0, 1.0)
#   sa.relationships_to_use = REFERENCES:SIMLOC
#   sa.spread_threshold.DATE = 0.3
#   sa.spread_threshold.DOCUMENT = 0.5
#   sa.spread_threshold.LOCATION = 0.35
#   sa.weight_property.REFERENCES = relevance
#   sa.weight_property.SIMDATES = sim
#   sa.weight_property.SIMDOC = sim
#   sa.weight_property.SIMLOC = sim
#   sa.weight_property.SIMPAGE = pagesim

###################################
# initial activations (3): 
#   cu31924088053800_313, 1
#   cu31924031684685_795, 1
#   medievalandmode02robigoog_789, 1

###################################
# spreading activation process log: 
#   pulse 0: activated: 3, non-zero: 3, borderline: 3, overall act: 3.000, act diff: 3.000, ratio: 1.000
#   pulse 1: activated: 14, non-zero: 14, borderline: 11, overall act: 7.167, act diff: 4.167, ratio: 0.581
#   pulse 2: activated: 614223, non-zero: 614223, borderline: 614213, overall act: 63415.406, act diff: 63408.239, ratio: 1.000
#   pulse 3: activated: 614280, non-zero: 614280, borderline: 614221, overall act: 63428.375, act diff: 12.969, ratio: 0.000

###################################
# spreading activation process summary: 
#   final number of activated nodes: 614280
#   final overall activation: 63428.4
#   number of spread. activ. pulses: 3
#   running time: 183020

###################################
# top k results in TREC format: 

7   rel3-1   poland   1   1.0   nodesDOCUMENT:DATE:LOCATION-edgesREFERENCES:SIMLOC-date_th0.3-doc_th0.5-loc_th0.35
7   rel3-1   1863   2   1.0   nodesDOCUMENT:DATE:LOCATION-edgesREFERENCES:SIMLOC-date_th0.3-doc_th0.5-loc_th0.35
7   rel3-1   russia   3   0.99998766   nodesDOCUMENT:DATE:LOCATION-edgesREFERENCES:SIMLOC-date_th0.3-doc_th0.5-loc_th0.35
7   rel3-1   1831   4   0.9993778   nodesDOCUMENT:DATE:LOCATION-edgesREFERENCES:SIMLOC-date_th0.3-doc_th0.5-loc_th0.35
7   rel3-1   europe   5   0.99131083   nodesDOCUMENT:DATE:LOCATION-edgesREFERENCES:SIMLOC-date_th0.3-doc_th0.5-loc_th0.35
7   rel3-1   1830   6   0.9013743   nodesDOCUMENT:DATE:LOCATION-edgesREFERENCES:SIMLOC-date_th0.3-doc_th0.5-loc_th0.35
7   rel3-1   warsaw   7   0.83863866   nodesDOCUMENT:DATE:LOCATION-edgesREFERENCES:SIMLOC-date_th0.3-doc_th0.5-loc_th0.35
7   rel3-1   prussia   8   0.70610946   nodesDOCUMENT:DATE:LOCATION-edgesREFERENCES:SIMLOC-date_th0.3-doc_th0.5-loc_th0.35
7   rel3-1   france   9   0.5871248   nodesDOCUMENT:DATE:LOCATION-edgesREFERENCES:SIMLOC-date_th0.3-doc_th0.5-loc_th0.35
7   rel3-1   austria   10   0.5829411   nodesDOCUMENT:DATE:LOCATION-edgesREFERENCES:SIMLOC-date_th0.3-doc_th0.5-loc_th0.35
7   rel3-1   vienna   11   0.5513926   nodesDOCUMENT:DATE:LOCATION-edgesREFERENCES:SIMLOC-date_th0.3-doc_th0.5-loc_th0.35
7   rel3-1   caucasus region   12   0.4460924   nodesDOCUMENT:DATE:LOCATION-edgesREFERENCES:SIMLOC-date_th0.3-doc_th0.5-loc_th0.35
7   rel3-1   saint petersburg   13   0.4411424   nodesDOCUMENT:DATE:LOCATION-edgesREFERENCES:SIMLOC-date_th0.3-doc_th0.5-loc_th0.35
7   rel3-1   italy   14   0.41747585   nodesDOCUMENT:DATE:LOCATION-edgesREFERENCES:SIMLOC-date_th0.3-doc_th0.5-loc_th0.35
7   rel3-1   germany   15   0.3551839   nodesDOCUMENT:DATE:LOCATION-edgesREFERENCES:SIMLOC-date_th0.3-doc_th0.5-loc_th0.35
7   rel3-1   1825   16   0.34186885   nodesDOCUMENT:DATE:LOCATION-edgesREFERENCES:SIMLOC-date_th0.3-doc_th0.5-loc_th0.35
7   rel3-1   vistula   17   0.30991042   nodesDOCUMENT:DATE:LOCATION-edgesREFERENCES:SIMLOC-date_th0.3-doc_th0.5-loc_th0.35
7   rel3-1   rome   18   0.3034028   nodesDOCUMENT:DATE:LOCATION-edgesREFERENCES:SIMLOC-date_th0.3-doc_th0.5-loc_th0.35
7   rel3-1   england   19   0.29842708   nodesDOCUMENT:DATE:LOCATION-edgesREFERENCES:SIMLOC-date_th0.3-doc_th0.5-loc_th0.35
7   rel3-1   libiya   20   0.2979548   nodesDOCUMENT:DATE:LOCATION-edgesREFERENCES:SIMLOC-date_th0.3-doc_th0.5-loc_th0.35

###################################
# top nodes: 

# 7   rel3-1   medievalandmode02robigoog_789   1   1.0   nodesDOCUMENT:DATE:LOCATION-edgesREFERENCES:SIMLOC-date_th0.3-doc_th0.5-loc_th0.35
# 7   rel3-1   cu31924031684685_795   2   1.0   nodesDOCUMENT:DATE:LOCATION-edgesREFERENCES:SIMLOC-date_th0.3-doc_th0.5-loc_th0.35
# 7   rel3-1   poland   3   1.0   nodesDOCUMENT:DATE:LOCATION-edgesREFERENCES:SIMLOC-date_th0.3-doc_th0.5-loc_th0.35
# 7   rel3-1   1863   4   1.0   nodesDOCUMENT:DATE:LOCATION-edgesREFERENCES:SIMLOC-date_th0.3-doc_th0.5-loc_th0.35
# 7   rel3-1   cu31924088053800_313   5   1.0   nodesDOCUMENT:DATE:LOCATION-edgesREFERENCES:SIMLOC-date_th0.3-doc_th0.5-loc_th0.35
# 7   rel3-1   russia   6   0.99998766   nodesDOCUMENT:DATE:LOCATION-edgesREFERENCES:SIMLOC-date_th0.3-doc_th0.5-loc_th0.35
# 7   rel3-1   1831   7   0.9993778   nodesDOCUMENT:DATE:LOCATION-edgesREFERENCES:SIMLOC-date_th0.3-doc_th0.5-loc_th0.35
# 7   rel3-1   europe   8   0.99131083   nodesDOCUMENT:DATE:LOCATION-edgesREFERENCES:SIMLOC-date_th0.3-doc_th0.5-loc_th0.35
# 7   rel3-1   1830   9   0.9013743   nodesDOCUMENT:DATE:LOCATION-edgesREFERENCES:SIMLOC-date_th0.3-doc_th0.5-loc_th0.35
# 7   rel3-1   warsaw   10   0.83863866   nodesDOCUMENT:DATE:LOCATION-edgesREFERENCES:SIMLOC-date_th0.3-doc_th0.5-loc_th0.35
# 7   rel3-1   prussia   11   0.70610946   nodesDOCUMENT:DATE:LOCATION-edgesREFERENCES:SIMLOC-date_th0.3-doc_th0.5-loc_th0.35
# 7   rel3-1   selectionsfromsp02russuoft_408   12   0.60703087   nodesDOCUMENT:DATE:LOCATION-edgesREFERENCES:SIMLOC-date_th0.3-doc_th0.5-loc_th0.35
# 7   rel3-1   advocateofpeace82amerrich_327   13   0.59603727   nodesDOCUMENT:DATE:LOCATION-edgesREFERENCES:SIMLOC-date_th0.3-doc_th0.5-loc_th0.35
# 7   rel3-1   selectionsfromsp02russuoft_410   14   0.58975124   nodesDOCUMENT:DATE:LOCATION-edgesREFERENCES:SIMLOC-date_th0.3-doc_th0.5-loc_th0.35
# 7   rel3-1   selectionsfromsp02russuoft_442   15   0.58810955   nodesDOCUMENT:DATE:LOCATION-edgesREFERENCES:SIMLOC-date_th0.3-doc_th0.5-loc_th0.35
# 7   rel3-1   france   16   0.5871248   nodesDOCUMENT:DATE:LOCATION-edgesREFERENCES:SIMLOC-date_th0.3-doc_th0.5-loc_th0.35
# 7   rel3-1   austria   17   0.5829411   nodesDOCUMENT:DATE:LOCATION-edgesREFERENCES:SIMLOC-date_th0.3-doc_th0.5-loc_th0.35
# 7   rel3-1   russiaitspeople00gurouoft_43   18   0.5821408   nodesDOCUMENT:DATE:LOCATION-edgesREFERENCES:SIMLOC-date_th0.3-doc_th0.5-loc_th0.35
# 7   rel3-1   selectionsfromsp02russuoft_424   19   0.58072567   nodesDOCUMENT:DATE:LOCATION-edgesREFERENCES:SIMLOC-date_th0.3-doc_th0.5-loc_th0.35
# 7   rel3-1   selectionsfromsp02russuoft_428   20   0.5781117   nodesDOCUMENT:DATE:LOCATION-edgesREFERENCES:SIMLOC-date_th0.3-doc_th0.5-loc_th0.35
# 7   rel3-1   secretsocieties01heckgoog_192   21   0.5767574   nodesDOCUMENT:DATE:LOCATION-edgesREFERENCES:SIMLOC-date_th0.3-doc_th0.5-loc_th0.35
# 7   rel3-1   russiaitspeople00gurouoft_231   22   0.5766296   nodesDOCUMENT:DATE:LOCATION-edgesREFERENCES:SIMLOC-date_th0.3-doc_th0.5-loc_th0.35
# 7   rel3-1   someproblemspea00goog_191   23   0.5724703   nodesDOCUMENT:DATE:LOCATION-edgesREFERENCES:SIMLOC-date_th0.3-doc_th0.5-loc_th0.35
# 7   rel3-1   americanhistoric19151916jame_633   24   0.57169396   nodesDOCUMENT:DATE:LOCATION-edgesREFERENCES:SIMLOC-date_th0.3-doc_th0.5-loc_th0.35
# 7   rel3-1   alhambrakremlin00prim_311   25   0.5686564   nodesDOCUMENT:DATE:LOCATION-edgesREFERENCES:SIMLOC-date_th0.3-doc_th0.5-loc_th0.35
# 7   rel3-1   selectionsfromsp02russuoft_426   26   0.56320757   nodesDOCUMENT:DATE:LOCATION-edgesREFERENCES:SIMLOC-date_th0.3-doc_th0.5-loc_th0.35
# 7   rel3-1   russianpolitica02kovagoog_288   27   0.5631847   nodesDOCUMENT:DATE:LOCATION-edgesREFERENCES:SIMLOC-date_th0.3-doc_th0.5-loc_th0.35
# 7   rel3-1   withworldspeople05ridp_189   28   0.56042904   nodesDOCUMENT:DATE:LOCATION-edgesREFERENCES:SIMLOC-date_th0.3-doc_th0.5-loc_th0.35
# 7   rel3-1   selectionsfromsp02russuoft_245   29   0.55935913   nodesDOCUMENT:DATE:LOCATION-edgesREFERENCES:SIMLOC-date_th0.3-doc_th0.5-loc_th0.35
# 7   rel3-1   peacehandbooks08grea_81   30   0.55700266   nodesDOCUMENT:DATE:LOCATION-edgesREFERENCES:SIMLOC-date_th0.3-doc_th0.5-loc_th0.35
# 7   rel3-1   conversationswit01seniuoft_271   31   0.55578136   nodesDOCUMENT:DATE:LOCATION-edgesREFERENCES:SIMLOC-date_th0.3-doc_th0.5-loc_th0.35
# 7   rel3-1   outlineseuropea04beargoog_503   32   0.55509245   nodesDOCUMENT:DATE:LOCATION-edgesREFERENCES:SIMLOC-date_th0.3-doc_th0.5-loc_th0.35
# 7   rel3-1   vienna   33   0.5513926   nodesDOCUMENT:DATE:LOCATION-edgesREFERENCES:SIMLOC-date_th0.3-doc_th0.5-loc_th0.35
# 7   rel3-1   selectionsfromsp02russuoft_390   34   0.5466382   nodesDOCUMENT:DATE:LOCATION-edgesREFERENCES:SIMLOC-date_th0.3-doc_th0.5-loc_th0.35
# 7   rel3-1   leavesfromdiaryo00grevuoft_137   35   0.5421291   nodesDOCUMENT:DATE:LOCATION-edgesREFERENCES:SIMLOC-date_th0.3-doc_th0.5-loc_th0.35
# 7   rel3-1   conquestsofcross02hodd_183   36   0.53885806   nodesDOCUMENT:DATE:LOCATION-edgesREFERENCES:SIMLOC-date_th0.3-doc_th0.5-loc_th0.35
# 7   rel3-1   selectionsfromsp02russuoft_420   37   0.5387129   nodesDOCUMENT:DATE:LOCATION-edgesREFERENCES:SIMLOC-date_th0.3-doc_th0.5-loc_th0.35
# 7   rel3-1   anthologyofmoder00selviala_126   38   0.5387129   nodesDOCUMENT:DATE:LOCATION-edgesREFERENCES:SIMLOC-date_th0.3-doc_th0.5-loc_th0.35
# 7   rel3-1   cu31924073899001_150   39   0.5387129   nodesDOCUMENT:DATE:LOCATION-edgesREFERENCES:SIMLOC-date_th0.3-doc_th0.5-loc_th0.35
# 7   rel3-1   cu31924073899001_164   40   0.5387129   nodesDOCUMENT:DATE:LOCATION-edgesREFERENCES:SIMLOC-date_th0.3-doc_th0.5-loc_th0.35
