nodestouse,relationships,doc_th,date_th,loc_th,iter,seeds,number of spread. activ. pulses,final number of activated nodes,final overall activation,running time,run-id,map,P5,P10,P20,R-prec,
DOCUMENT:DATE:LOCATION,REFERENCES:SIMDATES,0.7,0.25,0.35,rel2-2,2,6,127990,16466.0,36955,book_collection_true_dates/location/query7//useDOCUMENT:DATE:LOCATIONuseREFERENCES:SIMDATES/rel2-2-date_th0.25-doc_th0.7-loc_th0.35.res.clean,0.400,0.800,0.400,0.400,0.400,
DOCUMENT:DATE:LOCATION,REFERENCES:SIMDATES,0.6,0.3,0.4,rel1-1,1,3,79734,6178.1,33909,book_collection_true_dates/location/query7//useDOCUMENT:DATE:LOCATIONuseREFERENCES:SIMDATES/rel1-1-date_th0.3-doc_th0.6-loc_th0.4.res.clean,0.400,0.800,0.400,0.400,0.400,
DOCUMENT:DATE:LOCATION,REFERENCES:SIMDATES,0.7,0.25,0.4,rel1-2,1,2,11,2.8,9437,book_collection_true_dates/location/query7//useDOCUMENT:DATE:LOCATIONuseREFERENCES:SIMDATES/rel1-2-date_th0.25-doc_th0.7-loc_th0.4.res.clean,0.400,0.800,0.400,0.400,0.400,
DOCUMENT:DATE:LOCATION,REFERENCES:SIMDATES,0.5,0.25,0.35,rel1-1,1,3,79734,6178.1,44180,book_collection_true_dates/location/query7//useDOCUMENT:DATE:LOCATIONuseREFERENCES:SIMDATES/rel1-1-date_th0.25-doc_th0.5-loc_th0.35.res.clean,0.400,0.800,0.400,0.400,0.400,
DOCUMENT:DATE:LOCATION,REFERENCES:SIMDATES,0.5,0.25,0.35,rel1-3-date_th0,1,2,5,1.7,1799,book_collection_true_dates/location/query7//useDOCUMENT:DATE:LOCATIONuseREFERENCES:SIMDATES/rel1-3-date_th0.25-doc_th0.5-loc_th0.35.res.clean,0.000,0.000,0.000,0.000,0.000,
DOCUMENT:DATE:LOCATION,REFERENCES:SIMDATES,0.7,0.25,0.35,rel2-1,2,4,593341,59897.6,80225,book_collection_true_dates/location/query7//useDOCUMENT:DATE:LOCATIONuseREFERENCES:SIMDATES/rel2-1-date_th0.25-doc_th0.7-loc_th0.35.res.clean,0.400,0.800,0.400,0.400,0.400,
DOCUMENT:DATE:LOCATION,REFERENCES:SIMDATES,0.6,0.25,0.35,rel2-3,2,4,164539,17543.8,34292,book_collection_true_dates/location/query7//useDOCUMENT:DATE:LOCATIONuseREFERENCES:SIMDATES/rel2-3-date_th0.25-doc_th0.6-loc_th0.35.res.clean,0.367,0.600,0.400,0.400,0.400,
DOCUMENT:DATE:LOCATION,REFERENCES:SIMDATES,0.7,0.3,0.4,rel2-2,2,5,106823,13759.0,32637,book_collection_true_dates/location/query7//useDOCUMENT:DATE:LOCATIONuseREFERENCES:SIMDATES/rel2-2-date_th0.3-doc_th0.7-loc_th0.4.res.clean,0.400,0.800,0.400,0.400,0.400,
DOCUMENT:DATE:LOCATION,REFERENCES:SIMDATES,0.7,0.25,0.35,rel3-1,3,5,723901,84299.5,118130,book_collection_true_dates/location/query7//useDOCUMENT:DATE:LOCATIONuseREFERENCES:SIMDATES/rel3-1-date_th0.25-doc_th0.7-loc_th0.35.res.clean,0.400,0.800,0.400,0.400,0.400,
DOCUMENT:DATE:LOCATION,REFERENCES:SIMDATES,0.7,0.3,0.35,rel2-3,2,4,164539,17543.8,34243,book_collection_true_dates/location/query7//useDOCUMENT:DATE:LOCATIONuseREFERENCES:SIMDATES/rel2-3-date_th0.3-doc_th0.7-loc_th0.35.res.clean,0.367,0.600,0.400,0.400,0.400,
DOCUMENT:DATE:LOCATION,REFERENCES:SIMDATES,0.7,0.3,0.35,rel1-1,1,3,79734,6178.1,33660,book_collection_true_dates/location/query7//useDOCUMENT:DATE:LOCATIONuseREFERENCES:SIMDATES/rel1-1-date_th0.3-doc_th0.7-loc_th0.35.res.clean,0.400,0.800,0.400,0.400,0.400,
DOCUMENT:DATE:LOCATION,REFERENCES:SIMDATES,0.6,0.25,0.35,rel1-1,1,3,79734,6178.1,35048,book_collection_true_dates/location/query7//useDOCUMENT:DATE:LOCATIONuseREFERENCES:SIMDATES/rel1-1-date_th0.25-doc_th0.6-loc_th0.35.res.clean,0.400,0.800,0.400,0.400,0.400,
DOCUMENT:DATE:LOCATION,REFERENCES:SIMDATES,0.5,0.25,0.4,rel1-1,1,3,79734,6178.1,35238,book_collection_true_dates/location/query7//useDOCUMENT:DATE:LOCATIONuseREFERENCES:SIMDATES/rel1-1-date_th0.25-doc_th0.5-loc_th0.4.res.clean,0.400,0.800,0.400,0.400,0.400,
DOCUMENT:DATE:LOCATION,REFERENCES:SIMDATES,0.6,0.25,0.4,rel3-1,3,6,282043,46642.4,129009,book_collection_true_dates/location/query7//useDOCUMENT:DATE:LOCATIONuseREFERENCES:SIMDATES/rel3-1-date_th0.25-doc_th0.6-loc_th0.4.res.clean,0.509,0.800,0.500,0.300,0.500,
DOCUMENT:DATE:LOCATION,REFERENCES:SIMDATES,0.5,0.3,0.35,rel3-1,3,3,614238,65935.8,180507,book_collection_true_dates/location/query7//useDOCUMENT:DATE:LOCATIONuseREFERENCES:SIMDATES/rel3-1-date_th0.3-doc_th0.5-loc_th0.35.res.clean,0.538,1.000,0.500,0.300,0.500,
DOCUMENT:DATE:LOCATION,REFERENCES:SIMDATES,0.6,0.3,0.35,rel2-3,2,4,164539,17543.8,34207,book_collection_true_dates/location/query7//useDOCUMENT:DATE:LOCATIONuseREFERENCES:SIMDATES/rel2-3-date_th0.3-doc_th0.6-loc_th0.35.res.clean,0.367,0.600,0.400,0.400,0.400,
DOCUMENT:DATE:LOCATION,REFERENCES:SIMDATES,0.7,0.25,0.4,rel1-3-date_th0,1,2,5,1.7,1788,book_collection_true_dates/location/query7//useDOCUMENT:DATE:LOCATIONuseREFERENCES:SIMDATES/rel1-3-date_th0.25-doc_th0.7-loc_th0.4.res.clean,0.000,0.000,0.000,0.000,0.000,
DOCUMENT:DATE:LOCATION,REFERENCES:SIMDATES,0.5,0.25,0.35,rel2-3,2,4,164539,17543.8,34282,book_collection_true_dates/location/query7//useDOCUMENT:DATE:LOCATIONuseREFERENCES:SIMDATES/rel2-3-date_th0.25-doc_th0.5-loc_th0.35.res.clean,0.367,0.600,0.400,0.400,0.400,
DOCUMENT:DATE:LOCATION,REFERENCES:SIMDATES,0.7,0.25,0.4,rel2-3,2,7,169714,21293.3,39042,book_collection_true_dates/location/query7//useDOCUMENT:DATE:LOCATIONuseREFERENCES:SIMDATES/rel2-3-date_th0.25-doc_th0.7-loc_th0.4.res.clean,0.367,0.600,0.400,0.400,0.400,
DOCUMENT:DATE:LOCATION,REFERENCES:SIMDATES,0.5,0.3,0.4,rel1-1,1,3,79734,6178.1,33805,book_collection_true_dates/location/query7//useDOCUMENT:DATE:LOCATIONuseREFERENCES:SIMDATES/rel1-1-date_th0.3-doc_th0.5-loc_th0.4.res.clean,0.400,0.800,0.400,0.400,0.400,
DOCUMENT:DATE:LOCATION,REFERENCES:SIMDATES,0.5,0.25,0.35,rel3-1,3,9,9640531,6492844.6,1874964,book_collection_true_dates/location/query7//useDOCUMENT:DATE:LOCATIONuseREFERENCES:SIMDATES/rel3-1-date_th0.25-doc_th0.5-loc_th0.35.res.clean,0.000,0.000,0.000,0.000,0.000,
DOCUMENT:DATE:LOCATION,REFERENCES:SIMDATES,0.5,0.3,0.4,rel1-3-date_th0,1,2,5,1.7,1795,book_collection_true_dates/location/query7//useDOCUMENT:DATE:LOCATIONuseREFERENCES:SIMDATES/rel1-3-date_th0.3-doc_th0.5-loc_th0.4.res.clean,0.000,0.000,0.000,0.000,0.000,
DOCUMENT:DATE:LOCATION,REFERENCES:SIMDATES,0.7,0.3,0.4,rel2-1,2,5,141767,18145.7,38657,book_collection_true_dates/location/query7//useDOCUMENT:DATE:LOCATIONuseREFERENCES:SIMDATES/rel2-1-date_th0.3-doc_th0.7-loc_th0.4.res.clean,0.400,0.800,0.400,0.400,0.400,
DOCUMENT:DATE:LOCATION,REFERENCES:SIMDATES,0.5,0.3,0.4,rel2-1,2,10,9049504,5710172.6,1605863,book_collection_true_dates/location/query7//useDOCUMENT:DATE:LOCATIONuseREFERENCES:SIMDATES/rel2-1-date_th0.3-doc_th0.5-loc_th0.4.res.clean,0.000,0.000,0.000,0.000,0.000,
DOCUMENT:DATE:LOCATION,REFERENCES:SIMDATES,0.7,0.3,0.4,rel2-3,2,5,129740,15236.8,30372,book_collection_true_dates/location/query7//useDOCUMENT:DATE:LOCATIONuseREFERENCES:SIMDATES/rel2-3-date_th0.3-doc_th0.7-loc_th0.4.res.clean,0.367,0.600,0.400,0.400,0.400,
DOCUMENT:DATE:LOCATION,REFERENCES:SIMDATES,0.6,0.25,0.35,rel2-2,2,6,127990,16466.0,36087,book_collection_true_dates/location/query7//useDOCUMENT:DATE:LOCATIONuseREFERENCES:SIMDATES/rel2-2-date_th0.25-doc_th0.6-loc_th0.35.res.clean,0.400,0.800,0.400,0.400,0.400,
DOCUMENT:DATE:LOCATION,REFERENCES:SIMDATES,0.7,0.25,0.35,rel2-3,2,4,164539,17543.8,33964,book_collection_true_dates/location/query7//useDOCUMENT:DATE:LOCATIONuseREFERENCES:SIMDATES/rel2-3-date_th0.25-doc_th0.7-loc_th0.35.res.clean,0.367,0.600,0.400,0.400,0.400,
DOCUMENT:DATE:LOCATION,REFERENCES:SIMDATES,0.5,0.25,0.4,rel2-3,2,7,169716,21294.0,38562,book_collection_true_dates/location/query7//useDOCUMENT:DATE:LOCATIONuseREFERENCES:SIMDATES/rel2-3-date_th0.25-doc_th0.5-loc_th0.4.res.clean,0.367,0.600,0.400,0.400,0.400,
DOCUMENT:DATE:LOCATION,REFERENCES:SIMDATES,0.6,0.25,0.4,rel1-2,1,2,11,2.8,9462,book_collection_true_dates/location/query7//useDOCUMENT:DATE:LOCATIONuseREFERENCES:SIMDATES/rel1-2-date_th0.25-doc_th0.6-loc_th0.4.res.clean,0.400,0.800,0.400,0.400,0.400,
DOCUMENT:DATE:LOCATION,REFERENCES:SIMDATES,0.6,0.25,0.35,rel3-1,3,10,9616895,6473157.6,2013076,book_collection_true_dates/location/query7//useDOCUMENT:DATE:LOCATIONuseREFERENCES:SIMDATES/rel3-1-date_th0.25-doc_th0.6-loc_th0.35.res.clean,0.000,0.000,0.000,0.000,0.000,
DOCUMENT:DATE:LOCATION,REFERENCES:SIMDATES,0.7,0.25,0.35,rel1-2,1,3,36006,2589.4,15101,book_collection_true_dates/location/query7//useDOCUMENT:DATE:LOCATIONuseREFERENCES:SIMDATES/rel1-2-date_th0.25-doc_th0.7-loc_th0.35.res.clean,0.400,0.800,0.400,0.400,0.400,
DOCUMENT:DATE:LOCATION,REFERENCES:SIMDATES,0.7,0.25,0.4,rel2-2,2,6,127990,16466.0,36621,book_collection_true_dates/location/query7//useDOCUMENT:DATE:LOCATIONuseREFERENCES:SIMDATES/rel2-2-date_th0.25-doc_th0.7-loc_th0.4.res.clean,0.400,0.800,0.400,0.400,0.400,
DOCUMENT:DATE:LOCATION,REFERENCES:SIMDATES,0.6,0.3,0.4,rel2-3,2,5,129740,15236.8,30692,book_collection_true_dates/location/query7//useDOCUMENT:DATE:LOCATIONuseREFERENCES:SIMDATES/rel2-3-date_th0.3-doc_th0.6-loc_th0.4.res.clean,0.367,0.600,0.400,0.400,0.400,
DOCUMENT:DATE:LOCATION,REFERENCES:SIMDATES,0.7,0.25,0.35,rel1-3-date_th0,1,2,5,1.7,1804,book_collection_true_dates/location/query7//useDOCUMENT:DATE:LOCATIONuseREFERENCES:SIMDATES/rel1-3-date_th0.25-doc_th0.7-loc_th0.35.res.clean,0.000,0.000,0.000,0.000,0.000,
DOCUMENT:DATE:LOCATION,REFERENCES:SIMDATES,0.5,0.3,0.4,rel1-2,1,2,11,2.8,9412,book_collection_true_dates/location/query7//useDOCUMENT:DATE:LOCATIONuseREFERENCES:SIMDATES/rel1-2-date_th0.3-doc_th0.5-loc_th0.4.res.clean,0.400,0.800,0.400,0.400,0.400,
DOCUMENT:DATE:LOCATION,REFERENCES:SIMDATES,0.7,0.3,0.35,rel3-1,3,3,614181,65923.2,88382,book_collection_true_dates/location/query7//useDOCUMENT:DATE:LOCATIONuseREFERENCES:SIMDATES/rel3-1-date_th0.3-doc_th0.7-loc_th0.35.res.clean,0.400,0.800,0.400,0.400,0.400,
DOCUMENT:DATE:LOCATION,REFERENCES:SIMDATES,0.5,0.3,0.35,rel2-2,2,5,106823,13759.0,32373,book_collection_true_dates/location/query7//useDOCUMENT:DATE:LOCATIONuseREFERENCES:SIMDATES/rel2-2-date_th0.3-doc_th0.5-loc_th0.35.res.clean,0.400,0.800,0.400,0.400,0.400,
DOCUMENT:DATE:LOCATION,REFERENCES:SIMDATES,0.5,0.3,0.35,rel2-1,2,9,9622146,6465457.0,1877285,book_collection_true_dates/location/query7//useDOCUMENT:DATE:LOCATIONuseREFERENCES:SIMDATES/rel2-1-date_th0.3-doc_th0.5-loc_th0.35.res.clean,0.000,0.000,0.000,0.000,0.000,
DOCUMENT:DATE:LOCATION,REFERENCES:SIMDATES,0.7,0.3,0.4,rel3-1,3,5,184634,27441.2,45578,book_collection_true_dates/location/query7//useDOCUMENT:DATE:LOCATIONuseREFERENCES:SIMDATES/rel3-1-date_th0.3-doc_th0.7-loc_th0.4.res.clean,0.400,0.800,0.400,0.400,0.400,
DOCUMENT:DATE:LOCATION,REFERENCES:SIMDATES,0.6,0.3,0.35,rel2-2,2,5,106823,13759.0,32271,book_collection_true_dates/location/query7//useDOCUMENT:DATE:LOCATIONuseREFERENCES:SIMDATES/rel2-2-date_th0.3-doc_th0.6-loc_th0.35.res.clean,0.400,0.800,0.400,0.400,0.400,
DOCUMENT:DATE:LOCATION,REFERENCES:SIMDATES,0.7,0.3,0.4,rel1-2,1,2,11,2.8,9471,book_collection_true_dates/location/query7//useDOCUMENT:DATE:LOCATIONuseREFERENCES:SIMDATES/rel1-2-date_th0.3-doc_th0.7-loc_th0.4.res.clean,0.400,0.800,0.400,0.400,0.400,
DOCUMENT:DATE:LOCATION,REFERENCES:SIMDATES,0.6,0.3,0.35,rel1-2,1,3,36006,2589.4,15279,book_collection_true_dates/location/query7//useDOCUMENT:DATE:LOCATIONuseREFERENCES:SIMDATES/rel1-2-date_th0.3-doc_th0.6-loc_th0.35.res.clean,0.400,0.800,0.400,0.400,0.400,
DOCUMENT:DATE:LOCATION,REFERENCES:SIMDATES,0.6,0.3,0.4,rel1-3-date_th0,1,2,5,1.7,1790,book_collection_true_dates/location/query7//useDOCUMENT:DATE:LOCATIONuseREFERENCES:SIMDATES/rel1-3-date_th0.3-doc_th0.6-loc_th0.4.res.clean,0.000,0.000,0.000,0.000,0.000,
DOCUMENT:DATE:LOCATION,REFERENCES:SIMDATES,0.6,0.3,0.35,rel1-1,1,3,79734,6178.1,33704,book_collection_true_dates/location/query7//useDOCUMENT:DATE:LOCATIONuseREFERENCES:SIMDATES/rel1-1-date_th0.3-doc_th0.6-loc_th0.35.res.clean,0.400,0.800,0.400,0.400,0.400,
DOCUMENT:DATE:LOCATION,REFERENCES:SIMDATES,0.6,0.3,0.4,rel2-2,2,5,106823,13759.0,32532,book_collection_true_dates/location/query7//useDOCUMENT:DATE:LOCATIONuseREFERENCES:SIMDATES/rel2-2-date_th0.3-doc_th0.6-loc_th0.4.res.clean,0.400,0.800,0.400,0.400,0.400,
DOCUMENT:DATE:LOCATION,REFERENCES:SIMDATES,0.7,0.3,0.35,rel1-2,1,3,36006,2589.4,15117,book_collection_true_dates/location/query7//useDOCUMENT:DATE:LOCATIONuseREFERENCES:SIMDATES/rel1-2-date_th0.3-doc_th0.7-loc_th0.35.res.clean,0.400,0.800,0.400,0.400,0.400,
DOCUMENT:DATE:LOCATION,REFERENCES:SIMDATES,0.6,0.25,0.4,rel1-3-date_th0,1,2,5,1.7,1789,book_collection_true_dates/location/query7//useDOCUMENT:DATE:LOCATIONuseREFERENCES:SIMDATES/rel1-3-date_th0.25-doc_th0.6-loc_th0.4.res.clean,0.000,0.000,0.000,0.000,0.000,
DOCUMENT:DATE:LOCATION,REFERENCES:SIMDATES,0.5,0.25,0.4,rel1-2,1,2,11,2.8,9446,book_collection_true_dates/location/query7//useDOCUMENT:DATE:LOCATIONuseREFERENCES:SIMDATES/rel1-2-date_th0.25-doc_th0.5-loc_th0.4.res.clean,0.400,0.800,0.400,0.400,0.400,
DOCUMENT:DATE:LOCATION,REFERENCES:SIMDATES,0.6,0.3,0.35,rel1-3-date_th0,1,2,5,1.7,1782,book_collection_true_dates/location/query7//useDOCUMENT:DATE:LOCATIONuseREFERENCES:SIMDATES/rel1-3-date_th0.3-doc_th0.6-loc_th0.35.res.clean,0.000,0.000,0.000,0.000,0.000,
DOCUMENT:DATE:LOCATION,REFERENCES:SIMDATES,0.7,0.3,0.4,rel1-1,1,3,79734,6178.1,34181,book_collection_true_dates/location/query7//useDOCUMENT:DATE:LOCATIONuseREFERENCES:SIMDATES/rel1-1-date_th0.3-doc_th0.7-loc_th0.4.res.clean,0.400,0.800,0.400,0.400,0.400,
DOCUMENT:DATE:LOCATION,REFERENCES:SIMDATES,0.5,0.3,0.35,rel1-2,1,3,36006,2589.4,15100,book_collection_true_dates/location/query7//useDOCUMENT:DATE:LOCATIONuseREFERENCES:SIMDATES/rel1-2-date_th0.3-doc_th0.5-loc_th0.35.res.clean,0.400,0.800,0.400,0.400,0.400,
DOCUMENT:DATE:LOCATION,REFERENCES:SIMDATES,0.6,0.25,0.4,rel2-1,2,6,162785,20852.0,51876,book_collection_true_dates/location/query7//useDOCUMENT:DATE:LOCATIONuseREFERENCES:SIMDATES/rel2-1-date_th0.25-doc_th0.6-loc_th0.4.res.clean,0.400,0.800,0.400,0.400,0.400,
DOCUMENT:DATE:LOCATION,REFERENCES:SIMDATES,0.5,0.25,0.35,rel2-1,2,9,9622370,6465730.7,2077116,book_collection_true_dates/location/query7//useDOCUMENT:DATE:LOCATIONuseREFERENCES:SIMDATES/rel2-1-date_th0.25-doc_th0.5-loc_th0.35.res.clean,0.000,0.000,0.000,0.000,0.000,
DOCUMENT:DATE:LOCATION,REFERENCES:SIMDATES,0.5,0.3,0.35,rel2-3,2,4,164539,17543.8,33996,book_collection_true_dates/location/query7//useDOCUMENT:DATE:LOCATIONuseREFERENCES:SIMDATES/rel2-3-date_th0.3-doc_th0.5-loc_th0.35.res.clean,0.367,0.600,0.400,0.400,0.400,
DOCUMENT:DATE:LOCATION,REFERENCES:SIMDATES,0.6,0.3,0.4,rel2-1,2,5,141767,18145.7,39040,book_collection_true_dates/location/query7//useDOCUMENT:DATE:LOCATIONuseREFERENCES:SIMDATES/rel2-1-date_th0.3-doc_th0.6-loc_th0.4.res.clean,0.400,0.800,0.400,0.400,0.400,
DOCUMENT:DATE:LOCATION,REFERENCES:SIMDATES,0.5,0.3,0.35,rel1-3-date_th0,1,2,5,1.7,1785,book_collection_true_dates/location/query7//useDOCUMENT:DATE:LOCATIONuseREFERENCES:SIMDATES/rel1-3-date_th0.3-doc_th0.5-loc_th0.35.res.clean,0.000,0.000,0.000,0.000,0.000,
DOCUMENT:DATE:LOCATION,REFERENCES:SIMDATES,0.7,0.25,0.4,rel3-1,3,6,281988,43092.3,72002,book_collection_true_dates/location/query7//useDOCUMENT:DATE:LOCATIONuseREFERENCES:SIMDATES/rel3-1-date_th0.25-doc_th0.7-loc_th0.4.res.clean,0.400,0.800,0.400,0.400,0.400,
DOCUMENT:DATE:LOCATION,REFERENCES:SIMDATES,0.7,0.25,0.4,rel1-1,1,3,79734,6178.1,33974,book_collection_true_dates/location/query7//useDOCUMENT:DATE:LOCATIONuseREFERENCES:SIMDATES/rel1-1-date_th0.25-doc_th0.7-loc_th0.4.res.clean,0.400,0.800,0.400,0.400,0.400,
DOCUMENT:DATE:LOCATION,REFERENCES:SIMDATES,0.5,0.25,0.35,rel2-2,2,6,127990,16466.0,36749,book_collection_true_dates/location/query7//useDOCUMENT:DATE:LOCATIONuseREFERENCES:SIMDATES/rel2-2-date_th0.25-doc_th0.5-loc_th0.35.res.clean,0.400,0.800,0.400,0.400,0.400,
DOCUMENT:DATE:LOCATION,REFERENCES:SIMDATES,0.5,0.25,0.4,rel2-2,2,6,127990,16466.0,37227,book_collection_true_dates/location/query7//useDOCUMENT:DATE:LOCATIONuseREFERENCES:SIMDATES/rel2-2-date_th0.25-doc_th0.5-loc_th0.4.res.clean,0.400,0.800,0.400,0.400,0.400,
DOCUMENT:DATE:LOCATION,REFERENCES:SIMDATES,0.7,0.3,0.4,rel1-3-date_th0,1,2,5,1.7,1790,book_collection_true_dates/location/query7//useDOCUMENT:DATE:LOCATIONuseREFERENCES:SIMDATES/rel1-3-date_th0.3-doc_th0.7-loc_th0.4.res.clean,0.000,0.000,0.000,0.000,0.000,
DOCUMENT:DATE:LOCATION,REFERENCES:SIMDATES,0.6,0.3,0.35,rel3-1,3,3,614182,65923.8,121025,book_collection_true_dates/location/query7//useDOCUMENT:DATE:LOCATIONuseREFERENCES:SIMDATES/rel3-1-date_th0.3-doc_th0.6-loc_th0.35.res.clean,0.400,0.800,0.400,0.400,0.400,
DOCUMENT:DATE:LOCATION,REFERENCES:SIMDATES,0.5,0.25,0.35,rel1-2,1,3,36006,2589.4,15329,book_collection_true_dates/location/query7//useDOCUMENT:DATE:LOCATIONuseREFERENCES:SIMDATES/rel1-2-date_th0.25-doc_th0.5-loc_th0.35.res.clean,0.400,0.800,0.400,0.400,0.400,
DOCUMENT:DATE:LOCATION,REFERENCES:SIMDATES,0.6,0.3,0.4,rel1-2,1,2,11,2.8,9481,book_collection_true_dates/location/query7//useDOCUMENT:DATE:LOCATIONuseREFERENCES:SIMDATES/rel1-2-date_th0.3-doc_th0.6-loc_th0.4.res.clean,0.400,0.800,0.400,0.400,0.400,
DOCUMENT:DATE:LOCATION,REFERENCES:SIMDATES,0.6,0.25,0.4,rel1-1,1,3,79734,6178.1,33855,book_collection_true_dates/location/query7//useDOCUMENT:DATE:LOCATIONuseREFERENCES:SIMDATES/rel1-1-date_th0.25-doc_th0.6-loc_th0.4.res.clean,0.400,0.800,0.400,0.400,0.400,
DOCUMENT:DATE:LOCATION,REFERENCES:SIMDATES,0.5,0.3,0.4,rel2-3,2,5,129740,15236.8,30587,book_collection_true_dates/location/query7//useDOCUMENT:DATE:LOCATIONuseREFERENCES:SIMDATES/rel2-3-date_th0.3-doc_th0.5-loc_th0.4.res.clean,0.367,0.600,0.400,0.400,0.400,
DOCUMENT:DATE:LOCATION,REFERENCES:SIMDATES,0.6,0.3,0.35,rel2-1,2,4,593341,59897.6,93800,book_collection_true_dates/location/query7//useDOCUMENT:DATE:LOCATIONuseREFERENCES:SIMDATES/rel2-1-date_th0.3-doc_th0.6-loc_th0.35.res.clean,0.400,0.800,0.400,0.400,0.400,
DOCUMENT:DATE:LOCATION,REFERENCES:SIMDATES,0.7,0.25,0.35,rel1-1,1,3,79734,6178.1,33814,book_collection_true_dates/location/query7//useDOCUMENT:DATE:LOCATIONuseREFERENCES:SIMDATES/rel1-1-date_th0.25-doc_th0.7-loc_th0.35.res.clean,0.400,0.800,0.400,0.400,0.400,
DOCUMENT:DATE:LOCATION,REFERENCES:SIMDATES,0.6,0.25,0.4,rel2-3,2,7,169714,21293.3,38807,book_collection_true_dates/location/query7//useDOCUMENT:DATE:LOCATIONuseREFERENCES:SIMDATES/rel2-3-date_th0.25-doc_th0.6-loc_th0.4.res.clean,0.367,0.600,0.400,0.400,0.400,
DOCUMENT:DATE:LOCATION,REFERENCES:SIMDATES,0.5,0.3,0.35,rel1-1,1,3,79734,6178.1,33931,book_collection_true_dates/location/query7//useDOCUMENT:DATE:LOCATIONuseREFERENCES:SIMDATES/rel1-1-date_th0.3-doc_th0.5-loc_th0.35.res.clean,0.400,0.800,0.400,0.400,0.400,
DOCUMENT:DATE:LOCATION,REFERENCES:SIMDATES,0.5,0.25,0.4,rel2-1,2,10,9184773,5905433.3,1682141,book_collection_true_dates/location/query7//useDOCUMENT:DATE:LOCATIONuseREFERENCES:SIMDATES/rel2-1-date_th0.25-doc_th0.5-loc_th0.4.res.clean,0.000,0.000,0.000,0.000,0.000,
DOCUMENT:DATE:LOCATION,REFERENCES:SIMDATES,0.6,0.25,0.4,rel2-2,2,6,127990,16466.0,36514,book_collection_true_dates/location/query7//useDOCUMENT:DATE:LOCATIONuseREFERENCES:SIMDATES/rel2-2-date_th0.25-doc_th0.6-loc_th0.4.res.clean,0.400,0.800,0.400,0.400,0.400,
DOCUMENT:DATE:LOCATION,REFERENCES:SIMDATES,0.6,0.3,0.4,rel3-1,3,10,6660690,3071178.3,1281708,book_collection_true_dates/location/query7//useDOCUMENT:DATE:LOCATIONuseREFERENCES:SIMDATES/rel3-1-date_th0.3-doc_th0.6-loc_th0.4.res.clean,0.000,0.000,0.000,0.000,0.000,
DOCUMENT:DATE:LOCATION,REFERENCES:SIMDATES,0.5,0.25,0.4,rel3-1,3,9,9611433,6456758.8,1982122,book_collection_true_dates/location/query7//useDOCUMENT:DATE:LOCATIONuseREFERENCES:SIMDATES/rel3-1-date_th0.25-doc_th0.5-loc_th0.4.res.clean,0.000,0.000,0.000,0.000,0.000,
DOCUMENT:DATE:LOCATION,REFERENCES:SIMDATES,0.7,0.3,0.35,rel1-3-date_th0,1,2,5,1.7,1800,book_collection_true_dates/location/query7//useDOCUMENT:DATE:LOCATIONuseREFERENCES:SIMDATES/rel1-3-date_th0.3-doc_th0.7-loc_th0.35.res.clean,0.000,0.000,0.000,0.000,0.000,
DOCUMENT:DATE:LOCATION,REFERENCES:SIMDATES,0.7,0.3,0.35,rel2-1,2,4,593341,59897.6,79354,book_collection_true_dates/location/query7//useDOCUMENT:DATE:LOCATIONuseREFERENCES:SIMDATES/rel2-1-date_th0.3-doc_th0.7-loc_th0.35.res.clean,0.400,0.800,0.400,0.400,0.400,
DOCUMENT:DATE:LOCATION,REFERENCES:SIMDATES,0.6,0.25,0.35,rel2-1,2,4,593341,59897.6,92091,book_collection_true_dates/location/query7//useDOCUMENT:DATE:LOCATIONuseREFERENCES:SIMDATES/rel2-1-date_th0.25-doc_th0.6-loc_th0.35.res.clean,0.400,0.800,0.400,0.400,0.400,
DOCUMENT:DATE:LOCATION,REFERENCES:SIMDATES,0.5,0.25,0.4,rel1-3-date_th0,1,2,5,1.7,1793,book_collection_true_dates/location/query7//useDOCUMENT:DATE:LOCATIONuseREFERENCES:SIMDATES/rel1-3-date_th0.25-doc_th0.5-loc_th0.4.res.clean,0.000,0.000,0.000,0.000,0.000,
DOCUMENT:DATE:LOCATION,REFERENCES:SIMDATES,0.6,0.25,0.35,rel1-3-date_th0,1,2,5,1.7,1794,book_collection_true_dates/location/query7//useDOCUMENT:DATE:LOCATIONuseREFERENCES:SIMDATES/rel1-3-date_th0.25-doc_th0.6-loc_th0.35.res.clean,0.000,0.000,0.000,0.000,0.000,
DOCUMENT:DATE:LOCATION,REFERENCES:SIMDATES,0.7,0.3,0.35,rel2-2,2,5,106823,13759.0,32483,book_collection_true_dates/location/query7//useDOCUMENT:DATE:LOCATIONuseREFERENCES:SIMDATES/rel2-2-date_th0.3-doc_th0.7-loc_th0.35.res.clean,0.400,0.800,0.400,0.400,0.400,
DOCUMENT:DATE:LOCATION,REFERENCES:SIMDATES,0.7,0.25,0.4,rel2-1,2,6,162785,20852.0,44795,book_collection_true_dates/location/query7//useDOCUMENT:DATE:LOCATIONuseREFERENCES:SIMDATES/rel2-1-date_th0.25-doc_th0.7-loc_th0.4.res.clean,0.400,0.800,0.400,0.400,0.400,
DOCUMENT:DATE:LOCATION,REFERENCES:SIMDATES,0.5,0.3,0.4,rel2-2,2,5,106823,13759.0,32476,book_collection_true_dates/location/query7//useDOCUMENT:DATE:LOCATIONuseREFERENCES:SIMDATES/rel2-2-date_th0.3-doc_th0.5-loc_th0.4.res.clean,0.400,0.800,0.400,0.400,0.400,
DOCUMENT:DATE:LOCATION,REFERENCES:SIMDATES,0.5,0.3,0.4,rel3-1,3,9,9608229,6453236.1,1851446,book_collection_true_dates/location/query7//useDOCUMENT:DATE:LOCATIONuseREFERENCES:SIMDATES/rel3-1-date_th0.3-doc_th0.5-loc_th0.4.res.clean,0.000,0.000,0.000,0.000,0.000,
DOCUMENT:DATE:LOCATION,REFERENCES:SIMDATES,0.6,0.25,0.35,rel1-2,1,3,36006,2589.4,15357,book_collection_true_dates/location/query7//useDOCUMENT:DATE:LOCATIONuseREFERENCES:SIMDATES/rel1-2-date_th0.25-doc_th0.6-loc_th0.35.res.clean,0.400,0.800,0.400,0.400,0.400,

Sig-Test:,randomized,,threshold,set,to,0.050000
