SA configuration: 
	sa.act_diff_ratio_limit = 0.05
	sa.function = ciir.multi.sa.DecayedSumSAFunction(norm_function, 0.1, 0.25)
	sa.id_property_name.DATE = dateID
	sa.id_property_name.DOCUMENT = docID
	sa.id_property_name.LOCATION = locID
	sa.max_pulses = 20
	sa.norm_function = ciir.multi.sa.SigmoidFunction(0, 1.0)
	sa.relationships_to_use = SIMDOC
	sa.weight_property.REFERENCES = relevance
	sa.weight_property.SIMDATES = sim
	sa.weight_property.SIMDOC = sim
	sa.weight_property.SIMLOC = sim

initial document activations (5): 
	generalhistoryfo00myerrich_787, 1
	shorthistoryofmo00haslrich_98, 1
	lifeofstratfordc02laneuoft_185, 1
	selwynhouseschoo1940selw_21, 1
	cambridgemodern09protgoog_449, 1

#   pulse 0: activated nodes: 5, borderline nodes: 5, overall activation: 0.000, activation diff: 0.000, ratio: Infinity
#   pulse 1: activated nodes: 155, borderline nodes: 150, overall activation: 9.890, activation diff: 12.051, ratio: 1.218
#   pulse 2: activated nodes: 1864, borderline nodes: 1709, overall activation: 28.506, activation diff: 20.736, ratio: 0.727
#   pulse 3: activated nodes: 5738, borderline nodes: 3874, overall activation: 83.164, activation diff: 55.029, ratio: 0.662
#   pulse 4: activated nodes: 8587, borderline nodes: 2849, overall activation: 223.448, activation diff: 140.307, ratio: 0.628
#   pulse 5: activated nodes: 8967, borderline nodes: 380, overall activation: 524.406, activation diff: 300.958, ratio: 0.574
#   pulse 6: activated nodes: 8978, borderline nodes: 11, overall activation: 1095.691, activation diff: 571.285, ratio: 0.521
#   pulse 7: activated nodes: 8978, borderline nodes: 0, overall activation: 1892.300, activation diff: 796.610, ratio: 0.421
#   pulse 8: activated nodes: 8978, borderline nodes: 0, overall activation: 2764.455, activation diff: 872.155, ratio: 0.315
#   pulse 9: activated nodes: 8978, borderline nodes: 0, overall activation: 3700.785, activation diff: 936.330, ratio: 0.253
#   pulse 10: activated nodes: 8978, borderline nodes: 0, overall activation: 4463.636, activation diff: 762.851, ratio: 0.171
#   pulse 11: activated nodes: 8978, borderline nodes: 0, overall activation: 4899.148, activation diff: 435.511, ratio: 0.089
#   pulse 12: activated nodes: 8978, borderline nodes: 0, overall activation: 5122.098, activation diff: 222.950, ratio: 0.044

final number of activated nodes: 8978
final overall activation: 5122.1
number of spread. activ. pulses: 12
running time: 3210

top nodes: 
englishcyclopae05kniggoog_144, 0.9999986
cambridgemodern09protgoog_748, 0.99999857
cambridgemodern09protgoog_750, 0.99999857
cambridgemodern09protgoog_743, 0.99999857
englishcyclopae05kniggoog_145, 0.99999845
cambridgemodern09protgoog_730, 0.99999833
cambridgemodern09protgoog_749, 0.99999833
englishcyclopae05kniggoog_146, 0.9999982
englishcyclopae05kniggoog_147, 0.9999981
englishcyclopae05kniggoog_134, 0.999982
generalhistoryfo00myerrich_788, 0.9999803
shorthistoryofmo00haslrich_101, 0.9999779
cambridgemodern09protgoog_737, 0.9999774
lifeofstratfordc02laneuoft_186, 0.9999753
ouroldworldbackg00bearrich_385, 0.9999661
generalhistoryfo00myerrich_791, 0.9999633
cambridgemodern09protgoog_418, 0.99996156
ouroldworldbackg00bearrich_384, 0.9999612
bookman44unkngoog_753, 0.99995935
ouroldworldbackg00bearrich_424, 0.99995536
encyclopediaame28unkngoog_778, 0.99995035
shorthistoryofmo00haslrich_136, 0.9999437
ouroldworldbackg00bearrich_407, 0.99992526
encyclopediaame28unkngoog_777, 0.9999156
lifeofstratfordc02laneuoft_207, 0.99991363
shorthistoryofmo00haslrich_134, 0.99991333
generalhistoryfo00myerrich_790, 0.9999133
cambridgemodern09protgoog_729, 0.99989474
encyclopediaame28unkngoog_466, 0.999875
historyofuniteds07good_71, 0.9998747
encyclopediaame28unkngoog_779, 0.9998579
lifeofstratfordc02laneuoft_293, 0.9998522
ouroldworldbackg00bearrich_13, 0.99983895
shorthistoryofmo00haslrich_126, 0.9998323
ouroldworldbackg00bearrich_383, 0.99982905
generalhistoryfo00myerrich_775, 0.99981856
lifeofstratfordc02laneuoft_294, 0.9998088
lifeofstratfordc02laneuoft_70, 0.99979645
ouroldworldbackg00bearrich_425, 0.99977756
lifeofstratfordc02laneuoft_251, 0.99972504
shorthistoryofmo00haslrich_129, 0.9996308
generalhistoryfo00myerrich_760, 0.9995773
encyclopediaame28unkngoog_318, 0.9994228
cambridgemodern09protgoog_744, 0.99941427
europesincenapol00leveuoft_236, 0.9993595
cambridgemodern09protgoog_747, 0.99935204
generalhistoryfo00myerrich_787, 0.99921167
lifeofstratfordc02laneuoft_473, 0.9991299
lifeofstratfordc02laneuoft_240, 0.99899966
essentialsinmod01howegoog_293, 0.9989059

top documents: 
englishcyclopae05kniggoog_144, 0.9999986
cambridgemodern09protgoog_748, 0.99999857
cambridgemodern09protgoog_750, 0.99999857
cambridgemodern09protgoog_743, 0.99999857
englishcyclopae05kniggoog_145, 0.99999845
cambridgemodern09protgoog_730, 0.99999833
cambridgemodern09protgoog_749, 0.99999833
englishcyclopae05kniggoog_146, 0.9999982
englishcyclopae05kniggoog_147, 0.9999981
englishcyclopae05kniggoog_134, 0.999982
generalhistoryfo00myerrich_788, 0.9999803
shorthistoryofmo00haslrich_101, 0.9999779
cambridgemodern09protgoog_737, 0.9999774
lifeofstratfordc02laneuoft_186, 0.9999753
ouroldworldbackg00bearrich_385, 0.9999661
generalhistoryfo00myerrich_791, 0.9999633
cambridgemodern09protgoog_418, 0.99996156
ouroldworldbackg00bearrich_384, 0.9999612
bookman44unkngoog_753, 0.99995935
ouroldworldbackg00bearrich_424, 0.99995536
encyclopediaame28unkngoog_778, 0.99995035
shorthistoryofmo00haslrich_136, 0.9999437
ouroldworldbackg00bearrich_407, 0.99992526
encyclopediaame28unkngoog_777, 0.9999156
lifeofstratfordc02laneuoft_207, 0.99991363
shorthistoryofmo00haslrich_134, 0.99991333
generalhistoryfo00myerrich_790, 0.9999133
cambridgemodern09protgoog_729, 0.99989474
encyclopediaame28unkngoog_466, 0.999875
historyofuniteds07good_71, 0.9998747
encyclopediaame28unkngoog_779, 0.9998579
lifeofstratfordc02laneuoft_293, 0.9998522
ouroldworldbackg00bearrich_13, 0.99983895
shorthistoryofmo00haslrich_126, 0.9998323
ouroldworldbackg00bearrich_383, 0.99982905
generalhistoryfo00myerrich_775, 0.99981856
lifeofstratfordc02laneuoft_294, 0.9998088
lifeofstratfordc02laneuoft_70, 0.99979645
ouroldworldbackg00bearrich_425, 0.99977756
lifeofstratfordc02laneuoft_251, 0.99972504
shorthistoryofmo00haslrich_129, 0.9996308
generalhistoryfo00myerrich_760, 0.9995773
encyclopediaame28unkngoog_318, 0.9994228
cambridgemodern09protgoog_744, 0.99941427
europesincenapol00leveuoft_236, 0.9993595
cambridgemodern09protgoog_747, 0.99935204
generalhistoryfo00myerrich_787, 0.99921167
lifeofstratfordc02laneuoft_473, 0.9991299
lifeofstratfordc02laneuoft_240, 0.99899966
essentialsinmod01howegoog_293, 0.9989059
_________________________________________________________________


SA configuration: 
	sa.act_diff_ratio_limit = 0.05
	sa.function = ciir.multi.sa.DecayedSumSAFunction(norm_function, 0.1, 0.25)
	sa.id_property_name.DATE = dateID
	sa.id_property_name.DOCUMENT = docID
	sa.id_property_name.LOCATION = locID
	sa.max_pulses = 20
	sa.norm_function = ciir.multi.sa.SigmoidFunction(0.1, 1.0)
	sa.relationships_to_use = SIMDOC
	sa.weight_property.REFERENCES = relevance
	sa.weight_property.SIMDATES = sim
	sa.weight_property.SIMDOC = sim
	sa.weight_property.SIMLOC = sim

initial document activations (5): 
	generalhistoryfo00myerrich_787, 1
	shorthistoryofmo00haslrich_98, 1
	lifeofstratfordc02laneuoft_185, 1
	selwynhouseschoo1940selw_21, 1
	cambridgemodern09protgoog_449, 1

#   pulse 0: activated nodes: 5, borderline nodes: 5, overall activation: 0.000, activation diff: 0.000, ratio: Infinity
#   pulse 1: activated nodes: 155, borderline nodes: 150, overall activation: 4.172, activation diff: 6.557, ratio: 1.572
#   pulse 2: activated nodes: 1864, borderline nodes: 1709, overall activation: 2.241, activation diff: 2.641, ratio: 1.179
#   pulse 3: activated nodes: 1869, borderline nodes: 1710, overall activation: 2.130, activation diff: 1.892, ratio: 0.888
#   pulse 4: activated nodes: 2031, borderline nodes: 1850, overall activation: 5.289, activation diff: 3.686, ratio: 0.697
#   pulse 5: activated nodes: 2343, borderline nodes: 2115, overall activation: 17.722, activation diff: 12.565, ratio: 0.709
#   pulse 6: activated nodes: 2685, borderline nodes: 2407, overall activation: 48.312, activation diff: 30.623, ratio: 0.634
#   pulse 7: activated nodes: 3056, borderline nodes: 2712, overall activation: 86.761, activation diff: 38.457, ratio: 0.443
#   pulse 8: activated nodes: 3680, borderline nodes: 3191, overall activation: 122.034, activation diff: 35.275, ratio: 0.289
#   pulse 9: activated nodes: 4455, borderline nodes: 3733, overall activation: 156.540, activation diff: 34.507, ratio: 0.220
#   pulse 10: activated nodes: 5114, borderline nodes: 4137, overall activation: 196.722, activation diff: 40.182, ratio: 0.204
#   pulse 11: activated nodes: 5605, borderline nodes: 4318, overall activation: 263.498, activation diff: 66.776, ratio: 0.253
#   pulse 12: activated nodes: 6151, borderline nodes: 4479, overall activation: 399.892, activation diff: 136.393, ratio: 0.341
#   pulse 13: activated nodes: 6663, borderline nodes: 4654, overall activation: 564.062, activation diff: 164.171, ratio: 0.291
#   pulse 14: activated nodes: 7251, borderline nodes: 4724, overall activation: 759.553, activation diff: 195.491, ratio: 0.257
#   pulse 15: activated nodes: 7684, borderline nodes: 4347, overall activation: 1047.452, activation diff: 287.899, ratio: 0.275
#   pulse 16: activated nodes: 8047, borderline nodes: 3914, overall activation: 1407.139, activation diff: 359.687, ratio: 0.256
#   pulse 17: activated nodes: 8414, borderline nodes: 3309, overall activation: 1867.936, activation diff: 460.797, ratio: 0.247
#   pulse 18: activated nodes: 8643, borderline nodes: 2647, overall activation: 2444.055, activation diff: 576.119, ratio: 0.236
#   pulse 19: activated nodes: 8765, borderline nodes: 1935, overall activation: 3059.754, activation diff: 615.699, ratio: 0.201
#   pulse 20: activated nodes: 8862, borderline nodes: 1393, overall activation: 3617.381, activation diff: 557.627, ratio: 0.154

final number of activated nodes: 8862
final overall activation: 3617.4
number of spread. activ. pulses: 20
running time: 1438

top nodes: 
cambridgemodern09protgoog_749, 1.0
cambridgemodern09protgoog_750, 1.0
englishcyclopae05kniggoog_145, 1.0
cambridgemodern09protgoog_730, 1.0
cambridgemodern09protgoog_748, 1.0
englishcyclopae05kniggoog_144, 1.0
cambridgemodern09protgoog_743, 1.0
englishcyclopae05kniggoog_146, 0.9999999
englishcyclopae05kniggoog_147, 0.9999998
englishcyclopae05kniggoog_134, 0.9999825
cambridgemodern09protgoog_737, 0.9999759
cambridgemodern09protgoog_418, 0.9999577
encyclopediaame28unkngoog_778, 0.9999453
historyofuniteds07good_71, 0.9999413
encyclopediaame28unkngoog_777, 0.9999025
cambridgemodern09protgoog_729, 0.99988204
encyclopediaame28unkngoog_466, 0.99984884
encyclopediaame28unkngoog_779, 0.99982995
cambridgemodern09protgoog_744, 0.9992796
cambridgemodern09protgoog_747, 0.999262
ouroldworldbackg00bearrich_424, 0.99893916
cambridgemodern09protgoog_742, 0.99854296
cambridgemodern09protgoog_731, 0.9982164
ouroldworldbackg00bearrich_425, 0.9960588
bookman44unkngoog_753, 0.99591976
ouroldworldbackg00bearrich_13, 0.9954003
shorthistoryofmo00haslrich_101, 0.985825
encyclopediaame28unkngoog_468, 0.9855273
cambridgemodern09protgoog_449, 0.984693
shorthistoryofmo00haslrich_126, 0.9810258
shorthistoryofmo00haslrich_136, 0.9806733
generalhistoryfo00myerrich_775, 0.97878855
lifeofstratfordc02laneuoft_186, 0.977607
shorthistoryofmo00haslrich_129, 0.9769248
lifeofstratfordc02laneuoft_70, 0.97666764
ouroldworldbackg00bearrich_409, 0.9719907
cambridgemodern09protgoog_442, 0.9717363
shorthistoryofmo00haslrich_134, 0.9710874
lifeofstratfordc02laneuoft_251, 0.9661741
essentialsinmod01howegoog_319, 0.9660326
cambridgemodern09protgoog_393, 0.95750165
encyclopediaame28unkngoog_318, 0.95675254
shorthistoryofmo00haslrich_130, 0.94982934
cambridgemodern09protgoog_740, 0.9464947
cambridgemodern09protgoog_450, 0.94065166
ouroldworldbackg00bearrich_399, 0.93809783
shorthistoryofmo00haslrich_100, 0.9212522
cambridgemodern09protgoog_391, 0.9158898
encyclopediaame28unkngoog_807, 0.91084623
generalhistoryfo00myerrich_760, 0.90734315

top documents: 
cambridgemodern09protgoog_749, 1.0
cambridgemodern09protgoog_750, 1.0
englishcyclopae05kniggoog_145, 1.0
cambridgemodern09protgoog_730, 1.0
cambridgemodern09protgoog_748, 1.0
englishcyclopae05kniggoog_144, 1.0
cambridgemodern09protgoog_743, 1.0
englishcyclopae05kniggoog_146, 0.9999999
englishcyclopae05kniggoog_147, 0.9999998
englishcyclopae05kniggoog_134, 0.9999825
cambridgemodern09protgoog_737, 0.9999759
cambridgemodern09protgoog_418, 0.9999577
encyclopediaame28unkngoog_778, 0.9999453
historyofuniteds07good_71, 0.9999413
encyclopediaame28unkngoog_777, 0.9999025
cambridgemodern09protgoog_729, 0.99988204
encyclopediaame28unkngoog_466, 0.99984884
encyclopediaame28unkngoog_779, 0.99982995
cambridgemodern09protgoog_744, 0.9992796
cambridgemodern09protgoog_747, 0.999262
ouroldworldbackg00bearrich_424, 0.99893916
cambridgemodern09protgoog_742, 0.99854296
cambridgemodern09protgoog_731, 0.9982164
ouroldworldbackg00bearrich_425, 0.9960588
bookman44unkngoog_753, 0.99591976
ouroldworldbackg00bearrich_13, 0.9954003
shorthistoryofmo00haslrich_101, 0.985825
encyclopediaame28unkngoog_468, 0.9855273
cambridgemodern09protgoog_449, 0.984693
shorthistoryofmo00haslrich_126, 0.9810258
shorthistoryofmo00haslrich_136, 0.9806733
generalhistoryfo00myerrich_775, 0.97878855
lifeofstratfordc02laneuoft_186, 0.977607
shorthistoryofmo00haslrich_129, 0.9769248
lifeofstratfordc02laneuoft_70, 0.97666764
ouroldworldbackg00bearrich_409, 0.9719907
cambridgemodern09protgoog_442, 0.9717363
shorthistoryofmo00haslrich_134, 0.9710874
lifeofstratfordc02laneuoft_251, 0.9661741
essentialsinmod01howegoog_319, 0.9660326
cambridgemodern09protgoog_393, 0.95750165
encyclopediaame28unkngoog_318, 0.95675254
shorthistoryofmo00haslrich_130, 0.94982934
cambridgemodern09protgoog_740, 0.9464947
cambridgemodern09protgoog_450, 0.94065166
ouroldworldbackg00bearrich_399, 0.93809783
shorthistoryofmo00haslrich_100, 0.9212522
cambridgemodern09protgoog_391, 0.9158898
encyclopediaame28unkngoog_807, 0.91084623
generalhistoryfo00myerrich_760, 0.90734315
_________________________________________________________________


SA configuration: 
	sa.act_diff_ratio_limit = 0.05
	sa.function = ciir.multi.sa.DecayedSumSAFunction(norm_function, 0.2, 0.25)
	sa.id_property_name.DATE = dateID
	sa.id_property_name.DOCUMENT = docID
	sa.id_property_name.LOCATION = locID
	sa.max_pulses = 20
	sa.norm_function = ciir.multi.sa.SigmoidFunction(0, 1.0)
	sa.relationships_to_use = SIMDOC
	sa.weight_property.REFERENCES = relevance
	sa.weight_property.SIMDATES = sim
	sa.weight_property.SIMDOC = sim
	sa.weight_property.SIMLOC = sim

initial document activations (5): 
	generalhistoryfo00myerrich_787, 1
	shorthistoryofmo00haslrich_98, 1
	lifeofstratfordc02laneuoft_185, 1
	selwynhouseschoo1940selw_21, 1
	cambridgemodern09protgoog_449, 1

#   pulse 0: activated nodes: 5, borderline nodes: 5, overall activation: 0.000, activation diff: 0.000, ratio: Infinity
#   pulse 1: activated nodes: 155, borderline nodes: 150, overall activation: 9.890, activation diff: 12.051, ratio: 1.218
#   pulse 2: activated nodes: 1864, borderline nodes: 1709, overall activation: 26.767, activation diff: 18.997, ratio: 0.710
#   pulse 3: activated nodes: 5738, borderline nodes: 3874, overall activation: 72.670, activation diff: 46.292, ratio: 0.637
#   pulse 4: activated nodes: 8587, borderline nodes: 2849, overall activation: 180.080, activation diff: 107.436, ratio: 0.597
#   pulse 5: activated nodes: 8967, borderline nodes: 380, overall activation: 382.184, activation diff: 202.104, ratio: 0.529
#   pulse 6: activated nodes: 8978, borderline nodes: 11, overall activation: 726.792, activation diff: 344.609, ratio: 0.474
#   pulse 7: activated nodes: 8978, borderline nodes: 11, overall activation: 1187.006, activation diff: 460.214, ratio: 0.388
#   pulse 8: activated nodes: 8978, borderline nodes: 11, overall activation: 1665.956, activation diff: 478.950, ratio: 0.287
#   pulse 9: activated nodes: 8978, borderline nodes: 11, overall activation: 2099.263, activation diff: 433.306, ratio: 0.206
#   pulse 10: activated nodes: 8978, borderline nodes: 11, overall activation: 2490.746, activation diff: 391.483, ratio: 0.157
#   pulse 11: activated nodes: 8978, borderline nodes: 11, overall activation: 2837.393, activation diff: 346.647, ratio: 0.122
#   pulse 12: activated nodes: 8978, borderline nodes: 11, overall activation: 3111.371, activation diff: 273.978, ratio: 0.088
#   pulse 13: activated nodes: 8978, borderline nodes: 11, overall activation: 3290.829, activation diff: 179.458, ratio: 0.055
#   pulse 14: activated nodes: 8978, borderline nodes: 11, overall activation: 3396.933, activation diff: 106.104, ratio: 0.031

final number of activated nodes: 8978
final overall activation: 3396.9
number of spread. activ. pulses: 14
running time: 1382

top nodes: 
cambridgemodern09protgoog_748, 0.9999999
cambridgemodern09protgoog_750, 0.9999999
englishcyclopae05kniggoog_144, 0.9999999
cambridgemodern09protgoog_743, 0.9999999
englishcyclopae05kniggoog_145, 0.9999998
cambridgemodern09protgoog_730, 0.9999998
cambridgemodern09protgoog_749, 0.9999998
englishcyclopae05kniggoog_146, 0.99999976
englishcyclopae05kniggoog_147, 0.9999996
lifeofstratfordc02laneuoft_186, 0.9999961
bookman44unkngoog_753, 0.9999957
ouroldworldbackg00bearrich_424, 0.99998665
shorthistoryofmo00haslrich_101, 0.99998343
generalhistoryfo00myerrich_788, 0.9999659
englishcyclopae05kniggoog_134, 0.9999647
cambridgemodern09protgoog_737, 0.9999583
ouroldworldbackg00bearrich_385, 0.9999342
generalhistoryfo00myerrich_791, 0.99992514
cambridgemodern09protgoog_418, 0.99992406
ouroldworldbackg00bearrich_384, 0.9999238
encyclopediaame28unkngoog_778, 0.9999106
lifeofstratfordc02laneuoft_207, 0.99989015
shorthistoryofmo00haslrich_136, 0.9998859
ouroldworldbackg00bearrich_13, 0.99988395
ouroldworldbackg00bearrich_407, 0.99986804
generalhistoryfo00myerrich_790, 0.9998415
historyofuniteds07good_71, 0.9998386
encyclopediaame28unkngoog_777, 0.9998344
cambridgemodern09protgoog_729, 0.9998255
shorthistoryofmo00haslrich_134, 0.9998003
encyclopediaame28unkngoog_466, 0.9997977
lifeofstratfordc02laneuoft_293, 0.99975866
encyclopediaame28unkngoog_779, 0.99974614
ouroldworldbackg00bearrich_383, 0.99971354
ouroldworldbackg00bearrich_425, 0.99966204
lifeofstratfordc02laneuoft_294, 0.99965185
generalhistoryfo00myerrich_775, 0.99963325
shorthistoryofmo00haslrich_126, 0.9996311
lifeofstratfordc02laneuoft_70, 0.999543
lifeofstratfordc02laneuoft_251, 0.99937564
shorthistoryofmo00haslrich_129, 0.9992793
generalhistoryfo00myerrich_760, 0.9992314
generalhistoryfo00myerrich_787, 0.999192
cambridgemodern09protgoog_744, 0.9991009
cambridgemodern09protgoog_747, 0.9990232
europesincenapol00leveuoft_236, 0.9989738
encyclopediaame28unkngoog_318, 0.99888414
lifeofstratfordc02laneuoft_240, 0.998496
cambridgemodern09protgoog_742, 0.99832624
lifeofstratfordc02laneuoft_473, 0.9983088

top documents: 
cambridgemodern09protgoog_748, 0.9999999
cambridgemodern09protgoog_750, 0.9999999
englishcyclopae05kniggoog_144, 0.9999999
cambridgemodern09protgoog_743, 0.9999999
englishcyclopae05kniggoog_145, 0.9999998
cambridgemodern09protgoog_730, 0.9999998
cambridgemodern09protgoog_749, 0.9999998
englishcyclopae05kniggoog_146, 0.99999976
englishcyclopae05kniggoog_147, 0.9999996
lifeofstratfordc02laneuoft_186, 0.9999961
bookman44unkngoog_753, 0.9999957
ouroldworldbackg00bearrich_424, 0.99998665
shorthistoryofmo00haslrich_101, 0.99998343
generalhistoryfo00myerrich_788, 0.9999659
englishcyclopae05kniggoog_134, 0.9999647
cambridgemodern09protgoog_737, 0.9999583
ouroldworldbackg00bearrich_385, 0.9999342
generalhistoryfo00myerrich_791, 0.99992514
cambridgemodern09protgoog_418, 0.99992406
ouroldworldbackg00bearrich_384, 0.9999238
encyclopediaame28unkngoog_778, 0.9999106
lifeofstratfordc02laneuoft_207, 0.99989015
shorthistoryofmo00haslrich_136, 0.9998859
ouroldworldbackg00bearrich_13, 0.99988395
ouroldworldbackg00bearrich_407, 0.99986804
generalhistoryfo00myerrich_790, 0.9998415
historyofuniteds07good_71, 0.9998386
encyclopediaame28unkngoog_777, 0.9998344
cambridgemodern09protgoog_729, 0.9998255
shorthistoryofmo00haslrich_134, 0.9998003
encyclopediaame28unkngoog_466, 0.9997977
lifeofstratfordc02laneuoft_293, 0.99975866
encyclopediaame28unkngoog_779, 0.99974614
ouroldworldbackg00bearrich_383, 0.99971354
ouroldworldbackg00bearrich_425, 0.99966204
lifeofstratfordc02laneuoft_294, 0.99965185
generalhistoryfo00myerrich_775, 0.99963325
shorthistoryofmo00haslrich_126, 0.9996311
lifeofstratfordc02laneuoft_70, 0.999543
lifeofstratfordc02laneuoft_251, 0.99937564
shorthistoryofmo00haslrich_129, 0.9992793
generalhistoryfo00myerrich_760, 0.9992314
generalhistoryfo00myerrich_787, 0.999192
cambridgemodern09protgoog_744, 0.9991009
cambridgemodern09protgoog_747, 0.9990232
europesincenapol00leveuoft_236, 0.9989738
encyclopediaame28unkngoog_318, 0.99888414
lifeofstratfordc02laneuoft_240, 0.998496
cambridgemodern09protgoog_742, 0.99832624
lifeofstratfordc02laneuoft_473, 0.9983088
_________________________________________________________________


SA configuration: 
	sa.act_diff_ratio_limit = 0.05
	sa.function = ciir.multi.sa.DecayedSumSAFunction(norm_function, 0.2, 0.25)
	sa.id_property_name.DATE = dateID
	sa.id_property_name.DOCUMENT = docID
	sa.id_property_name.LOCATION = locID
	sa.max_pulses = 20
	sa.norm_function = ciir.multi.sa.SigmoidFunction(0.1, 1.0)
	sa.relationships_to_use = SIMDOC
	sa.weight_property.REFERENCES = relevance
	sa.weight_property.SIMDATES = sim
	sa.weight_property.SIMDOC = sim
	sa.weight_property.SIMLOC = sim

initial document activations (5): 
	generalhistoryfo00myerrich_787, 1
	shorthistoryofmo00haslrich_98, 1
	lifeofstratfordc02laneuoft_185, 1
	selwynhouseschoo1940selw_21, 1
	cambridgemodern09protgoog_449, 1

#   pulse 0: activated nodes: 5, borderline nodes: 5, overall activation: 0.000, activation diff: 0.000, ratio: Infinity
#   pulse 1: activated nodes: 155, borderline nodes: 150, overall activation: 4.172, activation diff: 6.557, ratio: 1.572
#   pulse 2: activated nodes: 1864, borderline nodes: 1709, overall activation: 2.240, activation diff: 2.640, ratio: 1.179
#   pulse 3: activated nodes: 1869, borderline nodes: 1710, overall activation: 2.102, activation diff: 1.865, ratio: 0.887
#   pulse 4: activated nodes: 2015, borderline nodes: 1835, overall activation: 5.048, activation diff: 3.472, ratio: 0.688
#   pulse 5: activated nodes: 2340, borderline nodes: 2113, overall activation: 16.326, activation diff: 11.410, ratio: 0.699
#   pulse 6: activated nodes: 2651, borderline nodes: 2376, overall activation: 43.441, activation diff: 27.147, ratio: 0.625
#   pulse 7: activated nodes: 3021, borderline nodes: 2687, overall activation: 76.514, activation diff: 33.081, ratio: 0.432
#   pulse 8: activated nodes: 3499, borderline nodes: 3048, overall activation: 103.897, activation diff: 27.385, ratio: 0.264
#   pulse 9: activated nodes: 4288, borderline nodes: 3626, overall activation: 126.907, activation diff: 23.011, ratio: 0.181
#   pulse 10: activated nodes: 4804, borderline nodes: 3960, overall activation: 148.212, activation diff: 21.305, ratio: 0.144
#   pulse 11: activated nodes: 5149, borderline nodes: 4112, overall activation: 171.585, activation diff: 23.373, ratio: 0.136
#   pulse 12: activated nodes: 5536, borderline nodes: 4262, overall activation: 206.155, activation diff: 34.570, ratio: 0.168
#   pulse 13: activated nodes: 5843, borderline nodes: 4306, overall activation: 269.165, activation diff: 63.010, ratio: 0.234
#   pulse 14: activated nodes: 6238, borderline nodes: 4473, overall activation: 343.153, activation diff: 73.988, ratio: 0.216
#   pulse 15: activated nodes: 6659, borderline nodes: 4631, overall activation: 414.764, activation diff: 71.611, ratio: 0.173
#   pulse 16: activated nodes: 6992, borderline nodes: 4659, overall activation: 486.554, activation diff: 71.790, ratio: 0.148
#   pulse 17: activated nodes: 7298, borderline nodes: 4542, overall activation: 563.558, activation diff: 77.003, ratio: 0.137
#   pulse 18: activated nodes: 7501, borderline nodes: 4353, overall activation: 661.131, activation diff: 97.573, ratio: 0.148
#   pulse 19: activated nodes: 7754, borderline nodes: 4163, overall activation: 784.235, activation diff: 123.104, ratio: 0.157
#   pulse 20: activated nodes: 8015, borderline nodes: 3929, overall activation: 930.938, activation diff: 146.704, ratio: 0.158

final number of activated nodes: 8015
final overall activation: 930.9
number of spread. activ. pulses: 20
running time: 1161

top nodes: 
cambridgemodern09protgoog_748, 1.0
cambridgemodern09protgoog_750, 1.0
englishcyclopae05kniggoog_144, 1.0
cambridgemodern09protgoog_743, 1.0
cambridgemodern09protgoog_730, 0.9999999
englishcyclopae05kniggoog_145, 0.9999998
cambridgemodern09protgoog_749, 0.9999998
englishcyclopae05kniggoog_146, 0.99999976
englishcyclopae05kniggoog_147, 0.99999934
englishcyclopae05kniggoog_134, 0.99995494
cambridgemodern09protgoog_737, 0.99993396
cambridgemodern09protgoog_418, 0.99989057
encyclopediaame28unkngoog_778, 0.999884
cambridgemodern09protgoog_729, 0.99977714
encyclopediaame28unkngoog_777, 0.9997617
encyclopediaame28unkngoog_466, 0.99972343
encyclopediaame28unkngoog_779, 0.9996627
historyofuniteds07good_71, 0.99918145
cambridgemodern09protgoog_744, 0.9988059
cambridgemodern09protgoog_747, 0.99877644
cambridgemodern09protgoog_742, 0.9978058
cambridgemodern09protgoog_731, 0.9974992
encyclopediaame28unkngoog_468, 0.9822362
cambridgemodern09protgoog_449, 0.9797313
cambridgemodern09protgoog_740, 0.9394627
cambridgemodern09protgoog_393, 0.9383004
ouroldworldbackg00bearrich_424, 0.9160322
cambridgemodern09protgoog_450, 0.88206494
encyclopediaame28unkngoog_807, 0.8786458
cambridgemodern09protgoog_391, 0.8323203
frenchschoolsth02instgoog_40, 0.79993504
englishcyclopae05kniggoog_136, 0.79977006
englishcyclopae05kniggoog_135, 0.7997322
cambridgemodern09protgoog_440, 0.79947764
cambridgemodern09protgoog_395, 0.7990566
englishcyclopae05kniggoog_133, 0.79886407
encyclopediaame28unkngoog_740, 0.7983755
cambridgemodern09protgoog_420, 0.7979917
cambridgemodern09protgoog_409, 0.79788727
englishcyclopae05kniggoog_132, 0.7978697
englishcyclopae05kniggoog_143, 0.7970524
cambridgemodern09protgoog_433, 0.79678607
cambridgemodern09protgoog_725, 0.7964255
cambridgemodern09protgoog_436, 0.795863
historyofuniteds07good_169, 0.79582196
cambridgemodern09protgoog_751, 0.79444313
encyclopediaame28unkngoog_626, 0.7944202
shorthistoryofmo00haslrich_34, 0.7942314
cambridgemodern09protgoog_603, 0.7927602
cambridgemodern09protgoog_644, 0.7926111

top documents: 
cambridgemodern09protgoog_748, 1.0
cambridgemodern09protgoog_750, 1.0
englishcyclopae05kniggoog_144, 1.0
cambridgemodern09protgoog_743, 1.0
cambridgemodern09protgoog_730, 0.9999999
englishcyclopae05kniggoog_145, 0.9999998
cambridgemodern09protgoog_749, 0.9999998
englishcyclopae05kniggoog_146, 0.99999976
englishcyclopae05kniggoog_147, 0.99999934
englishcyclopae05kniggoog_134, 0.99995494
cambridgemodern09protgoog_737, 0.99993396
cambridgemodern09protgoog_418, 0.99989057
encyclopediaame28unkngoog_778, 0.999884
cambridgemodern09protgoog_729, 0.99977714
encyclopediaame28unkngoog_777, 0.9997617
encyclopediaame28unkngoog_466, 0.99972343
encyclopediaame28unkngoog_779, 0.9996627
historyofuniteds07good_71, 0.99918145
cambridgemodern09protgoog_744, 0.9988059
cambridgemodern09protgoog_747, 0.99877644
cambridgemodern09protgoog_742, 0.9978058
cambridgemodern09protgoog_731, 0.9974992
encyclopediaame28unkngoog_468, 0.9822362
cambridgemodern09protgoog_449, 0.9797313
cambridgemodern09protgoog_740, 0.9394627
cambridgemodern09protgoog_393, 0.9383004
ouroldworldbackg00bearrich_424, 0.9160322
cambridgemodern09protgoog_450, 0.88206494
encyclopediaame28unkngoog_807, 0.8786458
cambridgemodern09protgoog_391, 0.8323203
frenchschoolsth02instgoog_40, 0.79993504
englishcyclopae05kniggoog_136, 0.79977006
englishcyclopae05kniggoog_135, 0.7997322
cambridgemodern09protgoog_440, 0.79947764
cambridgemodern09protgoog_395, 0.7990566
englishcyclopae05kniggoog_133, 0.79886407
encyclopediaame28unkngoog_740, 0.7983755
cambridgemodern09protgoog_420, 0.7979917
cambridgemodern09protgoog_409, 0.79788727
englishcyclopae05kniggoog_132, 0.7978697
englishcyclopae05kniggoog_143, 0.7970524
cambridgemodern09protgoog_433, 0.79678607
cambridgemodern09protgoog_725, 0.7964255
cambridgemodern09protgoog_436, 0.795863
historyofuniteds07good_169, 0.79582196
cambridgemodern09protgoog_751, 0.79444313
encyclopediaame28unkngoog_626, 0.7944202
shorthistoryofmo00haslrich_34, 0.7942314
cambridgemodern09protgoog_603, 0.7927602
cambridgemodern09protgoog_644, 0.7926111
_________________________________________________________________


SA configuration: 
	sa.act_diff_ratio_limit = 0.05
	sa.function = ciir.multi.sa.DecayedSumSAFunction(norm_function, 0.25, 0.25)
	sa.id_property_name.DATE = dateID
	sa.id_property_name.DOCUMENT = docID
	sa.id_property_name.LOCATION = locID
	sa.max_pulses = 20
	sa.norm_function = ciir.multi.sa.SigmoidFunction(0, 1.0)
	sa.relationships_to_use = SIMDOC
	sa.weight_property.REFERENCES = relevance
	sa.weight_property.SIMDATES = sim
	sa.weight_property.SIMDOC = sim
	sa.weight_property.SIMLOC = sim

initial document activations (5): 
	generalhistoryfo00myerrich_787, 1
	shorthistoryofmo00haslrich_98, 1
	lifeofstratfordc02laneuoft_185, 1
	selwynhouseschoo1940selw_21, 1
	cambridgemodern09protgoog_449, 1

#   pulse 0: activated nodes: 5, borderline nodes: 5, overall activation: 0.000, activation diff: 0.000, ratio: Infinity
#   pulse 1: activated nodes: 155, borderline nodes: 150, overall activation: 9.890, activation diff: 12.051, ratio: 1.218
#   pulse 2: activated nodes: 1864, borderline nodes: 1709, overall activation: 25.897, activation diff: 18.127, ratio: 0.700
#   pulse 3: activated nodes: 5738, borderline nodes: 3874, overall activation: 67.746, activation diff: 42.247, ratio: 0.624
#   pulse 4: activated nodes: 8587, borderline nodes: 2849, overall activation: 161.210, activation diff: 93.492, ratio: 0.580
#   pulse 5: activated nodes: 8967, borderline nodes: 380, overall activation: 325.445, activation diff: 164.235, ratio: 0.505
#   pulse 6: activated nodes: 8967, borderline nodes: 380, overall activation: 588.316, activation diff: 262.871, ratio: 0.447
#   pulse 7: activated nodes: 8967, borderline nodes: 380, overall activation: 929.406, activation diff: 341.090, ratio: 0.367
#   pulse 8: activated nodes: 8967, borderline nodes: 380, overall activation: 1277.979, activation diff: 348.573, ratio: 0.273
#   pulse 9: activated nodes: 8967, borderline nodes: 380, overall activation: 1583.623, activation diff: 305.643, ratio: 0.193
#   pulse 10: activated nodes: 8967, borderline nodes: 380, overall activation: 1830.679, activation diff: 247.056, ratio: 0.135
#   pulse 11: activated nodes: 8967, borderline nodes: 380, overall activation: 2027.990, activation diff: 197.311, ratio: 0.097
#   pulse 12: activated nodes: 8967, borderline nodes: 380, overall activation: 2186.517, activation diff: 158.528, ratio: 0.073
#   pulse 13: activated nodes: 8967, borderline nodes: 380, overall activation: 2313.271, activation diff: 126.754, ratio: 0.055
#   pulse 14: activated nodes: 8967, borderline nodes: 380, overall activation: 2412.445, activation diff: 99.174, ratio: 0.041

final number of activated nodes: 8967
final overall activation: 2412.4
number of spread. activ. pulses: 14
running time: 1100

top nodes: 
cambridgemodern09protgoog_748, 0.9999999
cambridgemodern09protgoog_750, 0.9999999
englishcyclopae05kniggoog_144, 0.9999999
cambridgemodern09protgoog_743, 0.9999999
cambridgemodern09protgoog_730, 0.9999998
englishcyclopae05kniggoog_145, 0.99999976
cambridgemodern09protgoog_749, 0.99999976
englishcyclopae05kniggoog_146, 0.9999996
englishcyclopae05kniggoog_147, 0.99999917
bookman44unkngoog_753, 0.99999356
lifeofstratfordc02laneuoft_186, 0.9999927
ouroldworldbackg00bearrich_424, 0.999973
shorthistoryofmo00haslrich_101, 0.99996704
generalhistoryfo00myerrich_788, 0.99994856
englishcyclopae05kniggoog_134, 0.99994457
cambridgemodern09protgoog_737, 0.9999343
ouroldworldbackg00bearrich_385, 0.9998932
ouroldworldbackg00bearrich_384, 0.99988437
cambridgemodern09protgoog_418, 0.99988097
encyclopediaame28unkngoog_778, 0.99987197
generalhistoryfo00myerrich_791, 0.99985486
lifeofstratfordc02laneuoft_207, 0.9998026
ouroldworldbackg00bearrich_407, 0.9998
shorthistoryofmo00haslrich_136, 0.9997945
generalhistoryfo00myerrich_790, 0.9997732
cambridgemodern09protgoog_729, 0.9997625
encyclopediaame28unkngoog_777, 0.99974686
encyclopediaame28unkngoog_466, 0.9997288
ouroldworldbackg00bearrich_13, 0.99972284
shorthistoryofmo00haslrich_134, 0.99965084
encyclopediaame28unkngoog_779, 0.99964225
ouroldworldbackg00bearrich_383, 0.9996182
lifeofstratfordc02laneuoft_293, 0.99957716
historyofuniteds07good_71, 0.9995755
lifeofstratfordc02laneuoft_294, 0.9994136
generalhistoryfo00myerrich_775, 0.999405
shorthistoryofmo00haslrich_126, 0.99937296
ouroldworldbackg00bearrich_425, 0.9993178
lifeofstratfordc02laneuoft_70, 0.99920464
generalhistoryfo00myerrich_787, 0.99913466
shorthistoryofmo00haslrich_129, 0.9989394
lifeofstratfordc02laneuoft_251, 0.99891645
cambridgemodern09protgoog_744, 0.9988477
cambridgemodern09protgoog_747, 0.99875486
generalhistoryfo00myerrich_760, 0.99871516
europesincenapol00leveuoft_236, 0.9982789
cambridgemodern09protgoog_742, 0.99797845
lifeofstratfordc02laneuoft_240, 0.9978759
encyclopediaame28unkngoog_318, 0.9976523
cambridgemodern09protgoog_731, 0.99753696

top documents: 
cambridgemodern09protgoog_748, 0.9999999
cambridgemodern09protgoog_750, 0.9999999
englishcyclopae05kniggoog_144, 0.9999999
cambridgemodern09protgoog_743, 0.9999999
cambridgemodern09protgoog_730, 0.9999998
englishcyclopae05kniggoog_145, 0.99999976
cambridgemodern09protgoog_749, 0.99999976
englishcyclopae05kniggoog_146, 0.9999996
englishcyclopae05kniggoog_147, 0.99999917
bookman44unkngoog_753, 0.99999356
lifeofstratfordc02laneuoft_186, 0.9999927
ouroldworldbackg00bearrich_424, 0.999973
shorthistoryofmo00haslrich_101, 0.99996704
generalhistoryfo00myerrich_788, 0.99994856
englishcyclopae05kniggoog_134, 0.99994457
cambridgemodern09protgoog_737, 0.9999343
ouroldworldbackg00bearrich_385, 0.9998932
ouroldworldbackg00bearrich_384, 0.99988437
cambridgemodern09protgoog_418, 0.99988097
encyclopediaame28unkngoog_778, 0.99987197
generalhistoryfo00myerrich_791, 0.99985486
lifeofstratfordc02laneuoft_207, 0.9998026
ouroldworldbackg00bearrich_407, 0.9998
shorthistoryofmo00haslrich_136, 0.9997945
generalhistoryfo00myerrich_790, 0.9997732
cambridgemodern09protgoog_729, 0.9997625
encyclopediaame28unkngoog_777, 0.99974686
encyclopediaame28unkngoog_466, 0.9997288
ouroldworldbackg00bearrich_13, 0.99972284
shorthistoryofmo00haslrich_134, 0.99965084
encyclopediaame28unkngoog_779, 0.99964225
ouroldworldbackg00bearrich_383, 0.9996182
lifeofstratfordc02laneuoft_293, 0.99957716
historyofuniteds07good_71, 0.9995755
lifeofstratfordc02laneuoft_294, 0.9994136
generalhistoryfo00myerrich_775, 0.999405
shorthistoryofmo00haslrich_126, 0.99937296
ouroldworldbackg00bearrich_425, 0.9993178
lifeofstratfordc02laneuoft_70, 0.99920464
generalhistoryfo00myerrich_787, 0.99913466
shorthistoryofmo00haslrich_129, 0.9989394
lifeofstratfordc02laneuoft_251, 0.99891645
cambridgemodern09protgoog_744, 0.9988477
cambridgemodern09protgoog_747, 0.99875486
generalhistoryfo00myerrich_760, 0.99871516
europesincenapol00leveuoft_236, 0.9982789
cambridgemodern09protgoog_742, 0.99797845
lifeofstratfordc02laneuoft_240, 0.9978759
encyclopediaame28unkngoog_318, 0.9976523
cambridgemodern09protgoog_731, 0.99753696
_________________________________________________________________


SA configuration: 
	sa.act_diff_ratio_limit = 0.05
	sa.function = ciir.multi.sa.DecayedSumSAFunction(norm_function, 0.25, 0.25)
	sa.id_property_name.DATE = dateID
	sa.id_property_name.DOCUMENT = docID
	sa.id_property_name.LOCATION = locID
	sa.max_pulses = 20
	sa.norm_function = ciir.multi.sa.SigmoidFunction(0.1, 1.0)
	sa.relationships_to_use = SIMDOC
	sa.weight_property.REFERENCES = relevance
	sa.weight_property.SIMDATES = sim
	sa.weight_property.SIMDOC = sim
	sa.weight_property.SIMLOC = sim

initial document activations (5): 
	generalhistoryfo00myerrich_787, 1
	shorthistoryofmo00haslrich_98, 1
	lifeofstratfordc02laneuoft_185, 1
	selwynhouseschoo1940selw_21, 1
	cambridgemodern09protgoog_449, 1

#   pulse 0: activated nodes: 5, borderline nodes: 5, overall activation: 0.000, activation diff: 0.000, ratio: Infinity
#   pulse 1: activated nodes: 155, borderline nodes: 150, overall activation: 4.172, activation diff: 6.557, ratio: 1.572
#   pulse 2: activated nodes: 1864, borderline nodes: 1709, overall activation: 2.239, activation diff: 2.640, ratio: 1.179
#   pulse 3: activated nodes: 1869, borderline nodes: 1710, overall activation: 2.089, activation diff: 1.851, ratio: 0.886
#   pulse 4: activated nodes: 2015, borderline nodes: 1835, overall activation: 4.930, activation diff: 3.367, ratio: 0.683
#   pulse 5: activated nodes: 2340, borderline nodes: 2113, overall activation: 15.654, activation diff: 10.855, ratio: 0.693
#   pulse 6: activated nodes: 2651, borderline nodes: 2376, overall activation: 41.129, activation diff: 25.507, ratio: 0.620
#   pulse 7: activated nodes: 3019, borderline nodes: 2687, overall activation: 71.795, activation diff: 30.675, ratio: 0.427
#   pulse 8: activated nodes: 3453, borderline nodes: 3020, overall activation: 95.967, activation diff: 24.174, ratio: 0.252
#   pulse 9: activated nodes: 4168, borderline nodes: 3540, overall activation: 114.836, activation diff: 18.869, ratio: 0.164
#   pulse 10: activated nodes: 4629, borderline nodes: 3836, overall activation: 130.627, activation diff: 15.792, ratio: 0.121
#   pulse 11: activated nodes: 4978, borderline nodes: 4029, overall activation: 145.514, activation diff: 14.887, ratio: 0.102
#   pulse 12: activated nodes: 5226, borderline nodes: 4113, overall activation: 162.252, activation diff: 16.738, ratio: 0.103
#   pulse 13: activated nodes: 5503, borderline nodes: 4199, overall activation: 186.613, activation diff: 24.361, ratio: 0.131
#   pulse 14: activated nodes: 5806, borderline nodes: 4307, overall activation: 225.769, activation diff: 39.156, ratio: 0.173
#   pulse 15: activated nodes: 6047, borderline nodes: 4376, overall activation: 269.220, activation diff: 43.451, ratio: 0.161
#   pulse 16: activated nodes: 6329, borderline nodes: 4512, overall activation: 309.533, activation diff: 40.313, ratio: 0.130
#   pulse 17: activated nodes: 6566, borderline nodes: 4579, overall activation: 346.634, activation diff: 37.100, ratio: 0.107
#   pulse 18: activated nodes: 6820, borderline nodes: 4638, overall activation: 380.965, activation diff: 34.331, ratio: 0.090
#   pulse 19: activated nodes: 7025, borderline nodes: 4649, overall activation: 413.789, activation diff: 32.824, ratio: 0.079
#   pulse 20: activated nodes: 7163, borderline nodes: 4596, overall activation: 448.524, activation diff: 34.735, ratio: 0.077

final number of activated nodes: 7163
final overall activation: 448.5
number of spread. activ. pulses: 20
running time: 1013

top nodes: 
englishcyclopae05kniggoog_144, 1.0
cambridgemodern09protgoog_748, 0.9999999
cambridgemodern09protgoog_750, 0.9999999
cambridgemodern09protgoog_743, 0.9999999
cambridgemodern09protgoog_730, 0.9999998
englishcyclopae05kniggoog_145, 0.99999976
cambridgemodern09protgoog_749, 0.99999964
englishcyclopae05kniggoog_146, 0.9999995
englishcyclopae05kniggoog_147, 0.99999887
englishcyclopae05kniggoog_134, 0.9999274
cambridgemodern09protgoog_737, 0.99989057
encyclopediaame28unkngoog_778, 0.9998318
cambridgemodern09protgoog_418, 0.9998206
cambridgemodern09protgoog_729, 0.99969524
encyclopediaame28unkngoog_466, 0.99963564
encyclopediaame28unkngoog_777, 0.99963415
encyclopediaame28unkngoog_779, 0.9995337
cambridgemodern09protgoog_744, 0.9985084
cambridgemodern09protgoog_747, 0.9984248
cambridgemodern09protgoog_742, 0.997326
cambridgemodern09protgoog_731, 0.9970612
historyofuniteds07good_71, 0.9969671
encyclopediaame28unkngoog_468, 0.9801897
cambridgemodern09protgoog_449, 0.9775423
cambridgemodern09protgoog_740, 0.9358319
cambridgemodern09protgoog_393, 0.92291063
encyclopediaame28unkngoog_807, 0.8593311
cambridgemodern09protgoog_450, 0.83896136
cambridgemodern09protgoog_391, 0.7670255
englishcyclopae05kniggoog_136, 0.7496258
englishcyclopae05kniggoog_135, 0.74955654
frenchschoolsth02instgoog_40, 0.74914545
englishcyclopae05kniggoog_133, 0.7485006
cambridgemodern09protgoog_440, 0.7481104
encyclopediaame28unkngoog_740, 0.74800783
cambridgemodern09protgoog_409, 0.74717283
englishcyclopae05kniggoog_132, 0.7469885
cambridgemodern09protgoog_395, 0.74672425
englishcyclopae05kniggoog_143, 0.7457095
cambridgemodern09protgoog_725, 0.7449179
cambridgemodern09protgoog_420, 0.7436716
shorthistoryofmo00haslrich_34, 0.7430184
cambridgemodern09protgoog_751, 0.7427434
cambridgemodern09protgoog_739, 0.7421706
shorthistoryofmo00haslrich_85, 0.740572
cambridgemodern09protgoog_433, 0.7405582
cambridgemodern09protgoog_644, 0.7404154
encyclopediaame28unkngoog_626, 0.739946
cambridgemodern09protgoog_603, 0.73905593
cambridgemodern09protgoog_436, 0.73862004

top documents: 
englishcyclopae05kniggoog_144, 1.0
cambridgemodern09protgoog_748, 0.9999999
cambridgemodern09protgoog_750, 0.9999999
cambridgemodern09protgoog_743, 0.9999999
cambridgemodern09protgoog_730, 0.9999998
englishcyclopae05kniggoog_145, 0.99999976
cambridgemodern09protgoog_749, 0.99999964
englishcyclopae05kniggoog_146, 0.9999995
englishcyclopae05kniggoog_147, 0.99999887
englishcyclopae05kniggoog_134, 0.9999274
cambridgemodern09protgoog_737, 0.99989057
encyclopediaame28unkngoog_778, 0.9998318
cambridgemodern09protgoog_418, 0.9998206
cambridgemodern09protgoog_729, 0.99969524
encyclopediaame28unkngoog_466, 0.99963564
encyclopediaame28unkngoog_777, 0.99963415
encyclopediaame28unkngoog_779, 0.9995337
cambridgemodern09protgoog_744, 0.9985084
cambridgemodern09protgoog_747, 0.9984248
cambridgemodern09protgoog_742, 0.997326
cambridgemodern09protgoog_731, 0.9970612
historyofuniteds07good_71, 0.9969671
encyclopediaame28unkngoog_468, 0.9801897
cambridgemodern09protgoog_449, 0.9775423
cambridgemodern09protgoog_740, 0.9358319
cambridgemodern09protgoog_393, 0.92291063
encyclopediaame28unkngoog_807, 0.8593311
cambridgemodern09protgoog_450, 0.83896136
cambridgemodern09protgoog_391, 0.7670255
englishcyclopae05kniggoog_136, 0.7496258
englishcyclopae05kniggoog_135, 0.74955654
frenchschoolsth02instgoog_40, 0.74914545
englishcyclopae05kniggoog_133, 0.7485006
cambridgemodern09protgoog_440, 0.7481104
encyclopediaame28unkngoog_740, 0.74800783
cambridgemodern09protgoog_409, 0.74717283
englishcyclopae05kniggoog_132, 0.7469885
cambridgemodern09protgoog_395, 0.74672425
englishcyclopae05kniggoog_143, 0.7457095
cambridgemodern09protgoog_725, 0.7449179
cambridgemodern09protgoog_420, 0.7436716
shorthistoryofmo00haslrich_34, 0.7430184
cambridgemodern09protgoog_751, 0.7427434
cambridgemodern09protgoog_739, 0.7421706
shorthistoryofmo00haslrich_85, 0.740572
cambridgemodern09protgoog_433, 0.7405582
cambridgemodern09protgoog_644, 0.7404154
encyclopediaame28unkngoog_626, 0.739946
cambridgemodern09protgoog_603, 0.73905593
cambridgemodern09protgoog_436, 0.73862004
_________________________________________________________________


SA configuration: 
	sa.act_diff_ratio_limit = 0.05
	sa.function = ciir.multi.sa.DecayedSumSAFunction(norm_function, 0.1, 0.5)
	sa.id_property_name.DATE = dateID
	sa.id_property_name.DOCUMENT = docID
	sa.id_property_name.LOCATION = locID
	sa.max_pulses = 20
	sa.norm_function = ciir.multi.sa.SigmoidFunction(0, 1.0)
	sa.relationships_to_use = SIMDOC
	sa.weight_property.REFERENCES = relevance
	sa.weight_property.SIMDATES = sim
	sa.weight_property.SIMDOC = sim
	sa.weight_property.SIMLOC = sim

initial document activations (5): 
	generalhistoryfo00myerrich_787, 1
	shorthistoryofmo00haslrich_98, 1
	lifeofstratfordc02laneuoft_185, 1
	selwynhouseschoo1940selw_21, 1
	cambridgemodern09protgoog_449, 1

#   pulse 0: activated nodes: 5, borderline nodes: 5, overall activation: 0.000, activation diff: 0.000, ratio: Infinity
#   pulse 1: activated nodes: 155, borderline nodes: 150, overall activation: 8.260, activation diff: 8.034, ratio: 0.973
#   pulse 2: activated nodes: 1864, borderline nodes: 1709, overall activation: 17.634, activation diff: 11.399, ratio: 0.646
#   pulse 3: activated nodes: 5738, borderline nodes: 3874, overall activation: 40.131, activation diff: 23.364, ratio: 0.582
#   pulse 4: activated nodes: 8587, borderline nodes: 2849, overall activation: 90.939, activation diff: 51.119, ratio: 0.562
#   pulse 5: activated nodes: 8967, borderline nodes: 380, overall activation: 192.358, activation diff: 101.478, ratio: 0.528
#   pulse 6: activated nodes: 8978, borderline nodes: 11, overall activation: 382.014, activation diff: 189.667, ratio: 0.496
#   pulse 7: activated nodes: 8978, borderline nodes: 0, overall activation: 718.583, activation diff: 336.569, ratio: 0.468
#   pulse 8: activated nodes: 8978, borderline nodes: 0, overall activation: 1198.626, activation diff: 480.044, ratio: 0.400
#   pulse 9: activated nodes: 8978, borderline nodes: 0, overall activation: 1750.945, activation diff: 552.319, ratio: 0.315
#   pulse 10: activated nodes: 8978, borderline nodes: 0, overall activation: 2383.748, activation diff: 632.802, ratio: 0.265
#   pulse 11: activated nodes: 8978, borderline nodes: 0, overall activation: 3076.908, activation diff: 693.160, ratio: 0.225
#   pulse 12: activated nodes: 8978, borderline nodes: 0, overall activation: 3725.816, activation diff: 648.908, ratio: 0.174
#   pulse 13: activated nodes: 8978, borderline nodes: 0, overall activation: 4233.270, activation diff: 507.454, ratio: 0.120
#   pulse 14: activated nodes: 8978, borderline nodes: 0, overall activation: 4593.561, activation diff: 360.291, ratio: 0.078
#   pulse 15: activated nodes: 8978, borderline nodes: 0, overall activation: 4841.532, activation diff: 247.971, ratio: 0.051
#   pulse 16: activated nodes: 8978, borderline nodes: 0, overall activation: 5010.480, activation diff: 168.948, ratio: 0.034

final number of activated nodes: 8978
final overall activation: 5010.5
number of spread. activ. pulses: 16
running time: 1278

top nodes: 
englishcyclopae05kniggoog_144, 0.9999094
cambridgemodern09protgoog_748, 0.99990666
cambridgemodern09protgoog_743, 0.99990624
cambridgemodern09protgoog_750, 0.9999057
englishcyclopae05kniggoog_145, 0.9999017
cambridgemodern09protgoog_730, 0.9998985
cambridgemodern09protgoog_749, 0.9998975
englishcyclopae05kniggoog_146, 0.99989617
englishcyclopae05kniggoog_147, 0.9998955
englishcyclopae05kniggoog_134, 0.9998467
cambridgemodern09protgoog_737, 0.99982864
encyclopediaame28unkngoog_778, 0.9998058
cambridgemodern09protgoog_418, 0.9998051
generalhistoryfo00myerrich_788, 0.99978614
ouroldworldbackg00bearrich_385, 0.99974877
ouroldworldbackg00bearrich_384, 0.9997473
encyclopediaame28unkngoog_777, 0.9997442
cambridgemodern09protgoog_729, 0.99973285
encyclopediaame28unkngoog_466, 0.9997195
encyclopediaame28unkngoog_779, 0.9996925
generalhistoryfo00myerrich_790, 0.99968123
generalhistoryfo00myerrich_791, 0.9996597
ouroldworldbackg00bearrich_407, 0.99964154
ouroldworldbackg00bearrich_383, 0.9995737
shorthistoryofmo00haslrich_101, 0.99952054
shorthistoryofmo00haslrich_136, 0.9994577
shorthistoryofmo00haslrich_134, 0.9994329
lifeofstratfordc02laneuoft_186, 0.9994324
bookman44unkngoog_753, 0.9992271
shorthistoryofmo00haslrich_126, 0.999214
cambridgemodern09protgoog_744, 0.99921227
ouroldworldbackg00bearrich_424, 0.9991525
generalhistoryfo00myerrich_775, 0.9991455
cambridgemodern09protgoog_747, 0.9991201
shorthistoryofmo00haslrich_129, 0.9990463
lifeofstratfordc02laneuoft_207, 0.99900967
lifeofstratfordc02laneuoft_70, 0.9989845
historyofuniteds07good_71, 0.9989239
lifeofstratfordc02laneuoft_251, 0.99880505
lifeofstratfordc02laneuoft_293, 0.99877053
lifeofstratfordc02laneuoft_294, 0.9987379
generalhistoryfo00myerrich_787, 0.9986942
essentialsinmod01howegoog_293, 0.9984783
cambridgemodern09protgoog_742, 0.99846697
generalhistoryfo00myerrich_760, 0.99827856
ouroldworldbackg00bearrich_425, 0.9982102
cambridgemodern09protgoog_731, 0.99818355
ouroldworldbackg00bearrich_13, 0.99816513
lifeofstratfordc02laneuoft_473, 0.9972013
europesincenapol00leveuoft_236, 0.9970931

top documents: 
englishcyclopae05kniggoog_144, 0.9999094
cambridgemodern09protgoog_748, 0.99990666
cambridgemodern09protgoog_743, 0.99990624
cambridgemodern09protgoog_750, 0.9999057
englishcyclopae05kniggoog_145, 0.9999017
cambridgemodern09protgoog_730, 0.9998985
cambridgemodern09protgoog_749, 0.9998975
englishcyclopae05kniggoog_146, 0.99989617
englishcyclopae05kniggoog_147, 0.9998955
englishcyclopae05kniggoog_134, 0.9998467
cambridgemodern09protgoog_737, 0.99982864
encyclopediaame28unkngoog_778, 0.9998058
cambridgemodern09protgoog_418, 0.9998051
generalhistoryfo00myerrich_788, 0.99978614
ouroldworldbackg00bearrich_385, 0.99974877
ouroldworldbackg00bearrich_384, 0.9997473
encyclopediaame28unkngoog_777, 0.9997442
cambridgemodern09protgoog_729, 0.99973285
encyclopediaame28unkngoog_466, 0.9997195
encyclopediaame28unkngoog_779, 0.9996925
generalhistoryfo00myerrich_790, 0.99968123
generalhistoryfo00myerrich_791, 0.9996597
ouroldworldbackg00bearrich_407, 0.99964154
ouroldworldbackg00bearrich_383, 0.9995737
shorthistoryofmo00haslrich_101, 0.99952054
shorthistoryofmo00haslrich_136, 0.9994577
shorthistoryofmo00haslrich_134, 0.9994329
lifeofstratfordc02laneuoft_186, 0.9994324
bookman44unkngoog_753, 0.9992271
shorthistoryofmo00haslrich_126, 0.999214
cambridgemodern09protgoog_744, 0.99921227
ouroldworldbackg00bearrich_424, 0.9991525
generalhistoryfo00myerrich_775, 0.9991455
cambridgemodern09protgoog_747, 0.9991201
shorthistoryofmo00haslrich_129, 0.9990463
lifeofstratfordc02laneuoft_207, 0.99900967
lifeofstratfordc02laneuoft_70, 0.9989845
historyofuniteds07good_71, 0.9989239
lifeofstratfordc02laneuoft_251, 0.99880505
lifeofstratfordc02laneuoft_293, 0.99877053
lifeofstratfordc02laneuoft_294, 0.9987379
generalhistoryfo00myerrich_787, 0.9986942
essentialsinmod01howegoog_293, 0.9984783
cambridgemodern09protgoog_742, 0.99846697
generalhistoryfo00myerrich_760, 0.99827856
ouroldworldbackg00bearrich_425, 0.9982102
cambridgemodern09protgoog_731, 0.99818355
ouroldworldbackg00bearrich_13, 0.99816513
lifeofstratfordc02laneuoft_473, 0.9972013
europesincenapol00leveuoft_236, 0.9970931
_________________________________________________________________


SA configuration: 
	sa.act_diff_ratio_limit = 0.05
	sa.function = ciir.multi.sa.DecayedSumSAFunction(norm_function, 0.1, 0.5)
	sa.id_property_name.DATE = dateID
	sa.id_property_name.DOCUMENT = docID
	sa.id_property_name.LOCATION = locID
	sa.max_pulses = 20
	sa.norm_function = ciir.multi.sa.SigmoidFunction(0.1, 1.0)
	sa.relationships_to_use = SIMDOC
	sa.weight_property.REFERENCES = relevance
	sa.weight_property.SIMDATES = sim
	sa.weight_property.SIMDOC = sim
	sa.weight_property.SIMLOC = sim

initial document activations (5): 
	generalhistoryfo00myerrich_787, 1
	shorthistoryofmo00haslrich_98, 1
	lifeofstratfordc02laneuoft_185, 1
	selwynhouseschoo1940selw_21, 1
	cambridgemodern09protgoog_449, 1

#   pulse 0: activated nodes: 5, borderline nodes: 5, overall activation: 0.000, activation diff: 0.000, ratio: Infinity
#   pulse 1: activated nodes: 155, borderline nodes: 150, overall activation: 4.448, activation diff: 4.371, ratio: 0.983
#   pulse 2: activated nodes: 1864, borderline nodes: 1709, overall activation: 3.192, activation diff: 1.901, ratio: 0.595
#   pulse 3: activated nodes: 1864, borderline nodes: 1709, overall activation: 2.397, activation diff: 1.481, ratio: 0.618
#   pulse 4: activated nodes: 1888, borderline nodes: 1727, overall activation: 2.496, activation diff: 1.504, ratio: 0.602
#   pulse 5: activated nodes: 2052, borderline nodes: 1870, overall activation: 4.454, activation diff: 2.620, ratio: 0.588
#   pulse 6: activated nodes: 2337, borderline nodes: 2114, overall activation: 10.725, activation diff: 6.602, ratio: 0.616
#   pulse 7: activated nodes: 2618, borderline nodes: 2356, overall activation: 25.300, activation diff: 14.740, ratio: 0.583
#   pulse 8: activated nodes: 2836, borderline nodes: 2537, overall activation: 48.007, activation diff: 22.789, ratio: 0.475
#   pulse 9: activated nodes: 3204, borderline nodes: 2835, overall activation: 72.744, activation diff: 24.778, ratio: 0.341
#   pulse 10: activated nodes: 3674, borderline nodes: 3188, overall activation: 96.837, activation diff: 24.114, ratio: 0.249
#   pulse 11: activated nodes: 4199, borderline nodes: 3564, overall activation: 120.326, activation diff: 23.499, ratio: 0.195
#   pulse 12: activated nodes: 4645, borderline nodes: 3852, overall activation: 144.108, activation diff: 23.787, ratio: 0.165
#   pulse 13: activated nodes: 5056, borderline nodes: 4084, overall activation: 170.347, activation diff: 26.242, ratio: 0.154
#   pulse 14: activated nodes: 5480, borderline nodes: 4289, overall activation: 205.176, activation diff: 34.831, ratio: 0.170
#   pulse 15: activated nodes: 5770, borderline nodes: 4302, overall activation: 267.490, activation diff: 62.314, ratio: 0.233
#   pulse 16: activated nodes: 6330, borderline nodes: 4588, overall activation: 359.709, activation diff: 92.220, ratio: 0.256
#   pulse 17: activated nodes: 6711, borderline nodes: 4719, overall activation: 462.528, activation diff: 102.820, ratio: 0.222
#   pulse 18: activated nodes: 7010, borderline nodes: 4615, overall activation: 582.412, activation diff: 119.884, ratio: 0.206
#   pulse 19: activated nodes: 7434, borderline nodes: 4506, overall activation: 742.305, activation diff: 159.892, ratio: 0.215
#   pulse 20: activated nodes: 7748, borderline nodes: 4307, overall activation: 931.732, activation diff: 189.427, ratio: 0.203

final number of activated nodes: 7748
final overall activation: 931.7
number of spread. activ. pulses: 20
running time: 928

top nodes: 
englishcyclopae05kniggoog_144, 0.99995655
cambridgemodern09protgoog_750, 0.9999535
cambridgemodern09protgoog_743, 0.9999534
englishcyclopae05kniggoog_145, 0.99995327
cambridgemodern09protgoog_748, 0.99995255
englishcyclopae05kniggoog_146, 0.9999502
englishcyclopae05kniggoog_147, 0.99995005
cambridgemodern09protgoog_730, 0.9999485
cambridgemodern09protgoog_749, 0.99994767
englishcyclopae05kniggoog_134, 0.9999082
cambridgemodern09protgoog_737, 0.9998677
encyclopediaame28unkngoog_778, 0.9998531
cambridgemodern09protgoog_418, 0.99985003
encyclopediaame28unkngoog_777, 0.99976194
cambridgemodern09protgoog_729, 0.999761
encyclopediaame28unkngoog_466, 0.9997231
encyclopediaame28unkngoog_779, 0.99970317
cambridgemodern09protgoog_744, 0.9990252
cambridgemodern09protgoog_747, 0.9989898
cambridgemodern09protgoog_731, 0.9979155
cambridgemodern09protgoog_742, 0.9979152
historyofuniteds07good_71, 0.9901967
encyclopediaame28unkngoog_468, 0.98426646
cambridgemodern09protgoog_449, 0.9735208
cambridgemodern09protgoog_740, 0.9443444
cambridgemodern09protgoog_393, 0.9342024
englishcyclopae05kniggoog_136, 0.8997776
englishcyclopae05kniggoog_135, 0.899754
englishcyclopae05kniggoog_133, 0.89911216
encyclopediaame28unkngoog_740, 0.8986316
englishcyclopae05kniggoog_132, 0.8983952
cambridgemodern09protgoog_409, 0.89829934
englishcyclopae05kniggoog_143, 0.8980274
cambridgemodern09protgoog_725, 0.8965055
encyclopediaame28unkngoog_626, 0.89551127
cambridgemodern09protgoog_751, 0.8953398
shorthistoryofmo00haslrich_34, 0.89524955
cambridgemodern09protgoog_603, 0.8950922
cambridgemodern09protgoog_644, 0.8947345
cambridgemodern09protgoog_739, 0.89284015
cambridgemodern09protgoog_389, 0.89186
shorthistoryofmo00haslrich_85, 0.8917918
cambridgemodern09protgoog_648, 0.8908689
frenchschoolsth02instgoog_40, 0.8887522
encyclopediaame28unkngoog_807, 0.8884077
cambridgemodern09protgoog_646, 0.888117
cambridgemodern09protgoog_385, 0.8870442
cambridgemodern09protgoog_665, 0.88703036
encyclopediaame28unkngoog_788, 0.8860709
essentialsinmod01howegoog_223, 0.88582957

top documents: 
englishcyclopae05kniggoog_144, 0.99995655
cambridgemodern09protgoog_750, 0.9999535
cambridgemodern09protgoog_743, 0.9999534
englishcyclopae05kniggoog_145, 0.99995327
cambridgemodern09protgoog_748, 0.99995255
englishcyclopae05kniggoog_146, 0.9999502
englishcyclopae05kniggoog_147, 0.99995005
cambridgemodern09protgoog_730, 0.9999485
cambridgemodern09protgoog_749, 0.99994767
englishcyclopae05kniggoog_134, 0.9999082
cambridgemodern09protgoog_737, 0.9998677
encyclopediaame28unkngoog_778, 0.9998531
cambridgemodern09protgoog_418, 0.99985003
encyclopediaame28unkngoog_777, 0.99976194
cambridgemodern09protgoog_729, 0.999761
encyclopediaame28unkngoog_466, 0.9997231
encyclopediaame28unkngoog_779, 0.99970317
cambridgemodern09protgoog_744, 0.9990252
cambridgemodern09protgoog_747, 0.9989898
cambridgemodern09protgoog_731, 0.9979155
cambridgemodern09protgoog_742, 0.9979152
historyofuniteds07good_71, 0.9901967
encyclopediaame28unkngoog_468, 0.98426646
cambridgemodern09protgoog_449, 0.9735208
cambridgemodern09protgoog_740, 0.9443444
cambridgemodern09protgoog_393, 0.9342024
englishcyclopae05kniggoog_136, 0.8997776
englishcyclopae05kniggoog_135, 0.899754
englishcyclopae05kniggoog_133, 0.89911216
encyclopediaame28unkngoog_740, 0.8986316
englishcyclopae05kniggoog_132, 0.8983952
cambridgemodern09protgoog_409, 0.89829934
englishcyclopae05kniggoog_143, 0.8980274
cambridgemodern09protgoog_725, 0.8965055
encyclopediaame28unkngoog_626, 0.89551127
cambridgemodern09protgoog_751, 0.8953398
shorthistoryofmo00haslrich_34, 0.89524955
cambridgemodern09protgoog_603, 0.8950922
cambridgemodern09protgoog_644, 0.8947345
cambridgemodern09protgoog_739, 0.89284015
cambridgemodern09protgoog_389, 0.89186
shorthistoryofmo00haslrich_85, 0.8917918
cambridgemodern09protgoog_648, 0.8908689
frenchschoolsth02instgoog_40, 0.8887522
encyclopediaame28unkngoog_807, 0.8884077
cambridgemodern09protgoog_646, 0.888117
cambridgemodern09protgoog_385, 0.8870442
cambridgemodern09protgoog_665, 0.88703036
encyclopediaame28unkngoog_788, 0.8860709
essentialsinmod01howegoog_223, 0.88582957
_________________________________________________________________


SA configuration: 
	sa.act_diff_ratio_limit = 0.05
	sa.function = ciir.multi.sa.DecayedSumSAFunction(norm_function, 0.2, 0.5)
	sa.id_property_name.DATE = dateID
	sa.id_property_name.DOCUMENT = docID
	sa.id_property_name.LOCATION = locID
	sa.max_pulses = 20
	sa.norm_function = ciir.multi.sa.SigmoidFunction(0, 1.0)
	sa.relationships_to_use = SIMDOC
	sa.weight_property.REFERENCES = relevance
	sa.weight_property.SIMDATES = sim
	sa.weight_property.SIMDOC = sim
	sa.weight_property.SIMLOC = sim

initial document activations (5): 
	generalhistoryfo00myerrich_787, 1
	shorthistoryofmo00haslrich_98, 1
	lifeofstratfordc02laneuoft_185, 1
	selwynhouseschoo1940selw_21, 1
	cambridgemodern09protgoog_449, 1

#   pulse 0: activated nodes: 5, borderline nodes: 5, overall activation: 0.000, activation diff: 0.000, ratio: Infinity
#   pulse 1: activated nodes: 155, borderline nodes: 150, overall activation: 8.260, activation diff: 8.034, ratio: 0.973
#   pulse 2: activated nodes: 1864, borderline nodes: 1709, overall activation: 16.860, activation diff: 10.625, ratio: 0.630
#   pulse 3: activated nodes: 5738, borderline nodes: 3874, overall activation: 36.203, activation diff: 20.216, ratio: 0.558
#   pulse 4: activated nodes: 8587, borderline nodes: 2849, overall activation: 77.025, activation diff: 41.145, ratio: 0.534
#   pulse 5: activated nodes: 8967, borderline nodes: 380, overall activation: 151.528, activation diff: 74.572, ratio: 0.492
#   pulse 6: activated nodes: 8978, borderline nodes: 11, overall activation: 274.471, activation diff: 122.958, ratio: 0.448
#   pulse 7: activated nodes: 8978, borderline nodes: 11, overall activation: 469.538, activation diff: 195.067, ratio: 0.415
#   pulse 8: activated nodes: 8978, borderline nodes: 11, overall activation: 742.240, activation diff: 272.702, ratio: 0.367
#   pulse 9: activated nodes: 8978, borderline nodes: 11, overall activation: 1064.469, activation diff: 322.228, ratio: 0.303
#   pulse 10: activated nodes: 8978, borderline nodes: 11, overall activation: 1390.727, activation diff: 326.259, ratio: 0.235
#   pulse 11: activated nodes: 8978, borderline nodes: 11, overall activation: 1709.729, activation diff: 319.002, ratio: 0.187
#   pulse 12: activated nodes: 8978, borderline nodes: 11, overall activation: 2016.621, activation diff: 306.892, ratio: 0.152
#   pulse 13: activated nodes: 8978, borderline nodes: 11, overall activation: 2307.447, activation diff: 290.826, ratio: 0.126
#   pulse 14: activated nodes: 8978, borderline nodes: 11, overall activation: 2577.742, activation diff: 270.295, ratio: 0.105
#   pulse 15: activated nodes: 8978, borderline nodes: 11, overall activation: 2815.783, activation diff: 238.040, ratio: 0.085
#   pulse 16: activated nodes: 8978, borderline nodes: 11, overall activation: 3009.447, activation diff: 193.664, ratio: 0.064
#   pulse 17: activated nodes: 8978, borderline nodes: 11, overall activation: 3157.552, activation diff: 148.106, ratio: 0.047

final number of activated nodes: 8978
final overall activation: 3157.6
number of spread. activ. pulses: 17
running time: 1124

top nodes: 
englishcyclopae05kniggoog_144, 0.99995345
cambridgemodern09protgoog_748, 0.999952
cambridgemodern09protgoog_743, 0.9999519
cambridgemodern09protgoog_750, 0.99995154
englishcyclopae05kniggoog_145, 0.99994934
cambridgemodern09protgoog_730, 0.99994755
cambridgemodern09protgoog_749, 0.9999472
englishcyclopae05kniggoog_146, 0.9999463
englishcyclopae05kniggoog_147, 0.99994576
englishcyclopae05kniggoog_134, 0.99988997
cambridgemodern09protgoog_737, 0.99987257
generalhistoryfo00myerrich_788, 0.9998528
cambridgemodern09protgoog_418, 0.9998308
encyclopediaame28unkngoog_778, 0.9998282
ouroldworldbackg00bearrich_385, 0.9997984
ouroldworldbackg00bearrich_384, 0.9997963
cambridgemodern09protgoog_729, 0.99972653
encyclopediaame28unkngoog_777, 0.99972284
generalhistoryfo00myerrich_791, 0.99970794
encyclopediaame28unkngoog_466, 0.99970245
generalhistoryfo00myerrich_790, 0.99969757
shorthistoryofmo00haslrich_101, 0.999676
ouroldworldbackg00bearrich_407, 0.9996753
encyclopediaame28unkngoog_779, 0.9996406
lifeofstratfordc02laneuoft_186, 0.99962324
ouroldworldbackg00bearrich_383, 0.99955535
shorthistoryofmo00haslrich_136, 0.9995453
bookman44unkngoog_753, 0.999469
shorthistoryofmo00haslrich_134, 0.9994601
ouroldworldbackg00bearrich_424, 0.99938726
lifeofstratfordc02laneuoft_207, 0.99919033
shorthistoryofmo00haslrich_126, 0.9991491
generalhistoryfo00myerrich_775, 0.9991033
cambridgemodern09protgoog_744, 0.9989462
lifeofstratfordc02laneuoft_70, 0.99889266
lifeofstratfordc02laneuoft_293, 0.99888307
historyofuniteds07good_71, 0.99884605
cambridgemodern09protgoog_747, 0.99884176
shorthistoryofmo00haslrich_129, 0.99883544
generalhistoryfo00myerrich_787, 0.9988206
lifeofstratfordc02laneuoft_294, 0.9987875
lifeofstratfordc02laneuoft_251, 0.998593
ouroldworldbackg00bearrich_13, 0.99832356
ouroldworldbackg00bearrich_425, 0.9981692
cambridgemodern09protgoog_742, 0.9980605
generalhistoryfo00myerrich_760, 0.99793494
cambridgemodern09protgoog_731, 0.99771845
essentialsinmod01howegoog_293, 0.9976248
europesincenapol00leveuoft_236, 0.9966641
lifeofstratfordc02laneuoft_240, 0.99665296

top documents: 
englishcyclopae05kniggoog_144, 0.99995345
cambridgemodern09protgoog_748, 0.999952
cambridgemodern09protgoog_743, 0.9999519
cambridgemodern09protgoog_750, 0.99995154
englishcyclopae05kniggoog_145, 0.99994934
cambridgemodern09protgoog_730, 0.99994755
cambridgemodern09protgoog_749, 0.9999472
englishcyclopae05kniggoog_146, 0.9999463
englishcyclopae05kniggoog_147, 0.99994576
englishcyclopae05kniggoog_134, 0.99988997
cambridgemodern09protgoog_737, 0.99987257
generalhistoryfo00myerrich_788, 0.9998528
cambridgemodern09protgoog_418, 0.9998308
encyclopediaame28unkngoog_778, 0.9998282
ouroldworldbackg00bearrich_385, 0.9997984
ouroldworldbackg00bearrich_384, 0.9997963
cambridgemodern09protgoog_729, 0.99972653
encyclopediaame28unkngoog_777, 0.99972284
generalhistoryfo00myerrich_791, 0.99970794
encyclopediaame28unkngoog_466, 0.99970245
generalhistoryfo00myerrich_790, 0.99969757
shorthistoryofmo00haslrich_101, 0.999676
ouroldworldbackg00bearrich_407, 0.9996753
encyclopediaame28unkngoog_779, 0.9996406
lifeofstratfordc02laneuoft_186, 0.99962324
ouroldworldbackg00bearrich_383, 0.99955535
shorthistoryofmo00haslrich_136, 0.9995453
bookman44unkngoog_753, 0.999469
shorthistoryofmo00haslrich_134, 0.9994601
ouroldworldbackg00bearrich_424, 0.99938726
lifeofstratfordc02laneuoft_207, 0.99919033
shorthistoryofmo00haslrich_126, 0.9991491
generalhistoryfo00myerrich_775, 0.9991033
cambridgemodern09protgoog_744, 0.9989462
lifeofstratfordc02laneuoft_70, 0.99889266
lifeofstratfordc02laneuoft_293, 0.99888307
historyofuniteds07good_71, 0.99884605
cambridgemodern09protgoog_747, 0.99884176
shorthistoryofmo00haslrich_129, 0.99883544
generalhistoryfo00myerrich_787, 0.9988206
lifeofstratfordc02laneuoft_294, 0.9987875
lifeofstratfordc02laneuoft_251, 0.998593
ouroldworldbackg00bearrich_13, 0.99832356
ouroldworldbackg00bearrich_425, 0.9981692
cambridgemodern09protgoog_742, 0.9980605
generalhistoryfo00myerrich_760, 0.99793494
cambridgemodern09protgoog_731, 0.99771845
essentialsinmod01howegoog_293, 0.9976248
europesincenapol00leveuoft_236, 0.9966641
lifeofstratfordc02laneuoft_240, 0.99665296
_________________________________________________________________


SA configuration: 
	sa.act_diff_ratio_limit = 0.05
	sa.function = ciir.multi.sa.DecayedSumSAFunction(norm_function, 0.2, 0.5)
	sa.id_property_name.DATE = dateID
	sa.id_property_name.DOCUMENT = docID
	sa.id_property_name.LOCATION = locID
	sa.max_pulses = 20
	sa.norm_function = ciir.multi.sa.SigmoidFunction(0.1, 1.0)
	sa.relationships_to_use = SIMDOC
	sa.weight_property.REFERENCES = relevance
	sa.weight_property.SIMDATES = sim
	sa.weight_property.SIMDOC = sim
	sa.weight_property.SIMLOC = sim

initial document activations (5): 
	generalhistoryfo00myerrich_787, 1
	shorthistoryofmo00haslrich_98, 1
	lifeofstratfordc02laneuoft_185, 1
	selwynhouseschoo1940selw_21, 1
	cambridgemodern09protgoog_449, 1

#   pulse 0: activated nodes: 5, borderline nodes: 5, overall activation: 0.000, activation diff: 0.000, ratio: Infinity
#   pulse 1: activated nodes: 155, borderline nodes: 150, overall activation: 4.448, activation diff: 4.371, ratio: 0.983
#   pulse 2: activated nodes: 1864, borderline nodes: 1709, overall activation: 3.192, activation diff: 1.901, ratio: 0.595
#   pulse 3: activated nodes: 1864, borderline nodes: 1709, overall activation: 2.395, activation diff: 1.479, ratio: 0.617
#   pulse 4: activated nodes: 1888, borderline nodes: 1727, overall activation: 2.467, activation diff: 1.477, ratio: 0.599
#   pulse 5: activated nodes: 2052, borderline nodes: 1870, overall activation: 4.281, activation diff: 2.476, ratio: 0.578
#   pulse 6: activated nodes: 2337, borderline nodes: 2114, overall activation: 9.981, activation diff: 6.030, ratio: 0.604
#   pulse 7: activated nodes: 2618, borderline nodes: 2356, overall activation: 22.987, activation diff: 13.171, ratio: 0.573
#   pulse 8: activated nodes: 2825, borderline nodes: 2529, overall activation: 42.987, activation diff: 20.083, ratio: 0.467
#   pulse 9: activated nodes: 3144, borderline nodes: 2786, overall activation: 64.213, activation diff: 21.267, ratio: 0.331
#   pulse 10: activated nodes: 3530, borderline nodes: 3079, overall activation: 83.706, activation diff: 19.513, ratio: 0.233
#   pulse 11: activated nodes: 4051, borderline nodes: 3469, overall activation: 101.200, activation diff: 17.505, ratio: 0.173
#   pulse 12: activated nodes: 4414, borderline nodes: 3699, overall activation: 117.119, activation diff: 15.924, ratio: 0.136
#   pulse 13: activated nodes: 4752, borderline nodes: 3918, overall activation: 132.108, activation diff: 14.992, ratio: 0.113
#   pulse 14: activated nodes: 4997, borderline nodes: 4034, overall activation: 147.123, activation diff: 15.016, ratio: 0.102
#   pulse 15: activated nodes: 5257, borderline nodes: 4144, overall activation: 163.893, activation diff: 16.771, ratio: 0.102
#   pulse 16: activated nodes: 5534, borderline nodes: 4236, overall activation: 186.779, activation diff: 22.886, ratio: 0.123
#   pulse 17: activated nodes: 5785, borderline nodes: 4298, overall activation: 223.455, activation diff: 36.676, ratio: 0.164
#   pulse 18: activated nodes: 6088, borderline nodes: 4430, overall activation: 268.940, activation diff: 45.484, ratio: 0.169
#   pulse 19: activated nodes: 6363, borderline nodes: 4551, overall activation: 315.587, activation diff: 46.647, ratio: 0.148
#   pulse 20: activated nodes: 6634, borderline nodes: 4634, overall activation: 362.941, activation diff: 47.355, ratio: 0.130

final number of activated nodes: 6634
final overall activation: 362.9
number of spread. activ. pulses: 20
running time: 824

top nodes: 
englishcyclopae05kniggoog_144, 0.9999549
cambridgemodern09protgoog_750, 0.9999517
cambridgemodern09protgoog_743, 0.9999516
englishcyclopae05kniggoog_145, 0.99995124
cambridgemodern09protgoog_748, 0.99995077
englishcyclopae05kniggoog_146, 0.99994767
englishcyclopae05kniggoog_147, 0.99994737
cambridgemodern09protgoog_730, 0.9999462
cambridgemodern09protgoog_749, 0.9999454
englishcyclopae05kniggoog_134, 0.9998691
cambridgemodern09protgoog_737, 0.9997859
encyclopediaame28unkngoog_778, 0.9997782
cambridgemodern09protgoog_418, 0.9997516
cambridgemodern09protgoog_729, 0.99963397
encyclopediaame28unkngoog_777, 0.9995825
encyclopediaame28unkngoog_466, 0.9995824
encyclopediaame28unkngoog_779, 0.9995191
cambridgemodern09protgoog_744, 0.9985508
cambridgemodern09protgoog_747, 0.99844223
cambridgemodern09protgoog_731, 0.99719906
cambridgemodern09protgoog_742, 0.9970648
encyclopediaame28unkngoog_468, 0.98073506
historyofuniteds07good_71, 0.9703022
cambridgemodern09protgoog_449, 0.96998847
cambridgemodern09protgoog_740, 0.9377252
cambridgemodern09protgoog_393, 0.90376264
encyclopediaame28unkngoog_807, 0.84876597
englishcyclopae05kniggoog_136, 0.7995949
englishcyclopae05kniggoog_135, 0.7995435
englishcyclopae05kniggoog_133, 0.79855114
encyclopediaame28unkngoog_740, 0.798036
cambridgemodern09protgoog_409, 0.7971462
englishcyclopae05kniggoog_132, 0.79708576
englishcyclopae05kniggoog_143, 0.7962707
cambridgemodern09protgoog_725, 0.79428697
shorthistoryofmo00haslrich_34, 0.7933483
cambridgemodern09protgoog_751, 0.7925852
cambridgemodern09protgoog_739, 0.7921149
cambridgemodern09protgoog_644, 0.7914424
shorthistoryofmo00haslrich_85, 0.790542
cambridgemodern09protgoog_603, 0.7898392
encyclopediaame28unkngoog_626, 0.78796816
cambridgemodern09protgoog_389, 0.78249836
encyclopediaame28unkngoog_788, 0.78077483
cambridgemodern09protgoog_385, 0.78037274
essentialsinmod01howegoog_223, 0.7794775
encyclopediaame28unkngoog_388, 0.777965
cambridgemodern09protgoog_646, 0.7746426
encyclopediaame28unkngoog_16, 0.7746259
cambridgemodern09protgoog_648, 0.7738913

top documents: 
englishcyclopae05kniggoog_144, 0.9999549
cambridgemodern09protgoog_750, 0.9999517
cambridgemodern09protgoog_743, 0.9999516
englishcyclopae05kniggoog_145, 0.99995124
cambridgemodern09protgoog_748, 0.99995077
englishcyclopae05kniggoog_146, 0.99994767
englishcyclopae05kniggoog_147, 0.99994737
cambridgemodern09protgoog_730, 0.9999462
cambridgemodern09protgoog_749, 0.9999454
englishcyclopae05kniggoog_134, 0.9998691
cambridgemodern09protgoog_737, 0.9997859
encyclopediaame28unkngoog_778, 0.9997782
cambridgemodern09protgoog_418, 0.9997516
cambridgemodern09protgoog_729, 0.99963397
encyclopediaame28unkngoog_777, 0.9995825
encyclopediaame28unkngoog_466, 0.9995824
encyclopediaame28unkngoog_779, 0.9995191
cambridgemodern09protgoog_744, 0.9985508
cambridgemodern09protgoog_747, 0.99844223
cambridgemodern09protgoog_731, 0.99719906
cambridgemodern09protgoog_742, 0.9970648
encyclopediaame28unkngoog_468, 0.98073506
historyofuniteds07good_71, 0.9703022
cambridgemodern09protgoog_449, 0.96998847
cambridgemodern09protgoog_740, 0.9377252
cambridgemodern09protgoog_393, 0.90376264
encyclopediaame28unkngoog_807, 0.84876597
englishcyclopae05kniggoog_136, 0.7995949
englishcyclopae05kniggoog_135, 0.7995435
englishcyclopae05kniggoog_133, 0.79855114
encyclopediaame28unkngoog_740, 0.798036
cambridgemodern09protgoog_409, 0.7971462
englishcyclopae05kniggoog_132, 0.79708576
englishcyclopae05kniggoog_143, 0.7962707
cambridgemodern09protgoog_725, 0.79428697
shorthistoryofmo00haslrich_34, 0.7933483
cambridgemodern09protgoog_751, 0.7925852
cambridgemodern09protgoog_739, 0.7921149
cambridgemodern09protgoog_644, 0.7914424
shorthistoryofmo00haslrich_85, 0.790542
cambridgemodern09protgoog_603, 0.7898392
encyclopediaame28unkngoog_626, 0.78796816
cambridgemodern09protgoog_389, 0.78249836
encyclopediaame28unkngoog_788, 0.78077483
cambridgemodern09protgoog_385, 0.78037274
essentialsinmod01howegoog_223, 0.7794775
encyclopediaame28unkngoog_388, 0.777965
cambridgemodern09protgoog_646, 0.7746426
encyclopediaame28unkngoog_16, 0.7746259
cambridgemodern09protgoog_648, 0.7738913
_________________________________________________________________


SA configuration: 
	sa.act_diff_ratio_limit = 0.05
	sa.function = ciir.multi.sa.DecayedSumSAFunction(norm_function, 0.25, 0.5)
	sa.id_property_name.DATE = dateID
	sa.id_property_name.DOCUMENT = docID
	sa.id_property_name.LOCATION = locID
	sa.max_pulses = 20
	sa.norm_function = ciir.multi.sa.SigmoidFunction(0, 1.0)
	sa.relationships_to_use = SIMDOC
	sa.weight_property.REFERENCES = relevance
	sa.weight_property.SIMDATES = sim
	sa.weight_property.SIMDOC = sim
	sa.weight_property.SIMLOC = sim

initial document activations (5): 
	generalhistoryfo00myerrich_787, 1
	shorthistoryofmo00haslrich_98, 1
	lifeofstratfordc02laneuoft_185, 1
	selwynhouseschoo1940selw_21, 1
	cambridgemodern09protgoog_449, 1

#   pulse 0: activated nodes: 5, borderline nodes: 5, overall activation: 0.000, activation diff: 0.000, ratio: Infinity
#   pulse 1: activated nodes: 155, borderline nodes: 150, overall activation: 8.260, activation diff: 8.034, ratio: 0.973
#   pulse 2: activated nodes: 1864, borderline nodes: 1709, overall activation: 16.474, activation diff: 10.239, ratio: 0.622
#   pulse 3: activated nodes: 5738, borderline nodes: 3874, overall activation: 34.337, activation diff: 18.738, ratio: 0.546
#   pulse 4: activated nodes: 8587, borderline nodes: 2849, overall activation: 70.796, activation diff: 36.788, ratio: 0.520
#   pulse 5: activated nodes: 8967, borderline nodes: 380, overall activation: 134.523, activation diff: 63.802, ratio: 0.474
#   pulse 6: activated nodes: 8967, borderline nodes: 380, overall activation: 233.531, activation diff: 99.024, ratio: 0.424
#   pulse 7: activated nodes: 8967, borderline nodes: 380, overall activation: 380.981, activation diff: 147.450, ratio: 0.387
#   pulse 8: activated nodes: 8967, borderline nodes: 380, overall activation: 581.743, activation diff: 200.762, ratio: 0.345
#   pulse 9: activated nodes: 8967, borderline nodes: 380, overall activation: 814.660, activation diff: 232.916, ratio: 0.286
#   pulse 10: activated nodes: 8967, borderline nodes: 380, overall activation: 1057.984, activation diff: 243.324, ratio: 0.230
#   pulse 11: activated nodes: 8967, borderline nodes: 380, overall activation: 1287.497, activation diff: 229.513, ratio: 0.178
#   pulse 12: activated nodes: 8967, borderline nodes: 380, overall activation: 1494.716, activation diff: 207.220, ratio: 0.139
#   pulse 13: activated nodes: 8967, borderline nodes: 380, overall activation: 1678.006, activation diff: 183.290, ratio: 0.109
#   pulse 14: activated nodes: 8967, borderline nodes: 380, overall activation: 1837.873, activation diff: 159.867, ratio: 0.087
#   pulse 15: activated nodes: 8967, borderline nodes: 380, overall activation: 1976.610, activation diff: 138.737, ratio: 0.070
#   pulse 16: activated nodes: 8967, borderline nodes: 380, overall activation: 2096.583, activation diff: 119.973, ratio: 0.057
#   pulse 17: activated nodes: 8967, borderline nodes: 380, overall activation: 2199.810, activation diff: 103.227, ratio: 0.047

final number of activated nodes: 8967
final overall activation: 2199.8
number of spread. activ. pulses: 17
running time: 1121

top nodes: 
englishcyclopae05kniggoog_144, 0.9999528
cambridgemodern09protgoog_748, 0.9999513
cambridgemodern09protgoog_743, 0.99995124
cambridgemodern09protgoog_750, 0.9999508
englishcyclopae05kniggoog_145, 0.9999485
cambridgemodern09protgoog_730, 0.9999466
cambridgemodern09protgoog_749, 0.99994624
englishcyclopae05kniggoog_146, 0.99994516
englishcyclopae05kniggoog_147, 0.99994445
englishcyclopae05kniggoog_134, 0.9998658
cambridgemodern09protgoog_737, 0.99984103
generalhistoryfo00myerrich_788, 0.999826
encyclopediaame28unkngoog_778, 0.99978507
cambridgemodern09protgoog_418, 0.9997777
ouroldworldbackg00bearrich_384, 0.99974424
ouroldworldbackg00bearrich_385, 0.99974084
cambridgemodern09protgoog_729, 0.9996563
encyclopediaame28unkngoog_466, 0.9996285
encyclopediaame28unkngoog_777, 0.9996227
generalhistoryfo00myerrich_790, 0.9996129
shorthistoryofmo00haslrich_101, 0.99960196
generalhistoryfo00myerrich_791, 0.9995815
ouroldworldbackg00bearrich_407, 0.9995713
lifeofstratfordc02laneuoft_186, 0.9995465
encyclopediaame28unkngoog_779, 0.99953043
ouroldworldbackg00bearrich_383, 0.9994414
shorthistoryofmo00haslrich_136, 0.9993787
bookman44unkngoog_753, 0.9993468
shorthistoryofmo00haslrich_134, 0.9992299
ouroldworldbackg00bearrich_424, 0.9992137
lifeofstratfordc02laneuoft_207, 0.9989003
shorthistoryofmo00haslrich_126, 0.9987462
generalhistoryfo00myerrich_787, 0.9987168
generalhistoryfo00myerrich_775, 0.9987122
cambridgemodern09protgoog_744, 0.99868214
cambridgemodern09protgoog_747, 0.99854887
lifeofstratfordc02laneuoft_293, 0.9984177
shorthistoryofmo00haslrich_129, 0.9983745
lifeofstratfordc02laneuoft_70, 0.99834555
lifeofstratfordc02laneuoft_294, 0.9982726
historyofuniteds07good_71, 0.99789035
lifeofstratfordc02laneuoft_251, 0.9978409
cambridgemodern09protgoog_742, 0.9976724
ouroldworldbackg00bearrich_13, 0.99740815
cambridgemodern09protgoog_731, 0.9973422
ouroldworldbackg00bearrich_425, 0.99709964
generalhistoryfo00myerrich_760, 0.9968284
essentialsinmod01howegoog_293, 0.99673486
lifeofstratfordc02laneuoft_240, 0.9953533
europesincenapol00leveuoft_236, 0.99490285

top documents: 
englishcyclopae05kniggoog_144, 0.9999528
cambridgemodern09protgoog_748, 0.9999513
cambridgemodern09protgoog_743, 0.99995124
cambridgemodern09protgoog_750, 0.9999508
englishcyclopae05kniggoog_145, 0.9999485
cambridgemodern09protgoog_730, 0.9999466
cambridgemodern09protgoog_749, 0.99994624
englishcyclopae05kniggoog_146, 0.99994516
englishcyclopae05kniggoog_147, 0.99994445
englishcyclopae05kniggoog_134, 0.9998658
cambridgemodern09protgoog_737, 0.99984103
generalhistoryfo00myerrich_788, 0.999826
encyclopediaame28unkngoog_778, 0.99978507
cambridgemodern09protgoog_418, 0.9997777
ouroldworldbackg00bearrich_384, 0.99974424
ouroldworldbackg00bearrich_385, 0.99974084
cambridgemodern09protgoog_729, 0.9996563
encyclopediaame28unkngoog_466, 0.9996285
encyclopediaame28unkngoog_777, 0.9996227
generalhistoryfo00myerrich_790, 0.9996129
shorthistoryofmo00haslrich_101, 0.99960196
generalhistoryfo00myerrich_791, 0.9995815
ouroldworldbackg00bearrich_407, 0.9995713
lifeofstratfordc02laneuoft_186, 0.9995465
encyclopediaame28unkngoog_779, 0.99953043
ouroldworldbackg00bearrich_383, 0.9994414
shorthistoryofmo00haslrich_136, 0.9993787
bookman44unkngoog_753, 0.9993468
shorthistoryofmo00haslrich_134, 0.9992299
ouroldworldbackg00bearrich_424, 0.9992137
lifeofstratfordc02laneuoft_207, 0.9989003
shorthistoryofmo00haslrich_126, 0.9987462
generalhistoryfo00myerrich_787, 0.9987168
generalhistoryfo00myerrich_775, 0.9987122
cambridgemodern09protgoog_744, 0.99868214
cambridgemodern09protgoog_747, 0.99854887
lifeofstratfordc02laneuoft_293, 0.9984177
shorthistoryofmo00haslrich_129, 0.9983745
lifeofstratfordc02laneuoft_70, 0.99834555
lifeofstratfordc02laneuoft_294, 0.9982726
historyofuniteds07good_71, 0.99789035
lifeofstratfordc02laneuoft_251, 0.9978409
cambridgemodern09protgoog_742, 0.9976724
ouroldworldbackg00bearrich_13, 0.99740815
cambridgemodern09protgoog_731, 0.9973422
ouroldworldbackg00bearrich_425, 0.99709964
generalhistoryfo00myerrich_760, 0.9968284
essentialsinmod01howegoog_293, 0.99673486
lifeofstratfordc02laneuoft_240, 0.9953533
europesincenapol00leveuoft_236, 0.99490285
_________________________________________________________________


SA configuration: 
	sa.act_diff_ratio_limit = 0.05
	sa.function = ciir.multi.sa.DecayedSumSAFunction(norm_function, 0.25, 0.5)
	sa.id_property_name.DATE = dateID
	sa.id_property_name.DOCUMENT = docID
	sa.id_property_name.LOCATION = locID
	sa.max_pulses = 20
	sa.norm_function = ciir.multi.sa.SigmoidFunction(0.1, 1.0)
	sa.relationships_to_use = SIMDOC
	sa.weight_property.REFERENCES = relevance
	sa.weight_property.SIMDATES = sim
	sa.weight_property.SIMDOC = sim
	sa.weight_property.SIMLOC = sim

initial document activations (5): 
	generalhistoryfo00myerrich_787, 1
	shorthistoryofmo00haslrich_98, 1
	lifeofstratfordc02laneuoft_185, 1
	selwynhouseschoo1940selw_21, 1
	cambridgemodern09protgoog_449, 1

#   pulse 0: activated nodes: 5, borderline nodes: 5, overall activation: 0.000, activation diff: 0.000, ratio: Infinity
#   pulse 1: activated nodes: 155, borderline nodes: 150, overall activation: 4.448, activation diff: 4.371, ratio: 0.983
#   pulse 2: activated nodes: 1864, borderline nodes: 1709, overall activation: 3.192, activation diff: 1.901, ratio: 0.595
#   pulse 3: activated nodes: 1864, borderline nodes: 1709, overall activation: 2.394, activation diff: 1.478, ratio: 0.617
#   pulse 4: activated nodes: 1888, borderline nodes: 1727, overall activation: 2.453, activation diff: 1.464, ratio: 0.597
#   pulse 5: activated nodes: 2052, borderline nodes: 1870, overall activation: 4.197, activation diff: 2.406, ratio: 0.573
#   pulse 6: activated nodes: 2324, borderline nodes: 2102, overall activation: 9.621, activation diff: 5.755, ratio: 0.598
#   pulse 7: activated nodes: 2618, borderline nodes: 2356, overall activation: 21.884, activation diff: 12.428, ratio: 0.568
#   pulse 8: activated nodes: 2815, borderline nodes: 2521, overall activation: 40.619, activation diff: 18.817, ratio: 0.463
#   pulse 9: activated nodes: 3125, borderline nodes: 2772, overall activation: 60.287, activation diff: 19.709, ratio: 0.327
#   pulse 10: activated nodes: 3425, borderline nodes: 2997, overall activation: 77.869, activation diff: 17.603, ratio: 0.226
#   pulse 11: activated nodes: 3989, borderline nodes: 3431, overall activation: 93.041, activation diff: 15.182, ratio: 0.163
#   pulse 12: activated nodes: 4347, borderline nodes: 3663, overall activation: 106.220, activation diff: 13.185, ratio: 0.124
#   pulse 13: activated nodes: 4609, borderline nodes: 3827, overall activation: 117.884, activation diff: 11.667, ratio: 0.099
#   pulse 14: activated nodes: 4792, borderline nodes: 3914, overall activation: 128.594, activation diff: 10.711, ratio: 0.083
#   pulse 15: activated nodes: 5018, borderline nodes: 4030, overall activation: 139.001, activation diff: 10.408, ratio: 0.075
#   pulse 16: activated nodes: 5196, borderline nodes: 4094, overall activation: 150.022, activation diff: 11.021, ratio: 0.073
#   pulse 17: activated nodes: 5390, borderline nodes: 4154, overall activation: 163.446, activation diff: 13.424, ratio: 0.082
#   pulse 18: activated nodes: 5646, borderline nodes: 4263, overall activation: 182.585, activation diff: 19.139, ratio: 0.105
#   pulse 19: activated nodes: 5841, borderline nodes: 4328, overall activation: 208.359, activation diff: 25.774, ratio: 0.124
#   pulse 20: activated nodes: 6021, borderline nodes: 4384, overall activation: 235.912, activation diff: 27.553, ratio: 0.117

final number of activated nodes: 6021
final overall activation: 235.9
number of spread. activ. pulses: 20
running time: 760

top nodes: 
englishcyclopae05kniggoog_144, 0.999954
cambridgemodern09protgoog_750, 0.99995077
cambridgemodern09protgoog_743, 0.99995065
englishcyclopae05kniggoog_145, 0.99995005
cambridgemodern09protgoog_748, 0.9999498
englishcyclopae05kniggoog_146, 0.9999461
englishcyclopae05kniggoog_147, 0.9999456
cambridgemodern09protgoog_730, 0.9999448
cambridgemodern09protgoog_749, 0.9999441
englishcyclopae05kniggoog_134, 0.9998346
encyclopediaame28unkngoog_778, 0.99972063
cambridgemodern09protgoog_737, 0.99970996
cambridgemodern09protgoog_418, 0.99966466
cambridgemodern09protgoog_729, 0.9995402
encyclopediaame28unkngoog_466, 0.9994858
encyclopediaame28unkngoog_777, 0.99943745
encyclopediaame28unkngoog_779, 0.9993831
cambridgemodern09protgoog_744, 0.9982449
cambridgemodern09protgoog_747, 0.9980681
cambridgemodern09protgoog_731, 0.9967666
cambridgemodern09protgoog_742, 0.99656117
encyclopediaame28unkngoog_468, 0.9787479
cambridgemodern09protgoog_449, 0.96849537
historyofuniteds07good_71, 0.9513464
cambridgemodern09protgoog_740, 0.9342284
cambridgemodern09protgoog_393, 0.8860973
encyclopediaame28unkngoog_807, 0.8241029
englishcyclopae05kniggoog_136, 0.74943745
englishcyclopae05kniggoog_135, 0.74936914
englishcyclopae05kniggoog_133, 0.7481835
encyclopediaame28unkngoog_740, 0.7476984
cambridgemodern09protgoog_409, 0.74638116
englishcyclopae05kniggoog_132, 0.7461475
englishcyclopae05kniggoog_143, 0.7450439
cambridgemodern09protgoog_725, 0.742959
shorthistoryofmo00haslrich_34, 0.74221027
cambridgemodern09protgoog_739, 0.7418016
cambridgemodern09protgoog_751, 0.7409246
shorthistoryofmo00haslrich_85, 0.7400093
cambridgemodern09protgoog_644, 0.7392001
cambridgemodern09protgoog_603, 0.7354882
encyclopediaame28unkngoog_626, 0.7321041
encyclopediaame28unkngoog_788, 0.7279765
encyclopediaame28unkngoog_388, 0.7270973
cambridgemodern09protgoog_385, 0.7264842
essentialsinmod01howegoog_223, 0.72578335
cambridgemodern09protgoog_389, 0.725654
cambridgemodern09protgoog_752, 0.72340745
encyclopediaame28unkngoog_16, 0.7222293
cambridgemodern09protgoog_646, 0.71557605

top documents: 
englishcyclopae05kniggoog_144, 0.999954
cambridgemodern09protgoog_750, 0.99995077
cambridgemodern09protgoog_743, 0.99995065
englishcyclopae05kniggoog_145, 0.99995005
cambridgemodern09protgoog_748, 0.9999498
englishcyclopae05kniggoog_146, 0.9999461
englishcyclopae05kniggoog_147, 0.9999456
cambridgemodern09protgoog_730, 0.9999448
cambridgemodern09protgoog_749, 0.9999441
englishcyclopae05kniggoog_134, 0.9998346
encyclopediaame28unkngoog_778, 0.99972063
cambridgemodern09protgoog_737, 0.99970996
cambridgemodern09protgoog_418, 0.99966466
cambridgemodern09protgoog_729, 0.9995402
encyclopediaame28unkngoog_466, 0.9994858
encyclopediaame28unkngoog_777, 0.99943745
encyclopediaame28unkngoog_779, 0.9993831
cambridgemodern09protgoog_744, 0.9982449
cambridgemodern09protgoog_747, 0.9980681
cambridgemodern09protgoog_731, 0.9967666
cambridgemodern09protgoog_742, 0.99656117
encyclopediaame28unkngoog_468, 0.9787479
cambridgemodern09protgoog_449, 0.96849537
historyofuniteds07good_71, 0.9513464
cambridgemodern09protgoog_740, 0.9342284
cambridgemodern09protgoog_393, 0.8860973
encyclopediaame28unkngoog_807, 0.8241029
englishcyclopae05kniggoog_136, 0.74943745
englishcyclopae05kniggoog_135, 0.74936914
englishcyclopae05kniggoog_133, 0.7481835
encyclopediaame28unkngoog_740, 0.7476984
cambridgemodern09protgoog_409, 0.74638116
englishcyclopae05kniggoog_132, 0.7461475
englishcyclopae05kniggoog_143, 0.7450439
cambridgemodern09protgoog_725, 0.742959
shorthistoryofmo00haslrich_34, 0.74221027
cambridgemodern09protgoog_739, 0.7418016
cambridgemodern09protgoog_751, 0.7409246
shorthistoryofmo00haslrich_85, 0.7400093
cambridgemodern09protgoog_644, 0.7392001
cambridgemodern09protgoog_603, 0.7354882
encyclopediaame28unkngoog_626, 0.7321041
encyclopediaame28unkngoog_788, 0.7279765
encyclopediaame28unkngoog_388, 0.7270973
cambridgemodern09protgoog_385, 0.7264842
essentialsinmod01howegoog_223, 0.72578335
cambridgemodern09protgoog_389, 0.725654
cambridgemodern09protgoog_752, 0.72340745
encyclopediaame28unkngoog_16, 0.7222293
cambridgemodern09protgoog_646, 0.71557605
_________________________________________________________________


