###################################
# parameters: 
#   date_th: 0.25
#   doc_th: 0.5
#   loc_th: 0.4
#   nodestouse: DOCUMENT:DATE:LOCATION
#   relationships: REFERENCES:SIMDATES

###################################
# configuration: 
#   sa.act_diff_ratio_limit = 0.01
#   sa.act_diff_ratio_limit_diff = 0.01
#   sa.function = ciir.multi.sa.function.MaxSAFunction(norm_function)
#   sa.id_property_name.DATE = dateID
#   sa.id_property_name.DOCUMENT = docID
#   sa.id_property_name.LOCATION = locID
#   sa.max_pulses = 10
#   sa.nodes_to_print = DATE:LOCATION
#   sa.nodes_to_use = DOCUMENT:DATE:LOCATION
#   sa.norm_function = ciir.multi.sa.SigmoidFunction(0.0, 1.0)
#   sa.relationships_to_use = REFERENCES:SIMDATES
#   sa.spread_threshold.DATE = 0.25
#   sa.spread_threshold.DOCUMENT = 0.5
#   sa.spread_threshold.LOCATION = 0.4
#   sa.weight_property.REFERENCES = relevance
#   sa.weight_property.SIMDATES = sim
#   sa.weight_property.SIMDOC = sim
#   sa.weight_property.SIMLOC = sim
#   sa.weight_property.SIMPAGE = pagesim

###################################
# initial activations (2): 
#   ingersollscentur00inge_101, 1
#   policepeaceoffic19461946sanf_79, 1

###################################
# spreading activation process log: 
#   pulse 0: activated: 2, non-zero: 2, borderline: 2, overall act: 2.000, act diff: 2.000, ratio: 1.000
#   pulse 1: activated: 26, non-zero: 26, borderline: 24, overall act: 6.178, act diff: 4.178, ratio: 0.676
#   pulse 2: activated: 335438, non-zero: 335438, borderline: 335432, overall act: 45416.857, act diff: 45410.680, ratio: 1.000
#   pulse 3: activated: 397811, non-zero: 397811, borderline: 397803, overall act: 54302.661, act diff: 8885.804, ratio: 0.164
#   pulse 4: activated: 397855, non-zero: 397855, borderline: 397823, overall act: 58653.700, act diff: 4351.039, ratio: 0.074
#   pulse 5: activated: 471865, non-zero: 471865, borderline: 471668, overall act: 112383.390, act diff: 53729.690, ratio: 0.478
#   pulse 6: activated: 2475752, non-zero: 2475752, borderline: 2464070, overall act: 613390.941, act diff: 501007.551, ratio: 0.817
#   pulse 7: activated: 8264891, non-zero: 8264891, borderline: 8160382, overall act: 4822319.479, act diff: 4208928.539, ratio: 0.873
#   pulse 8: activated: 9155114, non-zero: 9155114, borderline: 4565851, overall act: 5852135.007, act diff: 1029815.528, ratio: 0.176
#   pulse 9: activated: 9600307, non-zero: 9600307, borderline: 3702983, overall act: 6455550.480, act diff: 603415.473, ratio: 0.093

###################################
# spreading activation process summary: 
#   final number of activated nodes: 9600307
#   final overall activation: 6455550.5
#   number of spread. activ. pulses: 9
#   running time: 1627840

###################################
# top k results in TREC format: 

10   rel2-8   774   1   1.0   nodesDOCUMENT:DATE:LOCATION-edgesREFERENCES:SIMDATES-date_th0.25-doc_th0.5-loc_th0.4
10   rel2-8   1011   2   1.0   nodesDOCUMENT:DATE:LOCATION-edgesREFERENCES:SIMDATES-date_th0.25-doc_th0.5-loc_th0.4
10   rel2-8   1000   3   1.0   nodesDOCUMENT:DATE:LOCATION-edgesREFERENCES:SIMDATES-date_th0.25-doc_th0.5-loc_th0.4
10   rel2-8   958   4   1.0   nodesDOCUMENT:DATE:LOCATION-edgesREFERENCES:SIMDATES-date_th0.25-doc_th0.5-loc_th0.4
10   rel2-8   1005   5   1.0   nodesDOCUMENT:DATE:LOCATION-edgesREFERENCES:SIMDATES-date_th0.25-doc_th0.5-loc_th0.4
10   rel2-8   1006   6   1.0   nodesDOCUMENT:DATE:LOCATION-edgesREFERENCES:SIMDATES-date_th0.25-doc_th0.5-loc_th0.4
10   rel2-8   1007   7   1.0   nodesDOCUMENT:DATE:LOCATION-edgesREFERENCES:SIMDATES-date_th0.25-doc_th0.5-loc_th0.4
10   rel2-8   1008   8   1.0   nodesDOCUMENT:DATE:LOCATION-edgesREFERENCES:SIMDATES-date_th0.25-doc_th0.5-loc_th0.4
10   rel2-8   1010   9   1.0   nodesDOCUMENT:DATE:LOCATION-edgesREFERENCES:SIMDATES-date_th0.25-doc_th0.5-loc_th0.4
10   rel2-8   1018   10   1.0   nodesDOCUMENT:DATE:LOCATION-edgesREFERENCES:SIMDATES-date_th0.25-doc_th0.5-loc_th0.4
10   rel2-8   1019   11   1.0   nodesDOCUMENT:DATE:LOCATION-edgesREFERENCES:SIMDATES-date_th0.25-doc_th0.5-loc_th0.4
10   rel2-8   1020   12   1.0   nodesDOCUMENT:DATE:LOCATION-edgesREFERENCES:SIMDATES-date_th0.25-doc_th0.5-loc_th0.4
10   rel2-8   1021   13   1.0   nodesDOCUMENT:DATE:LOCATION-edgesREFERENCES:SIMDATES-date_th0.25-doc_th0.5-loc_th0.4
10   rel2-8   1022   14   1.0   nodesDOCUMENT:DATE:LOCATION-edgesREFERENCES:SIMDATES-date_th0.25-doc_th0.5-loc_th0.4
10   rel2-8   1009   15   1.0   nodesDOCUMENT:DATE:LOCATION-edgesREFERENCES:SIMDATES-date_th0.25-doc_th0.5-loc_th0.4
10   rel2-8   1001   16   1.0   nodesDOCUMENT:DATE:LOCATION-edgesREFERENCES:SIMDATES-date_th0.25-doc_th0.5-loc_th0.4
10   rel2-8   1002   17   1.0   nodesDOCUMENT:DATE:LOCATION-edgesREFERENCES:SIMDATES-date_th0.25-doc_th0.5-loc_th0.4
10   rel2-8   1003   18   1.0   nodesDOCUMENT:DATE:LOCATION-edgesREFERENCES:SIMDATES-date_th0.25-doc_th0.5-loc_th0.4
10   rel2-8   1004   19   1.0   nodesDOCUMENT:DATE:LOCATION-edgesREFERENCES:SIMDATES-date_th0.25-doc_th0.5-loc_th0.4
10   rel2-8   725   20   1.0   nodesDOCUMENT:DATE:LOCATION-edgesREFERENCES:SIMDATES-date_th0.25-doc_th0.5-loc_th0.4

###################################
# top nodes: 

# 10   rel2-8   milton of balgonie   1   1.0   nodesDOCUMENT:DATE:LOCATION-edgesREFERENCES:SIMDATES-date_th0.25-doc_th0.5-loc_th0.4
# 10   rel2-8   bapaume   2   1.0   nodesDOCUMENT:DATE:LOCATION-edgesREFERENCES:SIMDATES-date_th0.25-doc_th0.5-loc_th0.4
# 10   rel2-8   victoria bridge   3   1.0   nodesDOCUMENT:DATE:LOCATION-edgesREFERENCES:SIMDATES-date_th0.25-doc_th0.5-loc_th0.4
# 10   rel2-8   haverstraw bay   4   1.0   nodesDOCUMENT:DATE:LOCATION-edgesREFERENCES:SIMDATES-date_th0.25-doc_th0.5-loc_th0.4
# 10   rel2-8   montreal   5   1.0   nodesDOCUMENT:DATE:LOCATION-edgesREFERENCES:SIMDATES-date_th0.25-doc_th0.5-loc_th0.4
# 10   rel2-8   terra firma   6   1.0   nodesDOCUMENT:DATE:LOCATION-edgesREFERENCES:SIMDATES-date_th0.25-doc_th0.5-loc_th0.4
# 10   rel2-8   betsey   7   1.0   nodesDOCUMENT:DATE:LOCATION-edgesREFERENCES:SIMDATES-date_th0.25-doc_th0.5-loc_th0.4
# 10   rel2-8   south oxford   8   1.0   nodesDOCUMENT:DATE:LOCATION-edgesREFERENCES:SIMDATES-date_th0.25-doc_th0.5-loc_th0.4
# 10   rel2-8   nederland   9   1.0   nodesDOCUMENT:DATE:LOCATION-edgesREFERENCES:SIMDATES-date_th0.25-doc_th0.5-loc_th0.4
# 10   rel2-8   hawthornden   10   1.0   nodesDOCUMENT:DATE:LOCATION-edgesREFERENCES:SIMDATES-date_th0.25-doc_th0.5-loc_th0.4
# 10   rel2-8   shillong   11   1.0   nodesDOCUMENT:DATE:LOCATION-edgesREFERENCES:SIMDATES-date_th0.25-doc_th0.5-loc_th0.4
# 10   rel2-8   calatayud   12   1.0   nodesDOCUMENT:DATE:LOCATION-edgesREFERENCES:SIMDATES-date_th0.25-doc_th0.5-loc_th0.4
# 10   rel2-8   mchenry county   13   1.0   nodesDOCUMENT:DATE:LOCATION-edgesREFERENCES:SIMDATES-date_th0.25-doc_th0.5-loc_th0.4
# 10   rel2-8   embarcadero   14   1.0   nodesDOCUMENT:DATE:LOCATION-edgesREFERENCES:SIMDATES-date_th0.25-doc_th0.5-loc_th0.4
# 10   rel2-8   point barrow   15   1.0   nodesDOCUMENT:DATE:LOCATION-edgesREFERENCES:SIMDATES-date_th0.25-doc_th0.5-loc_th0.4
# 10   rel2-8   holy land   16   1.0   nodesDOCUMENT:DATE:LOCATION-edgesREFERENCES:SIMDATES-date_th0.25-doc_th0.5-loc_th0.4
# 10   rel2-8   montreux   17   1.0   nodesDOCUMENT:DATE:LOCATION-edgesREFERENCES:SIMDATES-date_th0.25-doc_th0.5-loc_th0.4
# 10   rel2-8   ecorse   18   1.0   nodesDOCUMENT:DATE:LOCATION-edgesREFERENCES:SIMDATES-date_th0.25-doc_th0.5-loc_th0.4
# 10   rel2-8   montreat   19   1.0   nodesDOCUMENT:DATE:LOCATION-edgesREFERENCES:SIMDATES-date_th0.25-doc_th0.5-loc_th0.4
# 10   rel2-8   tribunealmanacpo1889newy_52   20   1.0   nodesDOCUMENT:DATE:LOCATION-edgesREFERENCES:SIMDATES-date_th0.25-doc_th0.5-loc_th0.4
# 10   rel2-8   longfield   21   1.0   nodesDOCUMENT:DATE:LOCATION-edgesREFERENCES:SIMDATES-date_th0.25-doc_th0.5-loc_th0.4
# 10   rel2-8   euston   22   1.0   nodesDOCUMENT:DATE:LOCATION-edgesREFERENCES:SIMDATES-date_th0.25-doc_th0.5-loc_th0.4
# 10   rel2-8   arnica   23   1.0   nodesDOCUMENT:DATE:LOCATION-edgesREFERENCES:SIMDATES-date_th0.25-doc_th0.5-loc_th0.4
# 10   rel2-8   lake minnetonka   24   1.0   nodesDOCUMENT:DATE:LOCATION-edgesREFERENCES:SIMDATES-date_th0.25-doc_th0.5-loc_th0.4
# 10   rel2-8   yadkin   25   1.0   nodesDOCUMENT:DATE:LOCATION-edgesREFERENCES:SIMDATES-date_th0.25-doc_th0.5-loc_th0.4
# 10   rel2-8   green cove springs   26   1.0   nodesDOCUMENT:DATE:LOCATION-edgesREFERENCES:SIMDATES-date_th0.25-doc_th0.5-loc_th0.4
# 10   rel2-8   haight   27   1.0   nodesDOCUMENT:DATE:LOCATION-edgesREFERENCES:SIMDATES-date_th0.25-doc_th0.5-loc_th0.4
# 10   rel2-8   ellesmere   28   1.0   nodesDOCUMENT:DATE:LOCATION-edgesREFERENCES:SIMDATES-date_th0.25-doc_th0.5-loc_th0.4
# 10   rel2-8   southern europe   29   1.0   nodesDOCUMENT:DATE:LOCATION-edgesREFERENCES:SIMDATES-date_th0.25-doc_th0.5-loc_th0.4
# 10   rel2-8   cyrenaica   30   1.0   nodesDOCUMENT:DATE:LOCATION-edgesREFERENCES:SIMDATES-date_th0.25-doc_th0.5-loc_th0.4
# 10   rel2-8   point pelee   31   1.0   nodesDOCUMENT:DATE:LOCATION-edgesREFERENCES:SIMDATES-date_th0.25-doc_th0.5-loc_th0.4
# 10   rel2-8   poynton   32   1.0   nodesDOCUMENT:DATE:LOCATION-edgesREFERENCES:SIMDATES-date_th0.25-doc_th0.5-loc_th0.4
# 10   rel2-8   kittery   33   1.0   nodesDOCUMENT:DATE:LOCATION-edgesREFERENCES:SIMDATES-date_th0.25-doc_th0.5-loc_th0.4
# 10   rel2-8   lincoln square   34   1.0   nodesDOCUMENT:DATE:LOCATION-edgesREFERENCES:SIMDATES-date_th0.25-doc_th0.5-loc_th0.4
# 10   rel2-8   morro bay   35   1.0   nodesDOCUMENT:DATE:LOCATION-edgesREFERENCES:SIMDATES-date_th0.25-doc_th0.5-loc_th0.4
# 10   rel2-8   new castle county   36   1.0   nodesDOCUMENT:DATE:LOCATION-edgesREFERENCES:SIMDATES-date_th0.25-doc_th0.5-loc_th0.4
# 10   rel2-8   bethel   37   1.0   nodesDOCUMENT:DATE:LOCATION-edgesREFERENCES:SIMDATES-date_th0.25-doc_th0.5-loc_th0.4
# 10   rel2-8   betham   38   1.0   nodesDOCUMENT:DATE:LOCATION-edgesREFERENCES:SIMDATES-date_th0.25-doc_th0.5-loc_th0.4
# 10   rel2-8   warburg   39   1.0   nodesDOCUMENT:DATE:LOCATION-edgesREFERENCES:SIMDATES-date_th0.25-doc_th0.5-loc_th0.4
# 10   rel2-8   new lenox   40   1.0   nodesDOCUMENT:DATE:LOCATION-edgesREFERENCES:SIMDATES-date_th0.25-doc_th0.5-loc_th0.4
