###################################
# parameters: 
#   date_th: 0.25
#   doc_th: 0.5
#   loc_th: 0.35
#   nodestouse: DOCUMENT:DATE:LOCATION
#   relationships: REFERENCES:SIMLOC

###################################
# configuration: 
#   sa.act_diff_ratio_limit = 0.01
#   sa.act_diff_ratio_limit_diff = 0.01
#   sa.function = ciir.multi.sa.function.MaxSAFunction(norm_function)
#   sa.id_property_name.DATE = dateID
#   sa.id_property_name.DOCUMENT = docID
#   sa.id_property_name.LOCATION = locID
#   sa.max_pulses = 10
#   sa.nodes_to_print = DATE:LOCATION
#   sa.nodes_to_use = DOCUMENT:DATE:LOCATION
#   sa.norm_function = ciir.multi.sa.SigmoidFunction(0.0, 1.0)
#   sa.relationships_to_use = REFERENCES:SIMLOC
#   sa.spread_threshold.DATE = 0.25
#   sa.spread_threshold.DOCUMENT = 0.5
#   sa.spread_threshold.LOCATION = 0.35
#   sa.weight_property.REFERENCES = relevance
#   sa.weight_property.SIMDATES = sim
#   sa.weight_property.SIMDOC = sim
#   sa.weight_property.SIMLOC = sim
#   sa.weight_property.SIMPAGE = pagesim

###################################
# initial activations (1): 
#   newannualarmylis1874hart_410, 1

###################################
# spreading activation process log: 
#   pulse 0: activated: 1, non-zero: 1, borderline: 1, overall act: 1.000, act diff: 1.000, ratio: 1.000
#   pulse 1: activated: 33, non-zero: 33, borderline: 32, overall act: 4.798, act diff: 3.798, ratio: 0.792
#   pulse 2: activated: 33, non-zero: 33, borderline: 32, overall act: 4.798, act diff: 0.000, ratio: 0.000

###################################
# spreading activation process summary: 
#   final number of activated nodes: 33
#   final overall activation: 4.8
#   number of spread. activ. pulses: 2
#   running time: 12086

###################################
# top k results in TREC format: 

1   rel1-2   lucknow   1   0.26502773   nodesDOCUMENT:DATE:LOCATION-edgesREFERENCES:SIMLOC-date_th0.25-doc_th0.5-loc_th0.35
1   rel1-2   agra   2   0.22086102   nodesDOCUMENT:DATE:LOCATION-edgesREFERENCES:SIMLOC-date_th0.25-doc_th0.5-loc_th0.35
1   rel1-2   china   3   0.1910497   nodesDOCUMENT:DATE:LOCATION-edgesREFERENCES:SIMLOC-date_th0.25-doc_th0.5-loc_th0.35
1   rel1-2   shahabad   4   0.1910497   nodesDOCUMENT:DATE:LOCATION-edgesREFERENCES:SIMLOC-date_th0.25-doc_th0.5-loc_th0.35
1   rel1-2   gwalior   5   0.15209739   nodesDOCUMENT:DATE:LOCATION-edgesREFERENCES:SIMLOC-date_th0.25-doc_th0.5-loc_th0.35
1   rel1-2   bengal   6   0.15209739   nodesDOCUMENT:DATE:LOCATION-edgesREFERENCES:SIMLOC-date_th0.25-doc_th0.5-loc_th0.35
1   rel1-2   1866   7   0.107255004   nodesDOCUMENT:DATE:LOCATION-edgesREFERENCES:SIMLOC-date_th0.25-doc_th0.5-loc_th0.35
1   rel1-2   1859   8   0.107255004   nodesDOCUMENT:DATE:LOCATION-edgesREFERENCES:SIMLOC-date_th0.25-doc_th0.5-loc_th0.35
1   rel1-2   1854   9   0.107255004   nodesDOCUMENT:DATE:LOCATION-edgesREFERENCES:SIMLOC-date_th0.25-doc_th0.5-loc_th0.35
1   rel1-2   1868   10   0.107255004   nodesDOCUMENT:DATE:LOCATION-edgesREFERENCES:SIMLOC-date_th0.25-doc_th0.5-loc_th0.35
1   rel1-2   1858   11   0.107255004   nodesDOCUMENT:DATE:LOCATION-edgesREFERENCES:SIMLOC-date_th0.25-doc_th0.5-loc_th0.35
1   rel1-2   1860   12   0.107255004   nodesDOCUMENT:DATE:LOCATION-edgesREFERENCES:SIMLOC-date_th0.25-doc_th0.5-loc_th0.35
1   rel1-2   1857   13   0.107255004   nodesDOCUMENT:DATE:LOCATION-edgesREFERENCES:SIMLOC-date_th0.25-doc_th0.5-loc_th0.35
1   rel1-2   1862   14   0.107255004   nodesDOCUMENT:DATE:LOCATION-edgesREFERENCES:SIMLOC-date_th0.25-doc_th0.5-loc_th0.35
1   rel1-2   1863   15   0.107255004   nodesDOCUMENT:DATE:LOCATION-edgesREFERENCES:SIMLOC-date_th0.25-doc_th0.5-loc_th0.35
1   rel1-2   1865   16   0.107255004   nodesDOCUMENT:DATE:LOCATION-edgesREFERENCES:SIMLOC-date_th0.25-doc_th0.5-loc_th0.35
1   rel1-2   1855   17   0.107255004   nodesDOCUMENT:DATE:LOCATION-edgesREFERENCES:SIMLOC-date_th0.25-doc_th0.5-loc_th0.35
1   rel1-2   kotah   18   0.09641279   nodesDOCUMENT:DATE:LOCATION-edgesREFERENCES:SIMLOC-date_th0.25-doc_th0.5-loc_th0.35
1   rel1-2   ping yuen ho   19   0.09641279   nodesDOCUMENT:DATE:LOCATION-edgesREFERENCES:SIMLOC-date_th0.25-doc_th0.5-loc_th0.35
1   rel1-2   calcutta   20   0.09641279   nodesDOCUMENT:DATE:LOCATION-edgesREFERENCES:SIMLOC-date_th0.25-doc_th0.5-loc_th0.35

###################################
# top nodes: 

# 1   rel1-2   newannualarmylis1874hart_410   1   1.0   nodesDOCUMENT:DATE:LOCATION-edgesREFERENCES:SIMLOC-date_th0.25-doc_th0.5-loc_th0.35
# 1   rel1-2   lucknow   2   0.26502773   nodesDOCUMENT:DATE:LOCATION-edgesREFERENCES:SIMLOC-date_th0.25-doc_th0.5-loc_th0.35
# 1   rel1-2   agra   3   0.22086102   nodesDOCUMENT:DATE:LOCATION-edgesREFERENCES:SIMLOC-date_th0.25-doc_th0.5-loc_th0.35
# 1   rel1-2   china   4   0.1910497   nodesDOCUMENT:DATE:LOCATION-edgesREFERENCES:SIMLOC-date_th0.25-doc_th0.5-loc_th0.35
# 1   rel1-2   shahabad   5   0.1910497   nodesDOCUMENT:DATE:LOCATION-edgesREFERENCES:SIMLOC-date_th0.25-doc_th0.5-loc_th0.35
# 1   rel1-2   gwalior   6   0.15209739   nodesDOCUMENT:DATE:LOCATION-edgesREFERENCES:SIMLOC-date_th0.25-doc_th0.5-loc_th0.35
# 1   rel1-2   bengal   7   0.15209739   nodesDOCUMENT:DATE:LOCATION-edgesREFERENCES:SIMLOC-date_th0.25-doc_th0.5-loc_th0.35
# 1   rel1-2   1863   8   0.107255004   nodesDOCUMENT:DATE:LOCATION-edgesREFERENCES:SIMLOC-date_th0.25-doc_th0.5-loc_th0.35
# 1   rel1-2   1862   9   0.107255004   nodesDOCUMENT:DATE:LOCATION-edgesREFERENCES:SIMLOC-date_th0.25-doc_th0.5-loc_th0.35
# 1   rel1-2   1865   10   0.107255004   nodesDOCUMENT:DATE:LOCATION-edgesREFERENCES:SIMLOC-date_th0.25-doc_th0.5-loc_th0.35
# 1   rel1-2   1859   11   0.107255004   nodesDOCUMENT:DATE:LOCATION-edgesREFERENCES:SIMLOC-date_th0.25-doc_th0.5-loc_th0.35
# 1   rel1-2   1854   12   0.107255004   nodesDOCUMENT:DATE:LOCATION-edgesREFERENCES:SIMLOC-date_th0.25-doc_th0.5-loc_th0.35
# 1   rel1-2   1866   13   0.107255004   nodesDOCUMENT:DATE:LOCATION-edgesREFERENCES:SIMLOC-date_th0.25-doc_th0.5-loc_th0.35
# 1   rel1-2   1858   14   0.107255004   nodesDOCUMENT:DATE:LOCATION-edgesREFERENCES:SIMLOC-date_th0.25-doc_th0.5-loc_th0.35
# 1   rel1-2   1857   15   0.107255004   nodesDOCUMENT:DATE:LOCATION-edgesREFERENCES:SIMLOC-date_th0.25-doc_th0.5-loc_th0.35
# 1   rel1-2   1868   16   0.107255004   nodesDOCUMENT:DATE:LOCATION-edgesREFERENCES:SIMLOC-date_th0.25-doc_th0.5-loc_th0.35
# 1   rel1-2   1860   17   0.107255004   nodesDOCUMENT:DATE:LOCATION-edgesREFERENCES:SIMLOC-date_th0.25-doc_th0.5-loc_th0.35
# 1   rel1-2   1855   18   0.107255004   nodesDOCUMENT:DATE:LOCATION-edgesREFERENCES:SIMLOC-date_th0.25-doc_th0.5-loc_th0.35
# 1   rel1-2   rowa   19   0.09641279   nodesDOCUMENT:DATE:LOCATION-edgesREFERENCES:SIMLOC-date_th0.25-doc_th0.5-loc_th0.35
# 1   rel1-2   ping yuen ho   20   0.09641279   nodesDOCUMENT:DATE:LOCATION-edgesREFERENCES:SIMLOC-date_th0.25-doc_th0.5-loc_th0.35
# 1   rel1-2   calcutta   21   0.09641279   nodesDOCUMENT:DATE:LOCATION-edgesREFERENCES:SIMLOC-date_th0.25-doc_th0.5-loc_th0.35
# 1   rel1-2   bomarsund   22   0.09641279   nodesDOCUMENT:DATE:LOCATION-edgesREFERENCES:SIMLOC-date_th0.25-doc_th0.5-loc_th0.35
# 1   rel1-2   bandar-e bushehr   23   0.09641279   nodesDOCUMENT:DATE:LOCATION-edgesREFERENCES:SIMLOC-date_th0.25-doc_th0.5-loc_th0.35
# 1   rel1-2   kotah   24   0.09641279   nodesDOCUMENT:DATE:LOCATION-edgesREFERENCES:SIMLOC-date_th0.25-doc_th0.5-loc_th0.35
# 1   rel1-2   canton   25   0.09641279   nodesDOCUMENT:DATE:LOCATION-edgesREFERENCES:SIMLOC-date_th0.25-doc_th0.5-loc_th0.35
# 1   rel1-2   berhampore   26   0.09641279   nodesDOCUMENT:DATE:LOCATION-edgesREFERENCES:SIMLOC-date_th0.25-doc_th0.5-loc_th0.35
# 1   rel1-2   awah   27   0.09641279   nodesDOCUMENT:DATE:LOCATION-edgesREFERENCES:SIMLOC-date_th0.25-doc_th0.5-loc_th0.35
# 1   rel1-2   ghurra   28   0.09641279   nodesDOCUMENT:DATE:LOCATION-edgesREFERENCES:SIMLOC-date_th0.25-doc_th0.5-loc_th0.35
# 1   rel1-2   pekin   29   0.09641279   nodesDOCUMENT:DATE:LOCATION-edgesREFERENCES:SIMLOC-date_th0.25-doc_th0.5-loc_th0.35
# 1   rel1-2   algiers   30   0.09641279   nodesDOCUMENT:DATE:LOCATION-edgesREFERENCES:SIMLOC-date_th0.25-doc_th0.5-loc_th0.35
# 1   rel1-2   india   31   0.09641279   nodesDOCUMENT:DATE:LOCATION-edgesREFERENCES:SIMLOC-date_th0.25-doc_th0.5-loc_th0.35
# 1   rel1-2   sevastopol   32   0.09641279   nodesDOCUMENT:DATE:LOCATION-edgesREFERENCES:SIMLOC-date_th0.25-doc_th0.5-loc_th0.35
# 1   rel1-2   arrah   33   0.09641279   nodesDOCUMENT:DATE:LOCATION-edgesREFERENCES:SIMLOC-date_th0.25-doc_th0.5-loc_th0.35
