###################################
# parameters: 
#   date_th: 0.25
#   doc_th: 0.6
#   loc_th: 0.35
#   nodestouse: DOCUMENT:DATE:LOCATION
#   relationships: REFERENCES:SIMPAGE

###################################
# configuration: 
#   sa.act_diff_ratio_limit = 0.01
#   sa.act_diff_ratio_limit_diff = 0.01
#   sa.function = ciir.multi.sa.function.MaxSAFunction(norm_function)
#   sa.id_property_name.DATE = dateID
#   sa.id_property_name.DOCUMENT = docID
#   sa.id_property_name.LOCATION = locID
#   sa.max_pulses = 10
#   sa.nodes_to_print = DATE:LOCATION
#   sa.nodes_to_use = DOCUMENT:DATE:LOCATION
#   sa.norm_function = ciir.multi.sa.SigmoidFunction(0.0, 1.0)
#   sa.relationships_to_use = REFERENCES:SIMPAGE
#   sa.spread_threshold.DATE = 0.25
#   sa.spread_threshold.DOCUMENT = 0.6
#   sa.spread_threshold.LOCATION = 0.35
#   sa.weight_property.REFERENCES = relevance
#   sa.weight_property.SIMDATES = sim
#   sa.weight_property.SIMDOC = sim
#   sa.weight_property.SIMLOC = sim
#   sa.weight_property.SIMPAGE = pagesim

###################################
# initial activations (1): 
#   newannualarmylis1874hart_481, 1

###################################
# spreading activation process log: 
#   pulse 0: activated: 1, non-zero: 1, borderline: 1, overall act: 1.000, act diff: 1.000, ratio: 1.000
#   pulse 1: activated: 29, non-zero: 29, borderline: 28, overall act: 5.218, act diff: 4.218, ratio: 0.808
#   pulse 2: activated: 29, non-zero: 29, borderline: 28, overall act: 5.218, act diff: 0.000, ratio: 0.000

###################################
# spreading activation process summary: 
#   final number of activated nodes: 29
#   final overall activation: 5.2
#   number of spread. activ. pulses: 2
#   running time: 4685

###################################
# top k results in TREC format: 

1   rel1-7   delhi   1   0.2888946   nodesDOCUMENT:DATE:LOCATION-edgesREFERENCES:SIMPAGE-date_th0.25-doc_th0.6-loc_th0.35
1   rel1-7   agra   2   0.2507578   nodesDOCUMENT:DATE:LOCATION-edgesREFERENCES:SIMPAGE-date_th0.25-doc_th0.6-loc_th0.35
1   rel1-7   lucknow   3   0.22617008   nodesDOCUMENT:DATE:LOCATION-edgesREFERENCES:SIMPAGE-date_th0.25-doc_th0.6-loc_th0.35
1   rel1-7   terai   4   0.15582155   nodesDOCUMENT:DATE:LOCATION-edgesREFERENCES:SIMPAGE-date_th0.25-doc_th0.6-loc_th0.35
1   rel1-7   chingli   5   0.15582155   nodesDOCUMENT:DATE:LOCATION-edgesREFERENCES:SIMPAGE-date_th0.25-doc_th0.6-loc_th0.35
1   rel1-7   meerut   6   0.15582155   nodesDOCUMENT:DATE:LOCATION-edgesREFERENCES:SIMPAGE-date_th0.25-doc_th0.6-loc_th0.35
1   rel1-7   narmada   7   0.09879659   nodesDOCUMENT:DATE:LOCATION-edgesREFERENCES:SIMPAGE-date_th0.25-doc_th0.6-loc_th0.35
1   rel1-7   gwalior   8   0.09879659   nodesDOCUMENT:DATE:LOCATION-edgesREFERENCES:SIMPAGE-date_th0.25-doc_th0.6-loc_th0.35
1   rel1-7   garrison   9   0.09879659   nodesDOCUMENT:DATE:LOCATION-edgesREFERENCES:SIMPAGE-date_th0.25-doc_th0.6-loc_th0.35
1   rel1-7   sikkim   10   0.09879659   nodesDOCUMENT:DATE:LOCATION-edgesREFERENCES:SIMPAGE-date_th0.25-doc_th0.6-loc_th0.35
1   rel1-7   hissar   11   0.09879659   nodesDOCUMENT:DATE:LOCATION-edgesREFERENCES:SIMPAGE-date_th0.25-doc_th0.6-loc_th0.35
1   rel1-7   rooya   12   0.09879659   nodesDOCUMENT:DATE:LOCATION-edgesREFERENCES:SIMPAGE-date_th0.25-doc_th0.6-loc_th0.35
1   rel1-7   kirwee   13   0.09879659   nodesDOCUMENT:DATE:LOCATION-edgesREFERENCES:SIMPAGE-date_th0.25-doc_th0.6-loc_th0.35
1   rel1-7   bareilly   14   0.09879659   nodesDOCUMENT:DATE:LOCATION-edgesREFERENCES:SIMPAGE-date_th0.25-doc_th0.6-loc_th0.35
1   rel1-7   arrah   15   0.09879659   nodesDOCUMENT:DATE:LOCATION-edgesREFERENCES:SIMPAGE-date_th0.25-doc_th0.6-loc_th0.35
1   rel1-7   cawnpore   16   0.09879659   nodesDOCUMENT:DATE:LOCATION-edgesREFERENCES:SIMPAGE-date_th0.25-doc_th0.6-loc_th0.35

###################################
# top nodes: 

# 1   rel1-7   newannualarmylis1874hart_481   1   1.0   nodesDOCUMENT:DATE:LOCATION-edgesREFERENCES:SIMPAGE-date_th0.25-doc_th0.6-loc_th0.35
# 1   rel1-7   newannualarmylis1874hart_482   2   0.46211717   nodesDOCUMENT:DATE:LOCATION-edgesREFERENCES:SIMPAGE-date_th0.25-doc_th0.6-loc_th0.35
# 1   rel1-7   newannualarmylis1874hart_480   3   0.46211717   nodesDOCUMENT:DATE:LOCATION-edgesREFERENCES:SIMPAGE-date_th0.25-doc_th0.6-loc_th0.35
# 1   rel1-7   delhi   4   0.2888946   nodesDOCUMENT:DATE:LOCATION-edgesREFERENCES:SIMPAGE-date_th0.25-doc_th0.6-loc_th0.35
# 1   rel1-7   agra   5   0.2507578   nodesDOCUMENT:DATE:LOCATION-edgesREFERENCES:SIMPAGE-date_th0.25-doc_th0.6-loc_th0.35
# 1   rel1-7   lucknow   6   0.22617008   nodesDOCUMENT:DATE:LOCATION-edgesREFERENCES:SIMPAGE-date_th0.25-doc_th0.6-loc_th0.35
# 1   rel1-7   chingli   7   0.15582155   nodesDOCUMENT:DATE:LOCATION-edgesREFERENCES:SIMPAGE-date_th0.25-doc_th0.6-loc_th0.35
# 1   rel1-7   terai   8   0.15582155   nodesDOCUMENT:DATE:LOCATION-edgesREFERENCES:SIMPAGE-date_th0.25-doc_th0.6-loc_th0.35
# 1   rel1-7   meerut   9   0.15582155   nodesDOCUMENT:DATE:LOCATION-edgesREFERENCES:SIMPAGE-date_th0.25-doc_th0.6-loc_th0.35
# 1   rel1-7   1858   10   0.107255004   nodesDOCUMENT:DATE:LOCATION-edgesREFERENCES:SIMPAGE-date_th0.25-doc_th0.6-loc_th0.35
# 1   rel1-7   1857   11   0.107255004   nodesDOCUMENT:DATE:LOCATION-edgesREFERENCES:SIMPAGE-date_th0.25-doc_th0.6-loc_th0.35
# 1   rel1-7   1865   12   0.107255004   nodesDOCUMENT:DATE:LOCATION-edgesREFERENCES:SIMPAGE-date_th0.25-doc_th0.6-loc_th0.35
# 1   rel1-7   1863   13   0.107255004   nodesDOCUMENT:DATE:LOCATION-edgesREFERENCES:SIMPAGE-date_th0.25-doc_th0.6-loc_th0.35
# 1   rel1-7   1861   14   0.107255004   nodesDOCUMENT:DATE:LOCATION-edgesREFERENCES:SIMPAGE-date_th0.25-doc_th0.6-loc_th0.35
# 1   rel1-7   1860   15   0.107255004   nodesDOCUMENT:DATE:LOCATION-edgesREFERENCES:SIMPAGE-date_th0.25-doc_th0.6-loc_th0.35
# 1   rel1-7   1862   16   0.107255004   nodesDOCUMENT:DATE:LOCATION-edgesREFERENCES:SIMPAGE-date_th0.25-doc_th0.6-loc_th0.35
# 1   rel1-7   1764   17   0.107255004   nodesDOCUMENT:DATE:LOCATION-edgesREFERENCES:SIMPAGE-date_th0.25-doc_th0.6-loc_th0.35
# 1   rel1-7   1859   18   0.107255004   nodesDOCUMENT:DATE:LOCATION-edgesREFERENCES:SIMPAGE-date_th0.25-doc_th0.6-loc_th0.35
# 1   rel1-7   1851   19   0.107255004   nodesDOCUMENT:DATE:LOCATION-edgesREFERENCES:SIMPAGE-date_th0.25-doc_th0.6-loc_th0.35
# 1   rel1-7   narmada   20   0.09879659   nodesDOCUMENT:DATE:LOCATION-edgesREFERENCES:SIMPAGE-date_th0.25-doc_th0.6-loc_th0.35
# 1   rel1-7   hissar   21   0.09879659   nodesDOCUMENT:DATE:LOCATION-edgesREFERENCES:SIMPAGE-date_th0.25-doc_th0.6-loc_th0.35
# 1   rel1-7   garrison   22   0.09879659   nodesDOCUMENT:DATE:LOCATION-edgesREFERENCES:SIMPAGE-date_th0.25-doc_th0.6-loc_th0.35
# 1   rel1-7   sikkim   23   0.09879659   nodesDOCUMENT:DATE:LOCATION-edgesREFERENCES:SIMPAGE-date_th0.25-doc_th0.6-loc_th0.35
# 1   rel1-7   gwalior   24   0.09879659   nodesDOCUMENT:DATE:LOCATION-edgesREFERENCES:SIMPAGE-date_th0.25-doc_th0.6-loc_th0.35
# 1   rel1-7   rooya   25   0.09879659   nodesDOCUMENT:DATE:LOCATION-edgesREFERENCES:SIMPAGE-date_th0.25-doc_th0.6-loc_th0.35
# 1   rel1-7   kirwee   26   0.09879659   nodesDOCUMENT:DATE:LOCATION-edgesREFERENCES:SIMPAGE-date_th0.25-doc_th0.6-loc_th0.35
# 1   rel1-7   bareilly   27   0.09879659   nodesDOCUMENT:DATE:LOCATION-edgesREFERENCES:SIMPAGE-date_th0.25-doc_th0.6-loc_th0.35
# 1   rel1-7   arrah   28   0.09879659   nodesDOCUMENT:DATE:LOCATION-edgesREFERENCES:SIMPAGE-date_th0.25-doc_th0.6-loc_th0.35
# 1   rel1-7   cawnpore   29   0.09879659   nodesDOCUMENT:DATE:LOCATION-edgesREFERENCES:SIMPAGE-date_th0.25-doc_th0.6-loc_th0.35
