###################################
# parameters: 
#   decay: 0.2
#   lambda: 0.5
#   norm_threshold: 0.2
#   relationships: REFERENCES

###################################
# configuration: 
#   sa.act_diff_ratio_limit = 0.05
#   sa.function = ciir.multi.sa.DecayedSumSALogNormFunction(norm_function, 0.2, 0.5)
#   sa.id_property_name.DATE = dateID
#   sa.id_property_name.DOCUMENT = docID
#   sa.id_property_name.LOCATION = locID
#   sa.max_pulses = 15
#   sa.norm_function = ciir.multi.sa.SigmoidFunction(0.2, 1.0)
#   sa.relationships_to_use = REFERENCES
#   sa.weight_property.REFERENCES = relevance
#   sa.weight_property.SIMDATES = sim
#   sa.weight_property.SIMLOC = sim

###################################
# initial activations: 
#   generalhistoryfo00myerrich_787: 1.0
#   selwynhouseschoo1940selw_21: 1.0
#   lifeofstratfordc02laneuoft_185: 1.0
#   historyofuniteds07good_239: 1.0
#   shorthistoryofmo00haslrich_98: 1.0
#   cambridgemodern09protgoog_449: 1.0

###################################
# spreading activation process log: 
#   pulse 0: activated nodes: 6, borderline nodes: 6, overall activation: 0.000, activation diff: 0.000, ratio: Infinity
#   pulse 1: activated nodes: 69, borderline nodes: 63, overall activation: 4.695, activation diff: 4.695, ratio: 1.000
#   pulse 2: activated nodes: 3890, borderline nodes: 3835, overall activation: 2.753, activation diff: 2.209, ratio: 0.802
#   pulse 3: activated nodes: 3891, borderline nodes: 3802, overall activation: 1.396, activation diff: 1.358, ratio: 0.973
#   pulse 4: activated nodes: 3891, borderline nodes: 3802, overall activation: 0.698, activation diff: 0.698, ratio: 1.000
#   pulse 5: activated nodes: 3891, borderline nodes: 3802, overall activation: 0.349, activation diff: 0.349, ratio: 1.000
#   pulse 6: activated nodes: 3891, borderline nodes: 3802, overall activation: 0.174, activation diff: 0.174, ratio: 1.000
#   pulse 7: activated nodes: 3891, borderline nodes: 3802, overall activation: 0.087, activation diff: 0.087, ratio: 1.000
#   pulse 8: activated nodes: 3891, borderline nodes: 3802, overall activation: 0.044, activation diff: 0.044, ratio: 1.000
#   pulse 9: activated nodes: 3891, borderline nodes: 3802, overall activation: 0.022, activation diff: 0.022, ratio: 1.000
#   pulse 10: activated nodes: 3891, borderline nodes: 3802, overall activation: 0.011, activation diff: 0.011, ratio: 1.000
#   pulse 11: activated nodes: 3891, borderline nodes: 3802, overall activation: 0.005, activation diff: 0.005, ratio: 1.000
#   pulse 12: activated nodes: 3891, borderline nodes: 3802, overall activation: 0.003, activation diff: 0.003, ratio: 1.000
#   pulse 13: activated nodes: 3891, borderline nodes: 3802, overall activation: 0.001, activation diff: 0.001, ratio: 1.000
#   pulse 14: activated nodes: 3891, borderline nodes: 3802, overall activation: 0.001, activation diff: 0.001, ratio: 1.000
#   pulse 15: activated nodes: 3891, borderline nodes: 3802, overall activation: 0.000, activation diff: 0.000, ratio: 1.000

###################################
# spreading activation process summary: 
#   final number of activated nodes: 3891
#   final overall activation: 0.0
#   number of spread. activ. pulses: 15
#   running time: 228

###################################
# top k results in TREC format: 

1   Q1   selwynhouseschoo1940selw_21   1   3.244502E-5   REFERENCES
1   Q1   historyofuniteds07good_239   2   3.2343647E-5   REFERENCES
1   Q1   generalhistoryfo00myerrich_787   3   3.221259E-5   REFERENCES
1   Q1   shorthistoryofmo00haslrich_98   4   3.1140033E-5   REFERENCES
1   Q1   cambridgemodern09protgoog_449   5   3.0517578E-5   REFERENCES
1   Q1   lifeofstratfordc02laneuoft_185   6   3.0517578E-5   REFERENCES
1   Q1   generalhistoryfo00myerrich_657   7   5.5313365E-7   REFERENCES
1   Q1   shorthistoryofmo00haslrich_241   8   5.2060204E-7   REFERENCES
1   Q1   generalhistoryfo00myerrich_18   9   5.2060204E-7   REFERENCES
1   Q1   bostoncollegebul0405bost_147   10   5.2060204E-7   REFERENCES
1   Q1   lifeofstratfordc02laneuoft_119   11   5.2060204E-7   REFERENCES
1   Q1   ouroldworldbackg00bearrich_134   12   5.2060204E-7   REFERENCES
1   Q1   ouroldworldbackg00bearrich_136   13   5.2060204E-7   REFERENCES
1   Q1   ouroldworldbackg00bearrich_137   14   5.2060204E-7   REFERENCES
1   Q1   ouroldworldbackg00bearrich_164   15   5.2060204E-7   REFERENCES
1   Q1   ouroldworldbackg00bearrich_151   16   5.2060204E-7   REFERENCES
1   Q1   graduateschoolof9192bran_62   17   5.2060204E-7   REFERENCES
1   Q1   ouroldworldbackg00bearrich_281   18   5.2060204E-7   REFERENCES
1   Q1   europesincenapol00leveuoft_0   19   5.2060204E-7   REFERENCES
1   Q1   shorthistoryofmo00haslrich_14   20   5.2060204E-7   REFERENCES
