###################################
# parameters: 
#   decay: 0.25
#   lambda: 0.25
#   norm_threshold: 0.2
#   relationships: REFERENCES

###################################
# configuration: 
#   sa.act_diff_ratio_limit = 0.05
#   sa.function = ciir.multi.sa.DecayedSumSALogNormFunction(norm_function, 0.25, 0.25)
#   sa.id_property_name.DATE = dateID
#   sa.id_property_name.DOCUMENT = docID
#   sa.id_property_name.LOCATION = locID
#   sa.max_pulses = 15
#   sa.norm_function = ciir.multi.sa.SigmoidFunction(0.2, 1.0)
#   sa.relationships_to_use = REFERENCES
#   sa.weight_property.REFERENCES = relevance
#   sa.weight_property.SIMDATES = sim
#   sa.weight_property.SIMLOC = sim

###################################
# initial activations: 
#   generalhistoryfo00myerrich_787: 1.0
#   selwynhouseschoo1940selw_21: 1.0
#   lifeofstratfordc02laneuoft_185: 1.0
#   historyofuniteds07good_239: 1.0
#   shorthistoryofmo00haslrich_98: 1.0
#   cambridgemodern09protgoog_449: 1.0

###################################
# spreading activation process log: 
#   pulse 0: activated nodes: 6, borderline nodes: 6, overall activation: 0.000, activation diff: 0.000, ratio: Infinity
#   pulse 1: activated nodes: 69, borderline nodes: 63, overall activation: 4.043, activation diff: 7.043, ratio: 1.742
#   pulse 2: activated nodes: 3890, borderline nodes: 3835, overall activation: 4.964, activation diff: 6.393, ratio: 1.288
#   pulse 3: activated nodes: 4218, borderline nodes: 3811, overall activation: 1.493, activation diff: 3.772, ratio: 2.527
#   pulse 4: activated nodes: 4218, borderline nodes: 3811, overall activation: 0.635, activation diff: 0.984, ratio: 1.549
#   pulse 5: activated nodes: 4218, borderline nodes: 3811, overall activation: 0.159, activation diff: 0.476, ratio: 3.000
#   pulse 6: activated nodes: 4218, borderline nodes: 3811, overall activation: 0.040, activation diff: 0.119, ratio: 3.000
#   pulse 7: activated nodes: 4218, borderline nodes: 3811, overall activation: 0.010, activation diff: 0.030, ratio: 3.000
#   pulse 8: activated nodes: 4218, borderline nodes: 3811, overall activation: 0.002, activation diff: 0.007, ratio: 3.000
#   pulse 9: activated nodes: 4218, borderline nodes: 3811, overall activation: 0.001, activation diff: 0.002, ratio: 3.000
#   pulse 10: activated nodes: 4218, borderline nodes: 3811, overall activation: 0.000, activation diff: 0.000, ratio: 3.000
#   pulse 11: activated nodes: 4218, borderline nodes: 3811, overall activation: 0.000, activation diff: 0.000, ratio: 3.000
#   pulse 12: activated nodes: 4218, borderline nodes: 3811, overall activation: 0.000, activation diff: 0.000, ratio: 3.000
#   pulse 13: activated nodes: 4218, borderline nodes: 3811, overall activation: 0.000, activation diff: 0.000, ratio: 3.000
#   pulse 14: activated nodes: 4218, borderline nodes: 3811, overall activation: 0.000, activation diff: 0.000, ratio: 3.000
#   pulse 15: activated nodes: 4218, borderline nodes: 3811, overall activation: 0.000, activation diff: 0.000, ratio: 3.000

###################################
# spreading activation process summary: 
#   final number of activated nodes: 4218
#   final overall activation: 0.0
#   number of spread. activ. pulses: 15
#   running time: 308

###################################
# top k results in TREC format: 

1   Q1   bostoncollegebul0405bost_147   1   2.8128255E-9   REFERENCES
1   Q1   essentialsinmod01howegoog_46   2   2.8128255E-9   REFERENCES
1   Q1   shorthistoryofmo00haslrich_241   3   2.8128255E-9   REFERENCES
1   Q1   generalhistoryfo00myerrich_18   4   2.8128255E-9   REFERENCES
1   Q1   ouroldworldbackg00bearrich_281   5   2.8128255E-9   REFERENCES
1   Q1   europesincenapol00leveuoft_0   6   2.8128255E-9   REFERENCES
1   Q1   shorthistoryofmo00haslrich_14   7   2.8128255E-9   REFERENCES
1   Q1   lifeofstratfordc02laneuoft_119   8   2.8128255E-9   REFERENCES
1   Q1   graduateschoolof9192bran_62   9   2.8128255E-9   REFERENCES
1   Q1   generalhistoryfo00myerrich_514   10   2.8128255E-9   REFERENCES
1   Q1   generalhistoryfo00myerrich_491   11   2.8128255E-9   REFERENCES
1   Q1   essentialsinmod01howegoog_341   12   2.8128255E-9   REFERENCES
1   Q1   essentialsinmod01howegoog_383   13   2.8128255E-9   REFERENCES
1   Q1   bookman44unkngoog_497   14   2.8128255E-9   REFERENCES
1   Q1   ouroldworldbackg00bearrich_134   15   2.8128255E-9   REFERENCES
1   Q1   ouroldworldbackg00bearrich_136   16   2.8128255E-9   REFERENCES
1   Q1   ouroldworldbackg00bearrich_137   17   2.8128255E-9   REFERENCES
1   Q1   ouroldworldbackg00bearrich_164   18   2.8128255E-9   REFERENCES
1   Q1   ouroldworldbackg00bearrich_151   19   2.8128255E-9   REFERENCES
1   Q1   graduateschoolof9192bran_102   20   2.8128255E-9   REFERENCES
