###################################
# parameters: 
#   decay: 0.5
#   lambda: 0.0
#   norm_threshold: 0.3
#   relationships: REFERENCES

###################################
# configuration: 
#   sa.act_diff_ratio_limit = 0.05
#   sa.function = ciir.multi.sa.DecayedSumSALogNormFunction(norm_function, 0.5, 0.0, DOCUMENT)
#   sa.id_property_name.DATE = dateID
#   sa.id_property_name.DOCUMENT = docID
#   sa.id_property_name.LOCATION = locID
#   sa.max_pulses = 15
#   sa.norm_function = ciir.multi.sa.SigmoidFunction(0.3, 1.0)
#   sa.relationships_to_use = REFERENCES
#   sa.weight_property.REFERENCES = relevance
#   sa.weight_property.SIMDATES = sim
#   sa.weight_property.SIMLOC = sim

###################################
# initial activations: 
#   generalhistoryfo00myerrich_787: 1.0
#   selwynhouseschoo1940selw_21: 1.0
#   lifeofstratfordc02laneuoft_185: 1.0
#   historyofuniteds07good_239: 1.0
#   shorthistoryofmo00haslrich_98: 1.0
#   cambridgemodern09protgoog_449: 1.0

###################################
# spreading activation process log: 
#   pulse 0: activated nodes: 6, borderline nodes: 6, overall activation: 0.000, activation diff: 0.000, ratio: Infinity
#   pulse 1: activated nodes: 69, borderline nodes: 63, overall activation: 26.732, activation diff: 32.732, ratio: 1.224
#   pulse 2: activated nodes: 5255, borderline nodes: 5186, overall activation: 544.073, activation diff: 570.804, ratio: 1.049
#   pulse 3: activated nodes: 8128, borderline nodes: 3940, overall activation: 60.251, activation diff: 604.324, ratio: 10.030
#   pulse 4: activated nodes: 8128, borderline nodes: 3940, overall activation: 1096.802, activation diff: 1157.053, ratio: 1.055
#   pulse 5: activated nodes: 8645, borderline nodes: 3408, overall activation: 61.492, activation diff: 1158.294, ratio: 18.837
#   pulse 6: activated nodes: 8645, borderline nodes: 3408, overall activation: 1098.320, activation diff: 1159.812, ratio: 1.056
#   pulse 7: activated nodes: 8651, borderline nodes: 3411, overall activation: 61.592, activation diff: 1159.912, ratio: 18.832
#   pulse 8: activated nodes: 8651, borderline nodes: 3411, overall activation: 1098.462, activation diff: 1160.053, ratio: 1.056
#   pulse 9: activated nodes: 8651, borderline nodes: 3411, overall activation: 61.608, activation diff: 1160.069, ratio: 18.830
#   pulse 10: activated nodes: 8651, borderline nodes: 3411, overall activation: 1098.487, activation diff: 1160.094, ratio: 1.056
#   pulse 11: activated nodes: 8651, borderline nodes: 3411, overall activation: 61.610, activation diff: 1160.097, ratio: 18.830
#   pulse 12: activated nodes: 8651, borderline nodes: 3411, overall activation: 1098.491, activation diff: 1160.101, ratio: 1.056
#   pulse 13: activated nodes: 8651, borderline nodes: 3411, overall activation: 61.611, activation diff: 1160.102, ratio: 18.830
#   pulse 14: activated nodes: 8651, borderline nodes: 3411, overall activation: 1098.492, activation diff: 1160.103, ratio: 1.056
#   pulse 15: activated nodes: 8651, borderline nodes: 3411, overall activation: 61.611, activation diff: 1160.103, ratio: 18.830

###################################
# spreading activation process summary: 
#   final number of activated nodes: 8651
#   final overall activation: 61.6
#   number of spread. activ. pulses: 15
#   running time: 669

###################################
# top k results in TREC format: 

1   Q1   miningcampsstudy00shin_200   1   0.0   REFERENCES
1   Q1   bostoncollegebul0405bost_191   2   0.0   REFERENCES
1   Q1   miningcampsstudy00shin_205   3   0.0   REFERENCES
1   Q1   miningcampsstudy00shin_206   4   0.0   REFERENCES
1   Q1   miningcampsstudy00shin_214   5   0.0   REFERENCES
1   Q1   bostoncollegebul0405bost_180   6   0.0   REFERENCES
1   Q1   historyofuniteds07good_349   7   0.0   REFERENCES
1   Q1   historyofuniteds07good_347   8   0.0   REFERENCES
1   Q1   historyofuniteds07good_342   9   0.0   REFERENCES
1   Q1   miningcampsstudy00shin_222   10   0.0   REFERENCES
1   Q1   bostoncollegebul0405bost_177   11   0.0   REFERENCES
1   Q1   historyofuniteds07good_348   12   0.0   REFERENCES
1   Q1   bostoncollegebul0405bost_181   13   0.0   REFERENCES
1   Q1   historyofuniteds07good_350   14   0.0   REFERENCES
1   Q1   historyofuniteds07good_351   15   0.0   REFERENCES
1   Q1   bostoncollegebul0405bost_197   16   0.0   REFERENCES
1   Q1   bostoncollegebul0405bost_192   17   0.0   REFERENCES
1   Q1   miningcampsstudy00shin_202   18   0.0   REFERENCES
1   Q1   bostoncollegebul0405bost_199   19   0.0   REFERENCES
1   Q1   miningcampsstudy00shin_201   20   0.0   REFERENCES
