###################################
# parameters: 
#   date_th: 0.3
#   doc_th: 0.5
#   loc_th: 0.4
#   nodestouse: DOCUMENT:DATE:LOCATION
#   relationships: REFERENCES:SIMDATES:SIMPAGE

###################################
# configuration: 
#   sa.act_diff_ratio_limit = 0.01
#   sa.act_diff_ratio_limit_diff = 0.01
#   sa.function = ciir.multi.sa.function.MaxSAFunction(norm_function)
#   sa.id_property_name.DATE = dateID
#   sa.id_property_name.DOCUMENT = docID
#   sa.id_property_name.LOCATION = locID
#   sa.max_pulses = 10
#   sa.nodes_to_print = DATE:LOCATION
#   sa.nodes_to_use = DOCUMENT:DATE:LOCATION
#   sa.norm_function = ciir.multi.sa.SigmoidFunction(0.0, 1.0)
#   sa.relationships_to_use = REFERENCES:SIMDATES:SIMPAGE
#   sa.spread_threshold.DATE = 0.3
#   sa.spread_threshold.DOCUMENT = 0.5
#   sa.spread_threshold.LOCATION = 0.4
#   sa.weight_property.REFERENCES = relevance
#   sa.weight_property.SIMDATES = sim
#   sa.weight_property.SIMDOC = sim
#   sa.weight_property.SIMLOC = sim
#   sa.weight_property.SIMPAGE = pagesim

###################################
# initial activations (1): 
#   apoliticalhisto03reidgoog_64, 1

###################################
# spreading activation process log: 
#   pulse 0: activated: 1, non-zero: 1, borderline: 1, overall act: 1.000, act diff: 1.000, ratio: 1.000
#   pulse 1: activated: 7, non-zero: 7, borderline: 6, overall act: 2.795, act diff: 1.795, ratio: 0.642
#   pulse 2: activated: 7, non-zero: 7, borderline: 6, overall act: 2.795, act diff: 0.000, ratio: 0.000

###################################
# spreading activation process summary: 
#   final number of activated nodes: 7
#   final overall activation: 2.8
#   number of spread. activ. pulses: 2
#   running time: 24739

###################################
# top k results in TREC format: 


###################################
# top nodes: 

# 6   rel1-1   apoliticalhisto03reidgoog_64   1   1.0   nodesDOCUMENT:DATE:LOCATION-edgesREFERENCES:SIMDATES:SIMPAGE-date_th0.3-doc_th0.5-loc_th0.4
# 6   rel1-1   apoliticalhisto03reidgoog_65   2   0.46211717   nodesDOCUMENT:DATE:LOCATION-edgesREFERENCES:SIMDATES:SIMPAGE-date_th0.3-doc_th0.5-loc_th0.4
# 6   rel1-1   apoliticalhisto03reidgoog_63   3   0.46211717   nodesDOCUMENT:DATE:LOCATION-edgesREFERENCES:SIMDATES:SIMPAGE-date_th0.3-doc_th0.5-loc_th0.4
# 6   rel1-1   england   4   0.29731676   nodesDOCUMENT:DATE:LOCATION-edgesREFERENCES:SIMDATES:SIMPAGE-date_th0.3-doc_th0.5-loc_th0.4
# 6   rel1-1   europe   5   0.1910497   nodesDOCUMENT:DATE:LOCATION-edgesREFERENCES:SIMDATES:SIMPAGE-date_th0.3-doc_th0.5-loc_th0.4
# 6   rel1-1   new orleans   6   0.1910497   nodesDOCUMENT:DATE:LOCATION-edgesREFERENCES:SIMDATES:SIMPAGE-date_th0.3-doc_th0.5-loc_th0.4
# 6   rel1-1   united states   7   0.1910497   nodesDOCUMENT:DATE:LOCATION-edgesREFERENCES:SIMDATES:SIMPAGE-date_th0.3-doc_th0.5-loc_th0.4
