###################################
# parameters: 
#   date_th: 0.25
#   doc_th: 0.7
#   loc_th: 0.35
#   nodestouse: DOCUMENT:DATE:LOCATION
#   relationships: REFERENCES:SIMLOC

###################################
# configuration: 
#   sa.act_diff_ratio_limit = 0.01
#   sa.act_diff_ratio_limit_diff = 0.01
#   sa.function = ciir.multi.sa.function.MaxSAFunction(norm_function)
#   sa.id_property_name.DATE = dateID
#   sa.id_property_name.DOCUMENT = docID
#   sa.id_property_name.LOCATION = locID
#   sa.max_pulses = 10
#   sa.nodes_to_print = DATE:LOCATION
#   sa.nodes_to_use = DOCUMENT:DATE:LOCATION
#   sa.norm_function = ciir.multi.sa.SigmoidFunction(0.0, 1.0)
#   sa.relationships_to_use = REFERENCES:SIMLOC
#   sa.spread_threshold.DATE = 0.25
#   sa.spread_threshold.DOCUMENT = 0.7
#   sa.spread_threshold.LOCATION = 0.35
#   sa.weight_property.REFERENCES = relevance
#   sa.weight_property.SIMDATES = sim
#   sa.weight_property.SIMDOC = sim
#   sa.weight_property.SIMLOC = sim
#   sa.weight_property.SIMPAGE = pagesim

###################################
# initial activations (2): 
#   cu31924014592566_749, 1
#   cu31924082142666_16, 1

###################################
# spreading activation process log: 
#   pulse 0: activated: 2, non-zero: 2, borderline: 2, overall act: 2.000, act diff: 2.000, ratio: 1.000
#   pulse 1: activated: 55, non-zero: 55, borderline: 53, overall act: 9.019, act diff: 7.019, ratio: 0.778
#   pulse 2: activated: 110081, non-zero: 110081, borderline: 110077, overall act: 9412.616, act diff: 9403.597, ratio: 0.999
#   pulse 3: activated: 110081, non-zero: 110081, borderline: 110077, overall act: 9412.616, act diff: 0.000, ratio: 0.000

###################################
# spreading activation process summary: 
#   final number of activated nodes: 110081
#   final overall activation: 9412.6
#   number of spread. activ. pulses: 3
#   running time: 40942

###################################
# top k results in TREC format: 

9   rel2-3   austria   1   0.4236283   nodesDOCUMENT:DATE:LOCATION-edgesREFERENCES:SIMLOC-date_th0.25-doc_th0.7-loc_th0.35
9   rel2-3   prussia   2   0.35679588   nodesDOCUMENT:DATE:LOCATION-edgesREFERENCES:SIMLOC-date_th0.25-doc_th0.7-loc_th0.35
9   rel2-3   saxony   3   0.32253665   nodesDOCUMENT:DATE:LOCATION-edgesREFERENCES:SIMLOC-date_th0.25-doc_th0.7-loc_th0.35
9   rel2-3   hanover   4   0.31738377   nodesDOCUMENT:DATE:LOCATION-edgesREFERENCES:SIMLOC-date_th0.25-doc_th0.7-loc_th0.35
9   rel2-3   elbe   5   0.27288526   nodesDOCUMENT:DATE:LOCATION-edgesREFERENCES:SIMLOC-date_th0.25-doc_th0.7-loc_th0.35
9   rel2-3   acropolis hill   6   0.20868057   nodesDOCUMENT:DATE:LOCATION-edgesREFERENCES:SIMLOC-date_th0.25-doc_th0.7-loc_th0.35
9   rel2-3   moravia   7   0.2079528   nodesDOCUMENT:DATE:LOCATION-edgesREFERENCES:SIMLOC-date_th0.25-doc_th0.7-loc_th0.35
9   rel2-3   berlin   8   0.2079528   nodesDOCUMENT:DATE:LOCATION-edgesREFERENCES:SIMLOC-date_th0.25-doc_th0.7-loc_th0.35
9   rel2-3   bad langensalza   9   0.2079528   nodesDOCUMENT:DATE:LOCATION-edgesREFERENCES:SIMLOC-date_th0.25-doc_th0.7-loc_th0.35
9   rel2-3   art gallery   10   0.20794804   nodesDOCUMENT:DATE:LOCATION-edgesREFERENCES:SIMLOC-date_th0.25-doc_th0.7-loc_th0.35
9   rel2-3   acropolis museum   11   0.20679356   nodesDOCUMENT:DATE:LOCATION-edgesREFERENCES:SIMLOC-date_th0.25-doc_th0.7-loc_th0.35
9   rel2-3   propylaia   12   0.20648134   nodesDOCUMENT:DATE:LOCATION-edgesREFERENCES:SIMLOC-date_th0.25-doc_th0.7-loc_th0.35
9   rel2-3   acropolis   13   0.20641644   nodesDOCUMENT:DATE:LOCATION-edgesREFERENCES:SIMLOC-date_th0.25-doc_th0.7-loc_th0.35
9   rel2-3   acropolis of athens   14   0.20640871   nodesDOCUMENT:DATE:LOCATION-edgesREFERENCES:SIMLOC-date_th0.25-doc_th0.7-loc_th0.35
9   rel2-3   parthenon   15   0.20635429   nodesDOCUMENT:DATE:LOCATION-edgesREFERENCES:SIMLOC-date_th0.25-doc_th0.7-loc_th0.35
9   rel2-3   areopagus   16   0.2062505   nodesDOCUMENT:DATE:LOCATION-edgesREFERENCES:SIMLOC-date_th0.25-doc_th0.7-loc_th0.35
9   rel2-3   erechtheion   17   0.20614636   nodesDOCUMENT:DATE:LOCATION-edgesREFERENCES:SIMLOC-date_th0.25-doc_th0.7-loc_th0.35
9   rel2-3   pnyx   18   0.20612383   nodesDOCUMENT:DATE:LOCATION-edgesREFERENCES:SIMLOC-date_th0.25-doc_th0.7-loc_th0.35
9   rel2-3   dhafni   19   0.20033357   nodesDOCUMENT:DATE:LOCATION-edgesREFERENCES:SIMLOC-date_th0.25-doc_th0.7-loc_th0.35
9   rel2-3   peronia   20   0.19404066   nodesDOCUMENT:DATE:LOCATION-edgesREFERENCES:SIMLOC-date_th0.25-doc_th0.7-loc_th0.35

###################################
# top nodes: 

# 9   rel2-3   cu31924014592566_749   1   1.0   nodesDOCUMENT:DATE:LOCATION-edgesREFERENCES:SIMLOC-date_th0.25-doc_th0.7-loc_th0.35
# 9   rel2-3   cu31924082142666_16   2   1.0   nodesDOCUMENT:DATE:LOCATION-edgesREFERENCES:SIMLOC-date_th0.25-doc_th0.7-loc_th0.35
# 9   rel2-3   austria   3   0.4236283   nodesDOCUMENT:DATE:LOCATION-edgesREFERENCES:SIMLOC-date_th0.25-doc_th0.7-loc_th0.35
# 9   rel2-3   prussia   4   0.35679588   nodesDOCUMENT:DATE:LOCATION-edgesREFERENCES:SIMLOC-date_th0.25-doc_th0.7-loc_th0.35
# 9   rel2-3   saxony   5   0.32253665   nodesDOCUMENT:DATE:LOCATION-edgesREFERENCES:SIMLOC-date_th0.25-doc_th0.7-loc_th0.35
# 9   rel2-3   hanover   6   0.31738377   nodesDOCUMENT:DATE:LOCATION-edgesREFERENCES:SIMLOC-date_th0.25-doc_th0.7-loc_th0.35
# 9   rel2-3   lifetimesofstein02seeluoft_364   7   0.28154993   nodesDOCUMENT:DATE:LOCATION-edgesREFERENCES:SIMLOC-date_th0.25-doc_th0.7-loc_th0.35
# 9   rel2-3   ourchancellorske00buscuoft_352   8   0.2800378   nodesDOCUMENT:DATE:LOCATION-edgesREFERENCES:SIMLOC-date_th0.25-doc_th0.7-loc_th0.35
# 9   rel2-3   ourchancellorske00buscuoft_365   9   0.27931443   nodesDOCUMENT:DATE:LOCATION-edgesREFERENCES:SIMLOC-date_th0.25-doc_th0.7-loc_th0.35
# 9   rel2-3   foundingofgerman02sybeuoft_32   10   0.27931443   nodesDOCUMENT:DATE:LOCATION-edgesREFERENCES:SIMLOC-date_th0.25-doc_th0.7-loc_th0.35
# 9   rel2-3   serbiaeurope00mark_142   11   0.2782878   nodesDOCUMENT:DATE:LOCATION-edgesREFERENCES:SIMLOC-date_th0.25-doc_th0.7-loc_th0.35
# 9   rel2-3   foundingofgerman02sybeuoft_96   12   0.27778804   nodesDOCUMENT:DATE:LOCATION-edgesREFERENCES:SIMLOC-date_th0.25-doc_th0.7-loc_th0.35
# 9   rel2-3   historyofeuropef00holt_116   13   0.27628985   nodesDOCUMENT:DATE:LOCATION-edgesREFERENCES:SIMLOC-date_th0.25-doc_th0.7-loc_th0.35
# 9   rel2-3   historyofcontemp00seiguoft_295   14   0.2755602   nodesDOCUMENT:DATE:LOCATION-edgesREFERENCES:SIMLOC-date_th0.25-doc_th0.7-loc_th0.35
# 9   rel2-3   historyofcontemp00seigrich_299   15   0.2755602   nodesDOCUMENT:DATE:LOCATION-edgesREFERENCES:SIMLOC-date_th0.25-doc_th0.7-loc_th0.35
# 9   rel2-3   cu31924082142666_119   16   0.2754155   nodesDOCUMENT:DATE:LOCATION-edgesREFERENCES:SIMLOC-date_th0.25-doc_th0.7-loc_th0.35
# 9   rel2-3   europe1789192000turnrich_282   17   0.27382314   nodesDOCUMENT:DATE:LOCATION-edgesREFERENCES:SIMLOC-date_th0.25-doc_th0.7-loc_th0.35
# 9   rel2-3   universalantho25garn_415   18   0.27326855   nodesDOCUMENT:DATE:LOCATION-edgesREFERENCES:SIMLOC-date_th0.25-doc_th0.7-loc_th0.35
# 9   rel2-3   elbe   19   0.27288526   nodesDOCUMENT:DATE:LOCATION-edgesREFERENCES:SIMLOC-date_th0.25-doc_th0.7-loc_th0.35
# 9   rel2-3   reckoningdiscuss00beckrich_146   20   0.27104625   nodesDOCUMENT:DATE:LOCATION-edgesREFERENCES:SIMLOC-date_th0.25-doc_th0.7-loc_th0.35
# 9   rel2-3   lifetimesofstein02seeluoft_37   21   0.26992804   nodesDOCUMENT:DATE:LOCATION-edgesREFERENCES:SIMLOC-date_th0.25-doc_th0.7-loc_th0.35
# 9   rel2-3   cu31924031684685_715   22   0.26931933   nodesDOCUMENT:DATE:LOCATION-edgesREFERENCES:SIMLOC-date_th0.25-doc_th0.7-loc_th0.35
# 9   rel2-3   ourchancellorske00buscuoft_301   23   0.26891625   nodesDOCUMENT:DATE:LOCATION-edgesREFERENCES:SIMLOC-date_th0.25-doc_th0.7-loc_th0.35
# 9   rel2-3   ourchancellorske00buscuoft_357   24   0.2687072   nodesDOCUMENT:DATE:LOCATION-edgesREFERENCES:SIMLOC-date_th0.25-doc_th0.7-loc_th0.35
# 9   rel2-3   shorthistoryofeu00terr_459   25   0.267999   nodesDOCUMENT:DATE:LOCATION-edgesREFERENCES:SIMLOC-date_th0.25-doc_th0.7-loc_th0.35
# 9   rel2-3   outlineseuropea04beargoog_378   26   0.2674702   nodesDOCUMENT:DATE:LOCATION-edgesREFERENCES:SIMLOC-date_th0.25-doc_th0.7-loc_th0.35
# 9   rel2-3   storygreatwar04ruhlgoog_345   27   0.26721844   nodesDOCUMENT:DATE:LOCATION-edgesREFERENCES:SIMLOC-date_th0.25-doc_th0.7-loc_th0.35
# 9   rel2-3   foundingofgerman02sybeuoft_537   28   0.26686436   nodesDOCUMENT:DATE:LOCATION-edgesREFERENCES:SIMLOC-date_th0.25-doc_th0.7-loc_th0.35
# 9   rel2-3   foundationsofger00barkuoft_248   29   0.2668078   nodesDOCUMENT:DATE:LOCATION-edgesREFERENCES:SIMLOC-date_th0.25-doc_th0.7-loc_th0.35
# 9   rel2-3   briefhistoryofna00fish_538   30   0.26668754   nodesDOCUMENT:DATE:LOCATION-edgesREFERENCES:SIMLOC-date_th0.25-doc_th0.7-loc_th0.35
# 9   rel2-3   ourchancellorske00buscuoft_312   31   0.26666123   nodesDOCUMENT:DATE:LOCATION-edgesREFERENCES:SIMLOC-date_th0.25-doc_th0.7-loc_th0.35
# 9   rel2-3   ourchancellorske00buscuoft_359   32   0.26617867   nodesDOCUMENT:DATE:LOCATION-edgesREFERENCES:SIMLOC-date_th0.25-doc_th0.7-loc_th0.35
# 9   rel2-3   ourchancellorske00buscuoft_311   33   0.26617867   nodesDOCUMENT:DATE:LOCATION-edgesREFERENCES:SIMLOC-date_th0.25-doc_th0.7-loc_th0.35
# 9   rel2-3   polishexperienc02hallgoog_307   34   0.26617867   nodesDOCUMENT:DATE:LOCATION-edgesREFERENCES:SIMLOC-date_th0.25-doc_th0.7-loc_th0.35
# 9   rel2-3   historyofeuropef00holt_102   35   0.2659416   nodesDOCUMENT:DATE:LOCATION-edgesREFERENCES:SIMLOC-date_th0.25-doc_th0.7-loc_th0.35
# 9   rel2-3   cu31924082142666_37   36   0.26576906   nodesDOCUMENT:DATE:LOCATION-edgesREFERENCES:SIMLOC-date_th0.25-doc_th0.7-loc_th0.35
# 9   rel2-3   cu31924014592566_362   37   0.26501477   nodesDOCUMENT:DATE:LOCATION-edgesREFERENCES:SIMLOC-date_th0.25-doc_th0.7-loc_th0.35
# 9   rel2-3   edinburghreview128londuoft_249   38   0.2647743   nodesDOCUMENT:DATE:LOCATION-edgesREFERENCES:SIMLOC-date_th0.25-doc_th0.7-loc_th0.35
# 9   rel2-3   marvelousstoryof00nort_227   39   0.26466662   nodesDOCUMENT:DATE:LOCATION-edgesREFERENCES:SIMLOC-date_th0.25-doc_th0.7-loc_th0.35
# 9   rel2-3   greatbritainprus00lodguoft_211   40   0.2638461   nodesDOCUMENT:DATE:LOCATION-edgesREFERENCES:SIMLOC-date_th0.25-doc_th0.7-loc_th0.35
