###################################
# parameters: 
#   decay: 0.2
#   lambda: 0.5
#   norm_threshold: 0
#   relationships: REFERENCES:SIMDATES

###################################
# configuration: 
#   sa.act_diff_ratio_limit = 0.05
#   sa.function = ciir.multi.sa.DecayedSumSALogNormFunction(norm_function, 0.2, 0.5, DOCUMENT)
#   sa.id_property_name.DATE = dateID
#   sa.id_property_name.DOCUMENT = docID
#   sa.id_property_name.LOCATION = locID
#   sa.max_pulses = 15
#   sa.norm_function = ciir.multi.sa.SigmoidFunction(0, 1.0)
#   sa.relationships_to_use = REFERENCES:SIMDATES
#   sa.weight_property.REFERENCES = relevance
#   sa.weight_property.SIMDATES = sim
#   sa.weight_property.SIMLOC = sim

###################################
# initial activations: 
#   generalhistoryfo00myerrich_787: 1.0
#   selwynhouseschoo1940selw_21: 1.0
#   lifeofstratfordc02laneuoft_185: 1.0
#   historyofuniteds07good_239: 1.0
#   shorthistoryofmo00haslrich_98: 1.0
#   cambridgemodern09protgoog_449: 1.0

###################################
# spreading activation process log: 
#   pulse 0: activated nodes: 6, borderline nodes: 6, overall activation: 0.000, activation diff: 0.000, ratio: Infinity
#   pulse 1: activated nodes: 69, borderline nodes: 63, overall activation: 19.865, activation diff: 19.865, ratio: 1.000
#   pulse 2: activated nodes: 5321, borderline nodes: 5252, overall activation: 444.904, activation diff: 425.076, ratio: 0.955
#   pulse 3: activated nodes: 8935, borderline nodes: 3614, overall activation: 954.074, activation diff: 509.170, ratio: 0.534
#   pulse 4: activated nodes: 10912, borderline nodes: 1977, overall activation: 2144.479, activation diff: 1190.405, ratio: 0.555
#   pulse 5: activated nodes: 11328, borderline nodes: 416, overall activation: 3245.556, activation diff: 1101.077, ratio: 0.339
#   pulse 6: activated nodes: 11342, borderline nodes: 14, overall activation: 4050.605, activation diff: 805.049, ratio: 0.199
#   pulse 7: activated nodes: 11342, borderline nodes: 14, overall activation: 4583.876, activation diff: 533.271, ratio: 0.116
#   pulse 8: activated nodes: 11342, borderline nodes: 14, overall activation: 4920.700, activation diff: 336.824, ratio: 0.068
#   pulse 9: activated nodes: 11342, borderline nodes: 14, overall activation: 5127.842, activation diff: 207.142, ratio: 0.040

###################################
# spreading activation process summary: 
#   final number of activated nodes: 11342
#   final overall activation: 5127.8
#   number of spread. activ. pulses: 9
#   running time: 527

###################################
# top k results in TREC format: 

1   Q1   historyofuniteds07good_239   1   0.9959636   REFERENCES:SIMDATES
1   Q1   cambridgemodern09protgoog_449   2   0.98319733   REFERENCES:SIMDATES
1   Q1   selwynhouseschoo1940selw_21   3   0.9821439   REFERENCES:SIMDATES
1   Q1   shorthistoryofmo00haslrich_98   4   0.9660424   REFERENCES:SIMDATES
1   Q1   generalhistoryfo00myerrich_787   5   0.9221364   REFERENCES:SIMDATES
1   Q1   lifeofstratfordc02laneuoft_185   6   0.89685535   REFERENCES:SIMDATES
1   Q1   englishcyclopae05kniggoog_147   7   0.7939772   REFERENCES:SIMDATES
1   Q1   encyclopediaame28unkngoog_327   8   0.79275084   REFERENCES:SIMDATES
1   Q1   englishcyclopae05kniggoog_118   9   0.79225063   REFERENCES:SIMDATES
1   Q1   europesincenapol00leveuoft_16   10   0.7914689   REFERENCES:SIMDATES
1   Q1   encyclopediaame28unkngoog_522   11   0.7912332   REFERENCES:SIMDATES
1   Q1   encyclopediaame28unkngoog_328   12   0.7910704   REFERENCES:SIMDATES
1   Q1   ouroldworldbackg00bearrich_307   13   0.79102075   REFERENCES:SIMDATES
1   Q1   encyclopediaame28unkngoog_345   14   0.79099816   REFERENCES:SIMDATES
1   Q1   englishcyclopae05kniggoog_440   15   0.7909717   REFERENCES:SIMDATES
1   Q1   encyclopediaame28unkngoog_325   16   0.7908938   REFERENCES:SIMDATES
1   Q1   encyclopediaame28unkngoog_504   17   0.79088485   REFERENCES:SIMDATES
1   Q1   encyclopediaame28unkngoog_221   18   0.7907144   REFERENCES:SIMDATES
1   Q1   encyclopediaame28unkngoog_545   19   0.7906961   REFERENCES:SIMDATES
1   Q1   encyclopediaame28unkngoog_222   20   0.7906269   REFERENCES:SIMDATES
