###################################
# parameters: 
#   date_th: 0.3
#   doc_th: 0.6
#   loc_th: 0.35
#   nodestouse: DOCUMENT:DATE:LOCATION
#   relationships: REFERENCES

###################################
# configuration: 
#   sa.act_diff_ratio_limit = 0.01
#   sa.act_diff_ratio_limit_diff = 0.01
#   sa.function = ciir.multi.sa.function.MaxSAFunction(norm_function)
#   sa.id_property_name.DATE = dateID
#   sa.id_property_name.DOCUMENT = docID
#   sa.id_property_name.LOCATION = locID
#   sa.max_pulses = 10
#   sa.nodes_to_print = DATE:LOCATION
#   sa.nodes_to_use = DOCUMENT:DATE:LOCATION
#   sa.norm_function = ciir.multi.sa.SigmoidFunction(0.0, 1.0)
#   sa.relationships_to_use = REFERENCES
#   sa.spread_threshold.DATE = 0.3
#   sa.spread_threshold.DOCUMENT = 0.6
#   sa.spread_threshold.LOCATION = 0.35
#   sa.weight_property.REFERENCES = relevance
#   sa.weight_property.SIMDATES = sim
#   sa.weight_property.SIMDOC = sim
#   sa.weight_property.SIMLOC = sim
#   sa.weight_property.SIMPAGE = pagesim

###################################
# initial activations (2): 
#   newannualarmylis1874hart_463, 1
#   newannualarmylis1874hart_464, 1

###################################
# spreading activation process log: 
#   pulse 0: activated: 2, non-zero: 2, borderline: 2, overall act: 2.000, act diff: 2.000, ratio: 1.000
#   pulse 1: activated: 61, non-zero: 61, borderline: 59, overall act: 10.678, act diff: 8.678, ratio: 0.813
#   pulse 2: activated: 6118, non-zero: 6118, borderline: 6113, overall act: 579.884, act diff: 569.206, ratio: 0.982
#   pulse 3: activated: 6118, non-zero: 6118, borderline: 6113, overall act: 579.884, act diff: 0.000, ratio: 0.000

###################################
# spreading activation process summary: 
#   final number of activated nodes: 6118
#   final overall activation: 579.9
#   number of spread. activ. pulses: 3
#   running time: 17838

###################################
# top k results in TREC format: 

1   rel2-15   lucknow   1   0.40611652   nodesDOCUMENT:DATE:LOCATION-edgesREFERENCES-date_th0.3-doc_th0.6-loc_th0.35
1   rel2-15   cabool   2   0.40411505   nodesDOCUMENT:DATE:LOCATION-edgesREFERENCES-date_th0.3-doc_th0.6-loc_th0.35
1   rel2-15   panjnad river   3   0.3702583   nodesDOCUMENT:DATE:LOCATION-edgesREFERENCES-date_th0.3-doc_th0.6-loc_th0.35
1   rel2-15   gwalior   4   0.3208354   nodesDOCUMENT:DATE:LOCATION-edgesREFERENCES-date_th0.3-doc_th0.6-loc_th0.35
1   rel2-15   punjaub   5   0.3037335   nodesDOCUMENT:DATE:LOCATION-edgesREFERENCES-date_th0.3-doc_th0.6-loc_th0.35
1   rel2-15   delhi   6   0.29110616   nodesDOCUMENT:DATE:LOCATION-edgesREFERENCES-date_th0.3-doc_th0.6-loc_th0.35
1   rel2-15   bareilly   7   0.25193992   nodesDOCUMENT:DATE:LOCATION-edgesREFERENCES-date_th0.3-doc_th0.6-loc_th0.35
1   rel2-15   china   8   0.16011405   nodesDOCUMENT:DATE:LOCATION-edgesREFERENCES-date_th0.3-doc_th0.6-loc_th0.35
1   rel2-15   cawnpore   9   0.15096098   nodesDOCUMENT:DATE:LOCATION-edgesREFERENCES-date_th0.3-doc_th0.6-loc_th0.35
1   rel2-15   sobraon   10   0.15096098   nodesDOCUMENT:DATE:LOCATION-edgesREFERENCES-date_th0.3-doc_th0.6-loc_th0.35
1   rel2-15   agra   11   0.15096098   nodesDOCUMENT:DATE:LOCATION-edgesREFERENCES-date_th0.3-doc_th0.6-loc_th0.35
1   rel2-15   cholin   12   0.10154631   nodesDOCUMENT:DATE:LOCATION-edgesREFERENCES-date_th0.3-doc_th0.6-loc_th0.35
1   rel2-15   mulka   13   0.10154631   nodesDOCUMENT:DATE:LOCATION-edgesREFERENCES-date_th0.3-doc_th0.6-loc_th0.35
1   rel2-15   chandakhar   14   0.10154631   nodesDOCUMENT:DATE:LOCATION-edgesREFERENCES-date_th0.3-doc_th0.6-loc_th0.35
1   rel2-15   neemuch   15   0.10154631   nodesDOCUMENT:DATE:LOCATION-edgesREFERENCES-date_th0.3-doc_th0.6-loc_th0.35
1   rel2-15   shanghai   16   0.10154631   nodesDOCUMENT:DATE:LOCATION-edgesREFERENCES-date_th0.3-doc_th0.6-loc_th0.35
1   rel2-15   kading   17   0.10154631   nodesDOCUMENT:DATE:LOCATION-edgesREFERENCES-date_th0.3-doc_th0.6-loc_th0.35
1   rel2-15   india   18   0.09568572   nodesDOCUMENT:DATE:LOCATION-edgesREFERENCES-date_th0.3-doc_th0.6-loc_th0.35
1   rel2-15   gya   19   0.09568572   nodesDOCUMENT:DATE:LOCATION-edgesREFERENCES-date_th0.3-doc_th0.6-loc_th0.35
1   rel2-15   mathura   20   0.09568572   nodesDOCUMENT:DATE:LOCATION-edgesREFERENCES-date_th0.3-doc_th0.6-loc_th0.35

###################################
# top nodes: 

# 1   rel2-15   newannualarmylis1874hart_463   1   1.0   nodesDOCUMENT:DATE:LOCATION-edgesREFERENCES-date_th0.3-doc_th0.6-loc_th0.35
# 1   rel2-15   newannualarmylis1874hart_464   2   1.0   nodesDOCUMENT:DATE:LOCATION-edgesREFERENCES-date_th0.3-doc_th0.6-loc_th0.35
# 1   rel2-15   lucknow   3   0.40611652   nodesDOCUMENT:DATE:LOCATION-edgesREFERENCES-date_th0.3-doc_th0.6-loc_th0.35
# 1   rel2-15   cabool   4   0.40411505   nodesDOCUMENT:DATE:LOCATION-edgesREFERENCES-date_th0.3-doc_th0.6-loc_th0.35
# 1   rel2-15   panjnad river   5   0.3702583   nodesDOCUMENT:DATE:LOCATION-edgesREFERENCES-date_th0.3-doc_th0.6-loc_th0.35
# 1   rel2-15   gwalior   6   0.3208354   nodesDOCUMENT:DATE:LOCATION-edgesREFERENCES-date_th0.3-doc_th0.6-loc_th0.35
# 1   rel2-15   punjaub   7   0.3037335   nodesDOCUMENT:DATE:LOCATION-edgesREFERENCES-date_th0.3-doc_th0.6-loc_th0.35
# 1   rel2-15   delhi   8   0.29110616   nodesDOCUMENT:DATE:LOCATION-edgesREFERENCES-date_th0.3-doc_th0.6-loc_th0.35
# 1   rel2-15   bareilly   9   0.25193992   nodesDOCUMENT:DATE:LOCATION-edgesREFERENCES-date_th0.3-doc_th0.6-loc_th0.35
# 1   rel2-15   hartsannualarmy17hartgoog_256   10   0.23304151   nodesDOCUMENT:DATE:LOCATION-edgesREFERENCES-date_th0.3-doc_th0.6-loc_th0.35
# 1   rel2-15   hartsannualarmy17hartgoog_40   11   0.21054347   nodesDOCUMENT:DATE:LOCATION-edgesREFERENCES-date_th0.3-doc_th0.6-loc_th0.35
# 1   rel2-15   hartsannualarmy17hartgoog_38   12   0.2067578   nodesDOCUMENT:DATE:LOCATION-edgesREFERENCES-date_th0.3-doc_th0.6-loc_th0.35
# 1   rel2-15   newannualarmylis1874hart_49   13   0.20336136   nodesDOCUMENT:DATE:LOCATION-edgesREFERENCES-date_th0.3-doc_th0.6-loc_th0.35
# 1   rel2-15   hartsannualarmy17hartgoog_568   14   0.20334685   nodesDOCUMENT:DATE:LOCATION-edgesREFERENCES-date_th0.3-doc_th0.6-loc_th0.35
# 1   rel2-15   hartsannualarmy17hartgoog_257   15   0.20108081   nodesDOCUMENT:DATE:LOCATION-edgesREFERENCES-date_th0.3-doc_th0.6-loc_th0.35
# 1   rel2-15   newannualarmylis1874hart_174   16   0.20103283   nodesDOCUMENT:DATE:LOCATION-edgesREFERENCES-date_th0.3-doc_th0.6-loc_th0.35
# 1   rel2-15   apersonaljourna00andegoog_121   17   0.20031266   nodesDOCUMENT:DATE:LOCATION-edgesREFERENCES-date_th0.3-doc_th0.6-loc_th0.35
# 1   rel2-15   systemsoflandte00cobd_226   18   0.20031266   nodesDOCUMENT:DATE:LOCATION-edgesREFERENCES-date_th0.3-doc_th0.6-loc_th0.35
# 1   rel2-15   reportsofmission1896pres_306   19   0.20031266   nodesDOCUMENT:DATE:LOCATION-edgesREFERENCES-date_th0.3-doc_th0.6-loc_th0.35
# 1   rel2-15   apersonaljourna00andegoog_110   20   0.20031266   nodesDOCUMENT:DATE:LOCATION-edgesREFERENCES-date_th0.3-doc_th0.6-loc_th0.35
# 1   rel2-15   tennysonhisarta01broogoog_251   21   0.20031266   nodesDOCUMENT:DATE:LOCATION-edgesREFERENCES-date_th0.3-doc_th0.6-loc_th0.35
# 1   rel2-15   journalofroyalin7188183roya_413   22   0.20031266   nodesDOCUMENT:DATE:LOCATION-edgesREFERENCES-date_th0.3-doc_th0.6-loc_th0.35
# 1   rel2-15   phoeberowe01thob_185   23   0.20031266   nodesDOCUMENT:DATE:LOCATION-edgesREFERENCES-date_th0.3-doc_th0.6-loc_th0.35
# 1   rel2-15   narrativemutini00hutcgoog_6   24   0.20031266   nodesDOCUMENT:DATE:LOCATION-edgesREFERENCES-date_th0.3-doc_th0.6-loc_th0.35
# 1   rel2-15   reminiscencesofb00edwauoft_279   25   0.20031266   nodesDOCUMENT:DATE:LOCATION-edgesREFERENCES-date_th0.3-doc_th0.6-loc_th0.35
# 1   rel2-15   libraryofworldsbe22warn_51   26   0.20031266   nodesDOCUMENT:DATE:LOCATION-edgesREFERENCES-date_th0.3-doc_th0.6-loc_th0.35
# 1   rel2-15   reminiscencesofb00edwauoft_267   27   0.20031266   nodesDOCUMENT:DATE:LOCATION-edgesREFERENCES-date_th0.3-doc_th0.6-loc_th0.35
# 1   rel2-15   memoirofsirwilli00veitrich_344   28   0.20031266   nodesDOCUMENT:DATE:LOCATION-edgesREFERENCES-date_th0.3-doc_th0.6-loc_th0.35
# 1   rel2-15   newannualarmylis1898lond_946   29   0.20031266   nodesDOCUMENT:DATE:LOCATION-edgesREFERENCES-date_th0.3-doc_th0.6-loc_th0.35
# 1   rel2-15   reminiscencesofb00edwauoft_211   30   0.20031266   nodesDOCUMENT:DATE:LOCATION-edgesREFERENCES-date_th0.3-doc_th0.6-loc_th0.35
# 1   rel2-15   reminiscencesofb00edwauoft_234   31   0.20031266   nodesDOCUMENT:DATE:LOCATION-edgesREFERENCES-date_th0.3-doc_th0.6-loc_th0.35
# 1   rel2-15   fortyoneyearsini00robe_316   32   0.20031266   nodesDOCUMENT:DATE:LOCATION-edgesREFERENCES-date_th0.3-doc_th0.6-loc_th0.35
# 1   rel2-15   reminiscencesofb00edwauoft_231   33   0.20031266   nodesDOCUMENT:DATE:LOCATION-edgesREFERENCES-date_th0.3-doc_th0.6-loc_th0.35
# 1   rel2-15   reminiscencesofb00edwauoft_230   34   0.20031266   nodesDOCUMENT:DATE:LOCATION-edgesREFERENCES-date_th0.3-doc_th0.6-loc_th0.35
# 1   rel2-15   historyofindianm01forr_16   35   0.20031266   nodesDOCUMENT:DATE:LOCATION-edgesREFERENCES-date_th0.3-doc_th0.6-loc_th0.35
# 1   rel2-15   historyofindianm01forr_14   36   0.20031266   nodesDOCUMENT:DATE:LOCATION-edgesREFERENCES-date_th0.3-doc_th0.6-loc_th0.35
# 1   rel2-15   historyofindianm01forr_29   37   0.20031266   nodesDOCUMENT:DATE:LOCATION-edgesREFERENCES-date_th0.3-doc_th0.6-loc_th0.35
# 1   rel2-15   memorialsoflife02edwa_52   38   0.20031266   nodesDOCUMENT:DATE:LOCATION-edgesREFERENCES-date_th0.3-doc_th0.6-loc_th0.35
# 1   rel2-15   recordsofindianm06indi_263   39   0.20031266   nodesDOCUMENT:DATE:LOCATION-edgesREFERENCES-date_th0.3-doc_th0.6-loc_th0.35
# 1   rel2-15   macmillansmagazi43macmuoft_261   40   0.20031266   nodesDOCUMENT:DATE:LOCATION-edgesREFERENCES-date_th0.3-doc_th0.6-loc_th0.35
