###################################
# parameters: 
#   date_th: 0.25
#   doc_th: 0.7
#   loc_th: 0.35
#   nodestouse: DOCUMENT:DATE:LOCATION
#   relationships: REFERENCES

###################################
# configuration: 
#   sa.act_diff_ratio_limit = 0.01
#   sa.act_diff_ratio_limit_diff = 0.01
#   sa.function = ciir.multi.sa.function.MaxSAFunction(norm_function)
#   sa.id_property_name.DATE = dateID
#   sa.id_property_name.DOCUMENT = docID
#   sa.id_property_name.LOCATION = locID
#   sa.max_pulses = 10
#   sa.nodes_to_print = DATE:LOCATION
#   sa.nodes_to_use = DOCUMENT:DATE:LOCATION
#   sa.norm_function = ciir.multi.sa.SigmoidFunction(0.0, 1.0)
#   sa.relationships_to_use = REFERENCES
#   sa.spread_threshold.DATE = 0.25
#   sa.spread_threshold.DOCUMENT = 0.7
#   sa.spread_threshold.LOCATION = 0.35
#   sa.weight_property.REFERENCES = relevance
#   sa.weight_property.SIMDATES = sim
#   sa.weight_property.SIMDOC = sim
#   sa.weight_property.SIMLOC = sim
#   sa.weight_property.SIMPAGE = pagesim

###################################
# initial activations (2): 
#   newannualarmylis1874hart_480, 1
#   newannualarmylis1874hart_347, 1

###################################
# spreading activation process log: 
#   pulse 0: activated: 2, non-zero: 2, borderline: 2, overall act: 2.000, act diff: 2.000, ratio: 1.000
#   pulse 1: activated: 72, non-zero: 72, borderline: 70, overall act: 11.177, act diff: 9.177, ratio: 0.821
#   pulse 2: activated: 132015, non-zero: 132015, borderline: 132011, overall act: 11848.098, act diff: 11836.921, ratio: 0.999
#   pulse 3: activated: 132015, non-zero: 132015, borderline: 132011, overall act: 11848.098, act diff: 0.000, ratio: 0.000

###################################
# spreading activation process summary: 
#   final number of activated nodes: 132015
#   final overall activation: 11848.1
#   number of spread. activ. pulses: 3
#   running time: 35108

###################################
# top k results in TREC format: 

1   rel2-5   lucknow   1   0.45909595   nodesDOCUMENT:DATE:LOCATION-edgesREFERENCES-date_th0.25-doc_th0.7-loc_th0.35
1   rel2-5   china   2   0.36897528   nodesDOCUMENT:DATE:LOCATION-edgesREFERENCES-date_th0.25-doc_th0.7-loc_th0.35
1   rel2-5   delhi   3   0.33726832   nodesDOCUMENT:DATE:LOCATION-edgesREFERENCES-date_th0.25-doc_th0.7-loc_th0.35
1   rel2-5   canton   4   0.30700052   nodesDOCUMENT:DATE:LOCATION-edgesREFERENCES-date_th0.25-doc_th0.7-loc_th0.35
1   rel2-5   cawnpore   5   0.2640537   nodesDOCUMENT:DATE:LOCATION-edgesREFERENCES-date_th0.25-doc_th0.7-loc_th0.35
1   rel2-5   sebastopol   6   0.24026829   nodesDOCUMENT:DATE:LOCATION-edgesREFERENCES-date_th0.25-doc_th0.7-loc_th0.35
1   rel2-5   india   7   0.2259702   nodesDOCUMENT:DATE:LOCATION-edgesREFERENCES-date_th0.25-doc_th0.7-loc_th0.35
1   rel2-5   pekin   8   0.17699262   nodesDOCUMENT:DATE:LOCATION-edgesREFERENCES-date_th0.25-doc_th0.7-loc_th0.35
1   rel2-5   crimea   9   0.17283106   nodesDOCUMENT:DATE:LOCATION-edgesREFERENCES-date_th0.25-doc_th0.7-loc_th0.35
1   rel2-5   rooya   10   0.14414719   nodesDOCUMENT:DATE:LOCATION-edgesREFERENCES-date_th0.25-doc_th0.7-loc_th0.35
1   rel2-5   bareilly   11   0.14414719   nodesDOCUMENT:DATE:LOCATION-edgesREFERENCES-date_th0.25-doc_th0.7-loc_th0.35
1   rel2-5   heights   12   0.13747801   nodesDOCUMENT:DATE:LOCATION-edgesREFERENCES-date_th0.25-doc_th0.7-loc_th0.35
1   rel2-5   punjaub   13   0.13747801   nodesDOCUMENT:DATE:LOCATION-edgesREFERENCES-date_th0.25-doc_th0.7-loc_th0.35
1   rel2-5   moradabad   14   0.09132942   nodesDOCUMENT:DATE:LOCATION-edgesREFERENCES-date_th0.25-doc_th0.7-loc_th0.35
1   rel2-5   rekta   15   0.09132942   nodesDOCUMENT:DATE:LOCATION-edgesREFERENCES-date_th0.25-doc_th0.7-loc_th0.35
1   rel2-5   sinho   16   0.09132942   nodesDOCUMENT:DATE:LOCATION-edgesREFERENCES-date_th0.25-doc_th0.7-loc_th0.35
1   rel2-5   benares   17   0.09132942   nodesDOCUMENT:DATE:LOCATION-edgesREFERENCES-date_th0.25-doc_th0.7-loc_th0.35
1   rel2-5   jhansi   18   0.09132942   nodesDOCUMENT:DATE:LOCATION-edgesREFERENCES-date_th0.25-doc_th0.7-loc_th0.35
1   rel2-5   agra   19   0.09132942   nodesDOCUMENT:DATE:LOCATION-edgesREFERENCES-date_th0.25-doc_th0.7-loc_th0.35
1   rel2-5   grand trunk road   20   0.09132942   nodesDOCUMENT:DATE:LOCATION-edgesREFERENCES-date_th0.25-doc_th0.7-loc_th0.35

###################################
# top nodes: 

# 1   rel2-5   newannualarmylis1874hart_480   1   1.0   nodesDOCUMENT:DATE:LOCATION-edgesREFERENCES-date_th0.25-doc_th0.7-loc_th0.35
# 1   rel2-5   newannualarmylis1874hart_347   2   1.0   nodesDOCUMENT:DATE:LOCATION-edgesREFERENCES-date_th0.25-doc_th0.7-loc_th0.35
# 1   rel2-5   lucknow   3   0.45909595   nodesDOCUMENT:DATE:LOCATION-edgesREFERENCES-date_th0.25-doc_th0.7-loc_th0.35
# 1   rel2-5   china   4   0.36897528   nodesDOCUMENT:DATE:LOCATION-edgesREFERENCES-date_th0.25-doc_th0.7-loc_th0.35
# 1   rel2-5   delhi   5   0.33726832   nodesDOCUMENT:DATE:LOCATION-edgesREFERENCES-date_th0.25-doc_th0.7-loc_th0.35
# 1   rel2-5   canton   6   0.30700052   nodesDOCUMENT:DATE:LOCATION-edgesREFERENCES-date_th0.25-doc_th0.7-loc_th0.35
# 1   rel2-5   cawnpore   7   0.2640537   nodesDOCUMENT:DATE:LOCATION-edgesREFERENCES-date_th0.25-doc_th0.7-loc_th0.35
# 1   rel2-5   hartsannualarmy17hartgoog_470   8   0.2617024   nodesDOCUMENT:DATE:LOCATION-edgesREFERENCES-date_th0.25-doc_th0.7-loc_th0.35
# 1   rel2-5   hartsannualarmy17hartgoog_439   9   0.25860617   nodesDOCUMENT:DATE:LOCATION-edgesREFERENCES-date_th0.25-doc_th0.7-loc_th0.35
# 1   rel2-5   lifelettersdiari00vetcuoft_181   10   0.25544322   nodesDOCUMENT:DATE:LOCATION-edgesREFERENCES-date_th0.25-doc_th0.7-loc_th0.35
# 1   rel2-5   narrativeindia01hebe_574   11   0.25544322   nodesDOCUMENT:DATE:LOCATION-edgesREFERENCES-date_th0.25-doc_th0.7-loc_th0.35
# 1   rel2-5   cu31924023223872_205   12   0.2439522   nodesDOCUMENT:DATE:LOCATION-edgesREFERENCES-date_th0.25-doc_th0.7-loc_th0.35
# 1   rel2-5   sebastopol   13   0.24026829   nodesDOCUMENT:DATE:LOCATION-edgesREFERENCES-date_th0.25-doc_th0.7-loc_th0.35
# 1   rel2-5   newannualarmylis1874hart_482   14   0.2376333   nodesDOCUMENT:DATE:LOCATION-edgesREFERENCES-date_th0.25-doc_th0.7-loc_th0.35
# 1   rel2-5   hartsannualarmy17hartgoog_252   15   0.23213765   nodesDOCUMENT:DATE:LOCATION-edgesREFERENCES-date_th0.25-doc_th0.7-loc_th0.35
# 1   rel2-5   hartsannualarmy17hartgoog_251   16   0.23209615   nodesDOCUMENT:DATE:LOCATION-edgesREFERENCES-date_th0.25-doc_th0.7-loc_th0.35
# 1   rel2-5   progressofindiaj00temprich_111   17   0.23185161   nodesDOCUMENT:DATE:LOCATION-edgesREFERENCES-date_th0.25-doc_th0.7-loc_th0.35
# 1   rel2-5   cu31924023223872_117   18   0.23185161   nodesDOCUMENT:DATE:LOCATION-edgesREFERENCES-date_th0.25-doc_th0.7-loc_th0.35
# 1   rel2-5   hartsannualarmy17hartgoog_588   19   0.23139483   nodesDOCUMENT:DATE:LOCATION-edgesREFERENCES-date_th0.25-doc_th0.7-loc_th0.35
# 1   rel2-5   hartsannualarmy17hartgoog_279   20   0.23080824   nodesDOCUMENT:DATE:LOCATION-edgesREFERENCES-date_th0.25-doc_th0.7-loc_th0.35
# 1   rel2-5   cu31924023223872_163   21   0.22958767   nodesDOCUMENT:DATE:LOCATION-edgesREFERENCES-date_th0.25-doc_th0.7-loc_th0.35
# 1   rel2-5   newannualarmylis1874hart_485   22   0.22836989   nodesDOCUMENT:DATE:LOCATION-edgesREFERENCES-date_th0.25-doc_th0.7-loc_th0.35
# 1   rel2-5   india   23   0.2259702   nodesDOCUMENT:DATE:LOCATION-edgesREFERENCES-date_th0.25-doc_th0.7-loc_th0.35
# 1   rel2-5   lifeofrichardbri00sanduoft_109   24   0.22559938   nodesDOCUMENT:DATE:LOCATION-edgesREFERENCES-date_th0.25-doc_th0.7-loc_th0.35
# 1   rel2-5   cu31924023968237_12   25   0.22559938   nodesDOCUMENT:DATE:LOCATION-edgesREFERENCES-date_th0.25-doc_th0.7-loc_th0.35
# 1   rel2-5   cu31924023968237_10   26   0.22559938   nodesDOCUMENT:DATE:LOCATION-edgesREFERENCES-date_th0.25-doc_th0.7-loc_th0.35
# 1   rel2-5   collectedverseof01kipluoft_161   27   0.22559938   nodesDOCUMENT:DATE:LOCATION-edgesREFERENCES-date_th0.25-doc_th0.7-loc_th0.35
# 1   rel2-5   blackwoodsmagazi84edinuoft_80   28   0.22559938   nodesDOCUMENT:DATE:LOCATION-edgesREFERENCES-date_th0.25-doc_th0.7-loc_th0.35
# 1   rel2-5   reportsofmission1896pres_306   29   0.22559938   nodesDOCUMENT:DATE:LOCATION-edgesREFERENCES-date_th0.25-doc_th0.7-loc_th0.35
# 1   rel2-5   aroundworld00hend_263   30   0.22559938   nodesDOCUMENT:DATE:LOCATION-edgesREFERENCES-date_th0.25-doc_th0.7-loc_th0.35
# 1   rel2-5   aroundworld00hend_259   31   0.22559938   nodesDOCUMENT:DATE:LOCATION-edgesREFERENCES-date_th0.25-doc_th0.7-loc_th0.35
# 1   rel2-5   etoninforties02colegoog_107   32   0.22559938   nodesDOCUMENT:DATE:LOCATION-edgesREFERENCES-date_th0.25-doc_th0.7-loc_th0.35
# 1   rel2-5   ibis731897brit_621   33   0.22559938   nodesDOCUMENT:DATE:LOCATION-edgesREFERENCES-date_th0.25-doc_th0.7-loc_th0.35
# 1   rel2-5   ibis731897brit_625   34   0.22559938   nodesDOCUMENT:DATE:LOCATION-edgesREFERENCES-date_th0.25-doc_th0.7-loc_th0.35
# 1   rel2-5   dailylifeofourfa00beevrich_222   35   0.22559938   nodesDOCUMENT:DATE:LOCATION-edgesREFERENCES-date_th0.25-doc_th0.7-loc_th0.35
# 1   rel2-5   dailylifeofourfa00beevrich_202   36   0.22559938   nodesDOCUMENT:DATE:LOCATION-edgesREFERENCES-date_th0.25-doc_th0.7-loc_th0.35
# 1   rel2-5   ibis731897brit_619   37   0.22559938   nodesDOCUMENT:DATE:LOCATION-edgesREFERENCES-date_th0.25-doc_th0.7-loc_th0.35
# 1   rel2-5   ibis731897brit_617   38   0.22559938   nodesDOCUMENT:DATE:LOCATION-edgesREFERENCES-date_th0.25-doc_th0.7-loc_th0.35
# 1   rel2-5   mutinyofbengalar00mallrich_129   39   0.22559938   nodesDOCUMENT:DATE:LOCATION-edgesREFERENCES-date_th0.25-doc_th0.7-loc_th0.35
# 1   rel2-5   cityofrefuge00besarich_108   40   0.22559938   nodesDOCUMENT:DATE:LOCATION-edgesREFERENCES-date_th0.25-doc_th0.7-loc_th0.35
