###################################
# parameters: 
#   date_th: 0.3
#   doc_th: 0.6
#   loc_th: 0.4
#   nodestouse: DOCUMENT:DATE:LOCATION
#   relationships: REFERENCES

###################################
# configuration: 
#   sa.act_diff_ratio_limit = 0.01
#   sa.act_diff_ratio_limit_diff = 0.01
#   sa.function = ciir.multi.sa.function.MaxSAFunction(norm_function)
#   sa.id_property_name.DATE = dateID
#   sa.id_property_name.DOCUMENT = docID
#   sa.id_property_name.LOCATION = locID
#   sa.max_pulses = 10
#   sa.nodes_to_print = DATE:LOCATION
#   sa.nodes_to_use = DOCUMENT:DATE:LOCATION
#   sa.norm_function = ciir.multi.sa.SigmoidFunction(0.0, 1.0)
#   sa.relationships_to_use = REFERENCES
#   sa.spread_threshold.DATE = 0.3
#   sa.spread_threshold.DOCUMENT = 0.6
#   sa.spread_threshold.LOCATION = 0.4
#   sa.weight_property.REFERENCES = relevance
#   sa.weight_property.SIMDATES = sim
#   sa.weight_property.SIMDOC = sim
#   sa.weight_property.SIMLOC = sim
#   sa.weight_property.SIMPAGE = pagesim

###################################
# initial activations (2): 
#   newannualarmylis1874hart_480, 1
#   newannualarmylis1874hart_347, 1

###################################
# spreading activation process log: 
#   pulse 0: activated: 2, non-zero: 2, borderline: 2, overall act: 2.000, act diff: 2.000, ratio: 1.000
#   pulse 1: activated: 72, non-zero: 72, borderline: 70, overall act: 11.177, act diff: 9.177, ratio: 0.821
#   pulse 2: activated: 5144, non-zero: 5144, borderline: 5141, overall act: 555.508, act diff: 544.331, ratio: 0.980
#   pulse 3: activated: 5144, non-zero: 5144, borderline: 5141, overall act: 555.508, act diff: 0.000, ratio: 0.000

###################################
# spreading activation process summary: 
#   final number of activated nodes: 5144
#   final overall activation: 555.5
#   number of spread. activ. pulses: 3
#   running time: 20885

###################################
# top k results in TREC format: 

1   rel2-5   lucknow   1   0.45909595   nodesDOCUMENT:DATE:LOCATION-edgesREFERENCES-date_th0.3-doc_th0.6-loc_th0.4
1   rel2-5   china   2   0.36897528   nodesDOCUMENT:DATE:LOCATION-edgesREFERENCES-date_th0.3-doc_th0.6-loc_th0.4
1   rel2-5   delhi   3   0.33726832   nodesDOCUMENT:DATE:LOCATION-edgesREFERENCES-date_th0.3-doc_th0.6-loc_th0.4
1   rel2-5   canton   4   0.30700052   nodesDOCUMENT:DATE:LOCATION-edgesREFERENCES-date_th0.3-doc_th0.6-loc_th0.4
1   rel2-5   cawnpore   5   0.2640537   nodesDOCUMENT:DATE:LOCATION-edgesREFERENCES-date_th0.3-doc_th0.6-loc_th0.4
1   rel2-5   sebastopol   6   0.24026829   nodesDOCUMENT:DATE:LOCATION-edgesREFERENCES-date_th0.3-doc_th0.6-loc_th0.4
1   rel2-5   india   7   0.2259702   nodesDOCUMENT:DATE:LOCATION-edgesREFERENCES-date_th0.3-doc_th0.6-loc_th0.4
1   rel2-5   pekin   8   0.17699262   nodesDOCUMENT:DATE:LOCATION-edgesREFERENCES-date_th0.3-doc_th0.6-loc_th0.4
1   rel2-5   crimea   9   0.17283106   nodesDOCUMENT:DATE:LOCATION-edgesREFERENCES-date_th0.3-doc_th0.6-loc_th0.4
1   rel2-5   rooya   10   0.14414719   nodesDOCUMENT:DATE:LOCATION-edgesREFERENCES-date_th0.3-doc_th0.6-loc_th0.4
1   rel2-5   bareilly   11   0.14414719   nodesDOCUMENT:DATE:LOCATION-edgesREFERENCES-date_th0.3-doc_th0.6-loc_th0.4
1   rel2-5   heights   12   0.13747801   nodesDOCUMENT:DATE:LOCATION-edgesREFERENCES-date_th0.3-doc_th0.6-loc_th0.4
1   rel2-5   punjaub   13   0.13747801   nodesDOCUMENT:DATE:LOCATION-edgesREFERENCES-date_th0.3-doc_th0.6-loc_th0.4
1   rel2-5   tangku   14   0.09132942   nodesDOCUMENT:DATE:LOCATION-edgesREFERENCES-date_th0.3-doc_th0.6-loc_th0.4
1   rel2-5   agra   15   0.09132942   nodesDOCUMENT:DATE:LOCATION-edgesREFERENCES-date_th0.3-doc_th0.6-loc_th0.4
1   rel2-5   sinho   16   0.09132942   nodesDOCUMENT:DATE:LOCATION-edgesREFERENCES-date_th0.3-doc_th0.6-loc_th0.4
1   rel2-5   moradabad   17   0.09132942   nodesDOCUMENT:DATE:LOCATION-edgesREFERENCES-date_th0.3-doc_th0.6-loc_th0.4
1   rel2-5   jhansi   18   0.09132942   nodesDOCUMENT:DATE:LOCATION-edgesREFERENCES-date_th0.3-doc_th0.6-loc_th0.4
1   rel2-5   allahabad   19   0.09132942   nodesDOCUMENT:DATE:LOCATION-edgesREFERENCES-date_th0.3-doc_th0.6-loc_th0.4
1   rel2-5   sunga   20   0.09132942   nodesDOCUMENT:DATE:LOCATION-edgesREFERENCES-date_th0.3-doc_th0.6-loc_th0.4

###################################
# top nodes: 

# 1   rel2-5   newannualarmylis1874hart_480   1   1.0   nodesDOCUMENT:DATE:LOCATION-edgesREFERENCES-date_th0.3-doc_th0.6-loc_th0.4
# 1   rel2-5   newannualarmylis1874hart_347   2   1.0   nodesDOCUMENT:DATE:LOCATION-edgesREFERENCES-date_th0.3-doc_th0.6-loc_th0.4
# 1   rel2-5   lucknow   3   0.45909595   nodesDOCUMENT:DATE:LOCATION-edgesREFERENCES-date_th0.3-doc_th0.6-loc_th0.4
# 1   rel2-5   china   4   0.36897528   nodesDOCUMENT:DATE:LOCATION-edgesREFERENCES-date_th0.3-doc_th0.6-loc_th0.4
# 1   rel2-5   delhi   5   0.33726832   nodesDOCUMENT:DATE:LOCATION-edgesREFERENCES-date_th0.3-doc_th0.6-loc_th0.4
# 1   rel2-5   canton   6   0.30700052   nodesDOCUMENT:DATE:LOCATION-edgesREFERENCES-date_th0.3-doc_th0.6-loc_th0.4
# 1   rel2-5   cawnpore   7   0.2640537   nodesDOCUMENT:DATE:LOCATION-edgesREFERENCES-date_th0.3-doc_th0.6-loc_th0.4
# 1   rel2-5   sebastopol   8   0.24026829   nodesDOCUMENT:DATE:LOCATION-edgesREFERENCES-date_th0.3-doc_th0.6-loc_th0.4
# 1   rel2-5   india   9   0.2259702   nodesDOCUMENT:DATE:LOCATION-edgesREFERENCES-date_th0.3-doc_th0.6-loc_th0.4
# 1   rel2-5   apersonaljourna00andegoog_121   10   0.22559938   nodesDOCUMENT:DATE:LOCATION-edgesREFERENCES-date_th0.3-doc_th0.6-loc_th0.4
# 1   rel2-5   systemsoflandte00cobd_226   11   0.22559938   nodesDOCUMENT:DATE:LOCATION-edgesREFERENCES-date_th0.3-doc_th0.6-loc_th0.4
# 1   rel2-5   reportsofmission1896pres_306   12   0.22559938   nodesDOCUMENT:DATE:LOCATION-edgesREFERENCES-date_th0.3-doc_th0.6-loc_th0.4
# 1   rel2-5   journalofroyalin7188183roya_413   13   0.22559938   nodesDOCUMENT:DATE:LOCATION-edgesREFERENCES-date_th0.3-doc_th0.6-loc_th0.4
# 1   rel2-5   apersonaljourna00andegoog_110   14   0.22559938   nodesDOCUMENT:DATE:LOCATION-edgesREFERENCES-date_th0.3-doc_th0.6-loc_th0.4
# 1   rel2-5   phoeberowe01thob_185   15   0.22559938   nodesDOCUMENT:DATE:LOCATION-edgesREFERENCES-date_th0.3-doc_th0.6-loc_th0.4
# 1   rel2-5   narrativemutini00hutcgoog_6   16   0.22559938   nodesDOCUMENT:DATE:LOCATION-edgesREFERENCES-date_th0.3-doc_th0.6-loc_th0.4
# 1   rel2-5   fortyoneyearsini00robe_316   17   0.22559938   nodesDOCUMENT:DATE:LOCATION-edgesREFERENCES-date_th0.3-doc_th0.6-loc_th0.4
# 1   rel2-5   reminiscencesofb00edwauoft_279   18   0.22559938   nodesDOCUMENT:DATE:LOCATION-edgesREFERENCES-date_th0.3-doc_th0.6-loc_th0.4
# 1   rel2-5   libraryofworldsbe22warn_51   19   0.22559938   nodesDOCUMENT:DATE:LOCATION-edgesREFERENCES-date_th0.3-doc_th0.6-loc_th0.4
# 1   rel2-5   reminiscencesofb00edwauoft_267   20   0.22559938   nodesDOCUMENT:DATE:LOCATION-edgesREFERENCES-date_th0.3-doc_th0.6-loc_th0.4
# 1   rel2-5   memoirofsirwilli00veitrich_344   21   0.22559938   nodesDOCUMENT:DATE:LOCATION-edgesREFERENCES-date_th0.3-doc_th0.6-loc_th0.4
# 1   rel2-5   newannualarmylis1898lond_946   22   0.22559938   nodesDOCUMENT:DATE:LOCATION-edgesREFERENCES-date_th0.3-doc_th0.6-loc_th0.4
# 1   rel2-5   reminiscencesofb00edwauoft_211   23   0.22559938   nodesDOCUMENT:DATE:LOCATION-edgesREFERENCES-date_th0.3-doc_th0.6-loc_th0.4
# 1   rel2-5   reminiscencesofb00edwauoft_234   24   0.22559938   nodesDOCUMENT:DATE:LOCATION-edgesREFERENCES-date_th0.3-doc_th0.6-loc_th0.4
# 1   rel2-5   reminiscencesofb00edwauoft_231   25   0.22559938   nodesDOCUMENT:DATE:LOCATION-edgesREFERENCES-date_th0.3-doc_th0.6-loc_th0.4
# 1   rel2-5   reminiscencesofb00edwauoft_230   26   0.22559938   nodesDOCUMENT:DATE:LOCATION-edgesREFERENCES-date_th0.3-doc_th0.6-loc_th0.4
# 1   rel2-5   tennysonhisarta01broogoog_251   27   0.22559938   nodesDOCUMENT:DATE:LOCATION-edgesREFERENCES-date_th0.3-doc_th0.6-loc_th0.4
# 1   rel2-5   historyofindianm01forr_16   28   0.22559938   nodesDOCUMENT:DATE:LOCATION-edgesREFERENCES-date_th0.3-doc_th0.6-loc_th0.4
# 1   rel2-5   historyofindianm01forr_14   29   0.22559938   nodesDOCUMENT:DATE:LOCATION-edgesREFERENCES-date_th0.3-doc_th0.6-loc_th0.4
# 1   rel2-5   historyofindianm01forr_29   30   0.22559938   nodesDOCUMENT:DATE:LOCATION-edgesREFERENCES-date_th0.3-doc_th0.6-loc_th0.4
# 1   rel2-5   memorialsoflife02edwa_52   31   0.22559938   nodesDOCUMENT:DATE:LOCATION-edgesREFERENCES-date_th0.3-doc_th0.6-loc_th0.4
# 1   rel2-5   recordsofindianm06indi_263   32   0.22559938   nodesDOCUMENT:DATE:LOCATION-edgesREFERENCES-date_th0.3-doc_th0.6-loc_th0.4
# 1   rel2-5   macmillansmagazi43macmuoft_261   33   0.22559938   nodesDOCUMENT:DATE:LOCATION-edgesREFERENCES-date_th0.3-doc_th0.6-loc_th0.4
# 1   rel2-5   memorialsoflife02edwa_49   34   0.22559938   nodesDOCUMENT:DATE:LOCATION-edgesREFERENCES-date_th0.3-doc_th0.6-loc_th0.4
# 1   rel2-5   livesofindianoff02kayeiala_346   35   0.22559938   nodesDOCUMENT:DATE:LOCATION-edgesREFERENCES-date_th0.3-doc_th0.6-loc_th0.4
# 1   rel2-5   livesofindianoff02kayeiala_348   36   0.22559938   nodesDOCUMENT:DATE:LOCATION-edgesREFERENCES-date_th0.3-doc_th0.6-loc_th0.4
# 1   rel2-5   cu31924022927283_266   37   0.22559938   nodesDOCUMENT:DATE:LOCATION-edgesREFERENCES-date_th0.3-doc_th0.6-loc_th0.4
# 1   rel2-5   cu31924013563865_47   38   0.22559938   nodesDOCUMENT:DATE:LOCATION-edgesREFERENCES-date_th0.3-doc_th0.6-loc_th0.4
# 1   rel2-5   lifeofisabellath00thobrich_290   39   0.22559938   nodesDOCUMENT:DATE:LOCATION-edgesREFERENCES-date_th0.3-doc_th0.6-loc_th0.4
# 1   rel2-5   lifeofisabellath00thobrich_286   40   0.22559938   nodesDOCUMENT:DATE:LOCATION-edgesREFERENCES-date_th0.3-doc_th0.6-loc_th0.4
