###################################
# parameters: 
#   date_th: 0.3
#   doc_th: 0.7
#   loc_th: 0.35
#   nodestouse: DOCUMENT:DATE:LOCATION
#   relationships: REFERENCES:SIMDATES:SIMLOC

###################################
# configuration: 
#   sa.act_diff_ratio_limit = 0.01
#   sa.act_diff_ratio_limit_diff = 0.01
#   sa.function = ciir.multi.sa.function.MaxSAFunction(norm_function)
#   sa.id_property_name.DATE = dateID
#   sa.id_property_name.DOCUMENT = docID
#   sa.id_property_name.LOCATION = locID
#   sa.max_pulses = 10
#   sa.nodes_to_print = DATE:LOCATION
#   sa.nodes_to_use = DOCUMENT:DATE:LOCATION
#   sa.norm_function = ciir.multi.sa.SigmoidFunction(0.0, 1.0)
#   sa.relationships_to_use = REFERENCES:SIMDATES:SIMLOC
#   sa.spread_threshold.DATE = 0.3
#   sa.spread_threshold.DOCUMENT = 0.7
#   sa.spread_threshold.LOCATION = 0.35
#   sa.weight_property.REFERENCES = relevance
#   sa.weight_property.SIMDATES = sim
#   sa.weight_property.SIMDOC = sim
#   sa.weight_property.SIMLOC = sim
#   sa.weight_property.SIMPAGE = pagesim

###################################
# initial activations (2): 
#   sanfranciscohist01youn_192, 1
#   reportofbritisha88brit_635, 1

###################################
# spreading activation process log: 
#   pulse 0: activated: 2, non-zero: 2, borderline: 2, overall act: 2.000, act diff: 2.000, ratio: 1.000
#   pulse 1: activated: 29, non-zero: 29, borderline: 27, overall act: 6.490, act diff: 4.490, ratio: 0.692
#   pulse 2: activated: 207456, non-zero: 207456, borderline: 207453, overall act: 27559.375, act diff: 27552.885, ratio: 1.000
#   pulse 3: activated: 207456, non-zero: 207456, borderline: 207453, overall act: 27559.375, act diff: 0.000, ratio: 0.000

###################################
# spreading activation process summary: 
#   final number of activated nodes: 207456
#   final overall activation: 27559.4
#   number of spread. activ. pulses: 3
#   running time: 54275

###################################
# top k results in TREC format: 

10   rel2-1   california   1   0.5654102   nodesDOCUMENT:DATE:LOCATION-edgesREFERENCES:SIMDATES:SIMLOC-date_th0.3-doc_th0.7-loc_th0.35
10   rel2-1   united states   2   0.30065745   nodesDOCUMENT:DATE:LOCATION-edgesREFERENCES:SIMDATES:SIMLOC-date_th0.3-doc_th0.7-loc_th0.35
10   rel2-1   yerba buena   3   0.28235662   nodesDOCUMENT:DATE:LOCATION-edgesREFERENCES:SIMDATES:SIMLOC-date_th0.3-doc_th0.7-loc_th0.35
10   rel2-1   madera county   4   0.25661224   nodesDOCUMENT:DATE:LOCATION-edgesREFERENCES:SIMDATES:SIMLOC-date_th0.3-doc_th0.7-loc_th0.35
10   rel2-1   coarsegold   5   0.25203317   nodesDOCUMENT:DATE:LOCATION-edgesREFERENCES:SIMDATES:SIMLOC-date_th0.3-doc_th0.7-loc_th0.35
10   rel2-1   deadwood gulch   6   0.24933492   nodesDOCUMENT:DATE:LOCATION-edgesREFERENCES:SIMDATES:SIMLOC-date_th0.3-doc_th0.7-loc_th0.35
10   rel2-1   vichy spring   7   0.22408332   nodesDOCUMENT:DATE:LOCATION-edgesREFERENCES:SIMDATES:SIMLOC-date_th0.3-doc_th0.7-loc_th0.35
10   rel2-1   fresno flats   8   0.2234428   nodesDOCUMENT:DATE:LOCATION-edgesREFERENCES:SIMDATES:SIMLOC-date_th0.3-doc_th0.7-loc_th0.35
10   rel2-1   striped rock creek   9   0.22091678   nodesDOCUMENT:DATE:LOCATION-edgesREFERENCES:SIMDATES:SIMLOC-date_th0.3-doc_th0.7-loc_th0.35
10   rel2-1   dakota   10   0.2205592   nodesDOCUMENT:DATE:LOCATION-edgesREFERENCES:SIMDATES:SIMLOC-date_th0.3-doc_th0.7-loc_th0.35
10   rel2-1   colorado   11   0.2205592   nodesDOCUMENT:DATE:LOCATION-edgesREFERENCES:SIMDATES:SIMLOC-date_th0.3-doc_th0.7-loc_th0.35
10   rel2-1   ahwahnee   12   0.21465652   nodesDOCUMENT:DATE:LOCATION-edgesREFERENCES:SIMDATES:SIMLOC-date_th0.3-doc_th0.7-loc_th0.35
10   rel2-1   san joaquin experimental range   13   0.19944485   nodesDOCUMENT:DATE:LOCATION-edgesREFERENCES:SIMDATES:SIMLOC-date_th0.3-doc_th0.7-loc_th0.35
10   rel2-1   bass lake station   14   0.19781184   nodesDOCUMENT:DATE:LOCATION-edgesREFERENCES:SIMDATES:SIMLOC-date_th0.3-doc_th0.7-loc_th0.35
10   rel2-1   china wells   15   0.19355501   nodesDOCUMENT:DATE:LOCATION-edgesREFERENCES:SIMDATES:SIMLOC-date_th0.3-doc_th0.7-loc_th0.35
10   rel2-1   bates station   16   0.1934806   nodesDOCUMENT:DATE:LOCATION-edgesREFERENCES:SIMDATES:SIMLOC-date_th0.3-doc_th0.7-loc_th0.35
10   rel2-1   idaho   17   0.17586164   nodesDOCUMENT:DATE:LOCATION-edgesREFERENCES:SIMDATES:SIMLOC-date_th0.3-doc_th0.7-loc_th0.35
10   rel2-1   nevada   18   0.17586164   nodesDOCUMENT:DATE:LOCATION-edgesREFERENCES:SIMDATES:SIMLOC-date_th0.3-doc_th0.7-loc_th0.35
10   rel2-1   raynor creek   19   0.17529728   nodesDOCUMENT:DATE:LOCATION-edgesREFERENCES:SIMDATES:SIMLOC-date_th0.3-doc_th0.7-loc_th0.35
10   rel2-1   los angeles   20   0.124353   nodesDOCUMENT:DATE:LOCATION-edgesREFERENCES:SIMDATES:SIMLOC-date_th0.3-doc_th0.7-loc_th0.35

###################################
# top nodes: 

# 10   rel2-1   sanfranciscohist01youn_192   1   1.0   nodesDOCUMENT:DATE:LOCATION-edgesREFERENCES:SIMDATES:SIMLOC-date_th0.3-doc_th0.7-loc_th0.35
# 10   rel2-1   reportofbritisha88brit_635   2   1.0   nodesDOCUMENT:DATE:LOCATION-edgesREFERENCES:SIMDATES:SIMLOC-date_th0.3-doc_th0.7-loc_th0.35
# 10   rel2-1   california   3   0.5654102   nodesDOCUMENT:DATE:LOCATION-edgesREFERENCES:SIMDATES:SIMLOC-date_th0.3-doc_th0.7-loc_th0.35
# 10   rel2-1   united states   4   0.30065745   nodesDOCUMENT:DATE:LOCATION-edgesREFERENCES:SIMDATES:SIMLOC-date_th0.3-doc_th0.7-loc_th0.35
# 10   rel2-1   yerba buena   5   0.28235662   nodesDOCUMENT:DATE:LOCATION-edgesREFERENCES:SIMDATES:SIMLOC-date_th0.3-doc_th0.7-loc_th0.35
# 10   rel2-1   buildingindustri11111cont_479   6   0.27540687   nodesDOCUMENT:DATE:LOCATION-edgesREFERENCES:SIMDATES:SIMLOC-date_th0.3-doc_th0.7-loc_th0.35
# 10   rel2-1   forestryinmining00browrich_1   7   0.27540687   nodesDOCUMENT:DATE:LOCATION-edgesREFERENCES:SIMDATES:SIMLOC-date_th0.3-doc_th0.7-loc_th0.35
# 10   rel2-1   gt4waterpowerfromge190calirich_43   8   0.27540687   nodesDOCUMENT:DATE:LOCATION-edgesREFERENCES:SIMDATES:SIMLOC-date_th0.3-doc_th0.7-loc_th0.35
# 10   rel2-1   herberthooverman00lckell_55   9   0.27540687   nodesDOCUMENT:DATE:LOCATION-edgesREFERENCES:SIMDATES:SIMLOC-date_th0.3-doc_th0.7-loc_th0.35
# 10   rel2-1   lampshield1963stan_49   10   0.27540687   nodesDOCUMENT:DATE:LOCATION-edgesREFERENCES:SIMDATES:SIMLOC-date_th0.3-doc_th0.7-loc_th0.35
# 10   rel2-1   mindsandmanners00horngoog_239   11   0.27540687   nodesDOCUMENT:DATE:LOCATION-edgesREFERENCES:SIMDATES:SIMLOC-date_th0.3-doc_th0.7-loc_th0.35
# 10   rel2-1   typologyscriptu02fairgoog_607   12   0.27540687   nodesDOCUMENT:DATE:LOCATION-edgesREFERENCES:SIMDATES:SIMLOC-date_th0.3-doc_th0.7-loc_th0.35
# 10   rel2-1   travelsathome00twaigoog_136   13   0.27540687   nodesDOCUMENT:DATE:LOCATION-edgesREFERENCES:SIMDATES:SIMLOC-date_th0.3-doc_th0.7-loc_th0.35
# 10   rel2-1   buildingindustri11111cont_461   14   0.27540687   nodesDOCUMENT:DATE:LOCATION-edgesREFERENCES:SIMDATES:SIMLOC-date_th0.3-doc_th0.7-loc_th0.35
# 10   rel2-1   minutesofgeneral1915pres_565   15   0.27540687   nodesDOCUMENT:DATE:LOCATION-edgesREFERENCES:SIMDATES:SIMLOC-date_th0.3-doc_th0.7-loc_th0.35
# 10   rel2-1   minutesofgeneral1915pres_563   16   0.27540687   nodesDOCUMENT:DATE:LOCATION-edgesREFERENCES:SIMDATES:SIMLOC-date_th0.3-doc_th0.7-loc_th0.35
# 10   rel2-1   minutesofgeneral1915pres_559   17   0.27540687   nodesDOCUMENT:DATE:LOCATION-edgesREFERENCES:SIMDATES:SIMLOC-date_th0.3-doc_th0.7-loc_th0.35
# 10   rel2-1   minutesofgeneral1915pres_557   18   0.27540687   nodesDOCUMENT:DATE:LOCATION-edgesREFERENCES:SIMDATES:SIMLOC-date_th0.3-doc_th0.7-loc_th0.35
# 10   rel2-1   minutesofgeneral1915pres_555   19   0.27540687   nodesDOCUMENT:DATE:LOCATION-edgesREFERENCES:SIMDATES:SIMLOC-date_th0.3-doc_th0.7-loc_th0.35
# 10   rel2-1   flavouringmateri00clarrich_186   20   0.27540687   nodesDOCUMENT:DATE:LOCATION-edgesREFERENCES:SIMDATES:SIMLOC-date_th0.3-doc_th0.7-loc_th0.35
# 10   rel2-1   minutesofgeneral1915pres_553   21   0.27540687   nodesDOCUMENT:DATE:LOCATION-edgesREFERENCES:SIMDATES:SIMLOC-date_th0.3-doc_th0.7-loc_th0.35
# 10   rel2-1   minutesofgeneral1915pres_551   22   0.27540687   nodesDOCUMENT:DATE:LOCATION-edgesREFERENCES:SIMDATES:SIMLOC-date_th0.3-doc_th0.7-loc_th0.35
# 10   rel2-1   minutesofgeneral1915pres_561   23   0.27540687   nodesDOCUMENT:DATE:LOCATION-edgesREFERENCES:SIMDATES:SIMLOC-date_th0.3-doc_th0.7-loc_th0.35
# 10   rel2-1   buildingindustri11111cont_415   24   0.27540687   nodesDOCUMENT:DATE:LOCATION-edgesREFERENCES:SIMDATES:SIMLOC-date_th0.3-doc_th0.7-loc_th0.35
# 10   rel2-1   pacificcoastvaca00morrrich_172   25   0.27540687   nodesDOCUMENT:DATE:LOCATION-edgesREFERENCES:SIMDATES:SIMLOC-date_th0.3-doc_th0.7-loc_th0.35
# 10   rel2-1   govuscourtsca9briefs2931_934   26   0.27540687   nodesDOCUMENT:DATE:LOCATION-edgesREFERENCES:SIMDATES:SIMLOC-date_th0.3-doc_th0.7-loc_th0.35
# 10   rel2-1   commercialeduca00unkngoog_2   27   0.27540687   nodesDOCUMENT:DATE:LOCATION-edgesREFERENCES:SIMDATES:SIMLOC-date_th0.3-doc_th0.7-loc_th0.35
# 10   rel2-1   govuscourtsca9briefs2931_961   28   0.27540687   nodesDOCUMENT:DATE:LOCATION-edgesREFERENCES:SIMDATES:SIMLOC-date_th0.3-doc_th0.7-loc_th0.35
# 10   rel2-1   bulletinofmuseum124harv_324   29   0.27540687   nodesDOCUMENT:DATE:LOCATION-edgesREFERENCES:SIMDATES:SIMLOC-date_th0.3-doc_th0.7-loc_th0.35
# 10   rel2-1   miltonmarksoral01markrich_528   30   0.27540687   nodesDOCUMENT:DATE:LOCATION-edgesREFERENCES:SIMDATES:SIMLOC-date_th0.3-doc_th0.7-loc_th0.35
# 10   rel2-1   ineztaleofalamo00evaniala_4   31   0.27540687   nodesDOCUMENT:DATE:LOCATION-edgesREFERENCES:SIMDATES:SIMLOC-date_th0.3-doc_th0.7-loc_th0.35
# 10   rel2-1   birdlore24nati_162   32   0.27540687   nodesDOCUMENT:DATE:LOCATION-edgesREFERENCES:SIMDATES:SIMLOC-date_th0.3-doc_th0.7-loc_th0.35
# 10   rel2-1   minutesofgeneral1915pres_549   33   0.27540687   nodesDOCUMENT:DATE:LOCATION-edgesREFERENCES:SIMDATES:SIMLOC-date_th0.3-doc_th0.7-loc_th0.35
# 10   rel2-1   govuscourtsca9briefs3383_921   34   0.27540687   nodesDOCUMENT:DATE:LOCATION-edgesREFERENCES:SIMDATES:SIMLOC-date_th0.3-doc_th0.7-loc_th0.35
# 10   rel2-1   miltonmarksoral01markrich_440   35   0.27540687   nodesDOCUMENT:DATE:LOCATION-edgesREFERENCES:SIMDATES:SIMLOC-date_th0.3-doc_th0.7-loc_th0.35
# 10   rel2-1   govuscourtsca9briefs3383_919   36   0.27540687   nodesDOCUMENT:DATE:LOCATION-edgesREFERENCES:SIMDATES:SIMLOC-date_th0.3-doc_th0.7-loc_th0.35
# 10   rel2-1   govuscourtsca9briefs3383_917   37   0.27540687   nodesDOCUMENT:DATE:LOCATION-edgesREFERENCES:SIMDATES:SIMLOC-date_th0.3-doc_th0.7-loc_th0.35
# 10   rel2-1   miltonmarksoral01markrich_454   38   0.27540687   nodesDOCUMENT:DATE:LOCATION-edgesREFERENCES:SIMDATES:SIMLOC-date_th0.3-doc_th0.7-loc_th0.35
# 10   rel2-1   govuscourtsca9briefs3383_909   39   0.27540687   nodesDOCUMENT:DATE:LOCATION-edgesREFERENCES:SIMDATES:SIMLOC-date_th0.3-doc_th0.7-loc_th0.35
# 10   rel2-1   birdlore24nati_103   40   0.27540687   nodesDOCUMENT:DATE:LOCATION-edgesREFERENCES:SIMDATES:SIMLOC-date_th0.3-doc_th0.7-loc_th0.35
