###################################
# parameters: 
#   date_th: 0.3
#   doc_th: 0.5
#   loc_th: 0.35
#   nodestouse: DOCUMENT:DATE:LOCATION
#   relationships: REFERENCES:SIMPAGE

###################################
# configuration: 
#   sa.act_diff_ratio_limit = 0.01
#   sa.act_diff_ratio_limit_diff = 0.01
#   sa.function = ciir.multi.sa.function.MaxSAFunction(norm_function)
#   sa.id_property_name.DATE = dateID
#   sa.id_property_name.DOCUMENT = docID
#   sa.id_property_name.LOCATION = locID
#   sa.max_pulses = 10
#   sa.nodes_to_print = DATE:LOCATION
#   sa.nodes_to_use = DOCUMENT:DATE:LOCATION
#   sa.norm_function = ciir.multi.sa.SigmoidFunction(0.0, 1.0)
#   sa.relationships_to_use = REFERENCES:SIMPAGE
#   sa.spread_threshold.DATE = 0.3
#   sa.spread_threshold.DOCUMENT = 0.5
#   sa.spread_threshold.LOCATION = 0.35
#   sa.weight_property.REFERENCES = relevance
#   sa.weight_property.SIMDATES = sim
#   sa.weight_property.SIMDOC = sim
#   sa.weight_property.SIMLOC = sim
#   sa.weight_property.SIMPAGE = pagesim

###################################
# initial activations (1): 
#   cu31924014592566_749, 1

###################################
# spreading activation process log: 
#   pulse 0: activated: 1, non-zero: 1, borderline: 1, overall act: 1.000, act diff: 1.000, ratio: 1.000
#   pulse 1: activated: 52, non-zero: 52, borderline: 51, overall act: 7.280, act diff: 6.280, ratio: 0.863
#   pulse 2: activated: 52, non-zero: 52, borderline: 51, overall act: 7.280, act diff: 0.000, ratio: 0.000

###################################
# spreading activation process summary: 
#   final number of activated nodes: 52
#   final overall activation: 7.3
#   number of spread. activ. pulses: 2
#   running time: 19675

###################################
# top k results in TREC format: 

9   rel1-1   1853   1   0.10363388   nodesDOCUMENT:DATE:LOCATION-edgesREFERENCES:SIMPAGE-date_th0.3-doc_th0.5-loc_th0.35
9   rel1-1   1851   2   0.10363388   nodesDOCUMENT:DATE:LOCATION-edgesREFERENCES:SIMPAGE-date_th0.3-doc_th0.5-loc_th0.35
9   rel1-1   1859   3   0.10363388   nodesDOCUMENT:DATE:LOCATION-edgesREFERENCES:SIMPAGE-date_th0.3-doc_th0.5-loc_th0.35
9   rel1-1   1857   4   0.10363388   nodesDOCUMENT:DATE:LOCATION-edgesREFERENCES:SIMPAGE-date_th0.3-doc_th0.5-loc_th0.35
9   rel1-1   1866   5   0.10363388   nodesDOCUMENT:DATE:LOCATION-edgesREFERENCES:SIMPAGE-date_th0.3-doc_th0.5-loc_th0.35
9   rel1-1   1864   6   0.10363388   nodesDOCUMENT:DATE:LOCATION-edgesREFERENCES:SIMPAGE-date_th0.3-doc_th0.5-loc_th0.35
9   rel1-1   1862   7   0.10363388   nodesDOCUMENT:DATE:LOCATION-edgesREFERENCES:SIMPAGE-date_th0.3-doc_th0.5-loc_th0.35
9   rel1-1   1860   8   0.10363388   nodesDOCUMENT:DATE:LOCATION-edgesREFERENCES:SIMPAGE-date_th0.3-doc_th0.5-loc_th0.35
9   rel1-1   1868   9   0.10363388   nodesDOCUMENT:DATE:LOCATION-edgesREFERENCES:SIMPAGE-date_th0.3-doc_th0.5-loc_th0.35
9   rel1-1   1867   10   0.10363388   nodesDOCUMENT:DATE:LOCATION-edgesREFERENCES:SIMPAGE-date_th0.3-doc_th0.5-loc_th0.35
9   rel1-1   1869   11   0.10363388   nodesDOCUMENT:DATE:LOCATION-edgesREFERENCES:SIMPAGE-date_th0.3-doc_th0.5-loc_th0.35
9   rel1-1   1861   12   0.10363388   nodesDOCUMENT:DATE:LOCATION-edgesREFERENCES:SIMPAGE-date_th0.3-doc_th0.5-loc_th0.35
9   rel1-1   1863   13   0.10363388   nodesDOCUMENT:DATE:LOCATION-edgesREFERENCES:SIMPAGE-date_th0.3-doc_th0.5-loc_th0.35
9   rel1-1   1865   14   0.10363388   nodesDOCUMENT:DATE:LOCATION-edgesREFERENCES:SIMPAGE-date_th0.3-doc_th0.5-loc_th0.35
9   rel1-1   1856   15   0.10363388   nodesDOCUMENT:DATE:LOCATION-edgesREFERENCES:SIMPAGE-date_th0.3-doc_th0.5-loc_th0.35
9   rel1-1   1858   16   0.10363388   nodesDOCUMENT:DATE:LOCATION-edgesREFERENCES:SIMPAGE-date_th0.3-doc_th0.5-loc_th0.35
9   rel1-1   1850   17   0.10363388   nodesDOCUMENT:DATE:LOCATION-edgesREFERENCES:SIMPAGE-date_th0.3-doc_th0.5-loc_th0.35
9   rel1-1   1852   18   0.10363388   nodesDOCUMENT:DATE:LOCATION-edgesREFERENCES:SIMPAGE-date_th0.3-doc_th0.5-loc_th0.35
9   rel1-1   1854   19   0.10363388   nodesDOCUMENT:DATE:LOCATION-edgesREFERENCES:SIMPAGE-date_th0.3-doc_th0.5-loc_th0.35
9   rel1-1   1855   20   0.10363388   nodesDOCUMENT:DATE:LOCATION-edgesREFERENCES:SIMPAGE-date_th0.3-doc_th0.5-loc_th0.35

###################################
# top nodes: 

# 9   rel1-1   cu31924014592566_749   1   1.0   nodesDOCUMENT:DATE:LOCATION-edgesREFERENCES:SIMPAGE-date_th0.3-doc_th0.5-loc_th0.35
# 9   rel1-1   cu31924014592566_748   2   0.46211717   nodesDOCUMENT:DATE:LOCATION-edgesREFERENCES:SIMPAGE-date_th0.3-doc_th0.5-loc_th0.35
# 9   rel1-1   cu31924014592566_750   3   0.46211717   nodesDOCUMENT:DATE:LOCATION-edgesREFERENCES:SIMPAGE-date_th0.3-doc_th0.5-loc_th0.35
# 9   rel1-1   elbe   4   0.27288526   nodesDOCUMENT:DATE:LOCATION-edgesREFERENCES:SIMPAGE-date_th0.3-doc_th0.5-loc_th0.35
# 9   rel1-1   austria   5   0.21336742   nodesDOCUMENT:DATE:LOCATION-edgesREFERENCES:SIMPAGE-date_th0.3-doc_th0.5-loc_th0.35
# 9   rel1-1   prussia   6   0.1845146   nodesDOCUMENT:DATE:LOCATION-edgesREFERENCES:SIMPAGE-date_th0.3-doc_th0.5-loc_th0.35
# 9   rel1-1   bavaria   7   0.14684908   nodesDOCUMENT:DATE:LOCATION-edgesREFERENCES:SIMPAGE-date_th0.3-doc_th0.5-loc_th0.35
# 9   rel1-1   saxony   8   0.14684908   nodesDOCUMENT:DATE:LOCATION-edgesREFERENCES:SIMPAGE-date_th0.3-doc_th0.5-loc_th0.35
# 9   rel1-1   bohemia   9   0.14684908   nodesDOCUMENT:DATE:LOCATION-edgesREFERENCES:SIMPAGE-date_th0.3-doc_th0.5-loc_th0.35
# 9   rel1-1   1853   10   0.10363388   nodesDOCUMENT:DATE:LOCATION-edgesREFERENCES:SIMPAGE-date_th0.3-doc_th0.5-loc_th0.35
# 9   rel1-1   1859   11   0.10363388   nodesDOCUMENT:DATE:LOCATION-edgesREFERENCES:SIMPAGE-date_th0.3-doc_th0.5-loc_th0.35
# 9   rel1-1   1858   12   0.10363388   nodesDOCUMENT:DATE:LOCATION-edgesREFERENCES:SIMPAGE-date_th0.3-doc_th0.5-loc_th0.35
# 9   rel1-1   1856   13   0.10363388   nodesDOCUMENT:DATE:LOCATION-edgesREFERENCES:SIMPAGE-date_th0.3-doc_th0.5-loc_th0.35
# 9   rel1-1   1857   14   0.10363388   nodesDOCUMENT:DATE:LOCATION-edgesREFERENCES:SIMPAGE-date_th0.3-doc_th0.5-loc_th0.35
# 9   rel1-1   1866   15   0.10363388   nodesDOCUMENT:DATE:LOCATION-edgesREFERENCES:SIMPAGE-date_th0.3-doc_th0.5-loc_th0.35
# 9   rel1-1   1864   16   0.10363388   nodesDOCUMENT:DATE:LOCATION-edgesREFERENCES:SIMPAGE-date_th0.3-doc_th0.5-loc_th0.35
# 9   rel1-1   1863   17   0.10363388   nodesDOCUMENT:DATE:LOCATION-edgesREFERENCES:SIMPAGE-date_th0.3-doc_th0.5-loc_th0.35
# 9   rel1-1   1861   18   0.10363388   nodesDOCUMENT:DATE:LOCATION-edgesREFERENCES:SIMPAGE-date_th0.3-doc_th0.5-loc_th0.35
# 9   rel1-1   1860   19   0.10363388   nodesDOCUMENT:DATE:LOCATION-edgesREFERENCES:SIMPAGE-date_th0.3-doc_th0.5-loc_th0.35
# 9   rel1-1   1868   20   0.10363388   nodesDOCUMENT:DATE:LOCATION-edgesREFERENCES:SIMPAGE-date_th0.3-doc_th0.5-loc_th0.35
# 9   rel1-1   1848   21   0.10363388   nodesDOCUMENT:DATE:LOCATION-edgesREFERENCES:SIMPAGE-date_th0.3-doc_th0.5-loc_th0.35
# 9   rel1-1   1849   22   0.10363388   nodesDOCUMENT:DATE:LOCATION-edgesREFERENCES:SIMPAGE-date_th0.3-doc_th0.5-loc_th0.35
# 9   rel1-1   1867   23   0.10363388   nodesDOCUMENT:DATE:LOCATION-edgesREFERENCES:SIMPAGE-date_th0.3-doc_th0.5-loc_th0.35
# 9   rel1-1   1869   24   0.10363388   nodesDOCUMENT:DATE:LOCATION-edgesREFERENCES:SIMPAGE-date_th0.3-doc_th0.5-loc_th0.35
# 9   rel1-1   1870   25   0.10363388   nodesDOCUMENT:DATE:LOCATION-edgesREFERENCES:SIMPAGE-date_th0.3-doc_th0.5-loc_th0.35
# 9   rel1-1   1862   26   0.10363388   nodesDOCUMENT:DATE:LOCATION-edgesREFERENCES:SIMPAGE-date_th0.3-doc_th0.5-loc_th0.35
# 9   rel1-1   1865   27   0.10363388   nodesDOCUMENT:DATE:LOCATION-edgesREFERENCES:SIMPAGE-date_th0.3-doc_th0.5-loc_th0.35
# 9   rel1-1   1850   28   0.10363388   nodesDOCUMENT:DATE:LOCATION-edgesREFERENCES:SIMPAGE-date_th0.3-doc_th0.5-loc_th0.35
# 9   rel1-1   1851   29   0.10363388   nodesDOCUMENT:DATE:LOCATION-edgesREFERENCES:SIMPAGE-date_th0.3-doc_th0.5-loc_th0.35
# 9   rel1-1   1852   30   0.10363388   nodesDOCUMENT:DATE:LOCATION-edgesREFERENCES:SIMPAGE-date_th0.3-doc_th0.5-loc_th0.35
# 9   rel1-1   1854   31   0.10363388   nodesDOCUMENT:DATE:LOCATION-edgesREFERENCES:SIMPAGE-date_th0.3-doc_th0.5-loc_th0.35
# 9   rel1-1   1855   32   0.10363388   nodesDOCUMENT:DATE:LOCATION-edgesREFERENCES:SIMPAGE-date_th0.3-doc_th0.5-loc_th0.35
# 9   rel1-1   gorlitz   33   0.093056194   nodesDOCUMENT:DATE:LOCATION-edgesREFERENCES:SIMPAGE-date_th0.3-doc_th0.5-loc_th0.35
# 9   rel1-1   brandenburg   34   0.093056194   nodesDOCUMENT:DATE:LOCATION-edgesREFERENCES:SIMPAGE-date_th0.3-doc_th0.5-loc_th0.35
# 9   rel1-1   denmark   35   0.093056194   nodesDOCUMENT:DATE:LOCATION-edgesREFERENCES:SIMPAGE-date_th0.3-doc_th0.5-loc_th0.35
# 9   rel1-1   south   36   0.093056194   nodesDOCUMENT:DATE:LOCATION-edgesREFERENCES:SIMPAGE-date_th0.3-doc_th0.5-loc_th0.35
# 9   rel1-1   podol   37   0.093056194   nodesDOCUMENT:DATE:LOCATION-edgesREFERENCES:SIMPAGE-date_th0.3-doc_th0.5-loc_th0.35
# 9   rel1-1   jicin   38   0.093056194   nodesDOCUMENT:DATE:LOCATION-edgesREFERENCES:SIMPAGE-date_th0.3-doc_th0.5-loc_th0.35
# 9   rel1-1   silesia   39   0.093056194   nodesDOCUMENT:DATE:LOCATION-edgesREFERENCES:SIMPAGE-date_th0.3-doc_th0.5-loc_th0.35
# 9   rel1-1   ephesus   40   0.093056194   nodesDOCUMENT:DATE:LOCATION-edgesREFERENCES:SIMPAGE-date_th0.3-doc_th0.5-loc_th0.35
