###################################
# parameters: 
#   date_th: 0.25
#   doc_th: 0.7
#   loc_th: 0.35
#   nodestouse: DOCUMENT:DATE:LOCATION
#   relationships: REFERENCES:SIMPAGE

###################################
# configuration: 
#   sa.act_diff_ratio_limit = 0.01
#   sa.act_diff_ratio_limit_diff = 0.01
#   sa.function = ciir.multi.sa.function.MaxSAFunction(norm_function)
#   sa.id_property_name.DATE = dateID
#   sa.id_property_name.DOCUMENT = docID
#   sa.id_property_name.LOCATION = locID
#   sa.max_pulses = 10
#   sa.nodes_to_print = DATE:LOCATION
#   sa.nodes_to_use = DOCUMENT:DATE:LOCATION
#   sa.norm_function = ciir.multi.sa.SigmoidFunction(0.0, 1.0)
#   sa.relationships_to_use = REFERENCES:SIMPAGE
#   sa.spread_threshold.DATE = 0.25
#   sa.spread_threshold.DOCUMENT = 0.7
#   sa.spread_threshold.LOCATION = 0.35
#   sa.weight_property.REFERENCES = relevance
#   sa.weight_property.SIMDATES = sim
#   sa.weight_property.SIMDOC = sim
#   sa.weight_property.SIMLOC = sim
#   sa.weight_property.SIMPAGE = pagesim

###################################
# initial activations (2): 
#   encyclopediabrit03newyrich_155, 1
#   cu31924082142666_16, 1

###################################
# spreading activation process log: 
#   pulse 0: activated: 2, non-zero: 2, borderline: 2, overall act: 2.000, act diff: 2.000, ratio: 1.000
#   pulse 1: activated: 38, non-zero: 38, borderline: 36, overall act: 8.953, act diff: 6.953, ratio: 0.777
#   pulse 2: activated: 110034, non-zero: 110034, borderline: 110030, overall act: 10169.987, act diff: 10161.034, ratio: 0.999
#   pulse 3: activated: 110034, non-zero: 110034, borderline: 110030, overall act: 10169.987, act diff: 0.000, ratio: 0.000

###################################
# spreading activation process summary: 
#   final number of activated nodes: 110034
#   final overall activation: 10170.0
#   number of spread. activ. pulses: 3
#   running time: 36102

###################################
# top k results in TREC format: 


###################################
# top nodes: 

# 9   rel2-5   encyclopediabrit03newyrich_155   1   1.0   nodesDOCUMENT:DATE:LOCATION-edgesREFERENCES:SIMPAGE-date_th0.25-doc_th0.7-loc_th0.35
# 9   rel2-5   cu31924082142666_16   2   1.0   nodesDOCUMENT:DATE:LOCATION-edgesREFERENCES:SIMPAGE-date_th0.25-doc_th0.7-loc_th0.35
# 9   rel2-5   encyclopediabrit03newyrich_154   3   0.635461   nodesDOCUMENT:DATE:LOCATION-edgesREFERENCES:SIMPAGE-date_th0.25-doc_th0.7-loc_th0.35
# 9   rel2-5   cu31924082142666_15   4   0.6081361   nodesDOCUMENT:DATE:LOCATION-edgesREFERENCES:SIMPAGE-date_th0.25-doc_th0.7-loc_th0.35
# 9   rel2-5   cu31924082142666_17   5   0.5689918   nodesDOCUMENT:DATE:LOCATION-edgesREFERENCES:SIMPAGE-date_th0.25-doc_th0.7-loc_th0.35
# 9   rel2-5   encyclopediabrit03newyrich_156   6   0.53354925   nodesDOCUMENT:DATE:LOCATION-edgesREFERENCES:SIMPAGE-date_th0.25-doc_th0.7-loc_th0.35
# 9   rel2-5   austria   7   0.45714977   nodesDOCUMENT:DATE:LOCATION-edgesREFERENCES:SIMPAGE-date_th0.25-doc_th0.7-loc_th0.35
# 9   rel2-5   prussia   8   0.38772225   nodesDOCUMENT:DATE:LOCATION-edgesREFERENCES:SIMPAGE-date_th0.25-doc_th0.7-loc_th0.35
# 9   rel2-5   saxony   9   0.3441148   nodesDOCUMENT:DATE:LOCATION-edgesREFERENCES:SIMPAGE-date_th0.25-doc_th0.7-loc_th0.35
# 9   rel2-5   holstein   10   0.31223398   nodesDOCUMENT:DATE:LOCATION-edgesREFERENCES:SIMPAGE-date_th0.25-doc_th0.7-loc_th0.35
# 9   rel2-5   lifetimesofstein02seeluoft_364   11   0.30337334   nodesDOCUMENT:DATE:LOCATION-edgesREFERENCES:SIMPAGE-date_th0.25-doc_th0.7-loc_th0.35
# 9   rel2-5   ourchancellorske00buscuoft_352   12   0.30178598   nodesDOCUMENT:DATE:LOCATION-edgesREFERENCES:SIMPAGE-date_th0.25-doc_th0.7-loc_th0.35
# 9   rel2-5   ourchancellorske00buscuoft_365   13   0.3011069   nodesDOCUMENT:DATE:LOCATION-edgesREFERENCES:SIMPAGE-date_th0.25-doc_th0.7-loc_th0.35
# 9   rel2-5   foundingofgerman02sybeuoft_32   14   0.3011069   nodesDOCUMENT:DATE:LOCATION-edgesREFERENCES:SIMPAGE-date_th0.25-doc_th0.7-loc_th0.35
# 9   rel2-5   serbiaeurope00mark_142   15   0.29991737   nodesDOCUMENT:DATE:LOCATION-edgesREFERENCES:SIMPAGE-date_th0.25-doc_th0.7-loc_th0.35
# 9   rel2-5   foundingofgerman02sybeuoft_96   16   0.29926082   nodesDOCUMENT:DATE:LOCATION-edgesREFERENCES:SIMPAGE-date_th0.25-doc_th0.7-loc_th0.35
# 9   rel2-5   historyofeuropef00holt_116   17   0.29766142   nodesDOCUMENT:DATE:LOCATION-edgesREFERENCES:SIMPAGE-date_th0.25-doc_th0.7-loc_th0.35
# 9   rel2-5   historyofcontemp00seiguoft_295   18   0.2969326   nodesDOCUMENT:DATE:LOCATION-edgesREFERENCES:SIMPAGE-date_th0.25-doc_th0.7-loc_th0.35
# 9   rel2-5   historyofcontemp00seigrich_299   19   0.2969326   nodesDOCUMENT:DATE:LOCATION-edgesREFERENCES:SIMPAGE-date_th0.25-doc_th0.7-loc_th0.35
# 9   rel2-5   cu31924082142666_119   20   0.29687622   nodesDOCUMENT:DATE:LOCATION-edgesREFERENCES:SIMPAGE-date_th0.25-doc_th0.7-loc_th0.35
# 9   rel2-5   europe1789192000turnrich_282   21   0.29516795   nodesDOCUMENT:DATE:LOCATION-edgesREFERENCES:SIMPAGE-date_th0.25-doc_th0.7-loc_th0.35
# 9   rel2-5   universalantho25garn_415   22   0.2945559   nodesDOCUMENT:DATE:LOCATION-edgesREFERENCES:SIMPAGE-date_th0.25-doc_th0.7-loc_th0.35
# 9   rel2-5   reckoningdiscuss00beckrich_146   23   0.2921813   nodesDOCUMENT:DATE:LOCATION-edgesREFERENCES:SIMPAGE-date_th0.25-doc_th0.7-loc_th0.35
# 9   rel2-5   lifetimesofstein02seeluoft_37   24   0.29072815   nodesDOCUMENT:DATE:LOCATION-edgesREFERENCES:SIMPAGE-date_th0.25-doc_th0.7-loc_th0.35
# 9   rel2-5   cu31924031684685_715   25   0.2903676   nodesDOCUMENT:DATE:LOCATION-edgesREFERENCES:SIMPAGE-date_th0.25-doc_th0.7-loc_th0.35
# 9   rel2-5   ourchancellorske00buscuoft_301   26   0.28978553   nodesDOCUMENT:DATE:LOCATION-edgesREFERENCES:SIMPAGE-date_th0.25-doc_th0.7-loc_th0.35
# 9   rel2-5   ourchancellorske00buscuoft_357   27   0.28973222   nodesDOCUMENT:DATE:LOCATION-edgesREFERENCES:SIMPAGE-date_th0.25-doc_th0.7-loc_th0.35
# 9   rel2-5   shorthistoryofeu00terr_459   28   0.289004   nodesDOCUMENT:DATE:LOCATION-edgesREFERENCES:SIMPAGE-date_th0.25-doc_th0.7-loc_th0.35
# 9   rel2-5   outlineseuropea04beargoog_378   29   0.28842348   nodesDOCUMENT:DATE:LOCATION-edgesREFERENCES:SIMPAGE-date_th0.25-doc_th0.7-loc_th0.35
# 9   rel2-5   storygreatwar04ruhlgoog_345   30   0.28808984   nodesDOCUMENT:DATE:LOCATION-edgesREFERENCES:SIMPAGE-date_th0.25-doc_th0.7-loc_th0.35
# 9   rel2-5   foundationsofger00barkuoft_248   31   0.28776932   nodesDOCUMENT:DATE:LOCATION-edgesREFERENCES:SIMPAGE-date_th0.25-doc_th0.7-loc_th0.35
# 9   rel2-5   foundingofgerman02sybeuoft_537   32   0.28754726   nodesDOCUMENT:DATE:LOCATION-edgesREFERENCES:SIMPAGE-date_th0.25-doc_th0.7-loc_th0.35
# 9   rel2-5   briefhistoryofna00fish_538   33   0.2875003   nodesDOCUMENT:DATE:LOCATION-edgesREFERENCES:SIMPAGE-date_th0.25-doc_th0.7-loc_th0.35
# 9   rel2-5   ourchancellorske00buscuoft_312   34   0.28738642   nodesDOCUMENT:DATE:LOCATION-edgesREFERENCES:SIMPAGE-date_th0.25-doc_th0.7-loc_th0.35
# 9   rel2-5   ourchancellorske00buscuoft_311   35   0.28697816   nodesDOCUMENT:DATE:LOCATION-edgesREFERENCES:SIMPAGE-date_th0.25-doc_th0.7-loc_th0.35
# 9   rel2-5   ourchancellorske00buscuoft_359   36   0.28697816   nodesDOCUMENT:DATE:LOCATION-edgesREFERENCES:SIMPAGE-date_th0.25-doc_th0.7-loc_th0.35
# 9   rel2-5   polishexperienc02hallgoog_307   37   0.28697816   nodesDOCUMENT:DATE:LOCATION-edgesREFERENCES:SIMPAGE-date_th0.25-doc_th0.7-loc_th0.35
# 9   rel2-5   historyofeuropef00holt_102   38   0.28669372   nodesDOCUMENT:DATE:LOCATION-edgesREFERENCES:SIMPAGE-date_th0.25-doc_th0.7-loc_th0.35
# 9   rel2-5   cu31924082142666_37   39   0.28663626   nodesDOCUMENT:DATE:LOCATION-edgesREFERENCES:SIMPAGE-date_th0.25-doc_th0.7-loc_th0.35
# 9   rel2-5   cu31924014592566_362   40   0.28571576   nodesDOCUMENT:DATE:LOCATION-edgesREFERENCES:SIMPAGE-date_th0.25-doc_th0.7-loc_th0.35
