###################################
# parameters: 
#   date_th: 0.3
#   doc_th: 0.6
#   loc_th: 0.4
#   nodestouse: DOCUMENT:DATE:LOCATION
#   relationships: REFERENCES:SIMDATES:SIMPAGE

###################################
# configuration: 
#   sa.act_diff_ratio_limit = 0.01
#   sa.act_diff_ratio_limit_diff = 0.01
#   sa.function = ciir.multi.sa.function.MaxSAFunction(norm_function)
#   sa.id_property_name.DATE = dateID
#   sa.id_property_name.DOCUMENT = docID
#   sa.id_property_name.LOCATION = locID
#   sa.max_pulses = 10
#   sa.nodes_to_print = DATE:LOCATION
#   sa.nodes_to_use = DOCUMENT:DATE:LOCATION
#   sa.norm_function = ciir.multi.sa.SigmoidFunction(0.0, 1.0)
#   sa.relationships_to_use = REFERENCES:SIMDATES:SIMPAGE
#   sa.spread_threshold.DATE = 0.3
#   sa.spread_threshold.DOCUMENT = 0.6
#   sa.spread_threshold.LOCATION = 0.4
#   sa.weight_property.REFERENCES = relevance
#   sa.weight_property.SIMDATES = sim
#   sa.weight_property.SIMDOC = sim
#   sa.weight_property.SIMLOC = sim
#   sa.weight_property.SIMPAGE = pagesim

###################################
# initial activations (3): 
#   englandsfightwit00wals_354, 1
#   cu31924029563875_157, 1
#   hallamsworks04halliala_600, 1

###################################
# spreading activation process log: 
#   pulse 0: activated: 3, non-zero: 3, borderline: 3, overall act: 3.000, act diff: 3.000, ratio: 1.000
#   pulse 1: activated: 27, non-zero: 27, borderline: 24, overall act: 10.124, act diff: 7.124, ratio: 0.704
#   pulse 2: activated: 264013, non-zero: 264013, borderline: 264007, overall act: 46263.391, act diff: 46253.267, ratio: 1.000
#   pulse 3: activated: 274329, non-zero: 274329, borderline: 274292, overall act: 47247.608, act diff: 984.216, ratio: 0.021

###################################
# spreading activation process summary: 
#   final number of activated nodes: 274329
#   final overall activation: 47247.6
#   number of spread. activ. pulses: 3
#   running time: 74949

###################################
# top k results in TREC format: 

2   rel3-2   1641   1   0.99999994   nodesDOCUMENT:DATE:LOCATION-edgesREFERENCES:SIMDATES:SIMPAGE-date_th0.3-doc_th0.6-loc_th0.4
2   rel3-2   1643   2   0.30758688   nodesDOCUMENT:DATE:LOCATION-edgesREFERENCES:SIMDATES:SIMPAGE-date_th0.3-doc_th0.6-loc_th0.4
2   rel3-2   1845   3   0.30540052   nodesDOCUMENT:DATE:LOCATION-edgesREFERENCES:SIMDATES:SIMPAGE-date_th0.3-doc_th0.6-loc_th0.4
2   rel3-2   1640   4   0.3024225   nodesDOCUMENT:DATE:LOCATION-edgesREFERENCES:SIMDATES:SIMPAGE-date_th0.3-doc_th0.6-loc_th0.4
2   rel3-2   1642   5   0.3024225   nodesDOCUMENT:DATE:LOCATION-edgesREFERENCES:SIMDATES:SIMPAGE-date_th0.3-doc_th0.6-loc_th0.4
2   rel3-2   1701   6   0.16514042   nodesDOCUMENT:DATE:LOCATION-edgesREFERENCES:SIMDATES:SIMPAGE-date_th0.3-doc_th0.6-loc_th0.4
2   rel3-2   1690   7   0.16514042   nodesDOCUMENT:DATE:LOCATION-edgesREFERENCES:SIMDATES:SIMPAGE-date_th0.3-doc_th0.6-loc_th0.4
2   rel3-2   1699   8   0.16514042   nodesDOCUMENT:DATE:LOCATION-edgesREFERENCES:SIMDATES:SIMPAGE-date_th0.3-doc_th0.6-loc_th0.4
2   rel3-2   1689   9   0.16514042   nodesDOCUMENT:DATE:LOCATION-edgesREFERENCES:SIMDATES:SIMPAGE-date_th0.3-doc_th0.6-loc_th0.4
2   rel3-2   1651   10   0.16514042   nodesDOCUMENT:DATE:LOCATION-edgesREFERENCES:SIMDATES:SIMPAGE-date_th0.3-doc_th0.6-loc_th0.4
2   rel3-2   1846   11   0.15152436   nodesDOCUMENT:DATE:LOCATION-edgesREFERENCES:SIMDATES:SIMPAGE-date_th0.3-doc_th0.6-loc_th0.4
2   rel3-2   1844   12   0.15152436   nodesDOCUMENT:DATE:LOCATION-edgesREFERENCES:SIMDATES:SIMPAGE-date_th0.3-doc_th0.6-loc_th0.4
2   rel3-2   1639   13   0.15006922   nodesDOCUMENT:DATE:LOCATION-edgesREFERENCES:SIMDATES:SIMPAGE-date_th0.3-doc_th0.6-loc_th0.4

###################################
# top nodes: 

# 2   rel3-2   hallamsworks04halliala_600   1   1.0   nodesDOCUMENT:DATE:LOCATION-edgesREFERENCES:SIMDATES:SIMPAGE-date_th0.3-doc_th0.6-loc_th0.4
# 2   rel3-2   cu31924029563875_157   2   1.0   nodesDOCUMENT:DATE:LOCATION-edgesREFERENCES:SIMDATES:SIMPAGE-date_th0.3-doc_th0.6-loc_th0.4
# 2   rel3-2   englandsfightwit00wals_354   3   1.0   nodesDOCUMENT:DATE:LOCATION-edgesREFERENCES:SIMDATES:SIMPAGE-date_th0.3-doc_th0.6-loc_th0.4
# 2   rel3-2   ireland   4   1.0   nodesDOCUMENT:DATE:LOCATION-edgesREFERENCES:SIMDATES:SIMPAGE-date_th0.3-doc_th0.6-loc_th0.4
# 2   rel3-2   1641   5   0.99999994   nodesDOCUMENT:DATE:LOCATION-edgesREFERENCES:SIMDATES:SIMPAGE-date_th0.3-doc_th0.6-loc_th0.4
# 2   rel3-2   constitutionalhi03hall_415   6   0.7388591   nodesDOCUMENT:DATE:LOCATION-edgesREFERENCES:SIMDATES:SIMPAGE-date_th0.3-doc_th0.6-loc_th0.4
# 2   rel3-2   englandsfightwit00wals_355   7   0.6719688   nodesDOCUMENT:DATE:LOCATION-edgesREFERENCES:SIMDATES:SIMPAGE-date_th0.3-doc_th0.6-loc_th0.4
# 2   rel3-2   hallamsworks04halliala_601   8   0.6548349   nodesDOCUMENT:DATE:LOCATION-edgesREFERENCES:SIMDATES:SIMPAGE-date_th0.3-doc_th0.6-loc_th0.4
# 2   rel3-2   hallamsworks04halliala_602   9   0.63476896   nodesDOCUMENT:DATE:LOCATION-edgesREFERENCES:SIMDATES:SIMPAGE-date_th0.3-doc_th0.6-loc_th0.4
# 2   rel3-2   hallamsworks04halliala_599   10   0.61609036   nodesDOCUMENT:DATE:LOCATION-edgesREFERENCES:SIMDATES:SIMPAGE-date_th0.3-doc_th0.6-loc_th0.4
# 2   rel3-2   causeofirelandpl00orei_291   11   0.6040615   nodesDOCUMENT:DATE:LOCATION-edgesREFERENCES:SIMDATES:SIMPAGE-date_th0.3-doc_th0.6-loc_th0.4
# 2   rel3-2   treatiseofexcheq02howa_411   12   0.6040615   nodesDOCUMENT:DATE:LOCATION-edgesREFERENCES:SIMDATES:SIMPAGE-date_th0.3-doc_th0.6-loc_th0.4
# 2   rel3-2   treatiseofexcheq02howa_130   13   0.6040615   nodesDOCUMENT:DATE:LOCATION-edgesREFERENCES:SIMDATES:SIMPAGE-date_th0.3-doc_th0.6-loc_th0.4
# 2   rel3-2   fastiecclesiaeh02cottgoog_20   14   0.6040615   nodesDOCUMENT:DATE:LOCATION-edgesREFERENCES:SIMDATES:SIMPAGE-date_th0.3-doc_th0.6-loc_th0.4
# 2   rel3-2   englishinireland03frou_118   15   0.6040615   nodesDOCUMENT:DATE:LOCATION-edgesREFERENCES:SIMDATES:SIMPAGE-date_th0.3-doc_th0.6-loc_th0.4
# 2   rel3-2   compendiumofhist02lawl_76   16   0.6040615   nodesDOCUMENT:DATE:LOCATION-edgesREFERENCES:SIMDATES:SIMPAGE-date_th0.3-doc_th0.6-loc_th0.4
# 2   rel3-2   causeofirelandpl00orei_345   17   0.6040615   nodesDOCUMENT:DATE:LOCATION-edgesREFERENCES:SIMDATES:SIMPAGE-date_th0.3-doc_th0.6-loc_th0.4
# 2   rel3-2   calendarstatepa12offigoog_335   18   0.6040615   nodesDOCUMENT:DATE:LOCATION-edgesREFERENCES:SIMDATES:SIMPAGE-date_th0.3-doc_th0.6-loc_th0.4
# 2   rel3-2   treatiseofexcheq02howa_413   19   0.6040615   nodesDOCUMENT:DATE:LOCATION-edgesREFERENCES:SIMDATES:SIMPAGE-date_th0.3-doc_th0.6-loc_th0.4
# 2   rel3-2   revolutionaryir00mahagoog_100   20   0.6040615   nodesDOCUMENT:DATE:LOCATION-edgesREFERENCES:SIMDATES:SIMPAGE-date_th0.3-doc_th0.6-loc_th0.4
# 2   rel3-2   historymoderneu11russgoog_386   21   0.6040615   nodesDOCUMENT:DATE:LOCATION-edgesREFERENCES:SIMDATES:SIMPAGE-date_th0.3-doc_th0.6-loc_th0.4
# 2   rel3-2   economichistoryo00obri_321   22   0.6040615   nodesDOCUMENT:DATE:LOCATION-edgesREFERENCES:SIMDATES:SIMPAGE-date_th0.3-doc_th0.6-loc_th0.4
# 2   rel3-2   historyofdiocese02healiala_23   23   0.6040615   nodesDOCUMENT:DATE:LOCATION-edgesREFERENCES:SIMDATES:SIMPAGE-date_th0.3-doc_th0.6-loc_th0.4
# 2   rel3-2   statechurcheskin00allerich_587   24   0.6040615   nodesDOCUMENT:DATE:LOCATION-edgesREFERENCES:SIMDATES:SIMPAGE-date_th0.3-doc_th0.6-loc_th0.4
# 2   rel3-2   irishtangleandwa1920john_53   25   0.6040615   nodesDOCUMENT:DATE:LOCATION-edgesREFERENCES:SIMDATES:SIMPAGE-date_th0.3-doc_th0.6-loc_th0.4
# 2   rel3-2   constitutionalhi03hall_414   26   0.6040615   nodesDOCUMENT:DATE:LOCATION-edgesREFERENCES:SIMDATES:SIMPAGE-date_th0.3-doc_th0.6-loc_th0.4
# 2   rel3-2   memoirsandcorre02castgoog_42   27   0.6040615   nodesDOCUMENT:DATE:LOCATION-edgesREFERENCES:SIMDATES:SIMPAGE-date_th0.3-doc_th0.6-loc_th0.4
# 2   rel3-2   historyofireland3_00will_307   28   0.6040615   nodesDOCUMENT:DATE:LOCATION-edgesREFERENCES:SIMDATES:SIMPAGE-date_th0.3-doc_th0.6-loc_th0.4
# 2   rel3-2   proceedingsofro22roya_307   29   0.6040615   nodesDOCUMENT:DATE:LOCATION-edgesREFERENCES:SIMDATES:SIMPAGE-date_th0.3-doc_th0.6-loc_th0.4
# 2   rel3-2   cu31924091770861_319   30   0.6040615   nodesDOCUMENT:DATE:LOCATION-edgesREFERENCES:SIMDATES:SIMPAGE-date_th0.3-doc_th0.6-loc_th0.4
# 2   rel3-2   cu31924091770861_286   31   0.6040615   nodesDOCUMENT:DATE:LOCATION-edgesREFERENCES:SIMDATES:SIMPAGE-date_th0.3-doc_th0.6-loc_th0.4
# 2   rel3-2   cu31924091786628_78   32   0.6040615   nodesDOCUMENT:DATE:LOCATION-edgesREFERENCES:SIMDATES:SIMPAGE-date_th0.3-doc_th0.6-loc_th0.4
# 2   rel3-2   castlesofireland00adamiala_301   33   0.6040615   nodesDOCUMENT:DATE:LOCATION-edgesREFERENCES:SIMDATES:SIMPAGE-date_th0.3-doc_th0.6-loc_th0.4
# 2   rel3-2   confederationofk00meeh_10   34   0.6040615   nodesDOCUMENT:DATE:LOCATION-edgesREFERENCES:SIMDATES:SIMPAGE-date_th0.3-doc_th0.6-loc_th0.4
# 2   rel3-2   englishinireland03frou_309   35   0.6040615   nodesDOCUMENT:DATE:LOCATION-edgesREFERENCES:SIMDATES:SIMPAGE-date_th0.3-doc_th0.6-loc_th0.4
# 2   rel3-2   treatiseofexcheq02howa_421   36   0.6040615   nodesDOCUMENT:DATE:LOCATION-edgesREFERENCES:SIMDATES:SIMPAGE-date_th0.3-doc_th0.6-loc_th0.4
# 2   rel3-2   cu31924091770861_891   37   0.60165775   nodesDOCUMENT:DATE:LOCATION-edgesREFERENCES:SIMDATES:SIMPAGE-date_th0.3-doc_th0.6-loc_th0.4
# 2   rel3-2   fastiecclesiaeh02cottgoog_21   38   0.5975736   nodesDOCUMENT:DATE:LOCATION-edgesREFERENCES:SIMDATES:SIMPAGE-date_th0.3-doc_th0.6-loc_th0.4
# 2   rel3-2   fastiecclesiaeh02cottgoog_19   39   0.5975736   nodesDOCUMENT:DATE:LOCATION-edgesREFERENCES:SIMDATES:SIMPAGE-date_th0.3-doc_th0.6-loc_th0.4
# 2   rel3-2   calendarstatepa12offigoog_336   40   0.5975736   nodesDOCUMENT:DATE:LOCATION-edgesREFERENCES:SIMDATES:SIMPAGE-date_th0.3-doc_th0.6-loc_th0.4
