###################################
# parameters: 
#   date_th: 0.3
#   doc_th: 0.7
#   loc_th: 0.35
#   nodestouse: DOCUMENT:DATE:LOCATION
#   relationships: REFERENCES:SIMDATES:SIMPAGE

###################################
# configuration: 
#   sa.act_diff_ratio_limit = 0.01
#   sa.act_diff_ratio_limit_diff = 0.01
#   sa.function = ciir.multi.sa.function.MaxSAFunction(norm_function)
#   sa.id_property_name.DATE = dateID
#   sa.id_property_name.DOCUMENT = docID
#   sa.id_property_name.LOCATION = locID
#   sa.max_pulses = 10
#   sa.nodes_to_print = DATE:LOCATION
#   sa.nodes_to_use = DOCUMENT:DATE:LOCATION
#   sa.norm_function = ciir.multi.sa.SigmoidFunction(0.0, 1.0)
#   sa.relationships_to_use = REFERENCES:SIMDATES:SIMPAGE
#   sa.spread_threshold.DATE = 0.3
#   sa.spread_threshold.DOCUMENT = 0.7
#   sa.spread_threshold.LOCATION = 0.35
#   sa.weight_property.REFERENCES = relevance
#   sa.weight_property.SIMDATES = sim
#   sa.weight_property.SIMDOC = sim
#   sa.weight_property.SIMLOC = sim
#   sa.weight_property.SIMPAGE = pagesim

###################################
# initial activations (3): 
#   englandsfightwit00wals_354, 1
#   viceroysofirelan00omahuoft_97, 1
#   hallamsworks04halliala_600, 1

###################################
# spreading activation process log: 
#   pulse 0: activated: 3, non-zero: 3, borderline: 3, overall act: 3.000, act diff: 3.000, ratio: 1.000
#   pulse 1: activated: 15, non-zero: 15, borderline: 12, overall act: 8.458, act diff: 5.458, ratio: 0.645
#   pulse 2: activated: 1052090, non-zero: 1052090, borderline: 1052082, overall act: 147126.793, act diff: 147118.335, ratio: 1.000
#   pulse 3: activated: 1052093, non-zero: 1052093, borderline: 1052083, overall act: 147128.619, act diff: 1.826, ratio: 0.000

###################################
# spreading activation process summary: 
#   final number of activated nodes: 1052093
#   final overall activation: 147128.6
#   number of spread. activ. pulses: 3
#   running time: 129752

###################################
# top k results in TREC format: 

2   rel3-3   1641   1   0.5120209   nodesDOCUMENT:DATE:LOCATION-edgesREFERENCES:SIMDATES:SIMPAGE-date_th0.3-doc_th0.7-loc_th0.35
2   rel3-3   1845   2   0.30540052   nodesDOCUMENT:DATE:LOCATION-edgesREFERENCES:SIMDATES:SIMPAGE-date_th0.3-doc_th0.7-loc_th0.35
2   rel3-3   1640   3   0.2505602   nodesDOCUMENT:DATE:LOCATION-edgesREFERENCES:SIMDATES:SIMPAGE-date_th0.3-doc_th0.7-loc_th0.35
2   rel3-3   1642   4   0.2505602   nodesDOCUMENT:DATE:LOCATION-edgesREFERENCES:SIMDATES:SIMPAGE-date_th0.3-doc_th0.7-loc_th0.35
2   rel3-3   1632   5   0.22315224   nodesDOCUMENT:DATE:LOCATION-edgesREFERENCES:SIMDATES:SIMPAGE-date_th0.3-doc_th0.7-loc_th0.35
2   rel3-3   1629   6   0.22315224   nodesDOCUMENT:DATE:LOCATION-edgesREFERENCES:SIMDATES:SIMPAGE-date_th0.3-doc_th0.7-loc_th0.35
2   rel3-3   1846   7   0.15152436   nodesDOCUMENT:DATE:LOCATION-edgesREFERENCES:SIMDATES:SIMPAGE-date_th0.3-doc_th0.7-loc_th0.35
2   rel3-3   1844   8   0.15152436   nodesDOCUMENT:DATE:LOCATION-edgesREFERENCES:SIMDATES:SIMPAGE-date_th0.3-doc_th0.7-loc_th0.35

###################################
# top nodes: 

# 2   rel3-3   viceroysofirelan00omahuoft_97   1   1.0   nodesDOCUMENT:DATE:LOCATION-edgesREFERENCES:SIMDATES:SIMPAGE-date_th0.3-doc_th0.7-loc_th0.35
# 2   rel3-3   hallamsworks04halliala_600   2   1.0   nodesDOCUMENT:DATE:LOCATION-edgesREFERENCES:SIMDATES:SIMPAGE-date_th0.3-doc_th0.7-loc_th0.35
# 2   rel3-3   englandsfightwit00wals_354   3   1.0   nodesDOCUMENT:DATE:LOCATION-edgesREFERENCES:SIMDATES:SIMPAGE-date_th0.3-doc_th0.7-loc_th0.35
# 2   rel3-3   ireland   4   0.91964245   nodesDOCUMENT:DATE:LOCATION-edgesREFERENCES:SIMDATES:SIMPAGE-date_th0.3-doc_th0.7-loc_th0.35
# 2   rel3-3   hallamsworks04halliala_601   5   0.728054   nodesDOCUMENT:DATE:LOCATION-edgesREFERENCES:SIMDATES:SIMPAGE-date_th0.3-doc_th0.7-loc_th0.35
# 2   rel3-3   viceroysofirelan00omahuoft_96   6   0.71948135   nodesDOCUMENT:DATE:LOCATION-edgesREFERENCES:SIMDATES:SIMPAGE-date_th0.3-doc_th0.7-loc_th0.35
# 2   rel3-3   englandsfightwit00wals_355   7   0.6776363   nodesDOCUMENT:DATE:LOCATION-edgesREFERENCES:SIMDATES:SIMPAGE-date_th0.3-doc_th0.7-loc_th0.35
# 2   rel3-3   hallamsworks04halliala_599   8   0.6604816   nodesDOCUMENT:DATE:LOCATION-edgesREFERENCES:SIMDATES:SIMPAGE-date_th0.3-doc_th0.7-loc_th0.35
# 2   rel3-3   hallamsworks04halliala_602   9   0.63622767   nodesDOCUMENT:DATE:LOCATION-edgesREFERENCES:SIMDATES:SIMPAGE-date_th0.3-doc_th0.7-loc_th0.35
# 2   rel3-3   studentshistoryo03garduoft_42   10   0.6329048   nodesDOCUMENT:DATE:LOCATION-edgesREFERENCES:SIMDATES:SIMPAGE-date_th0.3-doc_th0.7-loc_th0.35
# 2   rel3-3   england   11   0.6306924   nodesDOCUMENT:DATE:LOCATION-edgesREFERENCES:SIMDATES:SIMPAGE-date_th0.3-doc_th0.7-loc_th0.35
# 2   rel3-3   harleianmiscell00oldygoog_332   12   0.62778425   nodesDOCUMENT:DATE:LOCATION-edgesREFERENCES:SIMDATES:SIMPAGE-date_th0.3-doc_th0.7-loc_th0.35
# 2   rel3-3   causeofirelandpl00orei_315   13   0.6241031   nodesDOCUMENT:DATE:LOCATION-edgesREFERENCES:SIMDATES:SIMPAGE-date_th0.3-doc_th0.7-loc_th0.35
# 2   rel3-3   calendarstatepa00levagoog_361   14   0.62015265   nodesDOCUMENT:DATE:LOCATION-edgesREFERENCES:SIMDATES:SIMPAGE-date_th0.3-doc_th0.7-loc_th0.35
# 2   rel3-3   thomasharrisonr00wessgoog_83   15   0.61850405   nodesDOCUMENT:DATE:LOCATION-edgesREFERENCES:SIMDATES:SIMPAGE-date_th0.3-doc_th0.7-loc_th0.35
# 2   rel3-3   constitutionalhi03hall_415   16   0.6172136   nodesDOCUMENT:DATE:LOCATION-edgesREFERENCES:SIMDATES:SIMPAGE-date_th0.3-doc_th0.7-loc_th0.35
# 2   rel3-3   historyirishper01maddgoog_67   17   0.61489016   nodesDOCUMENT:DATE:LOCATION-edgesREFERENCES:SIMDATES:SIMPAGE-date_th0.3-doc_th0.7-loc_th0.35
# 2   rel3-3   causeofirelandpl00orei_431   18   0.61383706   nodesDOCUMENT:DATE:LOCATION-edgesREFERENCES:SIMDATES:SIMPAGE-date_th0.3-doc_th0.7-loc_th0.35
# 2   rel3-3   selectspeecheswi00cannuoft_358   19   0.6137229   nodesDOCUMENT:DATE:LOCATION-edgesREFERENCES:SIMDATES:SIMPAGE-date_th0.3-doc_th0.7-loc_th0.35
# 2   rel3-3   completehistoryo0306kenn_434   20   0.61180645   nodesDOCUMENT:DATE:LOCATION-edgesREFERENCES:SIMDATES:SIMPAGE-date_th0.3-doc_th0.7-loc_th0.35
# 2   rel3-3   causeofirelandpl00orei_249   21   0.60823846   nodesDOCUMENT:DATE:LOCATION-edgesREFERENCES:SIMDATES:SIMPAGE-date_th0.3-doc_th0.7-loc_th0.35
# 2   rel3-3   politicalstudies00broduoft_382   22   0.60815203   nodesDOCUMENT:DATE:LOCATION-edgesREFERENCES:SIMDATES:SIMPAGE-date_th0.3-doc_th0.7-loc_th0.35
# 2   rel3-3   historyirishper01maddgoog_229   23   0.6072254   nodesDOCUMENT:DATE:LOCATION-edgesREFERENCES:SIMDATES:SIMPAGE-date_th0.3-doc_th0.7-loc_th0.35
# 2   rel3-3   historyirelanda00smilgoog_172   24   0.60681516   nodesDOCUMENT:DATE:LOCATION-edgesREFERENCES:SIMDATES:SIMPAGE-date_th0.3-doc_th0.7-loc_th0.35
# 2   rel3-3   calendarstatepa12offigoog_21   25   0.6067627   nodesDOCUMENT:DATE:LOCATION-edgesREFERENCES:SIMDATES:SIMPAGE-date_th0.3-doc_th0.7-loc_th0.35
# 2   rel3-3   historyirelanda00smilgoog_120   26   0.60632265   nodesDOCUMENT:DATE:LOCATION-edgesREFERENCES:SIMDATES:SIMPAGE-date_th0.3-doc_th0.7-loc_th0.35
# 2   rel3-3   redeemerstearsw00urwigoog_21   27   0.60359144   nodesDOCUMENT:DATE:LOCATION-edgesREFERENCES:SIMDATES:SIMPAGE-date_th0.3-doc_th0.7-loc_th0.35
# 2   rel3-3   dublinreview14londuoft_194   28   0.60325634   nodesDOCUMENT:DATE:LOCATION-edgesREFERENCES:SIMDATES:SIMPAGE-date_th0.3-doc_th0.7-loc_th0.35
# 2   rel3-3   irelandsaintpatr00morriala_201   29   0.60325634   nodesDOCUMENT:DATE:LOCATION-edgesREFERENCES:SIMDATES:SIMPAGE-date_th0.3-doc_th0.7-loc_th0.35
# 2   rel3-3   pt3historyofirel00wriguoft_306   30   0.60325634   nodesDOCUMENT:DATE:LOCATION-edgesREFERENCES:SIMDATES:SIMPAGE-date_th0.3-doc_th0.7-loc_th0.35
# 2   rel3-3   causeofirelandpl00orei_24   31   0.6024419   nodesDOCUMENT:DATE:LOCATION-edgesREFERENCES:SIMDATES:SIMPAGE-date_th0.3-doc_th0.7-loc_th0.35
# 2   rel3-3   politicalstudies00broduoft_351   32   0.6016643   nodesDOCUMENT:DATE:LOCATION-edgesREFERENCES:SIMDATES:SIMPAGE-date_th0.3-doc_th0.7-loc_th0.35
# 2   rel3-3   strangerinirelan00carr_91   33   0.6007721   nodesDOCUMENT:DATE:LOCATION-edgesREFERENCES:SIMDATES:SIMPAGE-date_th0.3-doc_th0.7-loc_th0.35
# 2   rel3-3   cu31924091770861_873   34   0.5973563   nodesDOCUMENT:DATE:LOCATION-edgesREFERENCES:SIMDATES:SIMPAGE-date_th0.3-doc_th0.7-loc_th0.35
# 2   rel3-3   hallamsworks04halliala_612   35   0.5956615   nodesDOCUMENT:DATE:LOCATION-edgesREFERENCES:SIMDATES:SIMPAGE-date_th0.3-doc_th0.7-loc_th0.35
# 2   rel3-3   fairfaxcorrespon01johniala_870   36   0.5956615   nodesDOCUMENT:DATE:LOCATION-edgesREFERENCES:SIMDATES:SIMPAGE-date_th0.3-doc_th0.7-loc_th0.35
# 2   rel3-3   historyirelanda00smilgoog_312   37   0.5956615   nodesDOCUMENT:DATE:LOCATION-edgesREFERENCES:SIMDATES:SIMPAGE-date_th0.3-doc_th0.7-loc_th0.35
# 2   rel3-3   worksrighthonor37burkgoog_439   38   0.5956615   nodesDOCUMENT:DATE:LOCATION-edgesREFERENCES:SIMDATES:SIMPAGE-date_th0.3-doc_th0.7-loc_th0.35
# 2   rel3-3   methodistmagazin1834meth_610   39   0.5956615   nodesDOCUMENT:DATE:LOCATION-edgesREFERENCES:SIMDATES:SIMPAGE-date_th0.3-doc_th0.7-loc_th0.35
# 2   rel3-3   publications13irisuoft_16   40   0.5900143   nodesDOCUMENT:DATE:LOCATION-edgesREFERENCES:SIMDATES:SIMPAGE-date_th0.3-doc_th0.7-loc_th0.35
