nodestouse,relationships,doc_th,date_th,loc_th,iter,seeds,number of spread. activ. pulses,final number of activated nodes,final overall activation,running time,run-id,map,P5,P10,P20,R-prec,
DOCUMENT:DATE:LOCATION,REFERENCES:SIMDATES:SIMPAGE,0.7,0.25,0.35,rel2-2,2,6,127992,16466.9,37749,book_collection_true_dates/date/query7//useDOCUMENT:DATE:LOCATIONuseREFERENCES:SIMDATES:SIMPAGE/rel2-2-date_th0.25-doc_th0.7-loc_th0.35.res.clean,0.308,0.400,0.300,0.300,0.250,
DOCUMENT:DATE:LOCATION,REFERENCES:SIMDATES:SIMPAGE,0.6,0.3,0.4,rel1-1,1,3,79736,6179.1,34508,book_collection_true_dates/date/query7//useDOCUMENT:DATE:LOCATIONuseREFERENCES:SIMDATES:SIMPAGE/rel1-1-date_th0.3-doc_th0.6-loc_th0.4.res.clean,0.604,0.600,0.300,0.300,0.750,
DOCUMENT:DATE:LOCATION,REFERENCES:SIMDATES:SIMPAGE,0.7,0.25,0.4,rel1-2,1,2,13,3.7,9498,book_collection_true_dates/date/query7//useDOCUMENT:DATE:LOCATIONuseREFERENCES:SIMDATES:SIMPAGE/rel1-2-date_th0.25-doc_th0.7-loc_th0.4.res.clean,0.250,0.200,0.100,0.100,0.250,
DOCUMENT:DATE:LOCATION,REFERENCES:SIMDATES:SIMPAGE,0.5,0.25,0.35,rel1-1,1,3,79736,6179.1,46557,book_collection_true_dates/date/query7//useDOCUMENT:DATE:LOCATIONuseREFERENCES:SIMDATES:SIMPAGE/rel1-1-date_th0.25-doc_th0.5-loc_th0.35.res.clean,0.604,0.600,0.300,0.300,0.750,
DOCUMENT:DATE:LOCATION,REFERENCES:SIMDATES:SIMPAGE,0.5,0.25,0.35,rel1-3,1,2,5,1.7,1777,book_collection_true_dates/date/query7//useDOCUMENT:DATE:LOCATIONuseREFERENCES:SIMDATES:SIMPAGE/rel1-3-date_th0.25-doc_th0.5-loc_th0.35.res.clean,0.083,0.200,0.100,0.100,0.250,
DOCUMENT:DATE:LOCATION,REFERENCES:SIMDATES:SIMPAGE,0.7,0.25,0.35,rel2-1,2,4,593341,59899.3,95227,book_collection_true_dates/date/query7//useDOCUMENT:DATE:LOCATIONuseREFERENCES:SIMDATES:SIMPAGE/rel2-1-date_th0.25-doc_th0.7-loc_th0.35.res.clean,0.350,0.400,0.300,0.300,0.250,
DOCUMENT:DATE:LOCATION,REFERENCES:SIMDATES:SIMPAGE,0.6,0.25,0.35,rel2-3,2,4,164540,17544.7,34933,book_collection_true_dates/date/query7//useDOCUMENT:DATE:LOCATIONuseREFERENCES:SIMDATES:SIMPAGE/rel2-3-date_th0.25-doc_th0.6-loc_th0.35.res.clean,0.249,0.200,0.300,0.300,0.250,
DOCUMENT:DATE:LOCATION,REFERENCES:SIMDATES:SIMPAGE,0.7,0.3,0.4,rel2-2,2,5,106825,13759.9,33165,book_collection_true_dates/date/query7//useDOCUMENT:DATE:LOCATIONuseREFERENCES:SIMDATES:SIMPAGE/rel2-2-date_th0.3-doc_th0.7-loc_th0.4.res.clean,0.350,0.400,0.300,0.300,0.250,
DOCUMENT:DATE:LOCATION,REFERENCES:SIMDATES:SIMPAGE,0.7,0.25,0.35,rel3-1,3,5,723901,84301.1,135729,book_collection_true_dates/date/query7//useDOCUMENT:DATE:LOCATIONuseREFERENCES:SIMDATES:SIMPAGE/rel3-1-date_th0.25-doc_th0.7-loc_th0.35.res.clean,0.450,0.400,0.400,0.286,0.250,
DOCUMENT:DATE:LOCATION,REFERENCES:SIMDATES:SIMPAGE,0.7,0.3,0.35,rel2-3,2,4,164540,17544.7,34360,book_collection_true_dates/date/query7//useDOCUMENT:DATE:LOCATIONuseREFERENCES:SIMDATES:SIMPAGE/rel2-3-date_th0.3-doc_th0.7-loc_th0.35.res.clean,0.249,0.200,0.300,0.300,0.250,
DOCUMENT:DATE:LOCATION,REFERENCES:SIMDATES:SIMPAGE,0.7,0.3,0.35,rel1-1,1,3,79736,6179.1,35084,book_collection_true_dates/date/query7//useDOCUMENT:DATE:LOCATIONuseREFERENCES:SIMDATES:SIMPAGE/rel1-1-date_th0.3-doc_th0.7-loc_th0.35.res.clean,0.604,0.600,0.300,0.300,0.750,
DOCUMENT:DATE:LOCATION,REFERENCES:SIMDATES:SIMPAGE,0.6,0.25,0.35,rel1-1,1,3,79736,6179.1,36132,book_collection_true_dates/date/query7//useDOCUMENT:DATE:LOCATIONuseREFERENCES:SIMDATES:SIMPAGE/rel1-1-date_th0.25-doc_th0.6-loc_th0.35.res.clean,0.604,0.600,0.300,0.300,0.750,
DOCUMENT:DATE:LOCATION,REFERENCES:SIMDATES:SIMPAGE,0.5,0.25,0.4,rel1-1,1,3,79736,6179.1,36802,book_collection_true_dates/date/query7//useDOCUMENT:DATE:LOCATIONuseREFERENCES:SIMDATES:SIMPAGE/rel1-1-date_th0.25-doc_th0.5-loc_th0.4.res.clean,0.604,0.600,0.300,0.300,0.750,
DOCUMENT:DATE:LOCATION,REFERENCES:SIMDATES:SIMPAGE,0.6,0.25,0.4,rel3-1,3,6,282060,46657.4,131391,book_collection_true_dates/date/query7//useDOCUMENT:DATE:LOCATIONuseREFERENCES:SIMDATES:SIMPAGE/rel3-1-date_th0.25-doc_th0.6-loc_th0.4.res.clean,0.363,0.200,0.300,0.200,0.250,
DOCUMENT:DATE:LOCATION,REFERENCES:SIMDATES:SIMPAGE,0.5,0.3,0.35,rel3-1,3,3,614259,65963.5,197381,book_collection_true_dates/date/query7//useDOCUMENT:DATE:LOCATIONuseREFERENCES:SIMDATES:SIMPAGE/rel3-1-date_th0.3-doc_th0.5-loc_th0.35.res.clean,0.457,0.400,0.300,0.200,0.250,
DOCUMENT:DATE:LOCATION,REFERENCES:SIMDATES:SIMPAGE,0.6,0.3,0.35,rel2-3,2,4,164540,17544.7,34498,book_collection_true_dates/date/query7//useDOCUMENT:DATE:LOCATIONuseREFERENCES:SIMDATES:SIMPAGE/rel2-3-date_th0.3-doc_th0.6-loc_th0.35.res.clean,0.249,0.200,0.300,0.300,0.250,
DOCUMENT:DATE:LOCATION,REFERENCES:SIMDATES:SIMPAGE,0.7,0.25,0.4,rel1-3,1,2,5,1.7,1761,book_collection_true_dates/date/query7//useDOCUMENT:DATE:LOCATIONuseREFERENCES:SIMDATES:SIMPAGE/rel1-3-date_th0.25-doc_th0.7-loc_th0.4.res.clean,0.083,0.200,0.100,0.100,0.250,
DOCUMENT:DATE:LOCATION,REFERENCES:SIMDATES:SIMPAGE,0.5,0.25,0.35,rel2-3,2,6,204284,23328.7,60960,book_collection_true_dates/date/query7//useDOCUMENT:DATE:LOCATIONuseREFERENCES:SIMDATES:SIMPAGE/rel2-3-date_th0.25-doc_th0.5-loc_th0.35.res.clean,0.229,0.200,0.300,0.250,0.250,
DOCUMENT:DATE:LOCATION,REFERENCES:SIMDATES:SIMPAGE,0.7,0.25,0.4,rel2-3,2,7,169716,21294.2,39079,book_collection_true_dates/date/query7//useDOCUMENT:DATE:LOCATIONuseREFERENCES:SIMDATES:SIMPAGE/rel2-3-date_th0.25-doc_th0.7-loc_th0.4.res.clean,0.229,0.200,0.300,0.250,0.250,
DOCUMENT:DATE:LOCATION,REFERENCES:SIMDATES:SIMPAGE,0.5,0.3,0.4,rel1-1,1,3,79736,6179.1,35273,book_collection_true_dates/date/query7//useDOCUMENT:DATE:LOCATIONuseREFERENCES:SIMDATES:SIMPAGE/rel1-1-date_th0.3-doc_th0.5-loc_th0.4.res.clean,0.604,0.600,0.300,0.300,0.750,
DOCUMENT:DATE:LOCATION,REFERENCES:SIMDATES:SIMPAGE,0.5,0.25,0.35,rel3-1,3,9,11542319,8856785.1,3355995,book_collection_true_dates/date/query7//useDOCUMENT:DATE:LOCATIONuseREFERENCES:SIMDATES:SIMPAGE/rel3-1-date_th0.25-doc_th0.5-loc_th0.35.res.clean,0.000,0.000,0.000,0.000,0.000,
DOCUMENT:DATE:LOCATION,REFERENCES:SIMDATES:SIMPAGE,0.5,0.3,0.4,rel1-3,1,2,5,1.7,1772,book_collection_true_dates/date/query7//useDOCUMENT:DATE:LOCATIONuseREFERENCES:SIMDATES:SIMPAGE/rel1-3-date_th0.3-doc_th0.5-loc_th0.4.res.clean,0.083,0.200,0.100,0.100,0.250,
DOCUMENT:DATE:LOCATION,REFERENCES:SIMDATES:SIMPAGE,0.7,0.3,0.4,rel2-1,2,5,141770,18147.6,39087,book_collection_true_dates/date/query7//useDOCUMENT:DATE:LOCATIONuseREFERENCES:SIMDATES:SIMPAGE/rel2-1-date_th0.3-doc_th0.7-loc_th0.4.res.clean,0.350,0.400,0.300,0.300,0.250,
DOCUMENT:DATE:LOCATION,REFERENCES:SIMDATES:SIMPAGE,0.5,0.3,0.4,rel2-1,2,5,593433,70742.6,158388,book_collection_true_dates/date/query7//useDOCUMENT:DATE:LOCATIONuseREFERENCES:SIMDATES:SIMPAGE/rel2-1-date_th0.3-doc_th0.5-loc_th0.4.res.clean,0.458,0.400,0.300,0.176,0.500,
DOCUMENT:DATE:LOCATION,REFERENCES:SIMDATES:SIMPAGE,0.7,0.3,0.4,rel2-3,2,5,129742,15237.7,30670,book_collection_true_dates/date/query7//useDOCUMENT:DATE:LOCATIONuseREFERENCES:SIMDATES:SIMPAGE/rel2-3-date_th0.3-doc_th0.7-loc_th0.4.res.clean,0.249,0.200,0.300,0.300,0.250,
DOCUMENT:DATE:LOCATION,REFERENCES:SIMDATES:SIMPAGE,0.6,0.25,0.35,rel2-2,2,6,127992,16466.9,36909,book_collection_true_dates/date/query7//useDOCUMENT:DATE:LOCATIONuseREFERENCES:SIMDATES:SIMPAGE/rel2-2-date_th0.25-doc_th0.6-loc_th0.35.res.clean,0.308,0.400,0.300,0.300,0.250,
DOCUMENT:DATE:LOCATION,REFERENCES:SIMDATES:SIMPAGE,0.7,0.25,0.35,rel2-3,2,4,164540,17544.7,34726,book_collection_true_dates/date/query7//useDOCUMENT:DATE:LOCATIONuseREFERENCES:SIMDATES:SIMPAGE/rel2-3-date_th0.25-doc_th0.7-loc_th0.35.res.clean,0.249,0.200,0.300,0.300,0.250,
DOCUMENT:DATE:LOCATION,REFERENCES:SIMDATES:SIMPAGE,0.5,0.25,0.4,rel2-3,2,7,169720,21295.4,40787,book_collection_true_dates/date/query7//useDOCUMENT:DATE:LOCATIONuseREFERENCES:SIMDATES:SIMPAGE/rel2-3-date_th0.25-doc_th0.5-loc_th0.4.res.clean,0.179,0.000,0.300,0.214,0.000,
DOCUMENT:DATE:LOCATION,REFERENCES:SIMDATES:SIMPAGE,0.6,0.25,0.4,rel1-2,1,2,13,3.7,9241,book_collection_true_dates/date/query7//useDOCUMENT:DATE:LOCATIONuseREFERENCES:SIMDATES:SIMPAGE/rel1-2-date_th0.25-doc_th0.6-loc_th0.4.res.clean,0.250,0.200,0.100,0.100,0.250,
DOCUMENT:DATE:LOCATION,REFERENCES:SIMDATES:SIMPAGE,0.6,0.25,0.35,rel3-1,3,10,10938289,8240828.9,3181269,book_collection_true_dates/date/query7//useDOCUMENT:DATE:LOCATIONuseREFERENCES:SIMDATES:SIMPAGE/rel3-1-date_th0.25-doc_th0.6-loc_th0.35.res.clean,0.000,0.000,0.000,0.000,0.000,
DOCUMENT:DATE:LOCATION,REFERENCES:SIMDATES:SIMPAGE,0.7,0.25,0.35,rel1-2,1,3,36007,2590.3,15429,book_collection_true_dates/date/query7//useDOCUMENT:DATE:LOCATIONuseREFERENCES:SIMDATES:SIMPAGE/rel1-2-date_th0.25-doc_th0.7-loc_th0.35.res.clean,0.125,0.200,0.100,0.100,0.250,
DOCUMENT:DATE:LOCATION,REFERENCES:SIMDATES:SIMPAGE,0.7,0.25,0.4,rel2-2,2,6,127992,16466.9,37329,book_collection_true_dates/date/query7//useDOCUMENT:DATE:LOCATIONuseREFERENCES:SIMDATES:SIMPAGE/rel2-2-date_th0.25-doc_th0.7-loc_th0.4.res.clean,0.308,0.400,0.300,0.300,0.250,
DOCUMENT:DATE:LOCATION,REFERENCES:SIMDATES:SIMPAGE,0.6,0.3,0.4,rel2-3,2,5,129742,15237.7,30820,book_collection_true_dates/date/query7//useDOCUMENT:DATE:LOCATIONuseREFERENCES:SIMDATES:SIMPAGE/rel2-3-date_th0.3-doc_th0.6-loc_th0.4.res.clean,0.249,0.200,0.300,0.300,0.250,
DOCUMENT:DATE:LOCATION,REFERENCES:SIMDATES:SIMPAGE,0.7,0.25,0.35,rel1-3,1,2,5,1.7,1775,book_collection_true_dates/date/query7//useDOCUMENT:DATE:LOCATIONuseREFERENCES:SIMDATES:SIMPAGE/rel1-3-date_th0.25-doc_th0.7-loc_th0.35.res.clean,0.083,0.200,0.100,0.100,0.250,
DOCUMENT:DATE:LOCATION,REFERENCES:SIMDATES:SIMPAGE,0.5,0.3,0.4,rel1-2,1,2,13,3.7,9218,book_collection_true_dates/date/query7//useDOCUMENT:DATE:LOCATIONuseREFERENCES:SIMDATES:SIMPAGE/rel1-2-date_th0.3-doc_th0.5-loc_th0.4.res.clean,0.250,0.200,0.100,0.100,0.250,
DOCUMENT:DATE:LOCATION,REFERENCES:SIMDATES:SIMPAGE,0.7,0.3,0.35,rel3-1,3,3,614181,65924.8,120749,book_collection_true_dates/date/query7//useDOCUMENT:DATE:LOCATIONuseREFERENCES:SIMDATES:SIMPAGE/rel3-1-date_th0.3-doc_th0.7-loc_th0.35.res.clean,0.274,0.200,0.300,0.300,0.250,
DOCUMENT:DATE:LOCATION,REFERENCES:SIMDATES:SIMPAGE,0.5,0.3,0.35,rel2-2,2,5,106825,13759.9,33165,book_collection_true_dates/date/query7//useDOCUMENT:DATE:LOCATIONuseREFERENCES:SIMDATES:SIMPAGE/rel2-2-date_th0.3-doc_th0.5-loc_th0.35.res.clean,0.350,0.400,0.300,0.300,0.250,
DOCUMENT:DATE:LOCATION,REFERENCES:SIMDATES:SIMPAGE,0.5,0.3,0.35,rel2-1,2,9,11434054,8635613.4,2989486,book_collection_true_dates/date/query7//useDOCUMENT:DATE:LOCATIONuseREFERENCES:SIMDATES:SIMPAGE/rel2-1-date_th0.3-doc_th0.5-loc_th0.35.res.clean,0.000,0.000,0.000,0.000,0.000,
DOCUMENT:DATE:LOCATION,REFERENCES:SIMDATES:SIMPAGE,0.7,0.3,0.4,rel3-1,3,5,184636,27443.0,56562,book_collection_true_dates/date/query7//useDOCUMENT:DATE:LOCATIONuseREFERENCES:SIMDATES:SIMPAGE/rel3-1-date_th0.3-doc_th0.7-loc_th0.4.res.clean,0.249,0.200,0.300,0.273,0.250,
DOCUMENT:DATE:LOCATION,REFERENCES:SIMDATES:SIMPAGE,0.6,0.3,0.35,rel2-2,2,5,106825,13759.9,33372,book_collection_true_dates/date/query7//useDOCUMENT:DATE:LOCATIONuseREFERENCES:SIMDATES:SIMPAGE/rel2-2-date_th0.3-doc_th0.6-loc_th0.35.res.clean,0.350,0.400,0.300,0.300,0.250,
DOCUMENT:DATE:LOCATION,REFERENCES:SIMDATES:SIMPAGE,0.7,0.3,0.4,rel1-2,1,2,13,3.7,9276,book_collection_true_dates/date/query7//useDOCUMENT:DATE:LOCATIONuseREFERENCES:SIMDATES:SIMPAGE/rel1-2-date_th0.3-doc_th0.7-loc_th0.4.res.clean,0.250,0.200,0.100,0.100,0.250,
DOCUMENT:DATE:LOCATION,REFERENCES:SIMDATES:SIMPAGE,0.6,0.3,0.35,rel1-2,1,3,36007,2590.3,15443,book_collection_true_dates/date/query7//useDOCUMENT:DATE:LOCATIONuseREFERENCES:SIMDATES:SIMPAGE/rel1-2-date_th0.3-doc_th0.6-loc_th0.35.res.clean,0.125,0.200,0.100,0.100,0.250,
DOCUMENT:DATE:LOCATION,REFERENCES:SIMDATES:SIMPAGE,0.6,0.3,0.4,rel1-3,1,2,5,1.7,1780,book_collection_true_dates/date/query7//useDOCUMENT:DATE:LOCATIONuseREFERENCES:SIMDATES:SIMPAGE/rel1-3-date_th0.3-doc_th0.6-loc_th0.4.res.clean,0.083,0.200,0.100,0.100,0.250,
DOCUMENT:DATE:LOCATION,REFERENCES:SIMDATES:SIMPAGE,0.6,0.3,0.35,rel1-1,1,3,79736,6179.1,34230,book_collection_true_dates/date/query7//useDOCUMENT:DATE:LOCATIONuseREFERENCES:SIMDATES:SIMPAGE/rel1-1-date_th0.3-doc_th0.6-loc_th0.35.res.clean,0.604,0.600,0.300,0.300,0.750,
DOCUMENT:DATE:LOCATION,REFERENCES:SIMDATES:SIMPAGE,0.6,0.3,0.4,rel2-2,2,5,106825,13759.9,32979,book_collection_true_dates/date/query7//useDOCUMENT:DATE:LOCATIONuseREFERENCES:SIMDATES:SIMPAGE/rel2-2-date_th0.3-doc_th0.6-loc_th0.4.res.clean,0.350,0.400,0.300,0.300,0.250,
DOCUMENT:DATE:LOCATION,REFERENCES:SIMDATES:SIMPAGE,0.7,0.3,0.35,rel1-2,1,3,36007,2590.3,15483,book_collection_true_dates/date/query7//useDOCUMENT:DATE:LOCATIONuseREFERENCES:SIMDATES:SIMPAGE/rel1-2-date_th0.3-doc_th0.7-loc_th0.35.res.clean,0.125,0.200,0.100,0.100,0.250,
DOCUMENT:DATE:LOCATION,REFERENCES:SIMDATES:SIMPAGE,0.6,0.25,0.4,rel1-3,1,2,5,1.7,1781,book_collection_true_dates/date/query7//useDOCUMENT:DATE:LOCATIONuseREFERENCES:SIMDATES:SIMPAGE/rel1-3-date_th0.25-doc_th0.6-loc_th0.4.res.clean,0.083,0.200,0.100,0.100,0.250,
DOCUMENT:DATE:LOCATION,REFERENCES:SIMDATES:SIMPAGE,0.5,0.25,0.4,rel1-2,1,2,13,3.7,9271,book_collection_true_dates/date/query7//useDOCUMENT:DATE:LOCATIONuseREFERENCES:SIMDATES:SIMPAGE/rel1-2-date_th0.25-doc_th0.5-loc_th0.4.res.clean,0.250,0.200,0.100,0.100,0.250,
DOCUMENT:DATE:LOCATION,REFERENCES:SIMDATES:SIMPAGE,0.6,0.3,0.35,rel1-3,1,2,5,1.7,1771,book_collection_true_dates/date/query7//useDOCUMENT:DATE:LOCATIONuseREFERENCES:SIMDATES:SIMPAGE/rel1-3-date_th0.3-doc_th0.6-loc_th0.35.res.clean,0.083,0.200,0.100,0.100,0.250,
DOCUMENT:DATE:LOCATION,REFERENCES:SIMDATES:SIMPAGE,0.7,0.3,0.4,rel1-1,1,3,79736,6179.1,34075,book_collection_true_dates/date/query7//useDOCUMENT:DATE:LOCATIONuseREFERENCES:SIMDATES:SIMPAGE/rel1-1-date_th0.3-doc_th0.7-loc_th0.4.res.clean,0.604,0.600,0.300,0.300,0.750,
DOCUMENT:DATE:LOCATION,REFERENCES:SIMDATES:SIMPAGE,0.5,0.3,0.35,rel1-2,1,3,36015,2591.3,35389,book_collection_true_dates/date/query7//useDOCUMENT:DATE:LOCATIONuseREFERENCES:SIMDATES:SIMPAGE/rel1-2-date_th0.3-doc_th0.5-loc_th0.35.res.clean,0.125,0.200,0.100,0.100,0.250,
DOCUMENT:DATE:LOCATION,REFERENCES:SIMDATES:SIMPAGE,0.6,0.25,0.4,rel2-1,2,6,162788,20853.8,46415,book_collection_true_dates/date/query7//useDOCUMENT:DATE:LOCATIONuseREFERENCES:SIMDATES:SIMPAGE/rel2-1-date_th0.25-doc_th0.6-loc_th0.4.res.clean,0.308,0.400,0.300,0.300,0.250,
DOCUMENT:DATE:LOCATION,REFERENCES:SIMDATES:SIMPAGE,0.5,0.25,0.35,rel2-1,2,9,11435378,8637916.1,3252974,book_collection_true_dates/date/query7//useDOCUMENT:DATE:LOCATIONuseREFERENCES:SIMDATES:SIMPAGE/rel2-1-date_th0.25-doc_th0.5-loc_th0.35.res.clean,0.000,0.000,0.000,0.000,0.000,
DOCUMENT:DATE:LOCATION,REFERENCES:SIMDATES:SIMPAGE,0.5,0.3,0.35,rel2-3,2,5,164548,18240.9,51961,book_collection_true_dates/date/query7//useDOCUMENT:DATE:LOCATIONuseREFERENCES:SIMDATES:SIMPAGE/rel2-3-date_th0.3-doc_th0.5-loc_th0.35.res.clean,0.249,0.200,0.300,0.300,0.250,
DOCUMENT:DATE:LOCATION,REFERENCES:SIMDATES:SIMPAGE,0.6,0.3,0.4,rel2-1,2,5,141770,18147.6,39564,book_collection_true_dates/date/query7//useDOCUMENT:DATE:LOCATIONuseREFERENCES:SIMDATES:SIMPAGE/rel2-1-date_th0.3-doc_th0.6-loc_th0.4.res.clean,0.350,0.400,0.300,0.300,0.250,
DOCUMENT:DATE:LOCATION,REFERENCES:SIMDATES:SIMPAGE,0.5,0.3,0.35,rel1-3,1,2,5,1.7,1769,book_collection_true_dates/date/query7//useDOCUMENT:DATE:LOCATIONuseREFERENCES:SIMDATES:SIMPAGE/rel1-3-date_th0.3-doc_th0.5-loc_th0.35.res.clean,0.083,0.200,0.100,0.100,0.250,
DOCUMENT:DATE:LOCATION,REFERENCES:SIMDATES:SIMPAGE,0.7,0.25,0.4,rel3-1,3,6,281990,43094.1,79476,book_collection_true_dates/date/query7//useDOCUMENT:DATE:LOCATIONuseREFERENCES:SIMDATES:SIMPAGE/rel3-1-date_th0.25-doc_th0.7-loc_th0.4.res.clean,0.450,0.400,0.400,0.286,0.250,
DOCUMENT:DATE:LOCATION,REFERENCES:SIMDATES:SIMPAGE,0.7,0.25,0.4,rel1-1,1,3,79736,6179.1,34846,book_collection_true_dates/date/query7//useDOCUMENT:DATE:LOCATIONuseREFERENCES:SIMDATES:SIMPAGE/rel1-1-date_th0.25-doc_th0.7-loc_th0.4.res.clean,0.604,0.600,0.300,0.300,0.750,
DOCUMENT:DATE:LOCATION,REFERENCES:SIMDATES:SIMPAGE,0.5,0.25,0.35,rel2-2,2,6,127992,16466.9,36753,book_collection_true_dates/date/query7//useDOCUMENT:DATE:LOCATIONuseREFERENCES:SIMDATES:SIMPAGE/rel2-2-date_th0.25-doc_th0.5-loc_th0.35.res.clean,0.308,0.400,0.300,0.300,0.250,
DOCUMENT:DATE:LOCATION,REFERENCES:SIMDATES:SIMPAGE,0.5,0.25,0.4,rel2-2,2,6,127992,16466.9,36740,book_collection_true_dates/date/query7//useDOCUMENT:DATE:LOCATIONuseREFERENCES:SIMDATES:SIMPAGE/rel2-2-date_th0.25-doc_th0.5-loc_th0.4.res.clean,0.308,0.400,0.300,0.300,0.250,
DOCUMENT:DATE:LOCATION,REFERENCES:SIMDATES:SIMPAGE,0.7,0.3,0.4,rel1-3,1,2,5,1.7,1775,book_collection_true_dates/date/query7//useDOCUMENT:DATE:LOCATIONuseREFERENCES:SIMDATES:SIMPAGE/rel1-3-date_th0.3-doc_th0.7-loc_th0.4.res.clean,0.083,0.200,0.100,0.100,0.250,
DOCUMENT:DATE:LOCATION,REFERENCES:SIMDATES:SIMPAGE,0.6,0.3,0.35,rel3-1,3,3,614189,65927.9,121438,book_collection_true_dates/date/query7//useDOCUMENT:DATE:LOCATIONuseREFERENCES:SIMDATES:SIMPAGE/rel3-1-date_th0.3-doc_th0.6-loc_th0.35.res.clean,0.440,0.200,0.300,0.300,0.250,
DOCUMENT:DATE:LOCATION,REFERENCES:SIMDATES:SIMPAGE,0.5,0.25,0.35,rel1-2,1,3,36015,2591.3,36285,book_collection_true_dates/date/query7//useDOCUMENT:DATE:LOCATIONuseREFERENCES:SIMDATES:SIMPAGE/rel1-2-date_th0.25-doc_th0.5-loc_th0.35.res.clean,0.125,0.200,0.100,0.100,0.250,
DOCUMENT:DATE:LOCATION,REFERENCES:SIMDATES:SIMPAGE,0.6,0.3,0.4,rel1-2,1,2,13,3.7,9401,book_collection_true_dates/date/query7//useDOCUMENT:DATE:LOCATIONuseREFERENCES:SIMDATES:SIMPAGE/rel1-2-date_th0.3-doc_th0.6-loc_th0.4.res.clean,0.250,0.200,0.100,0.100,0.250,
DOCUMENT:DATE:LOCATION,REFERENCES:SIMDATES:SIMPAGE,0.6,0.25,0.4,rel1-1,1,3,79736,6179.1,34844,book_collection_true_dates/date/query7//useDOCUMENT:DATE:LOCATIONuseREFERENCES:SIMDATES:SIMPAGE/rel1-1-date_th0.25-doc_th0.6-loc_th0.4.res.clean,0.604,0.600,0.300,0.300,0.750,
DOCUMENT:DATE:LOCATION,REFERENCES:SIMDATES:SIMPAGE,0.5,0.3,0.4,rel2-3,2,5,129742,15237.7,30831,book_collection_true_dates/date/query7//useDOCUMENT:DATE:LOCATIONuseREFERENCES:SIMDATES:SIMPAGE/rel2-3-date_th0.3-doc_th0.5-loc_th0.4.res.clean,0.249,0.200,0.300,0.300,0.250,
DOCUMENT:DATE:LOCATION,REFERENCES:SIMDATES:SIMPAGE,0.6,0.3,0.35,rel2-1,2,5,593365,69531.8,132164,book_collection_true_dates/date/query7//useDOCUMENT:DATE:LOCATIONuseREFERENCES:SIMDATES:SIMPAGE/rel2-1-date_th0.3-doc_th0.6-loc_th0.35.res.clean,0.350,0.400,0.300,0.300,0.250,
DOCUMENT:DATE:LOCATION,REFERENCES:SIMDATES:SIMPAGE,0.7,0.25,0.35,rel1-1,1,3,79736,6179.1,34674,book_collection_true_dates/date/query7//useDOCUMENT:DATE:LOCATIONuseREFERENCES:SIMDATES:SIMPAGE/rel1-1-date_th0.25-doc_th0.7-loc_th0.35.res.clean,0.604,0.600,0.300,0.300,0.750,
DOCUMENT:DATE:LOCATION,REFERENCES:SIMDATES:SIMPAGE,0.6,0.25,0.4,rel2-3,2,7,169716,21294.2,39346,book_collection_true_dates/date/query7//useDOCUMENT:DATE:LOCATIONuseREFERENCES:SIMDATES:SIMPAGE/rel2-3-date_th0.25-doc_th0.6-loc_th0.4.res.clean,0.229,0.200,0.300,0.250,0.250,
DOCUMENT:DATE:LOCATION,REFERENCES:SIMDATES:SIMPAGE,0.5,0.3,0.35,rel1-1,1,3,79736,6179.1,35143,book_collection_true_dates/date/query7//useDOCUMENT:DATE:LOCATIONuseREFERENCES:SIMDATES:SIMPAGE/rel1-1-date_th0.3-doc_th0.5-loc_th0.35.res.clean,0.604,0.600,0.300,0.300,0.750,
DOCUMENT:DATE:LOCATION,REFERENCES:SIMDATES:SIMPAGE,0.5,0.25,0.4,rel2-1,2,10,11268601,8433291.0,3059635,book_collection_true_dates/date/query7//useDOCUMENT:DATE:LOCATIONuseREFERENCES:SIMDATES:SIMPAGE/rel2-1-date_th0.25-doc_th0.5-loc_th0.4.res.clean,0.000,0.000,0.000,0.000,0.000,
DOCUMENT:DATE:LOCATION,REFERENCES:SIMDATES:SIMPAGE,0.6,0.25,0.4,rel2-2,2,6,127992,16466.9,37140,book_collection_true_dates/date/query7//useDOCUMENT:DATE:LOCATIONuseREFERENCES:SIMDATES:SIMPAGE/rel2-2-date_th0.25-doc_th0.6-loc_th0.4.res.clean,0.308,0.400,0.300,0.300,0.250,
DOCUMENT:DATE:LOCATION,REFERENCES:SIMDATES:SIMPAGE,0.6,0.3,0.4,rel3-1,3,10,7037150,3523871.6,1560479,book_collection_true_dates/date/query7//useDOCUMENT:DATE:LOCATIONuseREFERENCES:SIMDATES:SIMPAGE/rel3-1-date_th0.3-doc_th0.6-loc_th0.4.res.clean,0.000,0.000,0.000,0.000,0.000,
DOCUMENT:DATE:LOCATION,REFERENCES:SIMDATES:SIMPAGE,0.5,0.25,0.4,rel3-1,3,10,11576208,8915146.7,3376061,book_collection_true_dates/date/query7//useDOCUMENT:DATE:LOCATIONuseREFERENCES:SIMDATES:SIMPAGE/rel3-1-date_th0.25-doc_th0.5-loc_th0.4.res.clean,0.000,0.000,0.000,0.000,0.000,
DOCUMENT:DATE:LOCATION,REFERENCES:SIMDATES:SIMPAGE,0.7,0.3,0.35,rel1-3,1,2,5,1.7,1773,book_collection_true_dates/date/query7//useDOCUMENT:DATE:LOCATIONuseREFERENCES:SIMDATES:SIMPAGE/rel1-3-date_th0.3-doc_th0.7-loc_th0.35.res.clean,0.083,0.200,0.100,0.100,0.250,
DOCUMENT:DATE:LOCATION,REFERENCES:SIMDATES:SIMPAGE,0.7,0.3,0.35,rel2-1,2,4,593341,59899.3,92481,book_collection_true_dates/date/query7//useDOCUMENT:DATE:LOCATIONuseREFERENCES:SIMDATES:SIMPAGE/rel2-1-date_th0.3-doc_th0.7-loc_th0.35.res.clean,0.350,0.400,0.300,0.300,0.250,
DOCUMENT:DATE:LOCATION,REFERENCES:SIMDATES:SIMPAGE,0.6,0.25,0.35,rel2-1,2,5,612697,71509.5,134835,book_collection_true_dates/date/query7//useDOCUMENT:DATE:LOCATIONuseREFERENCES:SIMDATES:SIMPAGE/rel2-1-date_th0.25-doc_th0.6-loc_th0.35.res.clean,0.350,0.400,0.300,0.300,0.250,
DOCUMENT:DATE:LOCATION,REFERENCES:SIMDATES:SIMPAGE,0.5,0.25,0.4,rel1-3,1,2,5,1.7,1764,book_collection_true_dates/date/query7//useDOCUMENT:DATE:LOCATIONuseREFERENCES:SIMDATES:SIMPAGE/rel1-3-date_th0.25-doc_th0.5-loc_th0.4.res.clean,0.083,0.200,0.100,0.100,0.250,
DOCUMENT:DATE:LOCATION,REFERENCES:SIMDATES:SIMPAGE,0.6,0.25,0.35,rel1-3,1,2,5,1.7,1767,book_collection_true_dates/date/query7//useDOCUMENT:DATE:LOCATIONuseREFERENCES:SIMDATES:SIMPAGE/rel1-3-date_th0.25-doc_th0.6-loc_th0.35.res.clean,0.083,0.200,0.100,0.100,0.250,
DOCUMENT:DATE:LOCATION,REFERENCES:SIMDATES:SIMPAGE,0.7,0.3,0.35,rel2-2,2,5,106825,13759.9,33014,book_collection_true_dates/date/query7//useDOCUMENT:DATE:LOCATIONuseREFERENCES:SIMDATES:SIMPAGE/rel2-2-date_th0.3-doc_th0.7-loc_th0.35.res.clean,0.350,0.400,0.300,0.300,0.250,
DOCUMENT:DATE:LOCATION,REFERENCES:SIMDATES:SIMPAGE,0.7,0.25,0.4,rel2-1,2,6,162788,20853.8,46357,book_collection_true_dates/date/query7//useDOCUMENT:DATE:LOCATIONuseREFERENCES:SIMDATES:SIMPAGE/rel2-1-date_th0.25-doc_th0.7-loc_th0.4.res.clean,0.308,0.400,0.300,0.300,0.250,
DOCUMENT:DATE:LOCATION,REFERENCES:SIMDATES:SIMPAGE,0.5,0.3,0.4,rel2-2,2,5,106825,13759.9,32918,book_collection_true_dates/date/query7//useDOCUMENT:DATE:LOCATIONuseREFERENCES:SIMDATES:SIMPAGE/rel2-2-date_th0.3-doc_th0.5-loc_th0.4.res.clean,0.350,0.400,0.300,0.300,0.250,
DOCUMENT:DATE:LOCATION,REFERENCES:SIMDATES:SIMPAGE,0.5,0.3,0.4,rel3-1,3,10,11570354,8901291.7,3396715,book_collection_true_dates/date/query7//useDOCUMENT:DATE:LOCATIONuseREFERENCES:SIMDATES:SIMPAGE/rel3-1-date_th0.3-doc_th0.5-loc_th0.4.res.clean,0.000,0.000,0.000,0.000,0.000,
DOCUMENT:DATE:LOCATION,REFERENCES:SIMDATES:SIMPAGE,0.6,0.25,0.35,rel1-2,1,3,36007,2590.3,15401,book_collection_true_dates/date/query7//useDOCUMENT:DATE:LOCATIONuseREFERENCES:SIMDATES:SIMPAGE/rel1-2-date_th0.25-doc_th0.6-loc_th0.35.res.clean,0.125,0.200,0.100,0.100,0.250,

Sig-Test:,randomized,,threshold,set,to,0.050000
