###################################
# parameters: 
#   decay: 0.2
#   lambda: 0.5
#   norm_threshold: 0
#   relationships: REFERENCES:SIMDATES

###################################
# configuration: 
#   sa.act_diff_ratio_limit = 0.05
#   sa.function = ciir.multi.sa.DecayedSumSALogNormFunction(norm_function, 0.2, 0.5)
#   sa.id_property_name.DATE = dateID
#   sa.id_property_name.DOCUMENT = docID
#   sa.id_property_name.LOCATION = locID
#   sa.max_pulses = 15
#   sa.norm_function = ciir.multi.sa.SigmoidFunction(0, 1.0)
#   sa.relationships_to_use = REFERENCES:SIMDATES
#   sa.weight_property.REFERENCES = relevance
#   sa.weight_property.SIMDATES = sim
#   sa.weight_property.SIMLOC = sim

###################################
# initial activations: 
#   generalhistoryfo00myerrich_787: 1.0
#   selwynhouseschoo1940selw_21: 1.0
#   lifeofstratfordc02laneuoft_185: 1.0
#   historyofuniteds07good_239: 1.0
#   shorthistoryofmo00haslrich_98: 1.0
#   cambridgemodern09protgoog_449: 1.0

###################################
# spreading activation process log: 
#   pulse 0: activated nodes: 6, borderline nodes: 6, overall activation: 0.000, activation diff: 0.000, ratio: Infinity
#   pulse 1: activated nodes: 69, borderline nodes: 63, overall activation: 7.654, activation diff: 7.654, ratio: 1.000
#   pulse 2: activated nodes: 5321, borderline nodes: 5252, overall activation: 114.417, activation diff: 108.423, ratio: 0.948
#   pulse 3: activated nodes: 8935, borderline nodes: 3614, overall activation: 209.726, activation diff: 96.173, ratio: 0.459
#   pulse 4: activated nodes: 10912, borderline nodes: 1977, overall activation: 877.766, activation diff: 668.091, ratio: 0.761
#   pulse 5: activated nodes: 11328, borderline nodes: 416, overall activation: 1715.941, activation diff: 838.175, ratio: 0.488
#   pulse 6: activated nodes: 11342, borderline nodes: 14, overall activation: 2688.541, activation diff: 972.600, ratio: 0.362
#   pulse 7: activated nodes: 11342, borderline nodes: 14, overall activation: 3511.556, activation diff: 823.015, ratio: 0.234
#   pulse 8: activated nodes: 11342, borderline nodes: 14, overall activation: 4117.800, activation diff: 606.244, ratio: 0.147
#   pulse 9: activated nodes: 11342, borderline nodes: 14, overall activation: 4532.513, activation diff: 414.713, ratio: 0.091
#   pulse 10: activated nodes: 11342, borderline nodes: 14, overall activation: 4804.665, activation diff: 272.151, ratio: 0.057
#   pulse 11: activated nodes: 11342, borderline nodes: 14, overall activation: 4979.001, activation diff: 174.337, ratio: 0.035

###################################
# spreading activation process summary: 
#   final number of activated nodes: 11342
#   final overall activation: 4979.0
#   number of spread. activ. pulses: 11
#   running time: 500

###################################
# top k results in TREC format: 

1   Q1   historyofuniteds07good_239   1   0.99621296   REFERENCES:SIMDATES
1   Q1   selwynhouseschoo1940selw_21   2   0.98119104   REFERENCES:SIMDATES
1   Q1   cambridgemodern09protgoog_449   3   0.98092175   REFERENCES:SIMDATES
1   Q1   shorthistoryofmo00haslrich_98   4   0.96339256   REFERENCES:SIMDATES
1   Q1   generalhistoryfo00myerrich_787   5   0.92015964   REFERENCES:SIMDATES
1   Q1   lifeofstratfordc02laneuoft_185   6   0.89076555   REFERENCES:SIMDATES
1   Q1   englishcyclopae05kniggoog_147   7   0.7963979   REFERENCES:SIMDATES
1   Q1   encyclopediaame28unkngoog_327   8   0.7957522   REFERENCES:SIMDATES
1   Q1   englishcyclopae05kniggoog_118   9   0.79539347   REFERENCES:SIMDATES
1   Q1   ouroldworldbackg00bearrich_307   10   0.7946569   REFERENCES:SIMDATES
1   Q1   encyclopediaame28unkngoog_504   11   0.79463315   REFERENCES:SIMDATES
1   Q1   encyclopediaame28unkngoog_141   12   0.79461515   REFERENCES:SIMDATES
1   Q1   encyclopediaame28unkngoog_328   13   0.79450226   REFERENCES:SIMDATES
1   Q1   encyclopediaame28unkngoog_522   14   0.79434156   REFERENCES:SIMDATES
1   Q1   englishcyclopae05kniggoog_440   15   0.7943332   REFERENCES:SIMDATES
1   Q1   encyclopediaame28unkngoog_218   16   0.79432184   REFERENCES:SIMDATES
1   Q1   encyclopediaame28unkngoog_575   17   0.7941543   REFERENCES:SIMDATES
1   Q1   encyclopediaame28unkngoog_222   18   0.7941313   REFERENCES:SIMDATES
1   Q1   europesincenapol00leveuoft_16   19   0.79412454   REFERENCES:SIMDATES
1   Q1   encyclopediaame28unkngoog_345   20   0.7939901   REFERENCES:SIMDATES
