###################################
# parameters: 
#   decay: 0.1
#   lambda: 0.5
#   norm_threshold: 0.3
#   relationships: REFERENCES:SIMDATES

###################################
# configuration: 
#   sa.act_diff_ratio_limit = 0.05
#   sa.function = ciir.multi.sa.DecayedSumSALogNormFunction(norm_function, 0.1, 0.5)
#   sa.id_property_name.DATE = dateID
#   sa.id_property_name.DOCUMENT = docID
#   sa.id_property_name.LOCATION = locID
#   sa.max_pulses = 15
#   sa.norm_function = ciir.multi.sa.SigmoidFunction(0.3, 1.0)
#   sa.relationships_to_use = REFERENCES:SIMDATES
#   sa.weight_property.REFERENCES = relevance
#   sa.weight_property.SIMDATES = sim
#   sa.weight_property.SIMLOC = sim

###################################
# initial activations: 
#   generalhistoryfo00myerrich_787: 1.0
#   selwynhouseschoo1940selw_21: 1.0
#   lifeofstratfordc02laneuoft_185: 1.0
#   historyofuniteds07good_239: 1.0
#   shorthistoryofmo00haslrich_98: 1.0
#   cambridgemodern09protgoog_449: 1.0

###################################
# spreading activation process log: 
#   pulse 0: activated nodes: 6, borderline nodes: 6, overall activation: 0.000, activation diff: 0.000, ratio: Infinity
#   pulse 1: activated nodes: 69, borderline nodes: 63, overall activation: 3.835, activation diff: 3.835, ratio: 1.000
#   pulse 2: activated nodes: 3428, borderline nodes: 3399, overall activation: 2.001, activation diff: 1.834, ratio: 0.917
#   pulse 3: activated nodes: 3428, borderline nodes: 3399, overall activation: 1.000, activation diff: 1.000, ratio: 1.000
#   pulse 4: activated nodes: 3428, borderline nodes: 3399, overall activation: 0.500, activation diff: 0.500, ratio: 1.000
#   pulse 5: activated nodes: 3428, borderline nodes: 3399, overall activation: 0.250, activation diff: 0.250, ratio: 1.000
#   pulse 6: activated nodes: 3428, borderline nodes: 3399, overall activation: 0.125, activation diff: 0.125, ratio: 1.000
#   pulse 7: activated nodes: 3428, borderline nodes: 3399, overall activation: 0.063, activation diff: 0.063, ratio: 1.000
#   pulse 8: activated nodes: 3428, borderline nodes: 3399, overall activation: 0.031, activation diff: 0.031, ratio: 1.000
#   pulse 9: activated nodes: 3428, borderline nodes: 3399, overall activation: 0.016, activation diff: 0.016, ratio: 1.000
#   pulse 10: activated nodes: 3428, borderline nodes: 3399, overall activation: 0.008, activation diff: 0.008, ratio: 1.000
#   pulse 11: activated nodes: 3428, borderline nodes: 3399, overall activation: 0.004, activation diff: 0.004, ratio: 1.000
#   pulse 12: activated nodes: 3428, borderline nodes: 3399, overall activation: 0.002, activation diff: 0.002, ratio: 1.000
#   pulse 13: activated nodes: 3428, borderline nodes: 3399, overall activation: 0.001, activation diff: 0.001, ratio: 1.000
#   pulse 14: activated nodes: 3428, borderline nodes: 3399, overall activation: 0.000, activation diff: 0.000, ratio: 1.000
#   pulse 15: activated nodes: 3428, borderline nodes: 3399, overall activation: 0.000, activation diff: 0.000, ratio: 1.000

###################################
# spreading activation process summary: 
#   final number of activated nodes: 3428
#   final overall activation: 0.0
#   number of spread. activ. pulses: 15
#   running time: 215

###################################
# top k results in TREC format: 

1   Q1   lifeofstratfordc02laneuoft_185   1   3.0517578E-5   REFERENCES:SIMDATES
1   Q1   shorthistoryofmo00haslrich_98   2   3.0517578E-5   REFERENCES:SIMDATES
1   Q1   historyofuniteds07good_239   3   3.0517578E-5   REFERENCES:SIMDATES
1   Q1   cambridgemodern09protgoog_449   4   3.0517578E-5   REFERENCES:SIMDATES
1   Q1   selwynhouseschoo1940selw_21   5   3.0517578E-5   REFERENCES:SIMDATES
1   Q1   generalhistoryfo00myerrich_787   6   3.0517578E-5   REFERENCES:SIMDATES
1   Q1   lifeofstratfordc02laneuoft_376   7   0.0   REFERENCES:SIMDATES
1   Q1   lifeofstratfordc02laneuoft_381   8   0.0   REFERENCES:SIMDATES
1   Q1   lifeofstratfordc02laneuoft_385   9   0.0   REFERENCES:SIMDATES
1   Q1   lifeofstratfordc02laneuoft_383   10   0.0   REFERENCES:SIMDATES
1   Q1   lifeofstratfordc02laneuoft_368   11   0.0   REFERENCES:SIMDATES
1   Q1   lifeofstratfordc02laneuoft_367   12   0.0   REFERENCES:SIMDATES
1   Q1   lifeofstratfordc02laneuoft_365   13   0.0   REFERENCES:SIMDATES
1   Q1   lifeofstratfordc02laneuoft_370   14   0.0   REFERENCES:SIMDATES
1   Q1   lifeofstratfordc02laneuoft_374   15   0.0   REFERENCES:SIMDATES
1   Q1   historyofuniteds07good_351   16   0.0   REFERENCES:SIMDATES
1   Q1   lifeofstratfordc02laneuoft_375   17   0.0   REFERENCES:SIMDATES
1   Q1   bostoncollegebul0405bost_197   18   0.0   REFERENCES:SIMDATES
1   Q1   lifeofstratfordc02laneuoft_366   19   0.0   REFERENCES:SIMDATES
1   Q1   bostoncollegebul0405bost_191   20   0.0   REFERENCES:SIMDATES
