###################################
# parameters: 
#   date_th: 0.25
#   doc_th: 0.5
#   loc_th: 0.35
#   nodestouse: DOCUMENT:DATE:LOCATION
#   relationships: REFERENCES:SIMLOC:SIMPAGE

###################################
# configuration: 
#   sa.act_diff_ratio_limit = 0.01
#   sa.act_diff_ratio_limit_diff = 0.01
#   sa.function = ciir.multi.sa.function.MaxSAFunction(norm_function)
#   sa.id_property_name.DATE = dateID
#   sa.id_property_name.DOCUMENT = docID
#   sa.id_property_name.LOCATION = locID
#   sa.max_pulses = 10
#   sa.nodes_to_print = DATE:LOCATION
#   sa.nodes_to_use = DOCUMENT:DATE:LOCATION
#   sa.norm_function = ciir.multi.sa.SigmoidFunction(0.0, 1.0)
#   sa.relationships_to_use = REFERENCES:SIMLOC:SIMPAGE
#   sa.spread_threshold.DATE = 0.25
#   sa.spread_threshold.DOCUMENT = 0.5
#   sa.spread_threshold.LOCATION = 0.35
#   sa.weight_property.REFERENCES = relevance
#   sa.weight_property.SIMDATES = sim
#   sa.weight_property.SIMDOC = sim
#   sa.weight_property.SIMLOC = sim
#   sa.weight_property.SIMPAGE = pagesim

###################################
# initial activations (3): 
#   cu31924014592566_749, 1
#   encyclopediabrit03newyrich_155, 1
#   cu31924082142666_16, 1

###################################
# spreading activation process log: 
#   pulse 0: activated: 3, non-zero: 3, borderline: 3, overall act: 3.000, act diff: 3.000, ratio: 1.000
#   pulse 1: activated: 76, non-zero: 76, borderline: 73, overall act: 16.052, act diff: 13.052, ratio: 0.813
#   pulse 2: activated: 127634, non-zero: 127634, borderline: 127627, overall act: 15788.268, act diff: 15772.216, ratio: 0.999
#   pulse 3: activated: 127684, non-zero: 127684, borderline: 127672, overall act: 15797.786, act diff: 9.519, ratio: 0.001

###################################
# spreading activation process summary: 
#   final number of activated nodes: 127684
#   final overall activation: 15797.8
#   number of spread. activ. pulses: 3
#   running time: 107035

###################################
# top k results in TREC format: 

9   rel3-2   austria   1   0.86851686   nodesDOCUMENT:DATE:LOCATION-edgesREFERENCES:SIMLOC:SIMPAGE-date_th0.25-doc_th0.5-loc_th0.35
9   rel3-2   prussia   2   0.78329575   nodesDOCUMENT:DATE:LOCATION-edgesREFERENCES:SIMLOC:SIMPAGE-date_th0.25-doc_th0.5-loc_th0.35
9   rel3-2   saxony   3   0.6002216   nodesDOCUMENT:DATE:LOCATION-edgesREFERENCES:SIMLOC:SIMPAGE-date_th0.25-doc_th0.5-loc_th0.35
9   rel3-2   elbe   4   0.54005045   nodesDOCUMENT:DATE:LOCATION-edgesREFERENCES:SIMLOC:SIMPAGE-date_th0.25-doc_th0.5-loc_th0.35
9   rel3-2   holstein   5   0.49444064   nodesDOCUMENT:DATE:LOCATION-edgesREFERENCES:SIMLOC:SIMPAGE-date_th0.25-doc_th0.5-loc_th0.35
9   rel3-2   vienna   6   0.48038632   nodesDOCUMENT:DATE:LOCATION-edgesREFERENCES:SIMLOC:SIMPAGE-date_th0.25-doc_th0.5-loc_th0.35
9   rel3-2   jicin   7   0.42686847   nodesDOCUMENT:DATE:LOCATION-edgesREFERENCES:SIMLOC:SIMPAGE-date_th0.25-doc_th0.5-loc_th0.35
9   rel3-2   1863   8   0.4163009   nodesDOCUMENT:DATE:LOCATION-edgesREFERENCES:SIMLOC:SIMPAGE-date_th0.25-doc_th0.5-loc_th0.35
9   rel3-2   1852   9   0.4163009   nodesDOCUMENT:DATE:LOCATION-edgesREFERENCES:SIMLOC:SIMPAGE-date_th0.25-doc_th0.5-loc_th0.35
9   rel3-2   germany   10   0.41163278   nodesDOCUMENT:DATE:LOCATION-edgesREFERENCES:SIMLOC:SIMPAGE-date_th0.25-doc_th0.5-loc_th0.35
9   rel3-2   hanover   11   0.36716026   nodesDOCUMENT:DATE:LOCATION-edgesREFERENCES:SIMLOC:SIMPAGE-date_th0.25-doc_th0.5-loc_th0.35
9   rel3-2   italy   12   0.36551538   nodesDOCUMENT:DATE:LOCATION-edgesREFERENCES:SIMLOC:SIMPAGE-date_th0.25-doc_th0.5-loc_th0.35
9   rel3-2   bohemia   13   0.30960995   nodesDOCUMENT:DATE:LOCATION-edgesREFERENCES:SIMLOC:SIMPAGE-date_th0.25-doc_th0.5-loc_th0.35
9   rel3-2   hungary   14   0.3008877   nodesDOCUMENT:DATE:LOCATION-edgesREFERENCES:SIMLOC:SIMPAGE-date_th0.25-doc_th0.5-loc_th0.35
9   rel3-2   acropolis hill   15   0.29627454   nodesDOCUMENT:DATE:LOCATION-edgesREFERENCES:SIMLOC:SIMPAGE-date_th0.25-doc_th0.5-loc_th0.35
9   rel3-2   art gallery   16   0.2952668   nodesDOCUMENT:DATE:LOCATION-edgesREFERENCES:SIMLOC:SIMPAGE-date_th0.25-doc_th0.5-loc_th0.35
9   rel3-2   acropolis museum   17   0.29367796   nodesDOCUMENT:DATE:LOCATION-edgesREFERENCES:SIMLOC:SIMPAGE-date_th0.25-doc_th0.5-loc_th0.35
9   rel3-2   propylaia   18   0.2932481   nodesDOCUMENT:DATE:LOCATION-edgesREFERENCES:SIMLOC:SIMPAGE-date_th0.25-doc_th0.5-loc_th0.35
9   rel3-2   acropolis   19   0.29315874   nodesDOCUMENT:DATE:LOCATION-edgesREFERENCES:SIMLOC:SIMPAGE-date_th0.25-doc_th0.5-loc_th0.35
9   rel3-2   acropolis of athens   20   0.2931481   nodesDOCUMENT:DATE:LOCATION-edgesREFERENCES:SIMLOC:SIMPAGE-date_th0.25-doc_th0.5-loc_th0.35

###################################
# top nodes: 

# 9   rel3-2   cu31924014592566_749   1   1.0   nodesDOCUMENT:DATE:LOCATION-edgesREFERENCES:SIMLOC:SIMPAGE-date_th0.25-doc_th0.5-loc_th0.35
# 9   rel3-2   encyclopediabrit03newyrich_155   2   1.0   nodesDOCUMENT:DATE:LOCATION-edgesREFERENCES:SIMLOC:SIMPAGE-date_th0.25-doc_th0.5-loc_th0.35
# 9   rel3-2   cu31924082142666_16   3   1.0   nodesDOCUMENT:DATE:LOCATION-edgesREFERENCES:SIMLOC:SIMPAGE-date_th0.25-doc_th0.5-loc_th0.35
# 9   rel3-2   austria   4   0.86851686   nodesDOCUMENT:DATE:LOCATION-edgesREFERENCES:SIMLOC:SIMPAGE-date_th0.25-doc_th0.5-loc_th0.35
# 9   rel3-2   prussia   5   0.78329575   nodesDOCUMENT:DATE:LOCATION-edgesREFERENCES:SIMLOC:SIMPAGE-date_th0.25-doc_th0.5-loc_th0.35
# 9   rel3-2   encyclopediabrit03newyrich_154   6   0.7047888   nodesDOCUMENT:DATE:LOCATION-edgesREFERENCES:SIMLOC:SIMPAGE-date_th0.25-doc_th0.5-loc_th0.35
# 9   rel3-2   cu31924082142666_15   7   0.65201825   nodesDOCUMENT:DATE:LOCATION-edgesREFERENCES:SIMLOC:SIMPAGE-date_th0.25-doc_th0.5-loc_th0.35
# 9   rel3-2   encyclopediabrit03newyrich_153   8   0.6417255   nodesDOCUMENT:DATE:LOCATION-edgesREFERENCES:SIMLOC:SIMPAGE-date_th0.25-doc_th0.5-loc_th0.35
# 9   rel3-2   cu31924082142666_17   9   0.63447076   nodesDOCUMENT:DATE:LOCATION-edgesREFERENCES:SIMLOC:SIMPAGE-date_th0.25-doc_th0.5-loc_th0.35
# 9   rel3-2   cu31924082142666_14   10   0.6113875   nodesDOCUMENT:DATE:LOCATION-edgesREFERENCES:SIMLOC:SIMPAGE-date_th0.25-doc_th0.5-loc_th0.35
# 9   rel3-2   saxony   11   0.6002216   nodesDOCUMENT:DATE:LOCATION-edgesREFERENCES:SIMLOC:SIMPAGE-date_th0.25-doc_th0.5-loc_th0.35
# 9   rel3-2   encyclopediabrit03newyrich_156   12   0.5887098   nodesDOCUMENT:DATE:LOCATION-edgesREFERENCES:SIMLOC:SIMPAGE-date_th0.25-doc_th0.5-loc_th0.35
# 9   rel3-2   cu31924014592566_750   13   0.55956495   nodesDOCUMENT:DATE:LOCATION-edgesREFERENCES:SIMLOC:SIMPAGE-date_th0.25-doc_th0.5-loc_th0.35
# 9   rel3-2   elbe   14   0.54005045   nodesDOCUMENT:DATE:LOCATION-edgesREFERENCES:SIMLOC:SIMPAGE-date_th0.25-doc_th0.5-loc_th0.35
# 9   rel3-2   cu31924082142666_18   15   0.49903348   nodesDOCUMENT:DATE:LOCATION-edgesREFERENCES:SIMLOC:SIMPAGE-date_th0.25-doc_th0.5-loc_th0.35
# 9   rel3-2   holstein   16   0.49444064   nodesDOCUMENT:DATE:LOCATION-edgesREFERENCES:SIMLOC:SIMPAGE-date_th0.25-doc_th0.5-loc_th0.35
# 9   rel3-2   vienna   17   0.48038632   nodesDOCUMENT:DATE:LOCATION-edgesREFERENCES:SIMLOC:SIMPAGE-date_th0.25-doc_th0.5-loc_th0.35
# 9   rel3-2   cu31924014592566_748   18   0.46211717   nodesDOCUMENT:DATE:LOCATION-edgesREFERENCES:SIMLOC:SIMPAGE-date_th0.25-doc_th0.5-loc_th0.35
# 9   rel3-2   marvelousstoryof00nort_227   19   0.45021036   nodesDOCUMENT:DATE:LOCATION-edgesREFERENCES:SIMLOC:SIMPAGE-date_th0.25-doc_th0.5-loc_th0.35
# 9   rel3-2   lifetimesofstein02seeluoft_259   20   0.44077384   nodesDOCUMENT:DATE:LOCATION-edgesREFERENCES:SIMLOC:SIMPAGE-date_th0.25-doc_th0.5-loc_th0.35
# 9   rel3-2   cu31924014592566_362   21   0.4381511   nodesDOCUMENT:DATE:LOCATION-edgesREFERENCES:SIMLOC:SIMPAGE-date_th0.25-doc_th0.5-loc_th0.35
# 9   rel3-2   ourchancellorske00buscuoft_403   22   0.43216068   nodesDOCUMENT:DATE:LOCATION-edgesREFERENCES:SIMLOC:SIMPAGE-date_th0.25-doc_th0.5-loc_th0.35
# 9   rel3-2   foundationsofger00barkuoft_97   23   0.43139943   nodesDOCUMENT:DATE:LOCATION-edgesREFERENCES:SIMLOC:SIMPAGE-date_th0.25-doc_th0.5-loc_th0.35
# 9   rel3-2   journalpolitica02socigoog_11   24   0.42867306   nodesDOCUMENT:DATE:LOCATION-edgesREFERENCES:SIMLOC:SIMPAGE-date_th0.25-doc_th0.5-loc_th0.35
# 9   rel3-2   cu31924088053800_143   25   0.42857257   nodesDOCUMENT:DATE:LOCATION-edgesREFERENCES:SIMLOC:SIMPAGE-date_th0.25-doc_th0.5-loc_th0.35
# 9   rel3-2   foundationsofger00barkuoft_248   26   0.42854428   nodesDOCUMENT:DATE:LOCATION-edgesREFERENCES:SIMLOC:SIMPAGE-date_th0.25-doc_th0.5-loc_th0.35
# 9   rel3-2   jicin   27   0.42686847   nodesDOCUMENT:DATE:LOCATION-edgesREFERENCES:SIMLOC:SIMPAGE-date_th0.25-doc_th0.5-loc_th0.35
# 9   rel3-2   menwhohavemaden00stragoog_155   28   0.42679802   nodesDOCUMENT:DATE:LOCATION-edgesREFERENCES:SIMLOC:SIMPAGE-date_th0.25-doc_th0.5-loc_th0.35
# 9   rel3-2   threegermanysgl00faygoog_392   29   0.42219427   nodesDOCUMENT:DATE:LOCATION-edgesREFERENCES:SIMLOC:SIMPAGE-date_th0.25-doc_th0.5-loc_th0.35
# 9   rel3-2   outlineseuropea04beargoog_378   30   0.42109182   nodesDOCUMENT:DATE:LOCATION-edgesREFERENCES:SIMLOC:SIMPAGE-date_th0.25-doc_th0.5-loc_th0.35
# 9   rel3-2   threegermanysgl00faygoog_397   31   0.42103443   nodesDOCUMENT:DATE:LOCATION-edgesREFERENCES:SIMLOC:SIMPAGE-date_th0.25-doc_th0.5-loc_th0.35
# 9   rel3-2   foundationsofger00barkuoft_95   32   0.42039192   nodesDOCUMENT:DATE:LOCATION-edgesREFERENCES:SIMLOC:SIMPAGE-date_th0.25-doc_th0.5-loc_th0.35
# 9   rel3-2   europe1789192000turnrich_277   33   0.418939   nodesDOCUMENT:DATE:LOCATION-edgesREFERENCES:SIMLOC:SIMPAGE-date_th0.25-doc_th0.5-loc_th0.35
# 9   rel3-2   shorthistoryofeu00terr_454   34   0.4173598   nodesDOCUMENT:DATE:LOCATION-edgesREFERENCES:SIMLOC:SIMPAGE-date_th0.25-doc_th0.5-loc_th0.35
# 9   rel3-2   threegermanysgl00faygoog_358   35   0.41639733   nodesDOCUMENT:DATE:LOCATION-edgesREFERENCES:SIMLOC:SIMPAGE-date_th0.25-doc_th0.5-loc_th0.35
# 9   rel3-2   foundationsofger00barkuoft_355   36   0.4163128   nodesDOCUMENT:DATE:LOCATION-edgesREFERENCES:SIMLOC:SIMPAGE-date_th0.25-doc_th0.5-loc_th0.35
# 9   rel3-2   1863   37   0.4163009   nodesDOCUMENT:DATE:LOCATION-edgesREFERENCES:SIMLOC:SIMPAGE-date_th0.25-doc_th0.5-loc_th0.35
# 9   rel3-2   1852   38   0.4163009   nodesDOCUMENT:DATE:LOCATION-edgesREFERENCES:SIMLOC:SIMPAGE-date_th0.25-doc_th0.5-loc_th0.35
# 9   rel3-2   foundationsofger00barkuoft_359   39   0.4161592   nodesDOCUMENT:DATE:LOCATION-edgesREFERENCES:SIMLOC:SIMPAGE-date_th0.25-doc_th0.5-loc_th0.35
# 9   rel3-2   cu31924014592566_291   40   0.41568854   nodesDOCUMENT:DATE:LOCATION-edgesREFERENCES:SIMLOC:SIMPAGE-date_th0.25-doc_th0.5-loc_th0.35
