###################################
# parameters: 
#   date_th: 0.3
#   doc_th: 0.6
#   loc_th: 0.35
#   nodestouse: DOCUMENT:DATE:LOCATION
#   relationships: REFERENCES:SIMDATES:SIMLOC

###################################
# configuration: 
#   sa.act_diff_ratio_limit = 0.01
#   sa.act_diff_ratio_limit_diff = 0.01
#   sa.function = ciir.multi.sa.function.MaxSAFunction(norm_function)
#   sa.id_property_name.DATE = dateID
#   sa.id_property_name.DOCUMENT = docID
#   sa.id_property_name.LOCATION = locID
#   sa.max_pulses = 10
#   sa.nodes_to_print = DATE:LOCATION
#   sa.nodes_to_use = DOCUMENT:DATE:LOCATION
#   sa.norm_function = ciir.multi.sa.SigmoidFunction(0.0, 1.0)
#   sa.relationships_to_use = REFERENCES:SIMDATES:SIMLOC
#   sa.spread_threshold.DATE = 0.3
#   sa.spread_threshold.DOCUMENT = 0.6
#   sa.spread_threshold.LOCATION = 0.35
#   sa.weight_property.REFERENCES = relevance
#   sa.weight_property.SIMDATES = sim
#   sa.weight_property.SIMDOC = sim
#   sa.weight_property.SIMLOC = sim
#   sa.weight_property.SIMPAGE = pagesim

###################################
# initial activations (2): 
#   cu31924029563875_157, 1
#   hallamsworks04halliala_600, 1

###################################
# spreading activation process log: 
#   pulse 0: activated: 2, non-zero: 2, borderline: 2, overall act: 2.000, act diff: 2.000, ratio: 1.000
#   pulse 1: activated: 20, non-zero: 20, borderline: 18, overall act: 5.887, act diff: 3.887, ratio: 0.660
#   pulse 2: activated: 879949, non-zero: 879949, borderline: 879942, overall act: 96849.230, act diff: 96843.343, ratio: 1.000
#   pulse 3: activated: 879949, non-zero: 879949, borderline: 879942, overall act: 96849.230, act diff: 0.000, ratio: 0.000

###################################
# spreading activation process summary: 
#   final number of activated nodes: 879949
#   final overall activation: 96849.2
#   number of spread. activ. pulses: 3
#   running time: 136815

###################################
# top k results in TREC format: 

2   rel2-5   ireland   1   0.48682883   nodesDOCUMENT:DATE:LOCATION-edgesREFERENCES:SIMDATES:SIMLOC-date_th0.3-doc_th0.6-loc_th0.35
2   rel2-5   dublin   2   0.39932328   nodesDOCUMENT:DATE:LOCATION-edgesREFERENCES:SIMDATES:SIMLOC-date_th0.3-doc_th0.6-loc_th0.35
2   rel2-5   london   3   0.36032423   nodesDOCUMENT:DATE:LOCATION-edgesREFERENCES:SIMDATES:SIMLOC-date_th0.3-doc_th0.6-loc_th0.35
2   rel2-5   england   4   0.24491866   nodesDOCUMENT:DATE:LOCATION-edgesREFERENCES:SIMDATES:SIMLOC-date_th0.3-doc_th0.6-loc_th0.35
2   rel2-5   clifton house   5   0.23395795   nodesDOCUMENT:DATE:LOCATION-edgesREFERENCES:SIMDATES:SIMLOC-date_th0.3-doc_th0.6-loc_th0.35
2   rel2-5   cangort   6   0.2281628   nodesDOCUMENT:DATE:LOCATION-edgesREFERENCES:SIMDATES:SIMLOC-date_th0.3-doc_th0.6-loc_th0.35
2   rel2-5   cangort park   7   0.22493929   nodesDOCUMENT:DATE:LOCATION-edgesREFERENCES:SIMDATES:SIMLOC-date_th0.3-doc_th0.6-loc_th0.35
2   rel2-5   sopwell hall   8   0.22379076   nodesDOCUMENT:DATE:LOCATION-edgesREFERENCES:SIMDATES:SIMLOC-date_th0.3-doc_th0.6-loc_th0.35
2   rel2-5   kilcomin   9   0.22084215   nodesDOCUMENT:DATE:LOCATION-edgesREFERENCES:SIMDATES:SIMLOC-date_th0.3-doc_th0.6-loc_th0.35
2   rel2-5   ballincor   10   0.2187179   nodesDOCUMENT:DATE:LOCATION-edgesREFERENCES:SIMDATES:SIMLOC-date_th0.3-doc_th0.6-loc_th0.35
2   rel2-5   corolanty   11   0.21694839   nodesDOCUMENT:DATE:LOCATION-edgesREFERENCES:SIMDATES:SIMLOC-date_th0.3-doc_th0.6-loc_th0.35
2   rel2-5   loughkeen   12   0.21604702   nodesDOCUMENT:DATE:LOCATION-edgesREFERENCES:SIMDATES:SIMLOC-date_th0.3-doc_th0.6-loc_th0.35
2   rel2-5   ivy hall   13   0.21523702   nodesDOCUMENT:DATE:LOCATION-edgesREFERENCES:SIMDATES:SIMLOC-date_th0.3-doc_th0.6-loc_th0.35
2   rel2-5   shinrone   14   0.21493816   nodesDOCUMENT:DATE:LOCATION-edgesREFERENCES:SIMDATES:SIMLOC-date_th0.3-doc_th0.6-loc_th0.35
2   rel2-5   modreeny   15   0.21106811   nodesDOCUMENT:DATE:LOCATION-edgesREFERENCES:SIMDATES:SIMLOC-date_th0.3-doc_th0.6-loc_th0.35
2   rel2-5   cloughjordan   16   0.20825936   nodesDOCUMENT:DATE:LOCATION-edgesREFERENCES:SIMDATES:SIMLOC-date_th0.3-doc_th0.6-loc_th0.35
2   rel2-5   fort nisbett   17   0.20690647   nodesDOCUMENT:DATE:LOCATION-edgesREFERENCES:SIMDATES:SIMLOC-date_th0.3-doc_th0.6-loc_th0.35
2   rel2-5   borrisokane   18   0.20207222   nodesDOCUMENT:DATE:LOCATION-edgesREFERENCES:SIMDATES:SIMLOC-date_th0.3-doc_th0.6-loc_th0.35
2   rel2-5   haddington road   19   0.1954199   nodesDOCUMENT:DATE:LOCATION-edgesREFERENCES:SIMDATES:SIMLOC-date_th0.3-doc_th0.6-loc_th0.35
2   rel2-5   lansdowne hotel   20   0.1954121   nodesDOCUMENT:DATE:LOCATION-edgesREFERENCES:SIMDATES:SIMLOC-date_th0.3-doc_th0.6-loc_th0.35

###################################
# top nodes: 

# 2   rel2-5   hallamsworks04halliala_600   1   1.0   nodesDOCUMENT:DATE:LOCATION-edgesREFERENCES:SIMDATES:SIMLOC-date_th0.3-doc_th0.6-loc_th0.35
# 2   rel2-5   cu31924029563875_157   2   1.0   nodesDOCUMENT:DATE:LOCATION-edgesREFERENCES:SIMDATES:SIMLOC-date_th0.3-doc_th0.6-loc_th0.35
# 2   rel2-5   bibliothecagrenv03grenrich_31   3   0.50440717   nodesDOCUMENT:DATE:LOCATION-edgesREFERENCES:SIMDATES:SIMLOC-date_th0.3-doc_th0.6-loc_th0.35
# 2   rel2-5   causeofirelandpl00orei_24   4   0.5004303   nodesDOCUMENT:DATE:LOCATION-edgesREFERENCES:SIMDATES:SIMLOC-date_th0.3-doc_th0.6-loc_th0.35
# 2   rel2-5   strangerinirelan00carr_91   5   0.4914904   nodesDOCUMENT:DATE:LOCATION-edgesREFERENCES:SIMDATES:SIMLOC-date_th0.3-doc_th0.6-loc_th0.35
# 2   rel2-5   calendarstatepa12offigoog_525   6   0.48964527   nodesDOCUMENT:DATE:LOCATION-edgesREFERENCES:SIMDATES:SIMLOC-date_th0.3-doc_th0.6-loc_th0.35
# 2   rel2-5   ireland   7   0.48682883   nodesDOCUMENT:DATE:LOCATION-edgesREFERENCES:SIMDATES:SIMLOC-date_th0.3-doc_th0.6-loc_th0.35
# 2   rel2-5   causeofirelandpl00orei_432   8   0.48509726   nodesDOCUMENT:DATE:LOCATION-edgesREFERENCES:SIMDATES:SIMLOC-date_th0.3-doc_th0.6-loc_th0.35
# 2   rel2-5   historyengland00macagoog_517   9   0.48264053   nodesDOCUMENT:DATE:LOCATION-edgesREFERENCES:SIMDATES:SIMLOC-date_th0.3-doc_th0.6-loc_th0.35
# 2   rel2-5   cu31924027975733_414   10   0.4826405   nodesDOCUMENT:DATE:LOCATION-edgesREFERENCES:SIMDATES:SIMLOC-date_th0.3-doc_th0.6-loc_th0.35
# 2   rel2-5   politicalstudies00broduoft_385   11   0.47820508   nodesDOCUMENT:DATE:LOCATION-edgesREFERENCES:SIMDATES:SIMLOC-date_th0.3-doc_th0.6-loc_th0.35
# 2   rel2-5   cu31924091770861_873   12   0.47759178   nodesDOCUMENT:DATE:LOCATION-edgesREFERENCES:SIMDATES:SIMLOC-date_th0.3-doc_th0.6-loc_th0.35
# 2   rel2-5   viceroyspostbag02macdgoog_266   13   0.4760442   nodesDOCUMENT:DATE:LOCATION-edgesREFERENCES:SIMDATES:SIMLOC-date_th0.3-doc_th0.6-loc_th0.35
# 2   rel2-5   compendiumofhist02lawl_189   14   0.47515425   nodesDOCUMENT:DATE:LOCATION-edgesREFERENCES:SIMDATES:SIMLOC-date_th0.3-doc_th0.6-loc_th0.35
# 2   rel2-5   irelandonehundre00walsrich_38   15   0.47515425   nodesDOCUMENT:DATE:LOCATION-edgesREFERENCES:SIMDATES:SIMLOC-date_th0.3-doc_th0.6-loc_th0.35
# 2   rel2-5   landwarinireland00godk_205   16   0.47515425   nodesDOCUMENT:DATE:LOCATION-edgesREFERENCES:SIMDATES:SIMLOC-date_th0.3-doc_th0.6-loc_th0.35
# 2   rel2-5   commercialrestra00hely_255   17   0.47515425   nodesDOCUMENT:DATE:LOCATION-edgesREFERENCES:SIMDATES:SIMLOC-date_th0.3-doc_th0.6-loc_th0.35
# 2   rel2-5   historyofireland02daltuoft_409   18   0.47090447   nodesDOCUMENT:DATE:LOCATION-edgesREFERENCES:SIMDATES:SIMLOC-date_th0.3-doc_th0.6-loc_th0.35
# 2   rel2-5   olivercromwell00rossgoog_134   19   0.47090447   nodesDOCUMENT:DATE:LOCATION-edgesREFERENCES:SIMDATES:SIMLOC-date_th0.3-doc_th0.6-loc_th0.35
# 2   rel2-5   historyforreadyr03larnuoft_236   20   0.46602526   nodesDOCUMENT:DATE:LOCATION-edgesREFERENCES:SIMDATES:SIMLOC-date_th0.3-doc_th0.6-loc_th0.35
# 2   rel2-5   irelandundercomm02dunluoft_279   21   0.4648844   nodesDOCUMENT:DATE:LOCATION-edgesREFERENCES:SIMDATES:SIMLOC-date_th0.3-doc_th0.6-loc_th0.35
# 2   rel2-5   historyofenniski02trim_72   22   0.4648844   nodesDOCUMENT:DATE:LOCATION-edgesREFERENCES:SIMDATES:SIMLOC-date_th0.3-doc_th0.6-loc_th0.35
# 2   rel2-5   socialstateofgre00berm_196   23   0.45929736   nodesDOCUMENT:DATE:LOCATION-edgesREFERENCES:SIMDATES:SIMLOC-date_th0.3-doc_th0.6-loc_th0.35
# 2   rel2-5   redeemerstearsw00urwigoog_21   24   0.45559338   nodesDOCUMENT:DATE:LOCATION-edgesREFERENCES:SIMDATES:SIMLOC-date_th0.3-doc_th0.6-loc_th0.35
# 2   rel2-5   historyofclareda00whit_272   25   0.4551854   nodesDOCUMENT:DATE:LOCATION-edgesREFERENCES:SIMDATES:SIMLOC-date_th0.3-doc_th0.6-loc_th0.35
# 2   rel2-5   whathavegreeksd00mahagoog_196   26   0.45385545   nodesDOCUMENT:DATE:LOCATION-edgesREFERENCES:SIMDATES:SIMLOC-date_th0.3-doc_th0.6-loc_th0.35
# 2   rel2-5   irelandpopebrief00magurich_47   27   0.45385545   nodesDOCUMENT:DATE:LOCATION-edgesREFERENCES:SIMDATES:SIMLOC-date_th0.3-doc_th0.6-loc_th0.35
# 2   rel2-5   cu31924029565607_447   28   0.45168686   nodesDOCUMENT:DATE:LOCATION-edgesREFERENCES:SIMDATES:SIMLOC-date_th0.3-doc_th0.6-loc_th0.35
# 2   rel2-5   calendarstatepa12offigoog_541   29   0.450603   nodesDOCUMENT:DATE:LOCATION-edgesREFERENCES:SIMDATES:SIMLOC-date_th0.3-doc_th0.6-loc_th0.35
# 2   rel2-5   historyofengland08lodguoft_78   30   0.45012972   nodesDOCUMENT:DATE:LOCATION-edgesREFERENCES:SIMDATES:SIMLOC-date_th0.3-doc_th0.6-loc_th0.35
# 2   rel2-5   1641   31   0.44794905   nodesDOCUMENT:DATE:LOCATION-edgesREFERENCES:SIMDATES:SIMLOC-date_th0.3-doc_th0.6-loc_th0.35
# 2   rel2-5   causeofirelandpl00orei_392   32   0.44600916   nodesDOCUMENT:DATE:LOCATION-edgesREFERENCES:SIMDATES:SIMLOC-date_th0.3-doc_th0.6-loc_th0.35
# 2   rel2-5   lifeofolivercrom02head_290   33   0.44313112   nodesDOCUMENT:DATE:LOCATION-edgesREFERENCES:SIMDATES:SIMLOC-date_th0.3-doc_th0.6-loc_th0.35
# 2   rel2-5   historycountydu01dalgoog_819   34   0.4403133   nodesDOCUMENT:DATE:LOCATION-edgesREFERENCES:SIMDATES:SIMLOC-date_th0.3-doc_th0.6-loc_th0.35
# 2   rel2-5   calendarstatepa12offigoog_475   35   0.440157   nodesDOCUMENT:DATE:LOCATION-edgesREFERENCES:SIMDATES:SIMLOC-date_th0.3-doc_th0.6-loc_th0.35
# 2   rel2-5   historyofireland02daltuoft_618   36   0.43995094   nodesDOCUMENT:DATE:LOCATION-edgesREFERENCES:SIMDATES:SIMLOC-date_th0.3-doc_th0.6-loc_th0.35
# 2   rel2-5   selectionofcases01willuoft_544   37   0.43913642   nodesDOCUMENT:DATE:LOCATION-edgesREFERENCES:SIMDATES:SIMLOC-date_th0.3-doc_th0.6-loc_th0.35
# 2   rel2-5   historyofireland02daltuoft_337   38   0.43872604   nodesDOCUMENT:DATE:LOCATION-edgesREFERENCES:SIMDATES:SIMLOC-date_th0.3-doc_th0.6-loc_th0.35
# 2   rel2-5   thomasharrisonr00wessgoog_83   39   0.43842924   nodesDOCUMENT:DATE:LOCATION-edgesREFERENCES:SIMDATES:SIMLOC-date_th0.3-doc_th0.6-loc_th0.35
# 2   rel2-5   historyofbritish00colluoft_221   40   0.43812153   nodesDOCUMENT:DATE:LOCATION-edgesREFERENCES:SIMDATES:SIMLOC-date_th0.3-doc_th0.6-loc_th0.35
