###################################
# parameters: 
#   date_th: 0.25
#   doc_th: 0.7
#   loc_th: 0.35
#   nodestouse: DOCUMENT:DATE:LOCATION
#   relationships: REFERENCES:SIMDATES:SIMLOC

###################################
# configuration: 
#   sa.act_diff_ratio_limit = 0.01
#   sa.act_diff_ratio_limit_diff = 0.01
#   sa.function = ciir.multi.sa.function.MaxSAFunction(norm_function)
#   sa.id_property_name.DATE = dateID
#   sa.id_property_name.DOCUMENT = docID
#   sa.id_property_name.LOCATION = locID
#   sa.max_pulses = 10
#   sa.nodes_to_print = DATE:LOCATION
#   sa.nodes_to_use = DOCUMENT:DATE:LOCATION
#   sa.norm_function = ciir.multi.sa.SigmoidFunction(0.0, 1.0)
#   sa.relationships_to_use = REFERENCES:SIMDATES:SIMLOC
#   sa.spread_threshold.DATE = 0.25
#   sa.spread_threshold.DOCUMENT = 0.7
#   sa.spread_threshold.LOCATION = 0.35
#   sa.weight_property.REFERENCES = relevance
#   sa.weight_property.SIMDATES = sim
#   sa.weight_property.SIMDOC = sim
#   sa.weight_property.SIMLOC = sim
#   sa.weight_property.SIMPAGE = pagesim

###################################
# initial activations (4): 
#   englandsfightwit00wals_354, 1
#   cu31924029563875_157, 1
#   viceroysofirelan00omahuoft_97, 1
#   hallamsworks04halliala_600, 1

###################################
# spreading activation process log: 
#   pulse 0: activated: 4, non-zero: 4, borderline: 4, overall act: 4.000, act diff: 4.000, ratio: 1.000
#   pulse 1: activated: 23, non-zero: 23, borderline: 19, overall act: 9.019, act diff: 5.019, ratio: 0.556
#   pulse 2: activated: 1512074, non-zero: 1512074, borderline: 1512064, overall act: 213060.995, act diff: 213051.976, ratio: 1.000
#   pulse 3: activated: 1518423, non-zero: 1518423, borderline: 1518397, overall act: 214041.010, act diff: 980.015, ratio: 0.005

###################################
# spreading activation process summary: 
#   final number of activated nodes: 1518423
#   final overall activation: 214041.0
#   number of spread. activ. pulses: 3
#   running time: 211902

###################################
# top k results in TREC format: 

2   rel4-1   ireland   1   0.9989905   nodesDOCUMENT:DATE:LOCATION-edgesREFERENCES:SIMDATES:SIMLOC-date_th0.25-doc_th0.7-loc_th0.35
2   rel4-1   clifton house   2   0.9817638   nodesDOCUMENT:DATE:LOCATION-edgesREFERENCES:SIMDATES:SIMLOC-date_th0.25-doc_th0.7-loc_th0.35
2   rel4-1   cangort   3   0.9751949   nodesDOCUMENT:DATE:LOCATION-edgesREFERENCES:SIMDATES:SIMLOC-date_th0.25-doc_th0.7-loc_th0.35
2   rel4-1   cangort park   4   0.96469945   nodesDOCUMENT:DATE:LOCATION-edgesREFERENCES:SIMDATES:SIMLOC-date_th0.25-doc_th0.7-loc_th0.35
2   rel4-1   kilcomin   5   0.94732016   nodesDOCUMENT:DATE:LOCATION-edgesREFERENCES:SIMDATES:SIMLOC-date_th0.25-doc_th0.7-loc_th0.35
2   rel4-1   sopwell hall   6   0.9452628   nodesDOCUMENT:DATE:LOCATION-edgesREFERENCES:SIMDATES:SIMLOC-date_th0.25-doc_th0.7-loc_th0.35
2   rel4-1   ballincor   7   0.9303618   nodesDOCUMENT:DATE:LOCATION-edgesREFERENCES:SIMDATES:SIMLOC-date_th0.25-doc_th0.7-loc_th0.35
2   rel4-1   corolanty   8   0.92966   nodesDOCUMENT:DATE:LOCATION-edgesREFERENCES:SIMDATES:SIMLOC-date_th0.25-doc_th0.7-loc_th0.35
2   rel4-1   cloughjordan   9   0.9198651   nodesDOCUMENT:DATE:LOCATION-edgesREFERENCES:SIMDATES:SIMLOC-date_th0.25-doc_th0.7-loc_th0.35
2   rel4-1   shinrone   10   0.90191466   nodesDOCUMENT:DATE:LOCATION-edgesREFERENCES:SIMDATES:SIMLOC-date_th0.25-doc_th0.7-loc_th0.35
2   rel4-1   modreeny   11   0.887132   nodesDOCUMENT:DATE:LOCATION-edgesREFERENCES:SIMDATES:SIMLOC-date_th0.25-doc_th0.7-loc_th0.35
2   rel4-1   fort nisbett   12   0.8837817   nodesDOCUMENT:DATE:LOCATION-edgesREFERENCES:SIMDATES:SIMLOC-date_th0.25-doc_th0.7-loc_th0.35
2   rel4-1   loughkeen   13   0.8606351   nodesDOCUMENT:DATE:LOCATION-edgesREFERENCES:SIMDATES:SIMLOC-date_th0.25-doc_th0.7-loc_th0.35
2   rel4-1   ivy hall   14   0.8591056   nodesDOCUMENT:DATE:LOCATION-edgesREFERENCES:SIMDATES:SIMLOC-date_th0.25-doc_th0.7-loc_th0.35
2   rel4-1   sharavogue   15   0.78621817   nodesDOCUMENT:DATE:LOCATION-edgesREFERENCES:SIMDATES:SIMLOC-date_th0.25-doc_th0.7-loc_th0.35
2   rel4-1   miltown park   16   0.71058005   nodesDOCUMENT:DATE:LOCATION-edgesREFERENCES:SIMDATES:SIMLOC-date_th0.25-doc_th0.7-loc_th0.35
2   rel4-1   borrisokane   17   0.707991   nodesDOCUMENT:DATE:LOCATION-edgesREFERENCES:SIMDATES:SIMLOC-date_th0.25-doc_th0.7-loc_th0.35
2   rel4-1   brosna   18   0.70731235   nodesDOCUMENT:DATE:LOCATION-edgesREFERENCES:SIMDATES:SIMLOC-date_th0.25-doc_th0.7-loc_th0.35
2   rel4-1   carrig   19   0.70708025   nodesDOCUMENT:DATE:LOCATION-edgesREFERENCES:SIMDATES:SIMLOC-date_th0.25-doc_th0.7-loc_th0.35
2   rel4-1   rutland house   20   0.6051614   nodesDOCUMENT:DATE:LOCATION-edgesREFERENCES:SIMDATES:SIMLOC-date_th0.25-doc_th0.7-loc_th0.35

###################################
# top nodes: 

# 2   rel4-1   cu31924029563875_157   1   1.0   nodesDOCUMENT:DATE:LOCATION-edgesREFERENCES:SIMDATES:SIMLOC-date_th0.25-doc_th0.7-loc_th0.35
# 2   rel4-1   hallamsworks04halliala_600   2   1.0   nodesDOCUMENT:DATE:LOCATION-edgesREFERENCES:SIMDATES:SIMLOC-date_th0.25-doc_th0.7-loc_th0.35
# 2   rel4-1   viceroysofirelan00omahuoft_97   3   1.0   nodesDOCUMENT:DATE:LOCATION-edgesREFERENCES:SIMDATES:SIMLOC-date_th0.25-doc_th0.7-loc_th0.35
# 2   rel4-1   englandsfightwit00wals_354   4   1.0   nodesDOCUMENT:DATE:LOCATION-edgesREFERENCES:SIMDATES:SIMLOC-date_th0.25-doc_th0.7-loc_th0.35
# 2   rel4-1   ireland   5   0.9989905   nodesDOCUMENT:DATE:LOCATION-edgesREFERENCES:SIMDATES:SIMLOC-date_th0.25-doc_th0.7-loc_th0.35
# 2   rel4-1   clifton house   6   0.9817638   nodesDOCUMENT:DATE:LOCATION-edgesREFERENCES:SIMDATES:SIMLOC-date_th0.25-doc_th0.7-loc_th0.35
# 2   rel4-1   cangort   7   0.9751949   nodesDOCUMENT:DATE:LOCATION-edgesREFERENCES:SIMDATES:SIMLOC-date_th0.25-doc_th0.7-loc_th0.35
# 2   rel4-1   cangort park   8   0.96469945   nodesDOCUMENT:DATE:LOCATION-edgesREFERENCES:SIMDATES:SIMLOC-date_th0.25-doc_th0.7-loc_th0.35
# 2   rel4-1   kilcomin   9   0.94732016   nodesDOCUMENT:DATE:LOCATION-edgesREFERENCES:SIMDATES:SIMLOC-date_th0.25-doc_th0.7-loc_th0.35
# 2   rel4-1   sopwell hall   10   0.9452628   nodesDOCUMENT:DATE:LOCATION-edgesREFERENCES:SIMDATES:SIMLOC-date_th0.25-doc_th0.7-loc_th0.35
# 2   rel4-1   ballincor   11   0.9303618   nodesDOCUMENT:DATE:LOCATION-edgesREFERENCES:SIMDATES:SIMLOC-date_th0.25-doc_th0.7-loc_th0.35
# 2   rel4-1   corolanty   12   0.92966   nodesDOCUMENT:DATE:LOCATION-edgesREFERENCES:SIMDATES:SIMLOC-date_th0.25-doc_th0.7-loc_th0.35
# 2   rel4-1   cloughjordan   13   0.9198651   nodesDOCUMENT:DATE:LOCATION-edgesREFERENCES:SIMDATES:SIMLOC-date_th0.25-doc_th0.7-loc_th0.35
# 2   rel4-1   shinrone   14   0.90191466   nodesDOCUMENT:DATE:LOCATION-edgesREFERENCES:SIMDATES:SIMLOC-date_th0.25-doc_th0.7-loc_th0.35
# 2   rel4-1   modreeny   15   0.887132   nodesDOCUMENT:DATE:LOCATION-edgesREFERENCES:SIMDATES:SIMLOC-date_th0.25-doc_th0.7-loc_th0.35
# 2   rel4-1   fort nisbett   16   0.8837817   nodesDOCUMENT:DATE:LOCATION-edgesREFERENCES:SIMDATES:SIMLOC-date_th0.25-doc_th0.7-loc_th0.35
# 2   rel4-1   loughkeen   17   0.8606351   nodesDOCUMENT:DATE:LOCATION-edgesREFERENCES:SIMDATES:SIMLOC-date_th0.25-doc_th0.7-loc_th0.35
# 2   rel4-1   ivy hall   18   0.8591056   nodesDOCUMENT:DATE:LOCATION-edgesREFERENCES:SIMDATES:SIMLOC-date_th0.25-doc_th0.7-loc_th0.35
# 2   rel4-1   sharavogue   19   0.78621817   nodesDOCUMENT:DATE:LOCATION-edgesREFERENCES:SIMDATES:SIMLOC-date_th0.25-doc_th0.7-loc_th0.35
# 2   rel4-1   1641   20   0.77572834   nodesDOCUMENT:DATE:LOCATION-edgesREFERENCES:SIMDATES:SIMLOC-date_th0.25-doc_th0.7-loc_th0.35
# 2   rel4-1   miltown park   21   0.71058005   nodesDOCUMENT:DATE:LOCATION-edgesREFERENCES:SIMDATES:SIMLOC-date_th0.25-doc_th0.7-loc_th0.35
# 2   rel4-1   borrisokane   22   0.707991   nodesDOCUMENT:DATE:LOCATION-edgesREFERENCES:SIMDATES:SIMLOC-date_th0.25-doc_th0.7-loc_th0.35
# 2   rel4-1   brosna   23   0.70731235   nodesDOCUMENT:DATE:LOCATION-edgesREFERENCES:SIMDATES:SIMLOC-date_th0.25-doc_th0.7-loc_th0.35
# 2   rel4-1   carrig   24   0.70708025   nodesDOCUMENT:DATE:LOCATION-edgesREFERENCES:SIMDATES:SIMLOC-date_th0.25-doc_th0.7-loc_th0.35
# 2   rel4-1   studentshistoryo03garduoft_42   25   0.6908953   nodesDOCUMENT:DATE:LOCATION-edgesREFERENCES:SIMDATES:SIMLOC-date_th0.25-doc_th0.7-loc_th0.35
# 2   rel4-1   harleianmiscell00oldygoog_332   26   0.68371445   nodesDOCUMENT:DATE:LOCATION-edgesREFERENCES:SIMDATES:SIMLOC-date_th0.25-doc_th0.7-loc_th0.35
# 2   rel4-1   causeofirelandpl00orei_24   27   0.6814029   nodesDOCUMENT:DATE:LOCATION-edgesREFERENCES:SIMDATES:SIMLOC-date_th0.25-doc_th0.7-loc_th0.35
# 2   rel4-1   thomasharrisonr00wessgoog_83   28   0.6802687   nodesDOCUMENT:DATE:LOCATION-edgesREFERENCES:SIMDATES:SIMLOC-date_th0.25-doc_th0.7-loc_th0.35
# 2   rel4-1   causeofirelandpl00orei_315   29   0.6771716   nodesDOCUMENT:DATE:LOCATION-edgesREFERENCES:SIMDATES:SIMLOC-date_th0.25-doc_th0.7-loc_th0.35
# 2   rel4-1   strangerinirelan00carr_91   30   0.67658985   nodesDOCUMENT:DATE:LOCATION-edgesREFERENCES:SIMDATES:SIMLOC-date_th0.25-doc_th0.7-loc_th0.35
# 2   rel4-1   redeemerstearsw00urwigoog_21   31   0.6741094   nodesDOCUMENT:DATE:LOCATION-edgesREFERENCES:SIMDATES:SIMLOC-date_th0.25-doc_th0.7-loc_th0.35
# 2   rel4-1   historyofengland08lodguoft_78   32   0.673832   nodesDOCUMENT:DATE:LOCATION-edgesREFERENCES:SIMDATES:SIMLOC-date_th0.25-doc_th0.7-loc_th0.35
# 2   rel4-1   bibliothecagrenv03grenrich_31   33   0.67260575   nodesDOCUMENT:DATE:LOCATION-edgesREFERENCES:SIMDATES:SIMLOC-date_th0.25-doc_th0.7-loc_th0.35
# 2   rel4-1   calendarstatepa00levagoog_361   34   0.6720273   nodesDOCUMENT:DATE:LOCATION-edgesREFERENCES:SIMDATES:SIMLOC-date_th0.25-doc_th0.7-loc_th0.35
# 2   rel4-1   constitutionalhi03hall_415   35   0.6704381   nodesDOCUMENT:DATE:LOCATION-edgesREFERENCES:SIMDATES:SIMLOC-date_th0.25-doc_th0.7-loc_th0.35
# 2   rel4-1   publications13irisuoft_16   36   0.67004275   nodesDOCUMENT:DATE:LOCATION-edgesREFERENCES:SIMDATES:SIMLOC-date_th0.25-doc_th0.7-loc_th0.35
# 2   rel4-1   historyirelanda00smilgoog_172   37   0.6688751   nodesDOCUMENT:DATE:LOCATION-edgesREFERENCES:SIMDATES:SIMLOC-date_th0.25-doc_th0.7-loc_th0.35
# 2   rel4-1   cu31924091770861_873   38   0.66856164   nodesDOCUMENT:DATE:LOCATION-edgesREFERENCES:SIMDATES:SIMLOC-date_th0.25-doc_th0.7-loc_th0.35
# 2   rel4-1   selectspeecheswi00cannuoft_358   39   0.6665563   nodesDOCUMENT:DATE:LOCATION-edgesREFERENCES:SIMDATES:SIMLOC-date_th0.25-doc_th0.7-loc_th0.35
# 2   rel4-1   historyirishper01maddgoog_67   40   0.6664035   nodesDOCUMENT:DATE:LOCATION-edgesREFERENCES:SIMDATES:SIMLOC-date_th0.25-doc_th0.7-loc_th0.35
