nodestouse,relationships,doc_th,date_th,loc_th,iter,seeds,number of spread. activ. pulses,final number of activated nodes,final overall activation,running time,run-id,map,P5,P10,P20,R-prec,
DOCUMENT:DATE:LOCATION,REFERENCES:SIMDATES:SIMLOC,0.7,0.25,0.35,rel2-2,2,3,221880,37808.3,40841,book_collection_true_dates/location/query2//useDOCUMENT:DATE:LOCATIONuseREFERENCES:SIMDATES:SIMLOC/rel2-2-date_th0.25-doc_th0.7-loc_th0.35.res.clean,0.088,0.400,0.200,0.278,0.000,
DOCUMENT:DATE:LOCATION,REFERENCES:SIMDATES:SIMLOC,0.6,0.3,0.4,rel1-1,1,3,221877,25530.7,21905,book_collection_true_dates/location/query2//useDOCUMENT:DATE:LOCATIONuseREFERENCES:SIMDATES:SIMLOC/rel1-1-date_th0.3-doc_th0.6-loc_th0.4.res.clean,0.069,0.400,0.200,0.200,0.000,
DOCUMENT:DATE:LOCATION,REFERENCES:SIMDATES:SIMLOC,0.6,0.3,0.35,rel4-1,4,3,1518542,214060.6,282598,book_collection_true_dates/location/query2//useDOCUMENT:DATE:LOCATIONuseREFERENCES:SIMDATES:SIMLOC/rel4-1-date_th0.3-doc_th0.6-loc_th0.35.res.clean,0.189,0.800,0.500,0.300,0.000,
DOCUMENT:DATE:LOCATION,REFERENCES:SIMDATES:SIMLOC,0.7,0.25,0.4,rel1-2,1,2,17,3.6,20501,book_collection_true_dates/location/query2//useDOCUMENT:DATE:LOCATIONuseREFERENCES:SIMDATES:SIMLOC/rel1-2-date_th0.25-doc_th0.7-loc_th0.4.res.clean,0.161,0.800,0.500,0.500,0.000,
DOCUMENT:DATE:LOCATION,REFERENCES:SIMDATES:SIMLOC,0.5,0.25,0.35,rel1-1,1,3,221877,25530.7,39117,book_collection_true_dates/location/query2//useDOCUMENT:DATE:LOCATIONuseREFERENCES:SIMDATES:SIMLOC/rel1-1-date_th0.25-doc_th0.5-loc_th0.35.res.clean,0.069,0.400,0.200,0.200,0.000,
DOCUMENT:DATE:LOCATION,REFERENCES:SIMDATES:SIMLOC,0.5,0.25,0.35,rel1-3,1,2,5,2.0,11733,book_collection_true_dates/location/query2//useDOCUMENT:DATE:LOCATIONuseREFERENCES:SIMDATES:SIMLOC/rel1-3-date_th0.25-doc_th0.5-loc_th0.35.res.clean,0.086,0.600,0.300,0.300,0.000,
DOCUMENT:DATE:LOCATION,REFERENCES:SIMDATES:SIMLOC,0.5,0.3,0.4,rel4-1,4,3,1060354,154682.2,429818,book_collection_true_dates/location/query2//useDOCUMENT:DATE:LOCATIONuseREFERENCES:SIMDATES:SIMLOC/rel4-1-date_th0.3-doc_th0.5-loc_th0.4.res.clean,0.321,1.000,0.700,0.550,0.000,
DOCUMENT:DATE:LOCATION,REFERENCES:SIMDATES:SIMLOC,0.7,0.25,0.35,rel2-4,2,3,814590,90581.1,121042,book_collection_true_dates/location/query2//useDOCUMENT:DATE:LOCATIONuseREFERENCES:SIMDATES:SIMLOC/rel2-4-date_th0.25-doc_th0.7-loc_th0.35.res.clean,0.162,0.800,0.400,0.300,0.000,
DOCUMENT:DATE:LOCATION,REFERENCES:SIMDATES:SIMLOC,0.7,0.25,0.35,rel2-1,2,3,819387,96384.9,112099,book_collection_true_dates/location/query2//useDOCUMENT:DATE:LOCATIONuseREFERENCES:SIMDATES:SIMLOC/rel2-1-date_th0.25-doc_th0.7-loc_th0.35.res.clean,0.110,0.600,0.300,0.200,0.000,
DOCUMENT:DATE:LOCATION,REFERENCES:SIMDATES:SIMLOC,0.6,0.25,0.35,rel2-3,2,3,274303,39505.9,51030,book_collection_true_dates/location/query2//useDOCUMENT:DATE:LOCATIONuseREFERENCES:SIMDATES:SIMLOC/rel2-3-date_th0.25-doc_th0.6-loc_th0.35.res.clean,0.089,0.400,0.200,0.294,0.000,
DOCUMENT:DATE:LOCATION,REFERENCES:SIMDATES:SIMLOC,0.7,0.3,0.4,rel2-2,2,3,221880,37808.3,40483,book_collection_true_dates/location/query2//useDOCUMENT:DATE:LOCATIONuseREFERENCES:SIMDATES:SIMLOC/rel2-2-date_th0.3-doc_th0.7-loc_th0.4.res.clean,0.088,0.400,0.200,0.278,0.000,
DOCUMENT:DATE:LOCATION,REFERENCES:SIMDATES:SIMLOC,0.5,0.3,0.4,rel2-5,2,3,264024,30610.2,67909,book_collection_true_dates/location/query2//useDOCUMENT:DATE:LOCATIONuseREFERENCES:SIMDATES:SIMLOC/rel2-5-date_th0.3-doc_th0.5-loc_th0.4.res.clean,0.200,0.800,0.500,0.350,0.000,
DOCUMENT:DATE:LOCATION,REFERENCES:SIMDATES:SIMLOC,0.6,0.3,0.35,rel3-2,3,3,888346,113362.8,130869,book_collection_true_dates/location/query2//useDOCUMENT:DATE:LOCATIONuseREFERENCES:SIMDATES:SIMLOC/rel3-2-date_th0.3-doc_th0.6-loc_th0.35.res.clean,0.148,0.600,0.400,0.300,0.000,
DOCUMENT:DATE:LOCATION,REFERENCES:SIMDATES:SIMLOC,0.7,0.25,0.35,rel3-1,3,3,819416,104656.8,107665,book_collection_true_dates/location/query2//useDOCUMENT:DATE:LOCATIONuseREFERENCES:SIMDATES:SIMLOC/rel3-1-date_th0.25-doc_th0.7-loc_th0.35.res.clean,0.081,0.600,0.300,0.150,0.000,
DOCUMENT:DATE:LOCATION,REFERENCES:SIMDATES:SIMLOC,0.7,0.25,0.35,rel2-5,2,3,879949,96849.2,141556,book_collection_true_dates/location/query2//useDOCUMENT:DATE:LOCATIONuseREFERENCES:SIMDATES:SIMLOC/rel2-5-date_th0.25-doc_th0.7-loc_th0.35.res.clean,0.188,0.800,0.500,0.300,0.000,
DOCUMENT:DATE:LOCATION,REFERENCES:SIMDATES:SIMLOC,0.7,0.25,0.35,rel3-4,3,3,1512074,203915.8,156628,book_collection_true_dates/location/query2//useDOCUMENT:DATE:LOCATIONuseREFERENCES:SIMDATES:SIMLOC/rel3-4-date_th0.25-doc_th0.7-loc_th0.35.res.clean,0.188,0.800,0.500,0.300,0.000,
DOCUMENT:DATE:LOCATION,REFERENCES:SIMDATES:SIMLOC,0.7,0.3,0.35,rel2-3,2,3,264011,38701.1,49338,book_collection_true_dates/location/query2//useDOCUMENT:DATE:LOCATIONuseREFERENCES:SIMDATES:SIMLOC/rel2-3-date_th0.3-doc_th0.7-loc_th0.35.res.clean,0.089,0.400,0.200,0.294,0.000,
DOCUMENT:DATE:LOCATION,REFERENCES:SIMDATES:SIMLOC,0.7,0.25,0.35,rel2-6,2,3,1052129,133011.0,132904,book_collection_true_dates/location/query2//useDOCUMENT:DATE:LOCATIONuseREFERENCES:SIMDATES:SIMLOC/rel2-6-date_th0.25-doc_th0.7-loc_th0.35.res.clean,0.149,0.800,0.400,0.250,0.000,
DOCUMENT:DATE:LOCATION,REFERENCES:SIMDATES:SIMLOC,0.7,0.3,0.35,rel1-1,1,3,221877,25530.7,22091,book_collection_true_dates/location/query2//useDOCUMENT:DATE:LOCATIONuseREFERENCES:SIMDATES:SIMLOC/rel1-1-date_th0.3-doc_th0.7-loc_th0.35.res.clean,0.069,0.400,0.200,0.200,0.000,
DOCUMENT:DATE:LOCATION,REFERENCES:SIMDATES:SIMLOC,0.7,0.3,0.4,rel2-4,2,3,221893,30777.0,57204,book_collection_true_dates/location/query2//useDOCUMENT:DATE:LOCATIONuseREFERENCES:SIMDATES:SIMLOC/rel2-4-date_th0.3-doc_th0.7-loc_th0.4.res.clean,0.161,0.800,0.400,0.300,0.000,
DOCUMENT:DATE:LOCATION,REFERENCES:SIMDATES:SIMLOC,0.6,0.25,0.35,rel1-1,1,3,221877,25530.7,23428,book_collection_true_dates/location/query2//useDOCUMENT:DATE:LOCATIONuseREFERENCES:SIMDATES:SIMLOC/rel1-1-date_th0.25-doc_th0.6-loc_th0.35.res.clean,0.069,0.400,0.200,0.200,0.000,
DOCUMENT:DATE:LOCATION,REFERENCES:SIMDATES:SIMLOC,0.5,0.25,0.4,rel1-1,1,3,221877,25530.7,28408,book_collection_true_dates/location/query2//useDOCUMENT:DATE:LOCATIONuseREFERENCES:SIMDATES:SIMLOC/rel1-1-date_th0.25-doc_th0.5-loc_th0.4.res.clean,0.069,0.400,0.200,0.200,0.000,
DOCUMENT:DATE:LOCATION,REFERENCES:SIMDATES:SIMLOC,0.7,0.25,0.4,rel2-4,2,3,221893,30777.0,55307,book_collection_true_dates/location/query2//useDOCUMENT:DATE:LOCATIONuseREFERENCES:SIMDATES:SIMLOC/rel2-4-date_th0.25-doc_th0.7-loc_th0.4.res.clean,0.161,0.800,0.400,0.300,0.000,
DOCUMENT:DATE:LOCATION,REFERENCES:SIMDATES:SIMLOC,0.7,0.3,0.35,rel3-4,3,3,1512074,203915.8,156320,book_collection_true_dates/location/query2//useDOCUMENT:DATE:LOCATIONuseREFERENCES:SIMDATES:SIMLOC/rel3-4-date_th0.3-doc_th0.7-loc_th0.35.res.clean,0.188,0.800,0.500,0.300,0.000,
DOCUMENT:DATE:LOCATION,REFERENCES:SIMDATES:SIMLOC,0.5,0.3,0.4,rel1-4,1,3,45472,3473.7,19498,book_collection_true_dates/location/query2//useDOCUMENT:DATE:LOCATIONuseREFERENCES:SIMDATES:SIMLOC/rel1-4-date_th0.3-doc_th0.5-loc_th0.4.res.clean,0.107,0.600,0.300,0.300,0.000,
DOCUMENT:DATE:LOCATION,REFERENCES:SIMDATES:SIMLOC,0.7,0.25,0.35,rel4-1,4,3,1518423,214041.0,211902,book_collection_true_dates/location/query2//useDOCUMENT:DATE:LOCATIONuseREFERENCES:SIMDATES:SIMLOC/rel4-1-date_th0.25-doc_th0.7-loc_th0.35.res.clean,0.070,0.400,0.300,0.150,0.000,
DOCUMENT:DATE:LOCATION,REFERENCES:SIMDATES:SIMLOC,0.6,0.25,0.4,rel3-1,3,3,227920,44883.5,57031,book_collection_true_dates/location/query2//useDOCUMENT:DATE:LOCATIONuseREFERENCES:SIMDATES:SIMLOC/rel3-1-date_th0.25-doc_th0.6-loc_th0.4.res.clean,0.111,0.400,0.300,0.300,0.000,
DOCUMENT:DATE:LOCATION,REFERENCES:SIMDATES:SIMLOC,0.5,0.3,0.35,rel3-1,3,3,819435,104660.5,114179,book_collection_true_dates/location/query2//useDOCUMENT:DATE:LOCATIONuseREFERENCES:SIMDATES:SIMLOC/rel3-1-date_th0.3-doc_th0.5-loc_th0.35.res.clean,0.133,0.600,0.400,0.250,0.000,
DOCUMENT:DATE:LOCATION,REFERENCES:SIMDATES:SIMLOC,0.7,0.25,0.4,rel2-6,2,3,1016014,126890.3,127102,book_collection_true_dates/location/query2//useDOCUMENT:DATE:LOCATIONuseREFERENCES:SIMDATES:SIMLOC/rel2-6-date_th0.25-doc_th0.7-loc_th0.4.res.clean,0.149,0.800,0.400,0.250,0.000,
DOCUMENT:DATE:LOCATION,REFERENCES:SIMDATES:SIMLOC,0.5,0.3,0.4,rel3-3,3,3,1016194,141105.7,225828,book_collection_true_dates/location/query2//useDOCUMENT:DATE:LOCATIONuseREFERENCES:SIMDATES:SIMLOC/rel3-3-date_th0.3-doc_th0.5-loc_th0.4.res.clean,0.280,1.000,0.600,0.500,0.000,
DOCUMENT:DATE:LOCATION,REFERENCES:SIMDATES:SIMLOC,0.6,0.3,0.35,rel2-6,2,3,1052129,133011.0,130592,book_collection_true_dates/location/query2//useDOCUMENT:DATE:LOCATIONuseREFERENCES:SIMDATES:SIMLOC/rel2-6-date_th0.3-doc_th0.6-loc_th0.35.res.clean,0.149,0.800,0.400,0.250,0.000,
DOCUMENT:DATE:LOCATION,REFERENCES:SIMDATES:SIMLOC,0.5,0.25,0.4,rel1-4,1,3,45472,3473.7,19469,book_collection_true_dates/location/query2//useDOCUMENT:DATE:LOCATIONuseREFERENCES:SIMDATES:SIMLOC/rel1-4-date_th0.25-doc_th0.5-loc_th0.4.res.clean,0.107,0.600,0.300,0.300,0.000,
DOCUMENT:DATE:LOCATION,REFERENCES:SIMDATES:SIMLOC,0.5,0.25,0.35,rel4-1,4,3,1519549,214304.9,505540,book_collection_true_dates/location/query2//useDOCUMENT:DATE:LOCATIONuseREFERENCES:SIMDATES:SIMLOC/rel4-1-date_th0.25-doc_th0.5-loc_th0.35.res.clean,0.291,1.000,0.700,0.500,0.000,
DOCUMENT:DATE:LOCATION,REFERENCES:SIMDATES:SIMLOC,0.6,0.3,0.35,rel2-3,2,3,264011,38701.1,49141,book_collection_true_dates/location/query2//useDOCUMENT:DATE:LOCATIONuseREFERENCES:SIMDATES:SIMLOC/rel2-3-date_th0.3-doc_th0.6-loc_th0.35.res.clean,0.089,0.400,0.200,0.294,0.000,
DOCUMENT:DATE:LOCATION,REFERENCES:SIMDATES:SIMLOC,0.7,0.3,0.35,rel1-4,1,3,45472,3473.7,19337,book_collection_true_dates/location/query2//useDOCUMENT:DATE:LOCATIONuseREFERENCES:SIMDATES:SIMLOC/rel1-4-date_th0.3-doc_th0.7-loc_th0.35.res.clean,0.107,0.600,0.300,0.300,0.000,
DOCUMENT:DATE:LOCATION,REFERENCES:SIMDATES:SIMLOC,0.5,0.3,0.4,rel3-2,3,3,274440,47257.1,111076,book_collection_true_dates/location/query2//useDOCUMENT:DATE:LOCATIONuseREFERENCES:SIMDATES:SIMLOC/rel3-2-date_th0.3-doc_th0.5-loc_th0.4.res.clean,0.298,1.000,0.600,0.500,0.000,
DOCUMENT:DATE:LOCATION,REFERENCES:SIMDATES:SIMLOC,0.6,0.25,0.35,rel3-4,3,3,1512076,203916.4,157729,book_collection_true_dates/location/query2//useDOCUMENT:DATE:LOCATIONuseREFERENCES:SIMDATES:SIMLOC/rel3-4-date_th0.25-doc_th0.6-loc_th0.35.res.clean,0.188,0.800,0.500,0.300,0.000,
DOCUMENT:DATE:LOCATION,REFERENCES:SIMDATES:SIMLOC,0.7,0.25,0.35,rel3-3,3,3,1059547,147943.3,117993,book_collection_true_dates/location/query2//useDOCUMENT:DATE:LOCATIONuseREFERENCES:SIMDATES:SIMLOC/rel3-3-date_th0.25-doc_th0.7-loc_th0.35.res.clean,0.098,0.600,0.300,0.250,0.000,
DOCUMENT:DATE:LOCATION,REFERENCES:SIMDATES:SIMLOC,0.7,0.25,0.4,rel1-3,1,2,5,2.0,11763,book_collection_true_dates/location/query2//useDOCUMENT:DATE:LOCATIONuseREFERENCES:SIMDATES:SIMLOC/rel1-3-date_th0.25-doc_th0.7-loc_th0.4.res.clean,0.086,0.600,0.300,0.300,0.000,
DOCUMENT:DATE:LOCATION,REFERENCES:SIMDATES:SIMLOC,0.6,0.25,0.4,rel1-4,1,3,45472,3473.7,19538,book_collection_true_dates/location/query2//useDOCUMENT:DATE:LOCATIONuseREFERENCES:SIMDATES:SIMLOC/rel1-4-date_th0.25-doc_th0.6-loc_th0.4.res.clean,0.107,0.600,0.300,0.300,0.000,
DOCUMENT:DATE:LOCATION,REFERENCES:SIMDATES:SIMLOC,0.5,0.25,0.35,rel2-3,2,3,274304,39506.8,51512,book_collection_true_dates/location/query2//useDOCUMENT:DATE:LOCATIONuseREFERENCES:SIMDATES:SIMLOC/rel2-3-date_th0.25-doc_th0.5-loc_th0.35.res.clean,0.121,0.600,0.300,0.278,0.000,
DOCUMENT:DATE:LOCATION,REFERENCES:SIMDATES:SIMLOC,0.7,0.25,0.4,rel2-3,2,3,274303,39505.9,50276,book_collection_true_dates/location/query2//useDOCUMENT:DATE:LOCATIONuseREFERENCES:SIMDATES:SIMLOC/rel2-3-date_th0.25-doc_th0.7-loc_th0.4.res.clean,0.089,0.400,0.200,0.294,0.000,
DOCUMENT:DATE:LOCATION,REFERENCES:SIMDATES:SIMLOC,0.6,0.3,0.4,rel4-1,4,3,1059626,154538.3,208209,book_collection_true_dates/location/query2//useDOCUMENT:DATE:LOCATIONuseREFERENCES:SIMDATES:SIMLOC/rel4-1-date_th0.3-doc_th0.6-loc_th0.4.res.clean,0.278,1.000,0.700,0.450,0.000,
DOCUMENT:DATE:LOCATION,REFERENCES:SIMDATES:SIMLOC,0.5,0.3,0.4,rel2-6,2,3,1016014,126890.3,126312,book_collection_true_dates/location/query2//useDOCUMENT:DATE:LOCATIONuseREFERENCES:SIMDATES:SIMLOC/rel2-6-date_th0.3-doc_th0.5-loc_th0.4.res.clean,0.149,0.800,0.400,0.250,0.000,
DOCUMENT:DATE:LOCATION,REFERENCES:SIMDATES:SIMLOC,0.7,0.25,0.4,rel3-2,3,3,274315,47234.3,62983,book_collection_true_dates/location/query2//useDOCUMENT:DATE:LOCATIONuseREFERENCES:SIMDATES:SIMLOC/rel3-2-date_th0.25-doc_th0.7-loc_th0.4.res.clean,0.165,0.800,0.400,0.350,0.000,
DOCUMENT:DATE:LOCATION,REFERENCES:SIMDATES:SIMLOC,0.6,0.3,0.4,rel3-4,3,3,1052144,144376.9,127148,book_collection_true_dates/location/query2//useDOCUMENT:DATE:LOCATIONuseREFERENCES:SIMDATES:SIMLOC/rel3-4-date_th0.3-doc_th0.6-loc_th0.4.res.clean,0.188,0.800,0.500,0.300,0.000,
DOCUMENT:DATE:LOCATION,REFERENCES:SIMDATES:SIMLOC,0.6,0.3,0.4,rel2-5,2,3,264024,30610.2,71055,book_collection_true_dates/location/query2//useDOCUMENT:DATE:LOCATIONuseREFERENCES:SIMDATES:SIMLOC/rel2-5-date_th0.3-doc_th0.6-loc_th0.4.res.clean,0.200,0.800,0.500,0.350,0.000,
DOCUMENT:DATE:LOCATION,REFERENCES:SIMDATES:SIMLOC,0.6,0.25,0.35,rel2-4,2,3,814590,90581.1,128086,book_collection_true_dates/location/query2//useDOCUMENT:DATE:LOCATIONuseREFERENCES:SIMDATES:SIMLOC/rel2-4-date_th0.25-doc_th0.6-loc_th0.35.res.clean,0.162,0.800,0.400,0.300,0.000,
DOCUMENT:DATE:LOCATION,REFERENCES:SIMDATES:SIMLOC,0.5,0.3,0.4,rel1-1,1,3,221877,25530.7,22294,book_collection_true_dates/location/query2//useDOCUMENT:DATE:LOCATIONuseREFERENCES:SIMDATES:SIMLOC/rel1-1-date_th0.3-doc_th0.5-loc_th0.4.res.clean,0.069,0.400,0.200,0.200,0.000,
DOCUMENT:DATE:LOCATION,REFERENCES:SIMDATES:SIMLOC,0.6,0.25,0.35,rel3-3,3,3,1059569,147946.8,132905,book_collection_true_dates/location/query2//useDOCUMENT:DATE:LOCATIONuseREFERENCES:SIMDATES:SIMLOC/rel3-3-date_th0.25-doc_th0.6-loc_th0.35.res.clean,0.161,0.800,0.500,0.250,0.000,
DOCUMENT:DATE:LOCATION,REFERENCES:SIMDATES:SIMLOC,0.5,0.25,0.35,rel3-1,3,3,819435,104660.5,144965,book_collection_true_dates/location/query2//useDOCUMENT:DATE:LOCATIONuseREFERENCES:SIMDATES:SIMLOC/rel3-1-date_th0.25-doc_th0.5-loc_th0.35.res.clean,0.133,0.600,0.400,0.250,0.000,
DOCUMENT:DATE:LOCATION,REFERENCES:SIMDATES:SIMLOC,0.6,0.25,0.4,rel2-5,2,3,264024,30610.2,66040,book_collection_true_dates/location/query2//useDOCUMENT:DATE:LOCATIONuseREFERENCES:SIMDATES:SIMLOC/rel2-5-date_th0.25-doc_th0.6-loc_th0.4.res.clean,0.200,0.800,0.500,0.350,0.000,
DOCUMENT:DATE:LOCATION,REFERENCES:SIMDATES:SIMLOC,0.6,0.3,0.4,rel3-3,3,3,1016031,141078.4,128840,book_collection_true_dates/location/query2//useDOCUMENT:DATE:LOCATIONuseREFERENCES:SIMDATES:SIMLOC/rel3-3-date_th0.3-doc_th0.6-loc_th0.4.res.clean,0.149,0.800,0.400,0.250,0.000,
DOCUMENT:DATE:LOCATION,REFERENCES:SIMDATES:SIMLOC,0.7,0.3,0.4,rel1-4,1,3,45472,3473.7,19468,book_collection_true_dates/location/query2//useDOCUMENT:DATE:LOCATIONuseREFERENCES:SIMDATES:SIMLOC/rel1-4-date_th0.3-doc_th0.7-loc_th0.4.res.clean,0.107,0.600,0.300,0.300,0.000,
DOCUMENT:DATE:LOCATION,REFERENCES:SIMDATES:SIMLOC,0.5,0.25,0.4,rel3-2,3,3,274440,47257.1,114432,book_collection_true_dates/location/query2//useDOCUMENT:DATE:LOCATIONuseREFERENCES:SIMDATES:SIMLOC/rel3-2-date_th0.25-doc_th0.5-loc_th0.4.res.clean,0.298,1.000,0.600,0.500,0.000,
DOCUMENT:DATE:LOCATION,REFERENCES:SIMDATES:SIMLOC,0.5,0.3,0.4,rel1-3,1,2,5,2.0,11875,book_collection_true_dates/location/query2//useDOCUMENT:DATE:LOCATIONuseREFERENCES:SIMDATES:SIMLOC/rel1-3-date_th0.3-doc_th0.5-loc_th0.4.res.clean,0.086,0.600,0.300,0.300,0.000,
DOCUMENT:DATE:LOCATION,REFERENCES:SIMDATES:SIMLOC,0.5,0.3,0.35,rel3-2,3,3,888617,113405.6,227085,book_collection_true_dates/location/query2//useDOCUMENT:DATE:LOCATIONuseREFERENCES:SIMDATES:SIMLOC/rel3-2-date_th0.3-doc_th0.5-loc_th0.35.res.clean,0.291,1.000,0.800,0.450,0.000,
DOCUMENT:DATE:LOCATION,REFERENCES:SIMDATES:SIMLOC,0.5,0.3,0.35,rel2-5,2,3,879950,96850.3,131437,book_collection_true_dates/location/query2//useDOCUMENT:DATE:LOCATIONuseREFERENCES:SIMDATES:SIMLOC/rel2-5-date_th0.3-doc_th0.5-loc_th0.35.res.clean,0.188,0.800,0.500,0.300,0.000,
DOCUMENT:DATE:LOCATION,REFERENCES:SIMDATES:SIMLOC,0.5,0.25,0.4,rel2-6,2,3,1016014,126890.3,125081,book_collection_true_dates/location/query2//useDOCUMENT:DATE:LOCATIONuseREFERENCES:SIMDATES:SIMLOC/rel2-6-date_th0.25-doc_th0.5-loc_th0.4.res.clean,0.149,0.800,0.400,0.250,0.000,
DOCUMENT:DATE:LOCATION,REFERENCES:SIMDATES:SIMLOC,0.7,0.3,0.4,rel2-1,2,3,227918,36597.8,45964,book_collection_true_dates/location/query2//useDOCUMENT:DATE:LOCATIONuseREFERENCES:SIMDATES:SIMLOC/rel2-1-date_th0.3-doc_th0.7-loc_th0.4.res.clean,0.131,0.600,0.300,0.300,0.000,
DOCUMENT:DATE:LOCATION,REFERENCES:SIMDATES:SIMLOC,0.5,0.3,0.4,rel2-1,2,3,227918,36597.8,45259,book_collection_true_dates/location/query2//useDOCUMENT:DATE:LOCATIONuseREFERENCES:SIMDATES:SIMLOC/rel2-1-date_th0.3-doc_th0.5-loc_th0.4.res.clean,0.131,0.600,0.300,0.300,0.000,
DOCUMENT:DATE:LOCATION,REFERENCES:SIMDATES:SIMLOC,0.7,0.3,0.4,rel3-4,3,3,1052142,144376.2,126991,book_collection_true_dates/location/query2//useDOCUMENT:DATE:LOCATIONuseREFERENCES:SIMDATES:SIMLOC/rel3-4-date_th0.3-doc_th0.7-loc_th0.4.res.clean,0.188,0.800,0.500,0.300,0.000,
DOCUMENT:DATE:LOCATION,REFERENCES:SIMDATES:SIMLOC,0.7,0.3,0.4,rel2-3,2,3,264011,38701.1,49453,book_collection_true_dates/location/query2//useDOCUMENT:DATE:LOCATIONuseREFERENCES:SIMDATES:SIMLOC/rel2-3-date_th0.3-doc_th0.7-loc_th0.4.res.clean,0.089,0.400,0.200,0.294,0.000,
DOCUMENT:DATE:LOCATION,REFERENCES:SIMDATES:SIMLOC,0.6,0.25,0.35,rel2-2,2,3,221880,37808.3,40580,book_collection_true_dates/location/query2//useDOCUMENT:DATE:LOCATIONuseREFERENCES:SIMDATES:SIMLOC/rel2-2-date_th0.25-doc_th0.6-loc_th0.35.res.clean,0.088,0.400,0.200,0.278,0.000,
DOCUMENT:DATE:LOCATION,REFERENCES:SIMDATES:SIMLOC,0.5,0.25,0.35,rel1-4,1,3,45472,3473.7,20046,book_collection_true_dates/location/query2//useDOCUMENT:DATE:LOCATIONuseREFERENCES:SIMDATES:SIMLOC/rel1-4-date_th0.25-doc_th0.5-loc_th0.35.res.clean,0.107,0.600,0.300,0.300,0.000,
DOCUMENT:DATE:LOCATION,REFERENCES:SIMDATES:SIMLOC,0.7,0.25,0.35,rel2-3,2,3,274303,39505.9,50570,book_collection_true_dates/location/query2//useDOCUMENT:DATE:LOCATIONuseREFERENCES:SIMDATES:SIMLOC/rel2-3-date_th0.25-doc_th0.7-loc_th0.35.res.clean,0.089,0.400,0.200,0.294,0.000,
DOCUMENT:DATE:LOCATION,REFERENCES:SIMDATES:SIMLOC,0.7,0.25,0.4,rel3-4,3,3,1052142,144376.2,120559,book_collection_true_dates/location/query2//useDOCUMENT:DATE:LOCATIONuseREFERENCES:SIMDATES:SIMLOC/rel3-4-date_th0.25-doc_th0.7-loc_th0.4.res.clean,0.188,0.800,0.500,0.300,0.000,
DOCUMENT:DATE:LOCATION,REFERENCES:SIMDATES:SIMLOC,0.5,0.25,0.4,rel2-3,2,3,274304,39506.8,51825,book_collection_true_dates/location/query2//useDOCUMENT:DATE:LOCATIONuseREFERENCES:SIMDATES:SIMLOC/rel2-3-date_th0.25-doc_th0.5-loc_th0.4.res.clean,0.121,0.600,0.300,0.278,0.000,
DOCUMENT:DATE:LOCATION,REFERENCES:SIMDATES:SIMLOC,0.6,0.25,0.4,rel1-2,1,2,17,3.6,15208,book_collection_true_dates/location/query2//useDOCUMENT:DATE:LOCATIONuseREFERENCES:SIMDATES:SIMLOC/rel1-2-date_th0.25-doc_th0.6-loc_th0.4.res.clean,0.161,0.800,0.500,0.500,0.000,
DOCUMENT:DATE:LOCATION,REFERENCES:SIMDATES:SIMLOC,0.7,0.3,0.4,rel2-6,2,3,1016014,126890.3,131604,book_collection_true_dates/location/query2//useDOCUMENT:DATE:LOCATIONuseREFERENCES:SIMDATES:SIMLOC/rel2-6-date_th0.3-doc_th0.7-loc_th0.4.res.clean,0.149,0.800,0.400,0.250,0.000,
DOCUMENT:DATE:LOCATION,REFERENCES:SIMDATES:SIMLOC,0.6,0.25,0.4,rel3-3,3,3,1023517,141877.2,127109,book_collection_true_dates/location/query2//useDOCUMENT:DATE:LOCATIONuseREFERENCES:SIMDATES:SIMLOC/rel3-3-date_th0.25-doc_th0.6-loc_th0.4.res.clean,0.149,0.800,0.400,0.250,0.000,
DOCUMENT:DATE:LOCATION,REFERENCES:SIMDATES:SIMLOC,0.6,0.25,0.35,rel3-1,3,3,819416,104656.8,112272,book_collection_true_dates/location/query2//useDOCUMENT:DATE:LOCATIONuseREFERENCES:SIMDATES:SIMLOC/rel3-1-date_th0.25-doc_th0.6-loc_th0.35.res.clean,0.081,0.600,0.300,0.150,0.000,
DOCUMENT:DATE:LOCATION,REFERENCES:SIMDATES:SIMLOC,0.7,0.25,0.35,rel1-2,1,3,627190,59858.3,69930,book_collection_true_dates/location/query2//useDOCUMENT:DATE:LOCATIONuseREFERENCES:SIMDATES:SIMLOC/rel1-2-date_th0.25-doc_th0.7-loc_th0.35.res.clean,0.098,0.400,0.200,0.263,0.000,
DOCUMENT:DATE:LOCATION,REFERENCES:SIMDATES:SIMLOC,0.7,0.25,0.4,rel2-2,2,3,221880,37808.3,40695,book_collection_true_dates/location/query2//useDOCUMENT:DATE:LOCATIONuseREFERENCES:SIMDATES:SIMLOC/rel2-2-date_th0.25-doc_th0.7-loc_th0.4.res.clean,0.088,0.400,0.200,0.278,0.000,
DOCUMENT:DATE:LOCATION,REFERENCES:SIMDATES:SIMLOC,0.6,0.3,0.4,rel2-3,2,3,264011,38701.1,49021,book_collection_true_dates/location/query2//useDOCUMENT:DATE:LOCATIONuseREFERENCES:SIMDATES:SIMLOC/rel2-3-date_th0.3-doc_th0.6-loc_th0.4.res.clean,0.089,0.400,0.200,0.294,0.000,
DOCUMENT:DATE:LOCATION,REFERENCES:SIMDATES:SIMLOC,0.7,0.3,0.4,rel2-5,2,3,264024,30610.2,67155,book_collection_true_dates/location/query2//useDOCUMENT:DATE:LOCATIONuseREFERENCES:SIMDATES:SIMLOC/rel2-5-date_th0.3-doc_th0.7-loc_th0.4.res.clean,0.200,0.800,0.500,0.350,0.000,
DOCUMENT:DATE:LOCATION,REFERENCES:SIMDATES:SIMLOC,0.5,0.3,0.35,rel1-4,1,3,45472,3473.7,19869,book_collection_true_dates/location/query2//useDOCUMENT:DATE:LOCATIONuseREFERENCES:SIMDATES:SIMLOC/rel1-4-date_th0.3-doc_th0.5-loc_th0.35.res.clean,0.107,0.600,0.300,0.300,0.000,
DOCUMENT:DATE:LOCATION,REFERENCES:SIMDATES:SIMLOC,0.7,0.25,0.35,rel1-3,1,2,5,2.0,11479,book_collection_true_dates/location/query2//useDOCUMENT:DATE:LOCATIONuseREFERENCES:SIMDATES:SIMLOC/rel1-3-date_th0.25-doc_th0.7-loc_th0.35.res.clean,0.086,0.600,0.300,0.300,0.000,
DOCUMENT:DATE:LOCATION,REFERENCES:SIMDATES:SIMLOC,0.5,0.3,0.4,rel1-2,1,2,17,3.6,14970,book_collection_true_dates/location/query2//useDOCUMENT:DATE:LOCATIONuseREFERENCES:SIMDATES:SIMLOC/rel1-2-date_th0.3-doc_th0.5-loc_th0.4.res.clean,0.161,0.800,0.500,0.500,0.000,
DOCUMENT:DATE:LOCATION,REFERENCES:SIMDATES:SIMLOC,0.7,0.3,0.35,rel3-1,3,3,819416,104656.8,105258,book_collection_true_dates/location/query2//useDOCUMENT:DATE:LOCATIONuseREFERENCES:SIMDATES:SIMLOC/rel3-1-date_th0.3-doc_th0.7-loc_th0.35.res.clean,0.081,0.600,0.300,0.150,0.000,
DOCUMENT:DATE:LOCATION,REFERENCES:SIMDATES:SIMLOC,0.7,0.25,0.35,rel3-2,3,3,888340,113360.7,122086,book_collection_true_dates/location/query2//useDOCUMENT:DATE:LOCATIONuseREFERENCES:SIMDATES:SIMLOC/rel3-2-date_th0.25-doc_th0.7-loc_th0.35.res.clean,0.089,0.200,0.200,0.300,0.000,
DOCUMENT:DATE:LOCATION,REFERENCES:SIMDATES:SIMLOC,0.5,0.3,0.4,rel3-4,3,3,1052250,144395.3,170445,book_collection_true_dates/location/query2//useDOCUMENT:DATE:LOCATIONuseREFERENCES:SIMDATES:SIMLOC/rel3-4-date_th0.3-doc_th0.5-loc_th0.4.res.clean,0.302,1.000,0.800,0.450,0.000,
DOCUMENT:DATE:LOCATION,REFERENCES:SIMDATES:SIMLOC,0.6,0.25,0.4,rel2-4,2,3,221893,30777.0,56450,book_collection_true_dates/location/query2//useDOCUMENT:DATE:LOCATIONuseREFERENCES:SIMDATES:SIMLOC/rel2-4-date_th0.25-doc_th0.6-loc_th0.4.res.clean,0.161,0.800,0.400,0.300,0.000,
DOCUMENT:DATE:LOCATION,REFERENCES:SIMDATES:SIMLOC,0.5,0.3,0.35,rel2-2,2,3,221880,37808.3,40141,book_collection_true_dates/location/query2//useDOCUMENT:DATE:LOCATIONuseREFERENCES:SIMDATES:SIMLOC/rel2-2-date_th0.3-doc_th0.5-loc_th0.35.res.clean,0.088,0.400,0.200,0.278,0.000,
DOCUMENT:DATE:LOCATION,REFERENCES:SIMDATES:SIMLOC,0.5,0.3,0.35,rel2-1,2,3,819387,96385.9,108561,book_collection_true_dates/location/query2//useDOCUMENT:DATE:LOCATIONuseREFERENCES:SIMDATES:SIMLOC/rel2-1-date_th0.3-doc_th0.5-loc_th0.35.res.clean,0.110,0.600,0.300,0.200,0.000,
DOCUMENT:DATE:LOCATION,REFERENCES:SIMDATES:SIMLOC,0.7,0.3,0.4,rel3-1,3,3,227920,44883.5,49556,book_collection_true_dates/location/query2//useDOCUMENT:DATE:LOCATIONuseREFERENCES:SIMDATES:SIMLOC/rel3-1-date_th0.3-doc_th0.7-loc_th0.4.res.clean,0.111,0.400,0.300,0.300,0.000,
DOCUMENT:DATE:LOCATION,REFERENCES:SIMDATES:SIMLOC,0.6,0.3,0.35,rel2-2,2,3,221880,37808.3,40480,book_collection_true_dates/location/query2//useDOCUMENT:DATE:LOCATIONuseREFERENCES:SIMDATES:SIMLOC/rel2-2-date_th0.3-doc_th0.6-loc_th0.35.res.clean,0.088,0.400,0.200,0.278,0.000,
DOCUMENT:DATE:LOCATION,REFERENCES:SIMDATES:SIMLOC,0.7,0.3,0.4,rel1-2,1,2,17,3.6,14856,book_collection_true_dates/location/query2//useDOCUMENT:DATE:LOCATIONuseREFERENCES:SIMDATES:SIMLOC/rel1-2-date_th0.3-doc_th0.7-loc_th0.4.res.clean,0.161,0.800,0.500,0.500,0.000,
DOCUMENT:DATE:LOCATION,REFERENCES:SIMDATES:SIMLOC,0.6,0.3,0.35,rel2-4,2,3,814590,90581.1,126587,book_collection_true_dates/location/query2//useDOCUMENT:DATE:LOCATIONuseREFERENCES:SIMDATES:SIMLOC/rel2-4-date_th0.3-doc_th0.6-loc_th0.35.res.clean,0.162,0.800,0.400,0.300,0.000,
DOCUMENT:DATE:LOCATION,REFERENCES:SIMDATES:SIMLOC,0.5,0.25,0.35,rel3-2,3,3,888617,113405.6,239357,book_collection_true_dates/location/query2//useDOCUMENT:DATE:LOCATIONuseREFERENCES:SIMDATES:SIMLOC/rel3-2-date_th0.25-doc_th0.5-loc_th0.35.res.clean,0.291,1.000,0.800,0.450,0.000,
DOCUMENT:DATE:LOCATION,REFERENCES:SIMDATES:SIMLOC,0.6,0.3,0.35,rel1-2,1,3,627190,59858.3,69107,book_collection_true_dates/location/query2//useDOCUMENT:DATE:LOCATIONuseREFERENCES:SIMDATES:SIMLOC/rel1-2-date_th0.3-doc_th0.6-loc_th0.35.res.clean,0.098,0.400,0.200,0.263,0.000,
DOCUMENT:DATE:LOCATION,REFERENCES:SIMDATES:SIMLOC,0.6,0.3,0.35,rel3-3,3,3,1052167,147148.4,129291,book_collection_true_dates/location/query2//useDOCUMENT:DATE:LOCATIONuseREFERENCES:SIMDATES:SIMLOC/rel3-3-date_th0.3-doc_th0.6-loc_th0.35.res.clean,0.161,0.800,0.500,0.250,0.000,
DOCUMENT:DATE:LOCATION,REFERENCES:SIMDATES:SIMLOC,0.6,0.3,0.4,rel3-2,3,3,274315,47234.7,59162,book_collection_true_dates/location/query2//useDOCUMENT:DATE:LOCATIONuseREFERENCES:SIMDATES:SIMLOC/rel3-2-date_th0.3-doc_th0.6-loc_th0.4.res.clean,0.165,0.800,0.400,0.350,0.000,
DOCUMENT:DATE:LOCATION,REFERENCES:SIMDATES:SIMLOC,0.6,0.3,0.4,rel1-3,1,2,5,2.0,11699,book_collection_true_dates/location/query2//useDOCUMENT:DATE:LOCATIONuseREFERENCES:SIMDATES:SIMLOC/rel1-3-date_th0.3-doc_th0.6-loc_th0.4.res.clean,0.086,0.600,0.300,0.300,0.000,
DOCUMENT:DATE:LOCATION,REFERENCES:SIMDATES:SIMLOC,0.6,0.3,0.35,rel1-1,1,3,221877,25530.7,22791,book_collection_true_dates/location/query2//useDOCUMENT:DATE:LOCATIONuseREFERENCES:SIMDATES:SIMLOC/rel1-1-date_th0.3-doc_th0.6-loc_th0.35.res.clean,0.069,0.400,0.200,0.200,0.000,
DOCUMENT:DATE:LOCATION,REFERENCES:SIMDATES:SIMLOC,0.6,0.3,0.4,rel2-2,2,3,221880,37808.3,40021,book_collection_true_dates/location/query2//useDOCUMENT:DATE:LOCATIONuseREFERENCES:SIMDATES:SIMLOC/rel2-2-date_th0.3-doc_th0.6-loc_th0.4.res.clean,0.088,0.400,0.200,0.278,0.000,
DOCUMENT:DATE:LOCATION,REFERENCES:SIMDATES:SIMLOC,0.7,0.3,0.35,rel4-1,4,3,1518423,214041.0,212769,book_collection_true_dates/location/query2//useDOCUMENT:DATE:LOCATIONuseREFERENCES:SIMDATES:SIMLOC/rel4-1-date_th0.3-doc_th0.7-loc_th0.35.res.clean,0.070,0.400,0.300,0.150,0.000,
DOCUMENT:DATE:LOCATION,REFERENCES:SIMDATES:SIMLOC,0.7,0.3,0.35,rel1-2,1,3,627190,59858.3,69340,book_collection_true_dates/location/query2//useDOCUMENT:DATE:LOCATIONuseREFERENCES:SIMDATES:SIMLOC/rel1-2-date_th0.3-doc_th0.7-loc_th0.35.res.clean,0.098,0.400,0.200,0.263,0.000,
DOCUMENT:DATE:LOCATION,REFERENCES:SIMDATES:SIMLOC,0.6,0.25,0.4,rel1-3,1,2,5,2.0,11531,book_collection_true_dates/location/query2//useDOCUMENT:DATE:LOCATIONuseREFERENCES:SIMDATES:SIMLOC/rel1-3-date_th0.25-doc_th0.6-loc_th0.4.res.clean,0.086,0.600,0.300,0.300,0.000,
DOCUMENT:DATE:LOCATION,REFERENCES:SIMDATES:SIMLOC,0.5,0.25,0.4,rel1-2,1,2,17,3.6,15024,book_collection_true_dates/location/query2//useDOCUMENT:DATE:LOCATIONuseREFERENCES:SIMDATES:SIMLOC/rel1-2-date_th0.25-doc_th0.5-loc_th0.4.res.clean,0.161,0.800,0.500,0.500,0.000,
DOCUMENT:DATE:LOCATION,REFERENCES:SIMDATES:SIMLOC,0.7,0.3,0.4,rel3-3,3,3,1016014,141075.6,102839,book_collection_true_dates/location/query2//useDOCUMENT:DATE:LOCATIONuseREFERENCES:SIMDATES:SIMLOC/rel3-3-date_th0.3-doc_th0.7-loc_th0.4.res.clean,0.149,0.800,0.400,0.250,0.000,
DOCUMENT:DATE:LOCATION,REFERENCES:SIMDATES:SIMLOC,0.5,0.25,0.4,rel3-4,3,3,1052250,144395.3,171827,book_collection_true_dates/location/query2//useDOCUMENT:DATE:LOCATIONuseREFERENCES:SIMDATES:SIMLOC/rel3-4-date_th0.25-doc_th0.5-loc_th0.4.res.clean,0.302,1.000,0.800,0.450,0.000,
DOCUMENT:DATE:LOCATION,REFERENCES:SIMDATES:SIMLOC,0.6,0.3,0.35,rel3-4,3,3,1512076,203916.4,164880,book_collection_true_dates/location/query2//useDOCUMENT:DATE:LOCATIONuseREFERENCES:SIMDATES:SIMLOC/rel3-4-date_th0.3-doc_th0.6-loc_th0.35.res.clean,0.188,0.800,0.500,0.300,0.000,
DOCUMENT:DATE:LOCATION,REFERENCES:SIMDATES:SIMLOC,0.6,0.3,0.35,rel1-3,1,2,5,2.0,11709,book_collection_true_dates/location/query2//useDOCUMENT:DATE:LOCATIONuseREFERENCES:SIMDATES:SIMLOC/rel1-3-date_th0.3-doc_th0.6-loc_th0.35.res.clean,0.086,0.600,0.300,0.300,0.000,
DOCUMENT:DATE:LOCATION,REFERENCES:SIMDATES:SIMLOC,0.7,0.3,0.4,rel1-1,1,3,221877,25530.7,21868,book_collection_true_dates/location/query2//useDOCUMENT:DATE:LOCATIONuseREFERENCES:SIMDATES:SIMLOC/rel1-1-date_th0.3-doc_th0.7-loc_th0.4.res.clean,0.069,0.400,0.200,0.200,0.000,
DOCUMENT:DATE:LOCATION,REFERENCES:SIMDATES:SIMLOC,0.7,0.3,0.35,rel2-4,2,3,814590,90581.1,122201,book_collection_true_dates/location/query2//useDOCUMENT:DATE:LOCATIONuseREFERENCES:SIMDATES:SIMLOC/rel2-4-date_th0.3-doc_th0.7-loc_th0.35.res.clean,0.162,0.800,0.400,0.300,0.000,
DOCUMENT:DATE:LOCATION,REFERENCES:SIMDATES:SIMLOC,0.5,0.25,0.35,rel2-6,2,3,1052129,133011.0,129015,book_collection_true_dates/location/query2//useDOCUMENT:DATE:LOCATIONuseREFERENCES:SIMDATES:SIMLOC/rel2-6-date_th0.25-doc_th0.5-loc_th0.35.res.clean,0.149,0.800,0.400,0.250,0.000,
DOCUMENT:DATE:LOCATION,REFERENCES:SIMDATES:SIMLOC,0.7,0.3,0.4,rel3-2,3,3,274315,47234.3,64292,book_collection_true_dates/location/query2//useDOCUMENT:DATE:LOCATIONuseREFERENCES:SIMDATES:SIMLOC/rel3-2-date_th0.3-doc_th0.7-loc_th0.4.res.clean,0.165,0.800,0.400,0.350,0.000,
DOCUMENT:DATE:LOCATION,REFERENCES:SIMDATES:SIMLOC,0.6,0.25,0.4,rel2-6,2,3,1016014,126890.3,125716,book_collection_true_dates/location/query2//useDOCUMENT:DATE:LOCATIONuseREFERENCES:SIMDATES:SIMLOC/rel2-6-date_th0.25-doc_th0.6-loc_th0.4.res.clean,0.149,0.800,0.400,0.250,0.000,
DOCUMENT:DATE:LOCATION,REFERENCES:SIMDATES:SIMLOC,0.5,0.25,0.4,rel2-5,2,3,264024,30610.2,69676,book_collection_true_dates/location/query2//useDOCUMENT:DATE:LOCATIONuseREFERENCES:SIMDATES:SIMLOC/rel2-5-date_th0.25-doc_th0.5-loc_th0.4.res.clean,0.200,0.800,0.500,0.350,0.000,
DOCUMENT:DATE:LOCATION,REFERENCES:SIMDATES:SIMLOC,0.7,0.25,0.4,rel2-5,2,3,264024,30610.2,65162,book_collection_true_dates/location/query2//useDOCUMENT:DATE:LOCATIONuseREFERENCES:SIMDATES:SIMLOC/rel2-5-date_th0.25-doc_th0.7-loc_th0.4.res.clean,0.200,0.800,0.500,0.350,0.000,
DOCUMENT:DATE:LOCATION,REFERENCES:SIMDATES:SIMLOC,0.7,0.25,0.4,rel4-1,4,3,1059547,154524.0,160683,book_collection_true_dates/location/query2//useDOCUMENT:DATE:LOCATIONuseREFERENCES:SIMDATES:SIMLOC/rel4-1-date_th0.25-doc_th0.7-loc_th0.4.res.clean,0.122,0.400,0.300,0.300,0.000,
DOCUMENT:DATE:LOCATION,REFERENCES:SIMDATES:SIMLOC,0.5,0.25,0.4,rel3-3,3,3,1023680,141904.6,217580,book_collection_true_dates/location/query2//useDOCUMENT:DATE:LOCATIONuseREFERENCES:SIMDATES:SIMLOC/rel3-3-date_th0.25-doc_th0.5-loc_th0.4.res.clean,0.280,1.000,0.600,0.500,0.000,
DOCUMENT:DATE:LOCATION,REFERENCES:SIMDATES:SIMLOC,0.7,0.25,0.35,rel1-4,1,3,45472,3473.7,19544,book_collection_true_dates/location/query2//useDOCUMENT:DATE:LOCATIONuseREFERENCES:SIMDATES:SIMLOC/rel1-4-date_th0.25-doc_th0.7-loc_th0.35.res.clean,0.107,0.600,0.300,0.300,0.000,
DOCUMENT:DATE:LOCATION,REFERENCES:SIMDATES:SIMLOC,0.5,0.3,0.35,rel1-2,1,3,627190,59858.3,70363,book_collection_true_dates/location/query2//useDOCUMENT:DATE:LOCATIONuseREFERENCES:SIMDATES:SIMLOC/rel1-2-date_th0.3-doc_th0.5-loc_th0.35.res.clean,0.098,0.400,0.200,0.263,0.000,
DOCUMENT:DATE:LOCATION,REFERENCES:SIMDATES:SIMLOC,0.7,0.3,0.35,rel2-5,2,3,879949,96849.2,130216,book_collection_true_dates/location/query2//useDOCUMENT:DATE:LOCATIONuseREFERENCES:SIMDATES:SIMLOC/rel2-5-date_th0.3-doc_th0.7-loc_th0.35.res.clean,0.188,0.800,0.500,0.300,0.000,
DOCUMENT:DATE:LOCATION,REFERENCES:SIMDATES:SIMLOC,0.6,0.3,0.4,rel2-4,2,3,221893,30777.0,63271,book_collection_true_dates/location/query2//useDOCUMENT:DATE:LOCATIONuseREFERENCES:SIMDATES:SIMLOC/rel2-4-date_th0.3-doc_th0.6-loc_th0.4.res.clean,0.161,0.800,0.400,0.300,0.000,
DOCUMENT:DATE:LOCATION,REFERENCES:SIMDATES:SIMLOC,0.6,0.25,0.4,rel3-4,3,3,1052144,144376.9,119646,book_collection_true_dates/location/query2//useDOCUMENT:DATE:LOCATIONuseREFERENCES:SIMDATES:SIMLOC/rel3-4-date_th0.25-doc_th0.6-loc_th0.4.res.clean,0.188,0.800,0.500,0.300,0.000,
DOCUMENT:DATE:LOCATION,REFERENCES:SIMDATES:SIMLOC,0.7,0.3,0.35,rel3-2,3,3,888340,113360.7,117599,book_collection_true_dates/location/query2//useDOCUMENT:DATE:LOCATIONuseREFERENCES:SIMDATES:SIMLOC/rel3-2-date_th0.3-doc_th0.7-loc_th0.35.res.clean,0.089,0.200,0.200,0.300,0.000,
DOCUMENT:DATE:LOCATION,REFERENCES:SIMDATES:SIMLOC,0.5,0.25,0.35,rel2-4,2,3,814590,90581.1,116925,book_collection_true_dates/location/query2//useDOCUMENT:DATE:LOCATIONuseREFERENCES:SIMDATES:SIMLOC/rel2-4-date_th0.25-doc_th0.5-loc_th0.35.res.clean,0.162,0.800,0.400,0.300,0.000,
DOCUMENT:DATE:LOCATION,REFERENCES:SIMDATES:SIMLOC,0.6,0.25,0.35,rel4-1,4,3,1518542,214060.6,293843,book_collection_true_dates/location/query2//useDOCUMENT:DATE:LOCATIONuseREFERENCES:SIMDATES:SIMLOC/rel4-1-date_th0.25-doc_th0.6-loc_th0.35.res.clean,0.189,0.800,0.500,0.300,0.000,
DOCUMENT:DATE:LOCATION,REFERENCES:SIMDATES:SIMLOC,0.6,0.3,0.4,rel1-4,1,3,45472,3473.7,19705,book_collection_true_dates/location/query2//useDOCUMENT:DATE:LOCATIONuseREFERENCES:SIMDATES:SIMLOC/rel1-4-date_th0.3-doc_th0.6-loc_th0.4.res.clean,0.107,0.600,0.300,0.300,0.000,
DOCUMENT:DATE:LOCATION,REFERENCES:SIMDATES:SIMLOC,0.6,0.25,0.4,rel2-1,2,3,227918,36597.8,51341,book_collection_true_dates/location/query2//useDOCUMENT:DATE:LOCATIONuseREFERENCES:SIMDATES:SIMLOC/rel2-1-date_th0.25-doc_th0.6-loc_th0.4.res.clean,0.131,0.600,0.300,0.300,0.000,
DOCUMENT:DATE:LOCATION,REFERENCES:SIMDATES:SIMLOC,0.6,0.25,0.35,rel3-2,3,3,888346,113362.8,125736,book_collection_true_dates/location/query2//useDOCUMENT:DATE:LOCATIONuseREFERENCES:SIMDATES:SIMLOC/rel3-2-date_th0.25-doc_th0.6-loc_th0.35.res.clean,0.148,0.600,0.400,0.300,0.000,
DOCUMENT:DATE:LOCATION,REFERENCES:SIMDATES:SIMLOC,0.5,0.3,0.35,rel4-1,4,3,1519549,214304.9,526042,book_collection_true_dates/location/query2//useDOCUMENT:DATE:LOCATIONuseREFERENCES:SIMDATES:SIMLOC/rel4-1-date_th0.3-doc_th0.5-loc_th0.35.res.clean,0.291,1.000,0.700,0.500,0.000,
DOCUMENT:DATE:LOCATION,REFERENCES:SIMDATES:SIMLOC,0.5,0.25,0.35,rel2-1,2,3,819387,96385.9,125288,book_collection_true_dates/location/query2//useDOCUMENT:DATE:LOCATIONuseREFERENCES:SIMDATES:SIMLOC/rel2-1-date_th0.25-doc_th0.5-loc_th0.35.res.clean,0.110,0.600,0.300,0.200,0.000,
DOCUMENT:DATE:LOCATION,REFERENCES:SIMDATES:SIMLOC,0.5,0.3,0.35,rel2-3,2,3,264012,38702.1,49547,book_collection_true_dates/location/query2//useDOCUMENT:DATE:LOCATIONuseREFERENCES:SIMDATES:SIMLOC/rel2-3-date_th0.3-doc_th0.5-loc_th0.35.res.clean,0.121,0.600,0.300,0.278,0.000,
DOCUMENT:DATE:LOCATION,REFERENCES:SIMDATES:SIMLOC,0.6,0.3,0.4,rel2-1,2,3,227918,36597.8,45873,book_collection_true_dates/location/query2//useDOCUMENT:DATE:LOCATIONuseREFERENCES:SIMDATES:SIMLOC/rel2-1-date_th0.3-doc_th0.6-loc_th0.4.res.clean,0.131,0.600,0.300,0.300,0.000,
DOCUMENT:DATE:LOCATION,REFERENCES:SIMDATES:SIMLOC,0.5,0.3,0.35,rel1-3,1,2,5,2.0,11550,book_collection_true_dates/location/query2//useDOCUMENT:DATE:LOCATIONuseREFERENCES:SIMDATES:SIMLOC/rel1-3-date_th0.3-doc_th0.5-loc_th0.35.res.clean,0.086,0.600,0.300,0.300,0.000,
DOCUMENT:DATE:LOCATION,REFERENCES:SIMDATES:SIMLOC,0.6,0.25,0.35,rel1-4,1,3,45472,3473.7,19213,book_collection_true_dates/location/query2//useDOCUMENT:DATE:LOCATIONuseREFERENCES:SIMDATES:SIMLOC/rel1-4-date_th0.25-doc_th0.6-loc_th0.35.res.clean,0.107,0.600,0.300,0.300,0.000,
DOCUMENT:DATE:LOCATION,REFERENCES:SIMDATES:SIMLOC,0.7,0.25,0.4,rel3-1,3,3,227920,44883.5,50764,book_collection_true_dates/location/query2//useDOCUMENT:DATE:LOCATIONuseREFERENCES:SIMDATES:SIMLOC/rel3-1-date_th0.25-doc_th0.7-loc_th0.4.res.clean,0.111,0.400,0.300,0.300,0.000,
DOCUMENT:DATE:LOCATION,REFERENCES:SIMDATES:SIMLOC,0.7,0.25,0.4,rel1-1,1,3,221877,25530.7,21882,book_collection_true_dates/location/query2//useDOCUMENT:DATE:LOCATIONuseREFERENCES:SIMDATES:SIMLOC/rel1-1-date_th0.25-doc_th0.7-loc_th0.4.res.clean,0.069,0.400,0.200,0.200,0.000,
DOCUMENT:DATE:LOCATION,REFERENCES:SIMDATES:SIMLOC,0.6,0.3,0.35,rel2-5,2,3,879949,96849.2,136815,book_collection_true_dates/location/query2//useDOCUMENT:DATE:LOCATIONuseREFERENCES:SIMDATES:SIMLOC/rel2-5-date_th0.3-doc_th0.6-loc_th0.35.res.clean,0.188,0.800,0.500,0.300,0.000,
DOCUMENT:DATE:LOCATION,REFERENCES:SIMDATES:SIMLOC,0.5,0.25,0.35,rel2-2,2,3,221880,37808.3,40658,book_collection_true_dates/location/query2//useDOCUMENT:DATE:LOCATIONuseREFERENCES:SIMDATES:SIMLOC/rel2-2-date_th0.25-doc_th0.5-loc_th0.35.res.clean,0.088,0.400,0.200,0.278,0.000,
DOCUMENT:DATE:LOCATION,REFERENCES:SIMDATES:SIMLOC,0.6,0.25,0.4,rel4-1,4,3,1059626,154538.3,206258,book_collection_true_dates/location/query2//useDOCUMENT:DATE:LOCATIONuseREFERENCES:SIMDATES:SIMLOC/rel4-1-date_th0.25-doc_th0.6-loc_th0.4.res.clean,0.278,1.000,0.700,0.450,0.000,
DOCUMENT:DATE:LOCATION,REFERENCES:SIMDATES:SIMLOC,0.5,0.25,0.4,rel2-2,2,3,221880,37808.3,40859,book_collection_true_dates/location/query2//useDOCUMENT:DATE:LOCATIONuseREFERENCES:SIMDATES:SIMLOC/rel2-2-date_th0.25-doc_th0.5-loc_th0.4.res.clean,0.088,0.400,0.200,0.278,0.000,
DOCUMENT:DATE:LOCATION,REFERENCES:SIMDATES:SIMLOC,0.7,0.3,0.4,rel1-3,1,2,5,2.0,11557,book_collection_true_dates/location/query2//useDOCUMENT:DATE:LOCATIONuseREFERENCES:SIMDATES:SIMLOC/rel1-3-date_th0.3-doc_th0.7-loc_th0.4.res.clean,0.086,0.600,0.300,0.300,0.000,
DOCUMENT:DATE:LOCATION,REFERENCES:SIMDATES:SIMLOC,0.7,0.3,0.4,rel4-1,4,3,1059547,154524.0,151886,book_collection_true_dates/location/query2//useDOCUMENT:DATE:LOCATIONuseREFERENCES:SIMDATES:SIMLOC/rel4-1-date_th0.3-doc_th0.7-loc_th0.4.res.clean,0.122,0.400,0.300,0.300,0.000,
DOCUMENT:DATE:LOCATION,REFERENCES:SIMDATES:SIMLOC,0.6,0.3,0.35,rel3-1,3,3,819416,104656.8,106450,book_collection_true_dates/location/query2//useDOCUMENT:DATE:LOCATIONuseREFERENCES:SIMDATES:SIMLOC/rel3-1-date_th0.3-doc_th0.6-loc_th0.35.res.clean,0.081,0.600,0.300,0.150,0.000,
DOCUMENT:DATE:LOCATION,REFERENCES:SIMDATES:SIMLOC,0.5,0.25,0.35,rel1-2,1,3,627190,59858.3,87381,book_collection_true_dates/location/query2//useDOCUMENT:DATE:LOCATIONuseREFERENCES:SIMDATES:SIMLOC/rel1-2-date_th0.25-doc_th0.5-loc_th0.35.res.clean,0.098,0.400,0.200,0.263,0.000,
DOCUMENT:DATE:LOCATION,REFERENCES:SIMDATES:SIMLOC,0.6,0.3,0.4,rel1-2,1,2,17,3.6,15351,book_collection_true_dates/location/query2//useDOCUMENT:DATE:LOCATIONuseREFERENCES:SIMDATES:SIMLOC/rel1-2-date_th0.3-doc_th0.6-loc_th0.4.res.clean,0.161,0.800,0.500,0.500,0.000,
DOCUMENT:DATE:LOCATION,REFERENCES:SIMDATES:SIMLOC,0.7,0.25,0.4,rel3-3,3,3,1023500,141874.7,111166,book_collection_true_dates/location/query2//useDOCUMENT:DATE:LOCATIONuseREFERENCES:SIMDATES:SIMLOC/rel3-3-date_th0.25-doc_th0.7-loc_th0.4.res.clean,0.149,0.800,0.400,0.250,0.000,
DOCUMENT:DATE:LOCATION,REFERENCES:SIMDATES:SIMLOC,0.6,0.3,0.4,rel2-6,2,3,1016014,126890.3,114729,book_collection_true_dates/location/query2//useDOCUMENT:DATE:LOCATIONuseREFERENCES:SIMDATES:SIMLOC/rel2-6-date_th0.3-doc_th0.6-loc_th0.4.res.clean,0.149,0.800,0.400,0.250,0.000,
DOCUMENT:DATE:LOCATION,REFERENCES:SIMDATES:SIMLOC,0.6,0.25,0.4,rel1-1,1,3,221877,25530.7,22661,book_collection_true_dates/location/query2//useDOCUMENT:DATE:LOCATIONuseREFERENCES:SIMDATES:SIMLOC/rel1-1-date_th0.25-doc_th0.6-loc_th0.4.res.clean,0.069,0.400,0.200,0.200,0.000,
DOCUMENT:DATE:LOCATION,REFERENCES:SIMDATES:SIMLOC,0.6,0.25,0.4,rel3-2,3,3,274315,47234.7,65772,book_collection_true_dates/location/query2//useDOCUMENT:DATE:LOCATIONuseREFERENCES:SIMDATES:SIMLOC/rel3-2-date_th0.25-doc_th0.6-loc_th0.4.res.clean,0.165,0.800,0.400,0.350,0.000,
DOCUMENT:DATE:LOCATION,REFERENCES:SIMDATES:SIMLOC,0.7,0.25,0.4,rel1-4,1,3,45472,3473.7,19606,book_collection_true_dates/location/query2//useDOCUMENT:DATE:LOCATIONuseREFERENCES:SIMDATES:SIMLOC/rel1-4-date_th0.25-doc_th0.7-loc_th0.4.res.clean,0.107,0.600,0.300,0.300,0.000,
DOCUMENT:DATE:LOCATION,REFERENCES:SIMDATES:SIMLOC,0.5,0.3,0.4,rel2-3,2,3,264012,38702.1,49932,book_collection_true_dates/location/query2//useDOCUMENT:DATE:LOCATIONuseREFERENCES:SIMDATES:SIMLOC/rel2-3-date_th0.3-doc_th0.5-loc_th0.4.res.clean,0.121,0.600,0.300,0.278,0.000,
DOCUMENT:DATE:LOCATION,REFERENCES:SIMDATES:SIMLOC,0.5,0.3,0.35,rel3-3,3,3,1052400,147187.5,238793,book_collection_true_dates/location/query2//useDOCUMENT:DATE:LOCATIONuseREFERENCES:SIMDATES:SIMLOC/rel3-3-date_th0.3-doc_th0.5-loc_th0.35.res.clean,0.255,1.000,0.700,0.400,0.000,
DOCUMENT:DATE:LOCATION,REFERENCES:SIMDATES:SIMLOC,0.5,0.3,0.4,rel2-4,2,3,221893,30777.0,57737,book_collection_true_dates/location/query2//useDOCUMENT:DATE:LOCATIONuseREFERENCES:SIMDATES:SIMLOC/rel2-4-date_th0.3-doc_th0.5-loc_th0.4.res.clean,0.161,0.800,0.400,0.300,0.000,
DOCUMENT:DATE:LOCATION,REFERENCES:SIMDATES:SIMLOC,0.7,0.3,0.35,rel3-3,3,3,1052145,147144.8,104525,book_collection_true_dates/location/query2//useDOCUMENT:DATE:LOCATIONuseREFERENCES:SIMDATES:SIMLOC/rel3-3-date_th0.3-doc_th0.7-loc_th0.35.res.clean,0.098,0.600,0.300,0.250,0.000,
DOCUMENT:DATE:LOCATION,REFERENCES:SIMDATES:SIMLOC,0.6,0.3,0.35,rel2-1,2,3,819387,96384.9,109206,book_collection_true_dates/location/query2//useDOCUMENT:DATE:LOCATIONuseREFERENCES:SIMDATES:SIMLOC/rel2-1-date_th0.3-doc_th0.6-loc_th0.35.res.clean,0.110,0.600,0.300,0.200,0.000,
DOCUMENT:DATE:LOCATION,REFERENCES:SIMDATES:SIMLOC,0.7,0.25,0.35,rel1-1,1,3,221877,25530.7,22310,book_collection_true_dates/location/query2//useDOCUMENT:DATE:LOCATIONuseREFERENCES:SIMDATES:SIMLOC/rel1-1-date_th0.25-doc_th0.7-loc_th0.35.res.clean,0.069,0.400,0.200,0.200,0.000,
DOCUMENT:DATE:LOCATION,REFERENCES:SIMDATES:SIMLOC,0.5,0.3,0.35,rel2-4,2,3,814590,90581.1,124060,book_collection_true_dates/location/query2//useDOCUMENT:DATE:LOCATIONuseREFERENCES:SIMDATES:SIMLOC/rel2-4-date_th0.3-doc_th0.5-loc_th0.35.res.clean,0.162,0.800,0.400,0.300,0.000,
DOCUMENT:DATE:LOCATION,REFERENCES:SIMDATES:SIMLOC,0.6,0.25,0.4,rel2-3,2,3,274303,39505.9,51099,book_collection_true_dates/location/query2//useDOCUMENT:DATE:LOCATIONuseREFERENCES:SIMDATES:SIMLOC/rel2-3-date_th0.25-doc_th0.6-loc_th0.4.res.clean,0.089,0.400,0.200,0.294,0.000,
DOCUMENT:DATE:LOCATION,REFERENCES:SIMDATES:SIMLOC,0.5,0.3,0.35,rel1-1,1,3,221877,25530.7,21904,book_collection_true_dates/location/query2//useDOCUMENT:DATE:LOCATIONuseREFERENCES:SIMDATES:SIMLOC/rel1-1-date_th0.3-doc_th0.5-loc_th0.35.res.clean,0.069,0.400,0.200,0.200,0.000,
DOCUMENT:DATE:LOCATION,REFERENCES:SIMDATES:SIMLOC,0.5,0.25,0.4,rel2-1,2,3,227918,36597.8,47112,book_collection_true_dates/location/query2//useDOCUMENT:DATE:LOCATIONuseREFERENCES:SIMDATES:SIMLOC/rel2-1-date_th0.25-doc_th0.5-loc_th0.4.res.clean,0.131,0.600,0.300,0.300,0.000,
DOCUMENT:DATE:LOCATION,REFERENCES:SIMDATES:SIMLOC,0.5,0.25,0.35,rel2-5,2,3,879950,96850.3,130547,book_collection_true_dates/location/query2//useDOCUMENT:DATE:LOCATIONuseREFERENCES:SIMDATES:SIMLOC/rel2-5-date_th0.25-doc_th0.5-loc_th0.35.res.clean,0.188,0.800,0.500,0.300,0.000,
DOCUMENT:DATE:LOCATION,REFERENCES:SIMDATES:SIMLOC,0.6,0.25,0.4,rel2-2,2,3,221880,37808.3,40314,book_collection_true_dates/location/query2//useDOCUMENT:DATE:LOCATIONuseREFERENCES:SIMDATES:SIMLOC/rel2-2-date_th0.25-doc_th0.6-loc_th0.4.res.clean,0.088,0.400,0.200,0.278,0.000,
DOCUMENT:DATE:LOCATION,REFERENCES:SIMDATES:SIMLOC,0.5,0.3,0.35,rel3-4,3,3,1512469,203983.9,333318,book_collection_true_dates/location/query2//useDOCUMENT:DATE:LOCATIONuseREFERENCES:SIMDATES:SIMLOC/rel3-4-date_th0.3-doc_th0.5-loc_th0.35.res.clean,0.350,1.000,0.800,0.550,0.000,
DOCUMENT:DATE:LOCATION,REFERENCES:SIMDATES:SIMLOC,0.6,0.3,0.4,rel3-1,3,3,227920,44883.5,49703,book_collection_true_dates/location/query2//useDOCUMENT:DATE:LOCATIONuseREFERENCES:SIMDATES:SIMLOC/rel3-1-date_th0.3-doc_th0.6-loc_th0.4.res.clean,0.111,0.400,0.300,0.300,0.000,
DOCUMENT:DATE:LOCATION,REFERENCES:SIMDATES:SIMLOC,0.6,0.3,0.35,rel1-4,1,3,45472,3473.7,19353,book_collection_true_dates/location/query2//useDOCUMENT:DATE:LOCATIONuseREFERENCES:SIMDATES:SIMLOC/rel1-4-date_th0.3-doc_th0.6-loc_th0.35.res.clean,0.107,0.600,0.300,0.300,0.000,
DOCUMENT:DATE:LOCATION,REFERENCES:SIMDATES:SIMLOC,0.7,0.3,0.35,rel2-6,2,3,1052129,133011.0,119074,book_collection_true_dates/location/query2//useDOCUMENT:DATE:LOCATIONuseREFERENCES:SIMDATES:SIMLOC/rel2-6-date_th0.3-doc_th0.7-loc_th0.35.res.clean,0.149,0.800,0.400,0.250,0.000,
DOCUMENT:DATE:LOCATION,REFERENCES:SIMDATES:SIMLOC,0.5,0.25,0.4,rel3-1,3,3,227926,44885.4,61082,book_collection_true_dates/location/query2//useDOCUMENT:DATE:LOCATIONuseREFERENCES:SIMDATES:SIMLOC/rel3-1-date_th0.25-doc_th0.5-loc_th0.4.res.clean,0.188,0.800,0.500,0.300,0.000,
DOCUMENT:DATE:LOCATION,REFERENCES:SIMDATES:SIMLOC,0.7,0.3,0.35,rel1-3,1,2,5,2.0,11680,book_collection_true_dates/location/query2//useDOCUMENT:DATE:LOCATIONuseREFERENCES:SIMDATES:SIMLOC/rel1-3-date_th0.3-doc_th0.7-loc_th0.35.res.clean,0.086,0.600,0.300,0.300,0.000,
DOCUMENT:DATE:LOCATION,REFERENCES:SIMDATES:SIMLOC,0.7,0.3,0.35,rel2-1,2,3,819387,96384.9,109239,book_collection_true_dates/location/query2//useDOCUMENT:DATE:LOCATIONuseREFERENCES:SIMDATES:SIMLOC/rel2-1-date_th0.3-doc_th0.7-loc_th0.35.res.clean,0.110,0.600,0.300,0.200,0.000,
DOCUMENT:DATE:LOCATION,REFERENCES:SIMDATES:SIMLOC,0.6,0.25,0.35,rel2-5,2,3,879949,96849.2,137790,book_collection_true_dates/location/query2//useDOCUMENT:DATE:LOCATIONuseREFERENCES:SIMDATES:SIMLOC/rel2-5-date_th0.25-doc_th0.6-loc_th0.35.res.clean,0.188,0.800,0.500,0.300,0.000,
DOCUMENT:DATE:LOCATION,REFERENCES:SIMDATES:SIMLOC,0.6,0.25,0.35,rel2-1,2,3,819387,96384.9,115488,book_collection_true_dates/location/query2//useDOCUMENT:DATE:LOCATIONuseREFERENCES:SIMDATES:SIMLOC/rel2-1-date_th0.25-doc_th0.6-loc_th0.35.res.clean,0.110,0.600,0.300,0.200,0.000,
DOCUMENT:DATE:LOCATION,REFERENCES:SIMDATES:SIMLOC,0.5,0.25,0.4,rel2-4,2,3,221893,30777.0,55696,book_collection_true_dates/location/query2//useDOCUMENT:DATE:LOCATIONuseREFERENCES:SIMDATES:SIMLOC/rel2-4-date_th0.25-doc_th0.5-loc_th0.4.res.clean,0.161,0.800,0.400,0.300,0.000,
DOCUMENT:DATE:LOCATION,REFERENCES:SIMDATES:SIMLOC,0.5,0.25,0.4,rel1-3,1,2,5,2.0,11617,book_collection_true_dates/location/query2//useDOCUMENT:DATE:LOCATIONuseREFERENCES:SIMDATES:SIMLOC/rel1-3-date_th0.25-doc_th0.5-loc_th0.4.res.clean,0.086,0.600,0.300,0.300,0.000,
DOCUMENT:DATE:LOCATION,REFERENCES:SIMDATES:SIMLOC,0.5,0.25,0.35,rel3-3,3,3,1059800,147985.8,238230,book_collection_true_dates/location/query2//useDOCUMENT:DATE:LOCATIONuseREFERENCES:SIMDATES:SIMLOC/rel3-3-date_th0.25-doc_th0.5-loc_th0.35.res.clean,0.255,1.000,0.700,0.400,0.000,
DOCUMENT:DATE:LOCATION,REFERENCES:SIMDATES:SIMLOC,0.6,0.25,0.35,rel1-3,1,2,5,2.0,11803,book_collection_true_dates/location/query2//useDOCUMENT:DATE:LOCATIONuseREFERENCES:SIMDATES:SIMLOC/rel1-3-date_th0.25-doc_th0.6-loc_th0.35.res.clean,0.086,0.600,0.300,0.300,0.000,
DOCUMENT:DATE:LOCATION,REFERENCES:SIMDATES:SIMLOC,0.5,0.3,0.35,rel2-6,2,3,1052129,133011.0,134394,book_collection_true_dates/location/query2//useDOCUMENT:DATE:LOCATIONuseREFERENCES:SIMDATES:SIMLOC/rel2-6-date_th0.3-doc_th0.5-loc_th0.35.res.clean,0.149,0.800,0.400,0.250,0.000,
DOCUMENT:DATE:LOCATION,REFERENCES:SIMDATES:SIMLOC,0.5,0.25,0.4,rel4-1,4,3,1060354,154682.2,441847,book_collection_true_dates/location/query2//useDOCUMENT:DATE:LOCATIONuseREFERENCES:SIMDATES:SIMLOC/rel4-1-date_th0.25-doc_th0.5-loc_th0.4.res.clean,0.321,1.000,0.700,0.550,0.000,
DOCUMENT:DATE:LOCATION,REFERENCES:SIMDATES:SIMLOC,0.6,0.25,0.35,rel2-6,2,3,1052129,133011.0,132337,book_collection_true_dates/location/query2//useDOCUMENT:DATE:LOCATIONuseREFERENCES:SIMDATES:SIMLOC/rel2-6-date_th0.25-doc_th0.6-loc_th0.35.res.clean,0.149,0.800,0.400,0.250,0.000,
DOCUMENT:DATE:LOCATION,REFERENCES:SIMDATES:SIMLOC,0.7,0.3,0.35,rel2-2,2,3,221880,37808.3,40796,book_collection_true_dates/location/query2//useDOCUMENT:DATE:LOCATIONuseREFERENCES:SIMDATES:SIMLOC/rel2-2-date_th0.3-doc_th0.7-loc_th0.35.res.clean,0.088,0.400,0.200,0.278,0.000,
DOCUMENT:DATE:LOCATION,REFERENCES:SIMDATES:SIMLOC,0.7,0.25,0.4,rel2-1,2,3,227918,36597.8,46851,book_collection_true_dates/location/query2//useDOCUMENT:DATE:LOCATIONuseREFERENCES:SIMDATES:SIMLOC/rel2-1-date_th0.25-doc_th0.7-loc_th0.4.res.clean,0.131,0.600,0.300,0.300,0.000,
DOCUMENT:DATE:LOCATION,REFERENCES:SIMDATES:SIMLOC,0.5,0.3,0.4,rel2-2,2,3,221880,37808.3,40611,book_collection_true_dates/location/query2//useDOCUMENT:DATE:LOCATIONuseREFERENCES:SIMDATES:SIMLOC/rel2-2-date_th0.3-doc_th0.5-loc_th0.4.res.clean,0.088,0.400,0.200,0.278,0.000,
DOCUMENT:DATE:LOCATION,REFERENCES:SIMDATES:SIMLOC,0.5,0.25,0.35,rel3-4,3,3,1512469,203983.9,315573,book_collection_true_dates/location/query2//useDOCUMENT:DATE:LOCATIONuseREFERENCES:SIMDATES:SIMLOC/rel3-4-date_th0.25-doc_th0.5-loc_th0.35.res.clean,0.350,1.000,0.800,0.550,0.000,
DOCUMENT:DATE:LOCATION,REFERENCES:SIMDATES:SIMLOC,0.5,0.3,0.4,rel3-1,3,3,227926,44885.4,57336,book_collection_true_dates/location/query2//useDOCUMENT:DATE:LOCATIONuseREFERENCES:SIMDATES:SIMLOC/rel3-1-date_th0.3-doc_th0.5-loc_th0.4.res.clean,0.188,0.800,0.500,0.300,0.000,
DOCUMENT:DATE:LOCATION,REFERENCES:SIMDATES:SIMLOC,0.6,0.25,0.35,rel1-2,1,3,627190,59858.3,84698,book_collection_true_dates/location/query2//useDOCUMENT:DATE:LOCATIONuseREFERENCES:SIMDATES:SIMLOC/rel1-2-date_th0.25-doc_th0.6-loc_th0.35.res.clean,0.098,0.400,0.200,0.263,0.000,

Sig-Test:,randomized,,threshold,set,to,0.050000
