relationships,lambda,decay,norm_threshold,number of spread. activ. pulses,final number of activated nodes,final overall activation,running time,run-id,map,P10,P20,
,,,,,,,,22books/eyor-mini-no_cats.res,0.141,0.600,0.400,
REFERENCES,0.0,0.1,0,15,11341,1416.0,1578,22books/output-log-DOC-st0.5/query1-runREFERENCES/iterQ1-decay0.1-lambda0.0-norm_threshold0-steepness0.5.res,0.000,0.000,0.000,
REFERENCES,0.0,0.1,0.1,15,11330,1346.6,649,22books/output-log-DOC-st0.5/query1-runREFERENCES/iterQ1-decay0.1-lambda0.0-norm_threshold0.1-steepness0.5.res,0.000,0.000,0.000,
REFERENCES,0.0,0.1,0.2,15,11314,1275.5,604,22books/output-log-DOC-st0.5/query1-runREFERENCES/iterQ1-decay0.1-lambda0.0-norm_threshold0.2-steepness0.5.res,0.000,0.000,0.000,
REFERENCES,0.0,0.1,0.3,15,11310,1205.7,599,22books/output-log-DOC-st0.5/query1-runREFERENCES/iterQ1-decay0.1-lambda0.0-norm_threshold0.3-steepness0.5.res,0.000,0.000,0.000,
REFERENCES,0.25,0.1,0,8,11341,4715.4,407,22books/output-log-DOC-st0.5/query1-runREFERENCES/iterQ1-decay0.1-lambda0.25-norm_threshold0-steepness0.5.res,0.045,0.100,0.100,
REFERENCES,0.25,0.1,0.1,9,11326,4589.0,488,22books/output-log-DOC-st0.5/query1-runREFERENCES/iterQ1-decay0.1-lambda0.25-norm_threshold0.1-steepness0.5.res,0.045,0.100,0.100,
REFERENCES,0.25,0.1,0.2,9,11302,4348.8,500,22books/output-log-DOC-st0.5/query1-runREFERENCES/iterQ1-decay0.1-lambda0.25-norm_threshold0.2-steepness0.5.res,0.045,0.100,0.100,
REFERENCES,0.25,0.1,0.3,10,11295,4208.7,447,22books/output-log-DOC-st0.5/query1-runREFERENCES/iterQ1-decay0.1-lambda0.25-norm_threshold0.3-steepness0.5.res,0.045,0.100,0.100,
REFERENCES,0.5,0.1,0,10,11341,4486.7,451,22books/output-log-DOC-st0.5/query1-runREFERENCES/iterQ1-decay0.1-lambda0.5-norm_threshold0-steepness0.5.res,0.044,0.100,0.100,
REFERENCES,0.5,0.1,0.1,11,11320,4373.6,459,22books/output-log-DOC-st0.5/query1-runREFERENCES/iterQ1-decay0.1-lambda0.5-norm_threshold0.1-steepness0.5.res,0.044,0.100,0.100,
REFERENCES,0.5,0.1,0.2,12,11309,4238.9,479,22books/output-log-DOC-st0.5/query1-runREFERENCES/iterQ1-decay0.1-lambda0.5-norm_threshold0.2-steepness0.5.res,0.044,0.100,0.100,
REFERENCES,0.5,0.1,0.3,12,11286,3959.6,480,22books/output-log-DOC-st0.5/query1-runREFERENCES/iterQ1-decay0.1-lambda0.5-norm_threshold0.3-steepness0.5.res,0.044,0.100,0.100,
REFERENCES,0.75,0.1,0,15,11341,3909.3,503,22books/output-log-DOC-st0.5/query1-runREFERENCES/iterQ1-decay0.1-lambda0.75-norm_threshold0-steepness0.5.res,0.054,0.200,0.150,
REFERENCES,0.75,0.1,0.1,15,11314,3530.2,536,22books/output-log-DOC-st0.5/query1-runREFERENCES/iterQ1-decay0.1-lambda0.75-norm_threshold0.1-steepness0.5.res,0.071,0.200,0.150,
REFERENCES,0.75,0.1,0.2,15,11278,3075.4,525,22books/output-log-DOC-st0.5/query1-runREFERENCES/iterQ1-decay0.1-lambda0.75-norm_threshold0.2-steepness0.5.res,0.071,0.200,0.150,
REFERENCES,0.75,0.1,0.3,15,11211,2491.5,489,22books/output-log-DOC-st0.5/query1-runREFERENCES/iterQ1-decay0.1-lambda0.75-norm_threshold0.3-steepness0.5.res,0.085,0.300,0.200,
REFERENCES,0.0,0.2,0,15,11335,944.7,578,22books/output-log-DOC-st0.5/query1-runREFERENCES/iterQ1-decay0.2-lambda0.0-norm_threshold0-steepness0.5.res,0.000,0.000,0.000,
REFERENCES,0.0,0.2,0.1,15,11315,890.7,513,22books/output-log-DOC-st0.5/query1-runREFERENCES/iterQ1-decay0.2-lambda0.0-norm_threshold0.1-steepness0.5.res,0.000,0.000,0.000,
REFERENCES,0.0,0.2,0.2,15,11300,835.1,482,22books/output-log-DOC-st0.5/query1-runREFERENCES/iterQ1-decay0.2-lambda0.0-norm_threshold0.2-steepness0.5.res,0.000,0.000,0.000,
REFERENCES,0.0,0.2,0.3,15,11266,782.2,516,22books/output-log-DOC-st0.5/query1-runREFERENCES/iterQ1-decay0.2-lambda0.0-norm_threshold0.3-steepness0.5.res,0.000,0.000,0.000,
REFERENCES,0.25,0.2,0,8,11335,3390.8,416,22books/output-log-DOC-st0.5/query1-runREFERENCES/iterQ1-decay0.2-lambda0.25-norm_threshold0-steepness0.5.res,0.164,0.400,0.250,
REFERENCES,0.25,0.2,0.1,9,11313,3278.0,433,22books/output-log-DOC-st0.5/query1-runREFERENCES/iterQ1-decay0.2-lambda0.25-norm_threshold0.1-steepness0.5.res,0.159,0.400,0.250,
REFERENCES,0.25,0.2,0.2,9,11280,3084.6,430,22books/output-log-DOC-st0.5/query1-runREFERENCES/iterQ1-decay0.2-lambda0.25-norm_threshold0.2-steepness0.5.res,0.140,0.400,0.250,
REFERENCES,0.25,0.2,0.3,10,11253,2968.0,440,22books/output-log-DOC-st0.5/query1-runREFERENCES/iterQ1-decay0.2-lambda0.25-norm_threshold0.3-steepness0.5.res,0.131,0.400,0.200,
REFERENCES,0.5,0.2,0,10,11335,3224.3,460,22books/output-log-DOC-st0.5/query1-runREFERENCES/iterQ1-decay0.2-lambda0.5-norm_threshold0-steepness0.5.res,0.169,0.400,0.300,
REFERENCES,0.5,0.2,0.1,11,11312,3122.2,428,22books/output-log-DOC-st0.5/query1-runREFERENCES/iterQ1-decay0.2-lambda0.5-norm_threshold0.1-steepness0.5.res,0.156,0.300,0.300,
REFERENCES,0.5,0.2,0.2,12,11281,3005.3,474,22books/output-log-DOC-st0.5/query1-runREFERENCES/iterQ1-decay0.2-lambda0.5-norm_threshold0.2-steepness0.5.res,0.139,0.300,0.250,
REFERENCES,0.5,0.2,0.3,12,11220,2780.8,474,22books/output-log-DOC-st0.5/query1-runREFERENCES/iterQ1-decay0.2-lambda0.5-norm_threshold0.3-steepness0.5.res,0.144,0.300,0.250,
REFERENCES,0.75,0.2,0,15,11335,2802.4,531,22books/output-log-DOC-st0.5/query1-runREFERENCES/iterQ1-decay0.2-lambda0.75-norm_threshold0-steepness0.5.res,0.172,0.400,0.300,
REFERENCES,0.75,0.2,0.1,15,11296,2512.1,528,22books/output-log-DOC-st0.5/query1-runREFERENCES/iterQ1-decay0.2-lambda0.75-norm_threshold0.1-steepness0.5.res,0.172,0.400,0.300,
REFERENCES,0.75,0.2,0.2,15,11224,2167.7,502,22books/output-log-DOC-st0.5/query1-runREFERENCES/iterQ1-decay0.2-lambda0.75-norm_threshold0.2-steepness0.5.res,0.181,0.400,0.350,
REFERENCES,0.75,0.2,0.3,15,11161,1733.5,513,22books/output-log-DOC-st0.5/query1-runREFERENCES/iterQ1-decay0.2-lambda0.75-norm_threshold0.3-steepness0.5.res,0.230,0.600,0.450,
REFERENCES,0.0,0.25,0,15,11305,738.5,518,22books/output-log-DOC-st0.5/query1-runREFERENCES/iterQ1-decay0.25-lambda0.0-norm_threshold0-steepness0.5.res,0.000,0.000,0.000,
REFERENCES,0.0,0.25,0.1,15,11297,693.2,599,22books/output-log-DOC-st0.5/query1-runREFERENCES/iterQ1-decay0.25-lambda0.0-norm_threshold0.1-steepness0.5.res,0.000,0.000,0.000,
REFERENCES,0.0,0.25,0.2,15,11246,646.0,648,22books/output-log-DOC-st0.5/query1-runREFERENCES/iterQ1-decay0.25-lambda0.0-norm_threshold0.2-steepness0.5.res,0.000,0.000,0.000,
REFERENCES,0.0,0.25,0.3,15,11217,602.9,549,22books/output-log-DOC-st0.5/query1-runREFERENCES/iterQ1-decay0.25-lambda0.0-norm_threshold0.3-steepness0.5.res,0.000,0.000,0.000,
REFERENCES,0.25,0.25,0,8,11305,2808.2,412,22books/output-log-DOC-st0.5/query1-runREFERENCES/iterQ1-decay0.25-lambda0.25-norm_threshold0-steepness0.5.res,0.190,0.500,0.300,
REFERENCES,0.25,0.25,0.1,9,11263,2705.0,415,22books/output-log-DOC-st0.5/query1-runREFERENCES/iterQ1-decay0.25-lambda0.25-norm_threshold0.1-steepness0.5.res,0.189,0.500,0.300,
REFERENCES,0.25,0.25,0.2,9,11246,2536.4,429,22books/output-log-DOC-st0.5/query1-runREFERENCES/iterQ1-decay0.25-lambda0.25-norm_threshold0.2-steepness0.5.res,0.191,0.500,0.300,
REFERENCES,0.25,0.25,0.3,10,11217,2430.0,442,22books/output-log-DOC-st0.5/query1-runREFERENCES/iterQ1-decay0.25-lambda0.25-norm_threshold0.3-steepness0.5.res,0.189,0.500,0.300,
REFERENCES,0.5,0.25,0,10,11305,2671.6,455,22books/output-log-DOC-st0.5/query1-runREFERENCES/iterQ1-decay0.25-lambda0.5-norm_threshold0-steepness0.5.res,0.196,0.500,0.300,
REFERENCES,0.5,0.25,0.1,11,11285,2578.1,450,22books/output-log-DOC-st0.5/query1-runREFERENCES/iterQ1-decay0.25-lambda0.5-norm_threshold0.1-steepness0.5.res,0.196,0.500,0.300,
REFERENCES,0.5,0.25,0.2,12,11257,2470.6,476,22books/output-log-DOC-st0.5/query1-runREFERENCES/iterQ1-decay0.25-lambda0.5-norm_threshold0.2-steepness0.5.res,0.196,0.500,0.300,
REFERENCES,0.5,0.25,0.3,12,11216,2275.4,475,22books/output-log-DOC-st0.5/query1-runREFERENCES/iterQ1-decay0.25-lambda0.5-norm_threshold0.3-steepness0.5.res,0.197,0.500,0.300,
REFERENCES,0.75,0.25,0,15,11305,2322.9,523,22books/output-log-DOC-st0.5/query1-runREFERENCES/iterQ1-decay0.25-lambda0.75-norm_threshold0-steepness0.5.res,0.218,0.500,0.350,
REFERENCES,0.75,0.25,0.1,15,11273,2076.5,517,22books/output-log-DOC-st0.5/query1-runREFERENCES/iterQ1-decay0.25-lambda0.75-norm_threshold0.1-steepness0.5.res,0.241,0.500,0.400,
REFERENCES,0.75,0.25,0.2,15,11219,1785.9,519,22books/output-log-DOC-st0.5/query1-runREFERENCES/iterQ1-decay0.25-lambda0.75-norm_threshold0.2-steepness0.5.res,0.257,0.700,0.400,
REFERENCES,0.75,0.25,0.3,15,11098,1422.7,471,22books/output-log-DOC-st0.5/query1-runREFERENCES/iterQ1-decay0.25-lambda0.75-norm_threshold0.3-steepness0.5.res,0.278,0.700,0.450,
REFERENCES,0.0,0.5,0,15,8664,59.0,463,22books/output-log-DOC-st0.5/query1-runREFERENCES/iterQ1-decay0.5-lambda0.0-norm_threshold0-steepness0.5.res,0.000,0.000,0.000,
REFERENCES,0.0,0.5,0.1,15,8664,58.5,464,22books/output-log-DOC-st0.5/query1-runREFERENCES/iterQ1-decay0.5-lambda0.0-norm_threshold0.1-steepness0.5.res,0.000,0.000,0.000,
REFERENCES,0.0,0.5,0.2,15,8654,58.0,459,22books/output-log-DOC-st0.5/query1-runREFERENCES/iterQ1-decay0.5-lambda0.0-norm_threshold0.2-steepness0.5.res,0.000,0.000,0.000,
REFERENCES,0.0,0.5,0.3,15,8642,57.4,467,22books/output-log-DOC-st0.5/query1-runREFERENCES/iterQ1-decay0.5-lambda0.0-norm_threshold0.3-steepness0.5.res,0.000,0.000,0.000,
REFERENCES,0.25,0.5,0,7,8664,836.8,356,22books/output-log-DOC-st0.5/query1-runREFERENCES/iterQ1-decay0.5-lambda0.25-norm_threshold0-steepness0.5.res,0.410,0.800,0.600,
REFERENCES,0.25,0.5,0.1,8,8660,786.4,357,22books/output-log-DOC-st0.5/query1-runREFERENCES/iterQ1-decay0.5-lambda0.25-norm_threshold0.1-steepness0.5.res,0.403,0.800,0.600,
REFERENCES,0.25,0.5,0.2,8,8653,719.8,368,22books/output-log-DOC-st0.5/query1-runREFERENCES/iterQ1-decay0.5-lambda0.25-norm_threshold0.2-steepness0.5.res,0.412,0.800,0.600,
REFERENCES,0.25,0.5,0.3,9,8629,664.1,385,22books/output-log-DOC-st0.5/query1-runREFERENCES/iterQ1-decay0.5-lambda0.25-norm_threshold0.3-steepness0.5.res,0.412,0.800,0.600,
REFERENCES,0.5,0.5,0,9,8664,804.9,366,22books/output-log-DOC-st0.5/query1-runREFERENCES/iterQ1-decay0.5-lambda0.5-norm_threshold0-steepness0.5.res,0.385,0.800,0.550,
REFERENCES,0.5,0.5,0.1,10,8660,760.0,406,22books/output-log-DOC-st0.5/query1-runREFERENCES/iterQ1-decay0.5-lambda0.5-norm_threshold0.1-steepness0.5.res,0.385,0.800,0.550,
REFERENCES,0.5,0.5,0.2,10,8653,687.7,394,22books/output-log-DOC-st0.5/query1-runREFERENCES/iterQ1-decay0.5-lambda0.5-norm_threshold0.2-steepness0.5.res,0.385,0.800,0.550,
REFERENCES,0.5,0.5,0.3,11,8620,632.5,409,22books/output-log-DOC-st0.5/query1-runREFERENCES/iterQ1-decay0.5-lambda0.5-norm_threshold0.3-steepness0.5.res,0.385,0.800,0.550,
REFERENCES,0.75,0.5,0,14,8664,721.9,449,22books/output-log-DOC-st0.5/query1-runREFERENCES/iterQ1-decay0.5-lambda0.75-norm_threshold0-steepness0.5.res,0.382,0.800,0.550,
REFERENCES,0.75,0.5,0.1,15,8660,670.3,460,22books/output-log-DOC-st0.5/query1-runREFERENCES/iterQ1-decay0.5-lambda0.75-norm_threshold0.1-steepness0.5.res,0.380,0.800,0.550,
REFERENCES,0.75,0.5,0.2,15,8647,579.1,424,22books/output-log-DOC-st0.5/query1-runREFERENCES/iterQ1-decay0.5-lambda0.75-norm_threshold0.2-steepness0.5.res,0.354,0.800,0.500,
REFERENCES,0.75,0.5,0.3,15,8511,466.9,456,22books/output-log-DOC-st0.5/query1-runREFERENCES/iterQ1-decay0.5-lambda0.75-norm_threshold0.3-steepness0.5.res,0.340,0.800,0.500,

Sig-Test:,randomized,,threshold,set,to,0.050000
relationships,lambda,decay,norm_threshold,number of spread. activ. pulses,final number of activated nodes,final overall activation,running time,run-id,map,P10,P20,
,,,,,,,,22books/eyor-mini-no_cats.res,0.141,0.600,0.400,
REFERENCES:SIMDATES,0.0,0.1,0,9,11348,4925.8,1505,22books/output-log-DOC-st0.5/query1-runREFERENCES:SIMDATES/iterQ1-decay0.1-lambda0.0-norm_threshold0-steepness0.5.res,0.049,0.200,0.100,
REFERENCES:SIMDATES,0.0,0.1,0.1,10,11336,4733.7,675,22books/output-log-DOC-st0.5/query1-runREFERENCES:SIMDATES/iterQ1-decay0.1-lambda0.0-norm_threshold0.1-steepness0.5.res,0.049,0.200,0.100,
REFERENCES:SIMDATES,0.0,0.1,0.2,11,11320,4548.7,502,22books/output-log-DOC-st0.5/query1-runREFERENCES:SIMDATES/iterQ1-decay0.1-lambda0.0-norm_threshold0.2-steepness0.5.res,0.049,0.200,0.100,
REFERENCES:SIMDATES,0.0,0.1,0.3,12,11316,4333.1,571,22books/output-log-DOC-st0.5/query1-runREFERENCES:SIMDATES/iterQ1-decay0.1-lambda0.0-norm_threshold0.3-steepness0.5.res,0.049,0.200,0.100,
REFERENCES:SIMDATES,0.25,0.1,0,8,11348,4778.0,441,22books/output-log-DOC-st0.5/query1-runREFERENCES:SIMDATES/iterQ1-decay0.1-lambda0.25-norm_threshold0-steepness0.5.res,0.049,0.200,0.100,
REFERENCES:SIMDATES,0.25,0.1,0.1,9,11332,4639.2,452,22books/output-log-DOC-st0.5/query1-runREFERENCES:SIMDATES/iterQ1-decay0.1-lambda0.25-norm_threshold0.1-steepness0.5.res,0.048,0.200,0.100,
REFERENCES:SIMDATES,0.25,0.1,0.2,9,11308,4397.4,452,22books/output-log-DOC-st0.5/query1-runREFERENCES:SIMDATES/iterQ1-decay0.1-lambda0.25-norm_threshold0.2-steepness0.5.res,0.049,0.200,0.100,
REFERENCES:SIMDATES,0.25,0.1,0.3,10,11303,4256.2,464,22books/output-log-DOC-st0.5/query1-runREFERENCES:SIMDATES/iterQ1-decay0.1-lambda0.25-norm_threshold0.3-steepness0.5.res,0.048,0.200,0.100,
REFERENCES:SIMDATES,0.5,0.1,0,10,11348,4544.3,438,22books/output-log-DOC-st0.5/query1-runREFERENCES:SIMDATES/iterQ1-decay0.1-lambda0.5-norm_threshold0-steepness0.5.res,0.044,0.100,0.100,
REFERENCES:SIMDATES,0.5,0.1,0.1,11,11326,4420.1,497,22books/output-log-DOC-st0.5/query1-runREFERENCES:SIMDATES/iterQ1-decay0.1-lambda0.5-norm_threshold0.1-steepness0.5.res,0.046,0.200,0.100,
REFERENCES:SIMDATES,0.5,0.1,0.2,12,11315,4285.1,509,22books/output-log-DOC-st0.5/query1-runREFERENCES:SIMDATES/iterQ1-decay0.1-lambda0.5-norm_threshold0.2-steepness0.5.res,0.046,0.200,0.100,
REFERENCES:SIMDATES,0.5,0.1,0.3,12,11298,4005.4,502,22books/output-log-DOC-st0.5/query1-runREFERENCES:SIMDATES/iterQ1-decay0.1-lambda0.5-norm_threshold0.3-steepness0.5.res,0.044,0.100,0.100,
REFERENCES:SIMDATES,0.75,0.1,0,15,11348,3959.1,552,22books/output-log-DOC-st0.5/query1-runREFERENCES:SIMDATES/iterQ1-decay0.1-lambda0.75-norm_threshold0-steepness0.5.res,0.055,0.200,0.150,
REFERENCES:SIMDATES,0.75,0.1,0.1,15,11321,3568.7,510,22books/output-log-DOC-st0.5/query1-runREFERENCES:SIMDATES/iterQ1-decay0.1-lambda0.75-norm_threshold0.1-steepness0.5.res,0.065,0.200,0.150,
REFERENCES:SIMDATES,0.75,0.1,0.2,15,11290,3110.9,577,22books/output-log-DOC-st0.5/query1-runREFERENCES:SIMDATES/iterQ1-decay0.1-lambda0.75-norm_threshold0.2-steepness0.5.res,0.071,0.200,0.150,
REFERENCES:SIMDATES,0.75,0.1,0.3,15,11218,2522.4,576,22books/output-log-DOC-st0.5/query1-runREFERENCES:SIMDATES/iterQ1-decay0.1-lambda0.75-norm_threshold0.3-steepness0.5.res,0.081,0.200,0.200,
REFERENCES:SIMDATES,0.0,0.2,0,9,11342,3573.7,484,22books/output-log-DOC-st0.5/query1-runREFERENCES:SIMDATES/iterQ1-decay0.2-lambda0.0-norm_threshold0-steepness0.5.res,0.170,0.500,0.250,
REFERENCES:SIMDATES,0.0,0.2,0.1,10,11321,3397.9,473,22books/output-log-DOC-st0.5/query1-runREFERENCES:SIMDATES/iterQ1-decay0.2-lambda0.0-norm_threshold0.1-steepness0.5.res,0.165,0.500,0.250,
REFERENCES:SIMDATES,0.0,0.2,0.2,11,11305,3228.8,459,22books/output-log-DOC-st0.5/query1-runREFERENCES:SIMDATES/iterQ1-decay0.2-lambda0.0-norm_threshold0.2-steepness0.5.res,0.137,0.400,0.200,
REFERENCES:SIMDATES,0.0,0.2,0.3,13,11273,3071.4,520,22books/output-log-DOC-st0.5/query1-runREFERENCES:SIMDATES/iterQ1-decay0.2-lambda0.0-norm_threshold0.3-steepness0.5.res,0.137,0.400,0.200,
REFERENCES:SIMDATES,0.25,0.2,0,8,11342,3472.5,421,22books/output-log-DOC-st0.5/query1-runREFERENCES:SIMDATES/iterQ1-decay0.2-lambda0.25-norm_threshold0-steepness0.5.res,0.165,0.500,0.250,
REFERENCES:SIMDATES,0.25,0.2,0.1,9,11319,3340.3,459,22books/output-log-DOC-st0.5/query1-runREFERENCES:SIMDATES/iterQ1-decay0.2-lambda0.25-norm_threshold0.1-steepness0.5.res,0.157,0.500,0.250,
REFERENCES:SIMDATES,0.25,0.2,0.2,9,11290,3145.9,463,22books/output-log-DOC-st0.5/query1-runREFERENCES:SIMDATES/iterQ1-decay0.2-lambda0.25-norm_threshold0.2-steepness0.5.res,0.137,0.400,0.200,
REFERENCES:SIMDATES,0.25,0.2,0.3,10,11263,3030.3,470,22books/output-log-DOC-st0.5/query1-runREFERENCES:SIMDATES/iterQ1-decay0.2-lambda0.25-norm_threshold0.3-steepness0.5.res,0.137,0.400,0.200,
REFERENCES:SIMDATES,0.5,0.2,0,10,11342,3301.3,460,22books/output-log-DOC-st0.5/query1-runREFERENCES:SIMDATES/iterQ1-decay0.2-lambda0.5-norm_threshold0-steepness0.5.res,0.166,0.400,0.300,
REFERENCES:SIMDATES,0.5,0.2,0.1,11,11318,3181.1,490,22books/output-log-DOC-st0.5/query1-runREFERENCES:SIMDATES/iterQ1-decay0.2-lambda0.5-norm_threshold0.1-steepness0.5.res,0.159,0.400,0.300,
REFERENCES:SIMDATES,0.5,0.2,0.2,12,11291,3066.1,508,22books/output-log-DOC-st0.5/query1-runREFERENCES:SIMDATES/iterQ1-decay0.2-lambda0.5-norm_threshold0.2-steepness0.5.res,0.147,0.400,0.250,
REFERENCES:SIMDATES,0.5,0.2,0.3,12,11253,2842.3,464,22books/output-log-DOC-st0.5/query1-runREFERENCES:SIMDATES/iterQ1-decay0.2-lambda0.5-norm_threshold0.3-steepness0.5.res,0.149,0.400,0.250,
REFERENCES:SIMDATES,0.75,0.2,0,15,11342,2870.3,525,22books/output-log-DOC-st0.5/query1-runREFERENCES:SIMDATES/iterQ1-decay0.2-lambda0.75-norm_threshold0-steepness0.5.res,0.172,0.500,0.300,
REFERENCES:SIMDATES,0.75,0.2,0.1,15,11306,2564.6,543,22books/output-log-DOC-st0.5/query1-runREFERENCES:SIMDATES/iterQ1-decay0.2-lambda0.75-norm_threshold0.1-steepness0.5.res,0.160,0.500,0.250,
REFERENCES:SIMDATES,0.75,0.2,0.2,15,11232,2216.8,554,22books/output-log-DOC-st0.5/query1-runREFERENCES:SIMDATES/iterQ1-decay0.2-lambda0.75-norm_threshold0.2-steepness0.5.res,0.163,0.400,0.350,
REFERENCES:SIMDATES,0.75,0.2,0.3,15,11167,1775.6,556,22books/output-log-DOC-st0.5/query1-runREFERENCES:SIMDATES/iterQ1-decay0.2-lambda0.75-norm_threshold0.3-steepness0.5.res,0.202,0.600,0.400,
REFERENCES:SIMDATES,0.0,0.25,0,9,11328,2976.8,451,22books/output-log-DOC-st0.5/query1-runREFERENCES:SIMDATES/iterQ1-decay0.25-lambda0.0-norm_threshold0-steepness0.5.res,0.178,0.500,0.250,
REFERENCES:SIMDATES,0.0,0.25,0.1,10,11316,2812.0,552,22books/output-log-DOC-st0.5/query1-runREFERENCES:SIMDATES/iterQ1-decay0.25-lambda0.0-norm_threshold0.1-steepness0.5.res,0.178,0.500,0.250,
REFERENCES:SIMDATES,0.0,0.25,0.2,12,11286,2680.3,597,22books/output-log-DOC-st0.5/query1-runREFERENCES:SIMDATES/iterQ1-decay0.25-lambda0.0-norm_threshold0.2-steepness0.5.res,0.178,0.500,0.250,
REFERENCES:SIMDATES,0.0,0.25,0.3,14,11250,2540.6,591,22books/output-log-DOC-st0.5/query1-runREFERENCES:SIMDATES/iterQ1-decay0.25-lambda0.0-norm_threshold0.3-steepness0.5.res,0.178,0.500,0.250,
REFERENCES:SIMDATES,0.25,0.25,0,8,11328,2897.2,421,22books/output-log-DOC-st0.5/query1-runREFERENCES:SIMDATES/iterQ1-decay0.25-lambda0.25-norm_threshold0-steepness0.5.res,0.178,0.500,0.250,
REFERENCES:SIMDATES,0.25,0.25,0.1,9,11301,2774.6,452,22books/output-log-DOC-st0.5/query1-runREFERENCES:SIMDATES/iterQ1-decay0.25-lambda0.25-norm_threshold0.1-steepness0.5.res,0.178,0.500,0.250,
REFERENCES:SIMDATES,0.25,0.25,0.2,9,11253,2604.3,460,22books/output-log-DOC-st0.5/query1-runREFERENCES:SIMDATES/iterQ1-decay0.25-lambda0.25-norm_threshold0.2-steepness0.5.res,0.189,0.500,0.300,
REFERENCES:SIMDATES,0.25,0.25,0.3,10,11224,2499.3,461,22books/output-log-DOC-st0.5/query1-runREFERENCES:SIMDATES/iterQ1-decay0.25-lambda0.25-norm_threshold0.3-steepness0.5.res,0.178,0.500,0.250,
REFERENCES:SIMDATES,0.5,0.25,0,10,11328,2756.1,474,22books/output-log-DOC-st0.5/query1-runREFERENCES:SIMDATES/iterQ1-decay0.25-lambda0.5-norm_threshold0-steepness0.5.res,0.197,0.500,0.300,
REFERENCES:SIMDATES,0.5,0.25,0.1,11,11299,2643.3,482,22books/output-log-DOC-st0.5/query1-runREFERENCES:SIMDATES/iterQ1-decay0.25-lambda0.5-norm_threshold0.1-steepness0.5.res,0.196,0.500,0.300,
REFERENCES:SIMDATES,0.5,0.25,0.2,12,11272,2538.5,494,22books/output-log-DOC-st0.5/query1-runREFERENCES:SIMDATES/iterQ1-decay0.25-lambda0.5-norm_threshold0.2-steepness0.5.res,0.196,0.500,0.300,
REFERENCES:SIMDATES,0.5,0.25,0.3,12,11226,2344.9,494,22books/output-log-DOC-st0.5/query1-runREFERENCES:SIMDATES/iterQ1-decay0.25-lambda0.5-norm_threshold0.3-steepness0.5.res,0.191,0.500,0.300,
REFERENCES:SIMDATES,0.75,0.25,0,15,11328,2397.4,545,22books/output-log-DOC-st0.5/query1-runREFERENCES:SIMDATES/iterQ1-decay0.25-lambda0.75-norm_threshold0-steepness0.5.res,0.204,0.600,0.300,
REFERENCES:SIMDATES,0.75,0.25,0.1,15,11287,2134.8,502,22books/output-log-DOC-st0.5/query1-runREFERENCES:SIMDATES/iterQ1-decay0.25-lambda0.75-norm_threshold0.1-steepness0.5.res,0.228,0.600,0.400,
REFERENCES:SIMDATES,0.75,0.25,0.2,15,11226,1839.7,540,22books/output-log-DOC-st0.5/query1-runREFERENCES:SIMDATES/iterQ1-decay0.25-lambda0.75-norm_threshold0.2-steepness0.5.res,0.259,0.700,0.400,
REFERENCES:SIMDATES,0.75,0.25,0.3,15,11106,1468.3,535,22books/output-log-DOC-st0.5/query1-runREFERENCES:SIMDATES/iterQ1-decay0.25-lambda0.75-norm_threshold0.3-steepness0.5.res,0.265,0.700,0.450,
REFERENCES:SIMDATES,0.0,0.5,0,9,8935,941.8,440,22books/output-log-DOC-st0.5/query1-runREFERENCES:SIMDATES/iterQ1-decay0.5-lambda0.0-norm_threshold0-steepness0.5.res,0.348,0.800,0.500,
REFERENCES:SIMDATES,0.0,0.5,0.1,11,8935,873.9,498,22books/output-log-DOC-st0.5/query1-runREFERENCES:SIMDATES/iterQ1-decay0.5-lambda0.0-norm_threshold0.1-steepness0.5.res,0.368,0.800,0.550,
REFERENCES:SIMDATES,0.0,0.5,0.2,15,8931,761.1,506,22books/output-log-DOC-st0.5/query1-runREFERENCES:SIMDATES/iterQ1-decay0.5-lambda0.0-norm_threshold0.2-steepness0.5.res,0.348,0.800,0.500,
REFERENCES:SIMDATES,0.0,0.5,0.3,15,8929,88.3,495,22books/output-log-DOC-st0.5/query1-runREFERENCES:SIMDATES/iterQ1-decay0.5-lambda0.0-norm_threshold0.3-steepness0.5.res,0.053,0.300,0.150,
REFERENCES:SIMDATES,0.25,0.5,0,7,8935,918.3,379,22books/output-log-DOC-st0.5/query1-runREFERENCES:SIMDATES/iterQ1-decay0.5-lambda0.25-norm_threshold0-steepness0.5.res,0.369,0.800,0.550,
REFERENCES:SIMDATES,0.25,0.5,0.1,8,8935,871.5,396,22books/output-log-DOC-st0.5/query1-runREFERENCES:SIMDATES/iterQ1-decay0.5-lambda0.25-norm_threshold0.1-steepness0.5.res,0.367,0.800,0.550,
REFERENCES:SIMDATES,0.25,0.5,0.2,8,8929,802.3,396,22books/output-log-DOC-st0.5/query1-runREFERENCES:SIMDATES/iterQ1-decay0.5-lambda0.25-norm_threshold0.2-steepness0.5.res,0.369,0.800,0.550,
REFERENCES:SIMDATES,0.25,0.5,0.3,9,8921,748.8,416,22books/output-log-DOC-st0.5/query1-runREFERENCES:SIMDATES/iterQ1-decay0.5-lambda0.25-norm_threshold0.3-steepness0.5.res,0.369,0.800,0.550,
REFERENCES:SIMDATES,0.5,0.5,0,9,8935,880.1,405,22books/output-log-DOC-st0.5/query1-runREFERENCES:SIMDATES/iterQ1-decay0.5-lambda0.5-norm_threshold0-steepness0.5.res,0.367,0.800,0.550,
REFERENCES:SIMDATES,0.5,0.5,0.1,10,8935,838.0,423,22books/output-log-DOC-st0.5/query1-runREFERENCES:SIMDATES/iterQ1-decay0.5-lambda0.5-norm_threshold0.1-steepness0.5.res,0.367,0.800,0.550,
REFERENCES:SIMDATES,0.5,0.5,0.2,11,8929,786.7,425,22books/output-log-DOC-st0.5/query1-runREFERENCES:SIMDATES/iterQ1-decay0.5-lambda0.5-norm_threshold0.2-steepness0.5.res,0.367,0.800,0.550,
REFERENCES:SIMDATES,0.5,0.5,0.3,12,8922,728.9,447,22books/output-log-DOC-st0.5/query1-runREFERENCES:SIMDATES/iterQ1-decay0.5-lambda0.5-norm_threshold0.3-steepness0.5.res,0.367,0.800,0.550,
REFERENCES:SIMDATES,0.75,0.5,0,14,8935,784.2,471,22books/output-log-DOC-st0.5/query1-runREFERENCES:SIMDATES/iterQ1-decay0.5-lambda0.75-norm_threshold0-steepness0.5.res,0.344,0.800,0.500,
REFERENCES:SIMDATES,0.75,0.5,0.1,15,8935,731.2,488,22books/output-log-DOC-st0.5/query1-runREFERENCES:SIMDATES/iterQ1-decay0.5-lambda0.75-norm_threshold0.1-steepness0.5.res,0.346,0.800,0.500,
REFERENCES:SIMDATES,0.75,0.5,0.2,15,8924,630.4,450,22books/output-log-DOC-st0.5/query1-runREFERENCES:SIMDATES/iterQ1-decay0.5-lambda0.75-norm_threshold0.2-steepness0.5.res,0.348,0.800,0.500,
REFERENCES:SIMDATES,0.75,0.5,0.3,15,8820,502.4,517,22books/output-log-DOC-st0.5/query1-runREFERENCES:SIMDATES/iterQ1-decay0.5-lambda0.75-norm_threshold0.3-steepness0.5.res,0.339,0.800,0.500,

Sig-Test:,randomized,,threshold,set,to,0.050000
relationships,lambda,decay,norm_threshold,number of spread. activ. pulses,final number of activated nodes,final overall activation,running time,run-id,map,P10,P20,
,,,,,,,,22books/eyor-mini-no_cats.res,0.141,0.600,0.400,
REFERENCES:SIMDATES:SIMLOC,0.0,0.1,0,7,11464,6587.8,2755,22books/output-log-DOC-st0.5/query1-runREFERENCES:SIMDATES:SIMLOC/iterQ1-decay0.1-lambda0.0-norm_threshold0-steepness0.5.res,0.051,0.200,0.100,
REFERENCES:SIMDATES:SIMLOC,0.0,0.1,0.1,8,11458,6423.8,1839,22books/output-log-DOC-st0.5/query1-runREFERENCES:SIMDATES:SIMLOC/iterQ1-decay0.1-lambda0.0-norm_threshold0.1-steepness0.5.res,0.049,0.200,0.100,
REFERENCES:SIMDATES:SIMLOC,0.0,0.1,0.2,8,11455,6234.6,1539,22books/output-log-DOC-st0.5/query1-runREFERENCES:SIMDATES:SIMLOC/iterQ1-decay0.1-lambda0.0-norm_threshold0.2-steepness0.5.res,0.049,0.200,0.100,
REFERENCES:SIMDATES:SIMLOC,0.0,0.1,0.3,9,11452,6102.2,1788,22books/output-log-DOC-st0.5/query1-runREFERENCES:SIMDATES:SIMLOC/iterQ1-decay0.1-lambda0.0-norm_threshold0.3-steepness0.5.res,0.051,0.200,0.100,
REFERENCES:SIMDATES:SIMLOC,0.25,0.1,0,8,11464,6493.5,1530,22books/output-log-DOC-st0.5/query1-runREFERENCES:SIMDATES:SIMLOC/iterQ1-decay0.1-lambda0.25-norm_threshold0-steepness0.5.res,0.049,0.200,0.100,
REFERENCES:SIMDATES:SIMLOC,0.25,0.1,0.1,9,11458,6353.3,1571,22books/output-log-DOC-st0.5/query1-runREFERENCES:SIMDATES:SIMLOC/iterQ1-decay0.1-lambda0.25-norm_threshold0.1-steepness0.5.res,0.051,0.200,0.100,
REFERENCES:SIMDATES:SIMLOC,0.25,0.1,0.2,9,11454,6134.7,1504,22books/output-log-DOC-st0.5/query1-runREFERENCES:SIMDATES:SIMLOC/iterQ1-decay0.1-lambda0.25-norm_threshold0.2-steepness0.5.res,0.054,0.200,0.100,
REFERENCES:SIMDATES:SIMLOC,0.25,0.1,0.3,10,11452,6030.5,1639,22books/output-log-DOC-st0.5/query1-runREFERENCES:SIMDATES:SIMLOC/iterQ1-decay0.1-lambda0.25-norm_threshold0.3-steepness0.5.res,0.051,0.200,0.100,
REFERENCES:SIMDATES:SIMLOC,0.5,0.1,0,10,11464,6233.6,1586,22books/output-log-DOC-st0.5/query1-runREFERENCES:SIMDATES:SIMLOC/iterQ1-decay0.1-lambda0.5-norm_threshold0-steepness0.5.res,0.048,0.200,0.100,
REFERENCES:SIMDATES:SIMLOC,0.5,0.1,0.1,11,11457,6099.4,1686,22books/output-log-DOC-st0.5/query1-runREFERENCES:SIMDATES:SIMLOC/iterQ1-decay0.1-lambda0.5-norm_threshold0.1-steepness0.5.res,0.051,0.200,0.100,
REFERENCES:SIMDATES:SIMLOC,0.5,0.1,0.2,12,11455,5992.0,1557,22books/output-log-DOC-st0.5/query1-runREFERENCES:SIMDATES:SIMLOC/iterQ1-decay0.1-lambda0.5-norm_threshold0.2-steepness0.5.res,0.051,0.200,0.100,
REFERENCES:SIMDATES:SIMLOC,0.5,0.1,0.3,12,11452,5705.1,1689,22books/output-log-DOC-st0.5/query1-runREFERENCES:SIMDATES:SIMLOC/iterQ1-decay0.1-lambda0.5-norm_threshold0.3-steepness0.5.res,0.049,0.200,0.100,
REFERENCES:SIMDATES:SIMLOC,0.75,0.1,0,15,11464,5558.4,1635,22books/output-log-DOC-st0.5/query1-runREFERENCES:SIMDATES:SIMLOC/iterQ1-decay0.1-lambda0.75-norm_threshold0-steepness0.5.res,0.054,0.100,0.150,
REFERENCES:SIMDATES:SIMLOC,0.75,0.1,0.1,15,11455,5048.0,1834,22books/output-log-DOC-st0.5/query1-runREFERENCES:SIMDATES:SIMLOC/iterQ1-decay0.1-lambda0.75-norm_threshold0.1-steepness0.5.res,0.073,0.200,0.150,
REFERENCES:SIMDATES:SIMLOC,0.75,0.1,0.2,15,11450,4470.8,1668,22books/output-log-DOC-st0.5/query1-runREFERENCES:SIMDATES:SIMLOC/iterQ1-decay0.1-lambda0.75-norm_threshold0.2-steepness0.5.res,0.071,0.200,0.150,
REFERENCES:SIMDATES:SIMLOC,0.75,0.1,0.3,15,11424,3627.9,1788,22books/output-log-DOC-st0.5/query1-runREFERENCES:SIMDATES:SIMLOC/iterQ1-decay0.1-lambda0.75-norm_threshold0.3-steepness0.5.res,0.088,0.300,0.200,
REFERENCES:SIMDATES:SIMLOC,0.0,0.2,0,7,11464,5285.2,1627,22books/output-log-DOC-st0.5/query1-runREFERENCES:SIMDATES:SIMLOC/iterQ1-decay0.2-lambda0.0-norm_threshold0-steepness0.5.res,0.181,0.500,0.250,
REFERENCES:SIMDATES:SIMLOC,0.0,0.2,0.1,8,11455,5099.1,1611,22books/output-log-DOC-st0.5/query1-runREFERENCES:SIMDATES:SIMLOC/iterQ1-decay0.2-lambda0.0-norm_threshold0.1-steepness0.5.res,0.174,0.500,0.250,
REFERENCES:SIMDATES:SIMLOC,0.0,0.2,0.2,9,11453,4956.4,1509,22books/output-log-DOC-st0.5/query1-runREFERENCES:SIMDATES:SIMLOC/iterQ1-decay0.2-lambda0.0-norm_threshold0.2-steepness0.5.res,0.153,0.400,0.250,
REFERENCES:SIMDATES:SIMLOC,0.0,0.2,0.3,9,11445,4779.1,1514,22books/output-log-DOC-st0.5/query1-runREFERENCES:SIMDATES:SIMLOC/iterQ1-decay0.2-lambda0.0-norm_threshold0.3-steepness0.5.res,0.141,0.400,0.200,
REFERENCES:SIMDATES:SIMLOC,0.25,0.2,0,8,11464,5204.5,1477,22books/output-log-DOC-st0.5/query1-runREFERENCES:SIMDATES:SIMLOC/iterQ1-decay0.2-lambda0.25-norm_threshold0-steepness0.5.res,0.181,0.500,0.250,
REFERENCES:SIMDATES:SIMLOC,0.25,0.2,0.1,9,11456,5030.1,1731,22books/output-log-DOC-st0.5/query1-runREFERENCES:SIMDATES:SIMLOC/iterQ1-decay0.2-lambda0.25-norm_threshold0.1-steepness0.5.res,0.174,0.500,0.250,
REFERENCES:SIMDATES:SIMLOC,0.25,0.2,0.2,9,11452,4818.8,1576,22books/output-log-DOC-st0.5/query1-runREFERENCES:SIMDATES:SIMLOC/iterQ1-decay0.2-lambda0.25-norm_threshold0.2-steepness0.5.res,0.151,0.400,0.250,
REFERENCES:SIMDATES:SIMLOC,0.25,0.2,0.3,10,11442,4727.4,1632,22books/output-log-DOC-st0.5/query1-runREFERENCES:SIMDATES:SIMLOC/iterQ1-decay0.2-lambda0.25-norm_threshold0.3-steepness0.5.res,0.141,0.400,0.200,
REFERENCES:SIMDATES:SIMLOC,0.5,0.2,0,10,11464,4982.2,1510,22books/output-log-DOC-st0.5/query1-runREFERENCES:SIMDATES:SIMLOC/iterQ1-decay0.2-lambda0.5-norm_threshold0-steepness0.5.res,0.170,0.500,0.250,
REFERENCES:SIMDATES:SIMLOC,0.5,0.2,0.1,11,11454,4805.3,1642,22books/output-log-DOC-st0.5/query1-runREFERENCES:SIMDATES:SIMLOC/iterQ1-decay0.2-lambda0.5-norm_threshold0.1-steepness0.5.res,0.161,0.500,0.250,
REFERENCES:SIMDATES:SIMLOC,0.5,0.2,0.2,12,11452,4695.3,1634,22books/output-log-DOC-st0.5/query1-runREFERENCES:SIMDATES:SIMLOC/iterQ1-decay0.2-lambda0.5-norm_threshold0.2-steepness0.5.res,0.137,0.400,0.200,
REFERENCES:SIMDATES:SIMLOC,0.5,0.2,0.3,13,11443,4580.9,1720,22books/output-log-DOC-st0.5/query1-runREFERENCES:SIMDATES:SIMLOC/iterQ1-decay0.2-lambda0.5-norm_threshold0.3-steepness0.5.res,0.137,0.400,0.200,
REFERENCES:SIMDATES:SIMLOC,0.75,0.2,0,15,11464,4412.2,1731,22books/output-log-DOC-st0.5/query1-runREFERENCES:SIMDATES:SIMLOC/iterQ1-decay0.2-lambda0.75-norm_threshold0-steepness0.5.res,0.182,0.600,0.300,
REFERENCES:SIMDATES:SIMLOC,0.75,0.2,0.1,15,11453,3916.8,1813,22books/output-log-DOC-st0.5/query1-runREFERENCES:SIMDATES:SIMLOC/iterQ1-decay0.2-lambda0.75-norm_threshold0.1-steepness0.5.res,0.179,0.500,0.300,
REFERENCES:SIMDATES:SIMLOC,0.75,0.2,0.2,15,11437,3413.9,1785,22books/output-log-DOC-st0.5/query1-runREFERENCES:SIMDATES:SIMLOC/iterQ1-decay0.2-lambda0.75-norm_threshold0.2-steepness0.5.res,0.189,0.400,0.400,
REFERENCES:SIMDATES:SIMLOC,0.75,0.2,0.3,15,11413,2687.5,1690,22books/output-log-DOC-st0.5/query1-runREFERENCES:SIMDATES:SIMLOC/iterQ1-decay0.2-lambda0.75-norm_threshold0.3-steepness0.5.res,0.211,0.500,0.450,
REFERENCES:SIMDATES:SIMLOC,0.0,0.25,0,7,11464,4671.1,1509,22books/output-log-DOC-st0.5/query1-runREFERENCES:SIMDATES:SIMLOC/iterQ1-decay0.25-lambda0.0-norm_threshold0-steepness0.5.res,0.181,0.500,0.250,
REFERENCES:SIMDATES:SIMLOC,0.0,0.25,0.1,8,11454,4481.0,1587,22books/output-log-DOC-st0.5/query1-runREFERENCES:SIMDATES:SIMLOC/iterQ1-decay0.25-lambda0.0-norm_threshold0.1-steepness0.5.res,0.181,0.500,0.250,
REFERENCES:SIMDATES:SIMLOC,0.0,0.25,0.2,9,11447,4342.0,1480,22books/output-log-DOC-st0.5/query1-runREFERENCES:SIMDATES:SIMLOC/iterQ1-decay0.25-lambda0.0-norm_threshold0.2-steepness0.5.res,0.181,0.500,0.250,
REFERENCES:SIMDATES:SIMLOC,0.0,0.25,0.3,9,11432,4161.0,1613,22books/output-log-DOC-st0.5/query1-runREFERENCES:SIMDATES:SIMLOC/iterQ1-decay0.25-lambda0.0-norm_threshold0.3-steepness0.5.res,0.181,0.500,0.250,
REFERENCES:SIMDATES:SIMLOC,0.25,0.25,0,8,11464,4597.1,1555,22books/output-log-DOC-st0.5/query1-runREFERENCES:SIMDATES:SIMLOC/iterQ1-decay0.25-lambda0.25-norm_threshold0-steepness0.5.res,0.181,0.500,0.250,
REFERENCES:SIMDATES:SIMLOC,0.25,0.25,0.1,9,11450,4416.0,1673,22books/output-log-DOC-st0.5/query1-runREFERENCES:SIMDATES:SIMLOC/iterQ1-decay0.25-lambda0.25-norm_threshold0.1-steepness0.5.res,0.181,0.500,0.250,
REFERENCES:SIMDATES:SIMLOC,0.25,0.25,0.2,9,11436,4208.7,1672,22books/output-log-DOC-st0.5/query1-runREFERENCES:SIMDATES:SIMLOC/iterQ1-decay0.25-lambda0.25-norm_threshold0.2-steepness0.5.res,0.178,0.500,0.250,
REFERENCES:SIMDATES:SIMLOC,0.25,0.25,0.3,10,11429,4122.7,1500,22books/output-log-DOC-st0.5/query1-runREFERENCES:SIMDATES:SIMLOC/iterQ1-decay0.25-lambda0.25-norm_threshold0.3-steepness0.5.res,0.181,0.500,0.250,
REFERENCES:SIMDATES:SIMLOC,0.5,0.25,0,10,11464,4393.6,1622,22books/output-log-DOC-st0.5/query1-runREFERENCES:SIMDATES:SIMLOC/iterQ1-decay0.25-lambda0.5-norm_threshold0-steepness0.5.res,0.191,0.500,0.300,
REFERENCES:SIMDATES:SIMLOC,0.5,0.25,0.1,11,11450,4203.9,1564,22books/output-log-DOC-st0.5/query1-runREFERENCES:SIMDATES:SIMLOC/iterQ1-decay0.25-lambda0.5-norm_threshold0.1-steepness0.5.res,0.189,0.500,0.300,
REFERENCES:SIMDATES:SIMLOC,0.5,0.25,0.2,12,11442,4096.3,1697,22books/output-log-DOC-st0.5/query1-runREFERENCES:SIMDATES:SIMLOC/iterQ1-decay0.25-lambda0.5-norm_threshold0.2-steepness0.5.res,0.178,0.500,0.250,
REFERENCES:SIMDATES:SIMLOC,0.5,0.25,0.3,13,11434,3983.1,1602,22books/output-log-DOC-st0.5/query1-runREFERENCES:SIMDATES:SIMLOC/iterQ1-decay0.25-lambda0.5-norm_threshold0.3-steepness0.5.res,0.178,0.500,0.250,
REFERENCES:SIMDATES:SIMLOC,0.75,0.25,0,15,11464,3875.3,1828,22books/output-log-DOC-st0.5/query1-runREFERENCES:SIMDATES:SIMLOC/iterQ1-decay0.25-lambda0.75-norm_threshold0-steepness0.5.res,0.204,0.600,0.300,
REFERENCES:SIMDATES:SIMLOC,0.75,0.25,0.1,15,11448,3396.0,1685,22books/output-log-DOC-st0.5/query1-runREFERENCES:SIMDATES:SIMLOC/iterQ1-decay0.25-lambda0.75-norm_threshold0.1-steepness0.5.res,0.243,0.600,0.400,
REFERENCES:SIMDATES:SIMLOC,0.75,0.25,0.2,15,11429,2931.1,1877,22books/output-log-DOC-st0.5/query1-runREFERENCES:SIMDATES:SIMLOC/iterQ1-decay0.25-lambda0.75-norm_threshold0.2-steepness0.5.res,0.276,0.600,0.450,
REFERENCES:SIMDATES:SIMLOC,0.75,0.25,0.3,15,11406,2271.6,1760,22books/output-log-DOC-st0.5/query1-runREFERENCES:SIMDATES:SIMLOC/iterQ1-decay0.25-lambda0.75-norm_threshold0.3-steepness0.5.res,0.276,0.700,0.450,
REFERENCES:SIMDATES:SIMLOC,0.0,0.5,0,7,10971,2084.2,1769,22books/output-log-DOC-st0.5/query1-runREFERENCES:SIMDATES:SIMLOC/iterQ1-decay0.5-lambda0.0-norm_threshold0-steepness0.5.res,0.368,0.800,0.550,
REFERENCES:SIMDATES:SIMLOC,0.0,0.5,0.1,9,10969,2054.0,1562,22books/output-log-DOC-st0.5/query1-runREFERENCES:SIMDATES:SIMLOC/iterQ1-decay0.5-lambda0.0-norm_threshold0.1-steepness0.5.res,0.347,0.800,0.500,
REFERENCES:SIMDATES:SIMLOC,0.0,0.5,0.2,9,10961,1940.6,1674,22books/output-log-DOC-st0.5/query1-runREFERENCES:SIMDATES:SIMLOC/iterQ1-decay0.5-lambda0.0-norm_threshold0.2-steepness0.5.res,0.367,0.800,0.550,
REFERENCES:SIMDATES:SIMLOC,0.0,0.5,0.3,11,10951,1911.0,1585,22books/output-log-DOC-st0.5/query1-runREFERENCES:SIMDATES:SIMLOC/iterQ1-decay0.5-lambda0.0-norm_threshold0.3-steepness0.5.res,0.347,0.800,0.500,
REFERENCES:SIMDATES:SIMLOC,0.25,0.5,0,9,10971,2093.5,1530,22books/output-log-DOC-st0.5/query1-runREFERENCES:SIMDATES:SIMLOC/iterQ1-decay0.5-lambda0.25-norm_threshold0-steepness0.5.res,0.347,0.800,0.500,
REFERENCES:SIMDATES:SIMLOC,0.25,0.5,0.1,9,10968,1984.7,1465,22books/output-log-DOC-st0.5/query1-runREFERENCES:SIMDATES:SIMLOC/iterQ1-decay0.5-lambda0.25-norm_threshold0.1-steepness0.5.res,0.371,0.800,0.550,
REFERENCES:SIMDATES:SIMLOC,0.25,0.5,0.2,10,10961,1921.6,1578,22books/output-log-DOC-st0.5/query1-runREFERENCES:SIMDATES:SIMLOC/iterQ1-decay0.5-lambda0.25-norm_threshold0.2-steepness0.5.res,0.369,0.800,0.550,
REFERENCES:SIMDATES:SIMLOC,0.25,0.5,0.3,11,10952,1853.9,1566,22books/output-log-DOC-st0.5/query1-runREFERENCES:SIMDATES:SIMLOC/iterQ1-decay0.5-lambda0.25-norm_threshold0.3-steepness0.5.res,0.368,0.800,0.550,
REFERENCES:SIMDATES:SIMLOC,0.5,0.5,0,11,10971,2004.2,1624,22books/output-log-DOC-st0.5/query1-runREFERENCES:SIMDATES:SIMLOC/iterQ1-decay0.5-lambda0.5-norm_threshold0-steepness0.5.res,0.372,0.800,0.550,
REFERENCES:SIMDATES:SIMLOC,0.5,0.5,0.1,12,10968,1933.0,1594,22books/output-log-DOC-st0.5/query1-runREFERENCES:SIMDATES:SIMLOC/iterQ1-decay0.5-lambda0.5-norm_threshold0.1-steepness0.5.res,0.372,0.800,0.550,
REFERENCES:SIMDATES:SIMLOC,0.5,0.5,0.2,13,10961,1856.0,1709,22books/output-log-DOC-st0.5/query1-runREFERENCES:SIMDATES:SIMLOC/iterQ1-decay0.5-lambda0.5-norm_threshold0.2-steepness0.5.res,0.372,0.800,0.550,
REFERENCES:SIMDATES:SIMLOC,0.5,0.5,0.3,14,10949,1761.7,1711,22books/output-log-DOC-st0.5/query1-runREFERENCES:SIMDATES:SIMLOC/iterQ1-decay0.5-lambda0.5-norm_threshold0.3-steepness0.5.res,0.374,0.800,0.550,
REFERENCES:SIMDATES:SIMLOC,0.75,0.5,0,15,10971,1655.7,1809,22books/output-log-DOC-st0.5/query1-runREFERENCES:SIMDATES:SIMLOC/iterQ1-decay0.5-lambda0.75-norm_threshold0-steepness0.5.res,0.400,0.800,0.600,
REFERENCES:SIMDATES:SIMLOC,0.75,0.5,0.1,15,10963,1418.9,1790,22books/output-log-DOC-st0.5/query1-runREFERENCES:SIMDATES:SIMLOC/iterQ1-decay0.5-lambda0.75-norm_threshold0.1-steepness0.5.res,0.376,0.800,0.550,
REFERENCES:SIMDATES:SIMLOC,0.75,0.5,0.2,15,10944,1144.5,1648,22books/output-log-DOC-st0.5/query1-runREFERENCES:SIMDATES:SIMLOC/iterQ1-decay0.5-lambda0.75-norm_threshold0.2-steepness0.5.res,0.375,0.800,0.550,
REFERENCES:SIMDATES:SIMLOC,0.75,0.5,0.3,15,10872,838.2,1761,22books/output-log-DOC-st0.5/query1-runREFERENCES:SIMDATES:SIMLOC/iterQ1-decay0.5-lambda0.75-norm_threshold0.3-steepness0.5.res,0.348,0.900,0.500,

Sig-Test:,randomized,,threshold,set,to,0.050000
relationships,lambda,decay,norm_threshold,number of spread. activ. pulses,final number of activated nodes,final overall activation,running time,run-id,map,P10,P20,
,,,,,,,,22books/eyor-mini-no_cats.res,0.141,0.600,0.400,
REFERENCES:SIMLOC,0.0,0.1,0,7,11457,6537.3,2294,22books/output-log-DOC-st0.5/query1-runREFERENCES:SIMLOC/iterQ1-decay0.1-lambda0.0-norm_threshold0-steepness0.5.res,0.048,0.200,0.100,
REFERENCES:SIMLOC,0.0,0.1,0.1,8,11451,6370.9,1535,22books/output-log-DOC-st0.5/query1-runREFERENCES:SIMLOC/iterQ1-decay0.1-lambda0.0-norm_threshold0.1-steepness0.5.res,0.049,0.200,0.100,
REFERENCES:SIMLOC,0.0,0.1,0.2,8,11449,6181.3,1370,22books/output-log-DOC-st0.5/query1-runREFERENCES:SIMLOC/iterQ1-decay0.1-lambda0.0-norm_threshold0.2-steepness0.5.res,0.049,0.200,0.100,
REFERENCES:SIMLOC,0.0,0.1,0.3,9,11446,6048.0,1333,22books/output-log-DOC-st0.5/query1-runREFERENCES:SIMLOC/iterQ1-decay0.1-lambda0.0-norm_threshold0.3-steepness0.5.res,0.048,0.200,0.100,
REFERENCES:SIMLOC,0.25,0.1,0,8,11457,6447.5,1261,22books/output-log-DOC-st0.5/query1-runREFERENCES:SIMLOC/iterQ1-decay0.1-lambda0.25-norm_threshold0-steepness0.5.res,0.045,0.100,0.100,
REFERENCES:SIMLOC,0.25,0.1,0.1,9,11452,6304.8,1278,22books/output-log-DOC-st0.5/query1-runREFERENCES:SIMLOC/iterQ1-decay0.1-lambda0.25-norm_threshold0.1-steepness0.5.res,0.047,0.200,0.100,
REFERENCES:SIMLOC,0.25,0.1,0.2,9,11447,6086.6,1405,22books/output-log-DOC-st0.5/query1-runREFERENCES:SIMLOC/iterQ1-decay0.1-lambda0.25-norm_threshold0.2-steepness0.5.res,0.046,0.200,0.100,
REFERENCES:SIMLOC,0.25,0.1,0.3,10,11446,5982.0,1604,22books/output-log-DOC-st0.5/query1-runREFERENCES:SIMLOC/iterQ1-decay0.1-lambda0.25-norm_threshold0.3-steepness0.5.res,0.048,0.200,0.100,
REFERENCES:SIMLOC,0.5,0.1,0,10,11457,6190.9,1352,22books/output-log-DOC-st0.5/query1-runREFERENCES:SIMLOC/iterQ1-decay0.1-lambda0.5-norm_threshold0-steepness0.5.res,0.045,0.100,0.100,
REFERENCES:SIMLOC,0.5,0.1,0.1,11,11450,6054.7,1295,22books/output-log-DOC-st0.5/query1-runREFERENCES:SIMLOC/iterQ1-decay0.1-lambda0.5-norm_threshold0.1-steepness0.5.res,0.045,0.100,0.100,
REFERENCES:SIMLOC,0.5,0.1,0.2,12,11447,5945.0,1449,22books/output-log-DOC-st0.5/query1-runREFERENCES:SIMLOC/iterQ1-decay0.1-lambda0.5-norm_threshold0.2-steepness0.5.res,0.045,0.100,0.100,
REFERENCES:SIMLOC,0.5,0.1,0.3,12,11446,5660.2,1364,22books/output-log-DOC-st0.5/query1-runREFERENCES:SIMLOC/iterQ1-decay0.1-lambda0.5-norm_threshold0.3-steepness0.5.res,0.045,0.100,0.100,
REFERENCES:SIMLOC,0.75,0.1,0,15,11457,5521.2,1579,22books/output-log-DOC-st0.5/query1-runREFERENCES:SIMLOC/iterQ1-decay0.1-lambda0.75-norm_threshold0-steepness0.5.res,0.053,0.200,0.150,
REFERENCES:SIMLOC,0.75,0.1,0.1,15,11448,5009.7,1437,22books/output-log-DOC-st0.5/query1-runREFERENCES:SIMLOC/iterQ1-decay0.1-lambda0.75-norm_threshold0.1-steepness0.5.res,0.071,0.200,0.150,
REFERENCES:SIMLOC,0.75,0.1,0.2,15,11444,4435.6,1559,22books/output-log-DOC-st0.5/query1-runREFERENCES:SIMLOC/iterQ1-decay0.1-lambda0.75-norm_threshold0.2-steepness0.5.res,0.078,0.200,0.200,
REFERENCES:SIMLOC,0.75,0.1,0.3,15,11418,3596.1,1450,22books/output-log-DOC-st0.5/query1-runREFERENCES:SIMLOC/iterQ1-decay0.1-lambda0.75-norm_threshold0.3-steepness0.5.res,0.099,0.300,0.250,
REFERENCES:SIMLOC,0.0,0.2,0,7,11457,5225.1,1308,22books/output-log-DOC-st0.5/query1-runREFERENCES:SIMLOC/iterQ1-decay0.2-lambda0.0-norm_threshold0-steepness0.5.res,0.173,0.500,0.250,
REFERENCES:SIMLOC,0.0,0.2,0.1,8,11448,5037.1,1363,22books/output-log-DOC-st0.5/query1-runREFERENCES:SIMLOC/iterQ1-decay0.2-lambda0.0-norm_threshold0.1-steepness0.5.res,0.165,0.500,0.250,
REFERENCES:SIMLOC,0.0,0.2,0.2,9,11445,4894.9,1368,22books/output-log-DOC-st0.5/query1-runREFERENCES:SIMLOC/iterQ1-decay0.2-lambda0.0-norm_threshold0.2-steepness0.5.res,0.150,0.400,0.250,
REFERENCES:SIMLOC,0.0,0.2,0.3,9,11436,4711.2,1327,22books/output-log-DOC-st0.5/query1-runREFERENCES:SIMLOC/iterQ1-decay0.2-lambda0.0-norm_threshold0.3-steepness0.5.res,0.135,0.400,0.200,
REFERENCES:SIMLOC,0.25,0.2,0,8,11457,5147.8,1386,22books/output-log-DOC-st0.5/query1-runREFERENCES:SIMLOC/iterQ1-decay0.2-lambda0.25-norm_threshold0-steepness0.5.res,0.175,0.500,0.250,
REFERENCES:SIMLOC,0.25,0.2,0.1,9,11448,4970.9,1307,22books/output-log-DOC-st0.5/query1-runREFERENCES:SIMLOC/iterQ1-decay0.2-lambda0.25-norm_threshold0.1-steepness0.5.res,0.168,0.500,0.250,
REFERENCES:SIMLOC,0.25,0.2,0.2,9,11444,4757.7,1321,22books/output-log-DOC-st0.5/query1-runREFERENCES:SIMLOC/iterQ1-decay0.2-lambda0.25-norm_threshold0.2-steepness0.5.res,0.152,0.400,0.250,
REFERENCES:SIMLOC,0.25,0.2,0.3,10,11433,4664.4,1437,22books/output-log-DOC-st0.5/query1-runREFERENCES:SIMLOC/iterQ1-decay0.2-lambda0.25-norm_threshold0.3-steepness0.5.res,0.135,0.400,0.200,
REFERENCES:SIMLOC,0.5,0.2,0,10,11457,4928.0,1364,22books/output-log-DOC-st0.5/query1-runREFERENCES:SIMLOC/iterQ1-decay0.2-lambda0.5-norm_threshold0-steepness0.5.res,0.162,0.400,0.250,
REFERENCES:SIMLOC,0.5,0.2,0.1,11,11448,4747.4,1367,22books/output-log-DOC-st0.5/query1-runREFERENCES:SIMLOC/iterQ1-decay0.2-lambda0.5-norm_threshold0.1-steepness0.5.res,0.159,0.400,0.250,
REFERENCES:SIMLOC,0.5,0.2,0.2,12,11445,4633.9,1450,22books/output-log-DOC-st0.5/query1-runREFERENCES:SIMLOC/iterQ1-decay0.2-lambda0.5-norm_threshold0.2-steepness0.5.res,0.144,0.400,0.250,
REFERENCES:SIMLOC,0.5,0.2,0.3,13,11434,4519.6,1471,22books/output-log-DOC-st0.5/query1-runREFERENCES:SIMLOC/iterQ1-decay0.2-lambda0.5-norm_threshold0.3-steepness0.5.res,0.132,0.400,0.200,
REFERENCES:SIMLOC,0.75,0.2,0,15,11457,4363.1,1570,22books/output-log-DOC-st0.5/query1-runREFERENCES:SIMLOC/iterQ1-decay0.2-lambda0.75-norm_threshold0-steepness0.5.res,0.187,0.500,0.300,
REFERENCES:SIMLOC,0.75,0.2,0.1,15,11447,3864.2,1510,22books/output-log-DOC-st0.5/query1-runREFERENCES:SIMLOC/iterQ1-decay0.2-lambda0.75-norm_threshold0.1-steepness0.5.res,0.198,0.500,0.350,
REFERENCES:SIMLOC,0.75,0.2,0.2,15,11428,3364.4,1546,22books/output-log-DOC-st0.5/query1-runREFERENCES:SIMLOC/iterQ1-decay0.2-lambda0.75-norm_threshold0.2-steepness0.5.res,0.199,0.500,0.350,
REFERENCES:SIMLOC,0.75,0.2,0.3,15,11407,2643.3,1563,22books/output-log-DOC-st0.5/query1-runREFERENCES:SIMLOC/iterQ1-decay0.2-lambda0.75-norm_threshold0.3-steepness0.5.res,0.220,0.500,0.450,
REFERENCES:SIMLOC,0.0,0.25,0,7,11455,4605.9,1204,22books/output-log-DOC-st0.5/query1-runREFERENCES:SIMLOC/iterQ1-decay0.25-lambda0.0-norm_threshold0-steepness0.5.res,0.173,0.500,0.250,
REFERENCES:SIMLOC,0.0,0.25,0.1,8,11441,4415.0,1269,22books/output-log-DOC-st0.5/query1-runREFERENCES:SIMLOC/iterQ1-decay0.25-lambda0.0-norm_threshold0.1-steepness0.5.res,0.187,0.500,0.300,
REFERENCES:SIMLOC,0.0,0.25,0.2,9,11436,4274.6,1278,22books/output-log-DOC-st0.5/query1-runREFERENCES:SIMLOC/iterQ1-decay0.25-lambda0.0-norm_threshold0.2-steepness0.5.res,0.185,0.500,0.300,
REFERENCES:SIMLOC,0.0,0.25,0.3,9,11426,4088.0,1313,22books/output-log-DOC-st0.5/query1-runREFERENCES:SIMLOC/iterQ1-decay0.25-lambda0.0-norm_threshold0.3-steepness0.5.res,0.175,0.500,0.250,
REFERENCES:SIMLOC,0.25,0.25,0,8,11455,4534.9,1288,22books/output-log-DOC-st0.5/query1-runREFERENCES:SIMLOC/iterQ1-decay0.25-lambda0.25-norm_threshold0-steepness0.5.res,0.173,0.500,0.250,
REFERENCES:SIMLOC,0.25,0.25,0.1,9,11440,4350.0,1402,22books/output-log-DOC-st0.5/query1-runREFERENCES:SIMLOC/iterQ1-decay0.25-lambda0.25-norm_threshold0.1-steepness0.5.res,0.173,0.500,0.250,
REFERENCES:SIMLOC,0.25,0.25,0.2,9,11430,4141.1,1338,22books/output-log-DOC-st0.5/query1-runREFERENCES:SIMLOC/iterQ1-decay0.25-lambda0.25-norm_threshold0.2-steepness0.5.res,0.173,0.500,0.250,
REFERENCES:SIMLOC,0.25,0.25,0.3,10,11423,4053.1,1354,22books/output-log-DOC-st0.5/query1-runREFERENCES:SIMLOC/iterQ1-decay0.25-lambda0.25-norm_threshold0.3-steepness0.5.res,0.173,0.500,0.250,
REFERENCES:SIMLOC,0.5,0.25,0,10,11455,4333.6,1282,22books/output-log-DOC-st0.5/query1-runREFERENCES:SIMLOC/iterQ1-decay0.25-lambda0.5-norm_threshold0-steepness0.5.res,0.188,0.500,0.300,
REFERENCES:SIMLOC,0.5,0.25,0.1,11,11439,4139.9,1388,22books/output-log-DOC-st0.5/query1-runREFERENCES:SIMLOC/iterQ1-decay0.25-lambda0.5-norm_threshold0.1-steepness0.5.res,0.190,0.500,0.300,
REFERENCES:SIMLOC,0.5,0.25,0.2,12,11433,4027.9,1345,22books/output-log-DOC-st0.5/query1-runREFERENCES:SIMLOC/iterQ1-decay0.25-lambda0.5-norm_threshold0.2-steepness0.5.res,0.189,0.500,0.300,
REFERENCES:SIMLOC,0.5,0.25,0.3,13,11428,3914.1,1604,22books/output-log-DOC-st0.5/query1-runREFERENCES:SIMLOC/iterQ1-decay0.25-lambda0.5-norm_threshold0.3-steepness0.5.res,0.188,0.500,0.300,
REFERENCES:SIMLOC,0.75,0.25,0,15,11455,3820.5,1458,22books/output-log-DOC-st0.5/query1-runREFERENCES:SIMLOC/iterQ1-decay0.25-lambda0.75-norm_threshold0-steepness0.5.res,0.232,0.500,0.400,
REFERENCES:SIMLOC,0.75,0.25,0.1,15,11439,3337.3,1591,22books/output-log-DOC-st0.5/query1-runREFERENCES:SIMLOC/iterQ1-decay0.25-lambda0.75-norm_threshold0.1-steepness0.5.res,0.245,0.500,0.400,
REFERENCES:SIMLOC,0.75,0.25,0.2,15,11423,2876.0,1434,22books/output-log-DOC-st0.5/query1-runREFERENCES:SIMLOC/iterQ1-decay0.25-lambda0.75-norm_threshold0.2-steepness0.5.res,0.258,0.600,0.400,
REFERENCES:SIMLOC,0.75,0.25,0.3,15,11398,2222.3,1671,22books/output-log-DOC-st0.5/query1-runREFERENCES:SIMLOC/iterQ1-decay0.25-lambda0.75-norm_threshold0.3-steepness0.5.res,0.280,0.800,0.450,
REFERENCES:SIMLOC,0.0,0.5,0,7,10899,1998.5,1214,22books/output-log-DOC-st0.5/query1-runREFERENCES:SIMLOC/iterQ1-decay0.5-lambda0.0-norm_threshold0-steepness0.5.res,0.343,0.700,0.500,
REFERENCES:SIMLOC,0.0,0.5,0.1,9,10897,1967.3,1255,22books/output-log-DOC-st0.5/query1-runREFERENCES:SIMLOC/iterQ1-decay0.5-lambda0.0-norm_threshold0.1-steepness0.5.res,0.343,0.700,0.500,
REFERENCES:SIMLOC,0.0,0.5,0.2,10,10889,1895.4,1367,22books/output-log-DOC-st0.5/query1-runREFERENCES:SIMLOC/iterQ1-decay0.5-lambda0.0-norm_threshold0.2-steepness0.5.res,0.343,0.700,0.500,
REFERENCES:SIMLOC,0.0,0.5,0.3,11,10878,1819.9,1292,22books/output-log-DOC-st0.5/query1-runREFERENCES:SIMLOC/iterQ1-decay0.5-lambda0.0-norm_threshold0.3-steepness0.5.res,0.343,0.700,0.500,
REFERENCES:SIMLOC,0.25,0.5,0,9,10899,2009.0,1273,22books/output-log-DOC-st0.5/query1-runREFERENCES:SIMLOC/iterQ1-decay0.5-lambda0.25-norm_threshold0-steepness0.5.res,0.343,0.700,0.500,
REFERENCES:SIMLOC,0.25,0.5,0.1,9,10896,1897.0,1368,22books/output-log-DOC-st0.5/query1-runREFERENCES:SIMLOC/iterQ1-decay0.5-lambda0.25-norm_threshold0.1-steepness0.5.res,0.343,0.700,0.500,
REFERENCES:SIMLOC,0.25,0.5,0.2,10,10889,1830.6,1386,22books/output-log-DOC-st0.5/query1-runREFERENCES:SIMLOC/iterQ1-decay0.5-lambda0.25-norm_threshold0.2-steepness0.5.res,0.343,0.700,0.500,
REFERENCES:SIMLOC,0.25,0.5,0.3,11,10878,1759.9,1293,22books/output-log-DOC-st0.5/query1-runREFERENCES:SIMLOC/iterQ1-decay0.5-lambda0.25-norm_threshold0.3-steepness0.5.res,0.343,0.700,0.500,
REFERENCES:SIMLOC,0.5,0.5,0,11,10899,1921.9,1340,22books/output-log-DOC-st0.5/query1-runREFERENCES:SIMLOC/iterQ1-decay0.5-lambda0.5-norm_threshold0-steepness0.5.res,0.365,0.700,0.550,
REFERENCES:SIMLOC,0.5,0.5,0.1,12,10896,1847.1,1436,22books/output-log-DOC-st0.5/query1-runREFERENCES:SIMLOC/iterQ1-decay0.5-lambda0.5-norm_threshold0.1-steepness0.5.res,0.365,0.700,0.550,
REFERENCES:SIMLOC,0.5,0.5,0.2,13,10889,1766.5,1440,22books/output-log-DOC-st0.5/query1-runREFERENCES:SIMLOC/iterQ1-decay0.5-lambda0.5-norm_threshold0.2-steepness0.5.res,0.365,0.700,0.550,
REFERENCES:SIMLOC,0.5,0.5,0.3,14,10876,1667.9,1487,22books/output-log-DOC-st0.5/query1-runREFERENCES:SIMLOC/iterQ1-decay0.5-lambda0.5-norm_threshold0.3-steepness0.5.res,0.366,0.700,0.550,
REFERENCES:SIMLOC,0.75,0.5,0,15,10899,1585.9,1565,22books/output-log-DOC-st0.5/query1-runREFERENCES:SIMLOC/iterQ1-decay0.5-lambda0.75-norm_threshold0-steepness0.5.res,0.380,0.800,0.550,
REFERENCES:SIMLOC,0.75,0.5,0.1,15,10890,1351.6,1620,22books/output-log-DOC-st0.5/query1-runREFERENCES:SIMLOC/iterQ1-decay0.5-lambda0.75-norm_threshold0.1-steepness0.5.res,0.382,0.800,0.550,
REFERENCES:SIMLOC,0.75,0.5,0.2,15,10872,1084.7,1610,22books/output-log-DOC-st0.5/query1-runREFERENCES:SIMLOC/iterQ1-decay0.5-lambda0.75-norm_threshold0.2-steepness0.5.res,0.377,0.800,0.550,
REFERENCES:SIMLOC,0.75,0.5,0.3,15,10794,794.8,1610,22books/output-log-DOC-st0.5/query1-runREFERENCES:SIMLOC/iterQ1-decay0.5-lambda0.75-norm_threshold0.3-steepness0.5.res,0.356,0.800,0.500,

Sig-Test:,randomized,,threshold,set,to,0.050000
