###################################
# parameters: 
#   date_th: 0.3
#   doc_th: 0.6
#   loc_th: 0.4
#   nodestouse: DOCUMENT:DATE:LOCATION
#   relationships: REFERENCES:SIMDATES:SIMLOC:SIMPAGE

###################################
# configuration: 
#   sa.act_diff_ratio_limit = 0.01
#   sa.act_diff_ratio_limit_diff = 0.01
#   sa.function = ciir.multi.sa.function.MaxSAFunction(norm_function)
#   sa.id_property_name.DATE = dateID
#   sa.id_property_name.DOCUMENT = docID
#   sa.id_property_name.LOCATION = locID
#   sa.max_pulses = 10
#   sa.nodes_to_print = DATE:LOCATION
#   sa.nodes_to_use = DOCUMENT:DATE:LOCATION
#   sa.norm_function = ciir.multi.sa.SigmoidFunction(0.0, 1.0)
#   sa.relationships_to_use = REFERENCES:SIMDATES:SIMLOC:SIMPAGE
#   sa.spread_threshold.DATE = 0.3
#   sa.spread_threshold.DOCUMENT = 0.6
#   sa.spread_threshold.LOCATION = 0.4
#   sa.weight_property.REFERENCES = relevance
#   sa.weight_property.SIMDATES = sim
#   sa.weight_property.SIMDOC = sim
#   sa.weight_property.SIMLOC = sim
#   sa.weight_property.SIMPAGE = pagesim

###################################
# initial activations (3): 
#   englandsfightwit00wals_354, 1
#   viceroysofirelan00omahuoft_97, 1
#   hallamsworks04halliala_600, 1

###################################
# spreading activation process log: 
#   pulse 0: activated: 3, non-zero: 3, borderline: 3, overall act: 3.000, act diff: 3.000, ratio: 1.000
#   pulse 1: activated: 15, non-zero: 15, borderline: 12, overall act: 8.458, act diff: 5.458, ratio: 0.645
#   pulse 2: activated: 1016015, non-zero: 1016015, borderline: 1016008, overall act: 141077.967, act diff: 141069.509, ratio: 1.000
#   pulse 3: activated: 1016042, non-zero: 1016042, borderline: 1016013, overall act: 141091.685, act diff: 13.718, ratio: 0.000

###################################
# spreading activation process summary: 
#   final number of activated nodes: 1016042
#   final overall activation: 141091.7
#   number of spread. activ. pulses: 3
#   running time: 177433

###################################
# top k results in TREC format: 

2   rel3-3   ireland   1   0.99999577   nodesDOCUMENT:DATE:LOCATION-edgesREFERENCES:SIMDATES:SIMLOC:SIMPAGE-date_th0.3-doc_th0.6-loc_th0.4
2   rel3-3   england   2   0.9988005   nodesDOCUMENT:DATE:LOCATION-edgesREFERENCES:SIMDATES:SIMLOC:SIMPAGE-date_th0.3-doc_th0.6-loc_th0.4
2   rel3-3   dublin   3   0.7097276   nodesDOCUMENT:DATE:LOCATION-edgesREFERENCES:SIMDATES:SIMLOC:SIMPAGE-date_th0.3-doc_th0.6-loc_th0.4
2   rel3-3   strafford   4   0.5307653   nodesDOCUMENT:DATE:LOCATION-edgesREFERENCES:SIMDATES:SIMLOC:SIMPAGE-date_th0.3-doc_th0.6-loc_th0.4
2   rel3-3   clifton house   5   0.3729699   nodesDOCUMENT:DATE:LOCATION-edgesREFERENCES:SIMDATES:SIMLOC:SIMPAGE-date_th0.3-doc_th0.6-loc_th0.4
2   rel3-3   cangort   6   0.36427334   nodesDOCUMENT:DATE:LOCATION-edgesREFERENCES:SIMDATES:SIMLOC:SIMPAGE-date_th0.3-doc_th0.6-loc_th0.4
2   rel3-3   cangort park   7   0.3594188   nodesDOCUMENT:DATE:LOCATION-edgesREFERENCES:SIMDATES:SIMLOC:SIMPAGE-date_th0.3-doc_th0.6-loc_th0.4
2   rel3-3   sopwell hall   8   0.35768622   nodesDOCUMENT:DATE:LOCATION-edgesREFERENCES:SIMDATES:SIMLOC:SIMPAGE-date_th0.3-doc_th0.6-loc_th0.4
2   rel3-3   kilcomin   9   0.35323116   nodesDOCUMENT:DATE:LOCATION-edgesREFERENCES:SIMDATES:SIMLOC:SIMPAGE-date_th0.3-doc_th0.6-loc_th0.4
2   rel3-3   ballincor   10   0.35001552   nodesDOCUMENT:DATE:LOCATION-edgesREFERENCES:SIMDATES:SIMLOC:SIMPAGE-date_th0.3-doc_th0.6-loc_th0.4
2   rel3-3   corolanty   11   0.3473329   nodesDOCUMENT:DATE:LOCATION-edgesREFERENCES:SIMDATES:SIMLOC:SIMPAGE-date_th0.3-doc_th0.6-loc_th0.4
2   rel3-3   loughkeen   12   0.34596506   nodesDOCUMENT:DATE:LOCATION-edgesREFERENCES:SIMDATES:SIMLOC:SIMPAGE-date_th0.3-doc_th0.6-loc_th0.4
2   rel3-3   ivy hall   13   0.3447351   nodesDOCUMENT:DATE:LOCATION-edgesREFERENCES:SIMDATES:SIMLOC:SIMPAGE-date_th0.3-doc_th0.6-loc_th0.4
2   rel3-3   shinrone   14   0.3442811   nodesDOCUMENT:DATE:LOCATION-edgesREFERENCES:SIMDATES:SIMLOC:SIMPAGE-date_th0.3-doc_th0.6-loc_th0.4
2   rel3-3   modreeny   15   0.33839312   nodesDOCUMENT:DATE:LOCATION-edgesREFERENCES:SIMDATES:SIMLOC:SIMPAGE-date_th0.3-doc_th0.6-loc_th0.4
2   rel3-3   cloughjordan   16   0.33410951   nodesDOCUMENT:DATE:LOCATION-edgesREFERENCES:SIMDATES:SIMLOC:SIMPAGE-date_th0.3-doc_th0.6-loc_th0.4
2   rel3-3   fort nisbett   17   0.33204314   nodesDOCUMENT:DATE:LOCATION-edgesREFERENCES:SIMDATES:SIMLOC:SIMPAGE-date_th0.3-doc_th0.6-loc_th0.4
2   rel3-3   borrisokane   18   0.32464334   nodesDOCUMENT:DATE:LOCATION-edgesREFERENCES:SIMDATES:SIMLOC:SIMPAGE-date_th0.3-doc_th0.6-loc_th0.4
2   rel3-3   newton blossomville   19   0.20824702   nodesDOCUMENT:DATE:LOCATION-edgesREFERENCES:SIMDATES:SIMLOC:SIMPAGE-date_th0.3-doc_th0.6-loc_th0.4
2   rel3-3   filgrave   20   0.20565914   nodesDOCUMENT:DATE:LOCATION-edgesREFERENCES:SIMDATES:SIMLOC:SIMPAGE-date_th0.3-doc_th0.6-loc_th0.4

###################################
# top nodes: 

# 2   rel3-3   viceroysofirelan00omahuoft_97   1   1.0   nodesDOCUMENT:DATE:LOCATION-edgesREFERENCES:SIMDATES:SIMLOC:SIMPAGE-date_th0.3-doc_th0.6-loc_th0.4
# 2   rel3-3   hallamsworks04halliala_600   2   1.0   nodesDOCUMENT:DATE:LOCATION-edgesREFERENCES:SIMDATES:SIMLOC:SIMPAGE-date_th0.3-doc_th0.6-loc_th0.4
# 2   rel3-3   englandsfightwit00wals_354   3   1.0   nodesDOCUMENT:DATE:LOCATION-edgesREFERENCES:SIMDATES:SIMLOC:SIMPAGE-date_th0.3-doc_th0.6-loc_th0.4
# 2   rel3-3   ireland   4   0.99999577   nodesDOCUMENT:DATE:LOCATION-edgesREFERENCES:SIMDATES:SIMLOC:SIMPAGE-date_th0.3-doc_th0.6-loc_th0.4
# 2   rel3-3   1641   5   0.9999889   nodesDOCUMENT:DATE:LOCATION-edgesREFERENCES:SIMDATES:SIMLOC:SIMPAGE-date_th0.3-doc_th0.6-loc_th0.4
# 2   rel3-3   england   6   0.9988005   nodesDOCUMENT:DATE:LOCATION-edgesREFERENCES:SIMDATES:SIMLOC:SIMPAGE-date_th0.3-doc_th0.6-loc_th0.4
# 2   rel3-3   constitutionalhi03hall_414   7   0.74639887   nodesDOCUMENT:DATE:LOCATION-edgesREFERENCES:SIMDATES:SIMLOC:SIMPAGE-date_th0.3-doc_th0.6-loc_th0.4
# 2   rel3-3   causeofirelandpl00orei_432   8   0.7246256   nodesDOCUMENT:DATE:LOCATION-edgesREFERENCES:SIMDATES:SIMLOC:SIMPAGE-date_th0.3-doc_th0.6-loc_th0.4
# 2   rel3-3   dublin   9   0.7097276   nodesDOCUMENT:DATE:LOCATION-edgesREFERENCES:SIMDATES:SIMLOC:SIMPAGE-date_th0.3-doc_th0.6-loc_th0.4
# 2   rel3-3   hallamsworks04halliala_601   10   0.69860685   nodesDOCUMENT:DATE:LOCATION-edgesREFERENCES:SIMDATES:SIMLOC:SIMPAGE-date_th0.3-doc_th0.6-loc_th0.4
# 2   rel3-3   viceroysofirelan00omahuoft_96   11   0.682079   nodesDOCUMENT:DATE:LOCATION-edgesREFERENCES:SIMDATES:SIMLOC:SIMPAGE-date_th0.3-doc_th0.6-loc_th0.4
# 2   rel3-3   englandsfightwit00wals_355   12   0.6776363   nodesDOCUMENT:DATE:LOCATION-edgesREFERENCES:SIMDATES:SIMLOC:SIMPAGE-date_th0.3-doc_th0.6-loc_th0.4
# 2   rel3-3   causeofirelandpl00orei_430   13   0.662846   nodesDOCUMENT:DATE:LOCATION-edgesREFERENCES:SIMDATES:SIMLOC:SIMPAGE-date_th0.3-doc_th0.6-loc_th0.4
# 2   rel3-3   selectspeecheswi00cannuoft_357   14   0.65807384   nodesDOCUMENT:DATE:LOCATION-edgesREFERENCES:SIMDATES:SIMLOC:SIMPAGE-date_th0.3-doc_th0.6-loc_th0.4
# 2   rel3-3   historyirishper01maddgoog_66   15   0.6430885   nodesDOCUMENT:DATE:LOCATION-edgesREFERENCES:SIMDATES:SIMLOC:SIMPAGE-date_th0.3-doc_th0.6-loc_th0.4
# 2   rel3-3   historyirishper01maddgoog_68   16   0.6416897   nodesDOCUMENT:DATE:LOCATION-edgesREFERENCES:SIMDATES:SIMLOC:SIMPAGE-date_th0.3-doc_th0.6-loc_th0.4
# 2   rel3-3   calendarstatepa00levagoog_360   17   0.64062184   nodesDOCUMENT:DATE:LOCATION-edgesREFERENCES:SIMDATES:SIMLOC:SIMPAGE-date_th0.3-doc_th0.6-loc_th0.4
# 2   rel3-3   politicalstudies00broduoft_352   18   0.6333924   nodesDOCUMENT:DATE:LOCATION-edgesREFERENCES:SIMDATES:SIMLOC:SIMPAGE-date_th0.3-doc_th0.6-loc_th0.4
# 2   rel3-3   irelandsaintpatr00morriala_200   19   0.63147676   nodesDOCUMENT:DATE:LOCATION-edgesREFERENCES:SIMDATES:SIMLOC:SIMPAGE-date_th0.3-doc_th0.6-loc_th0.4
# 2   rel3-3   hallamsworks04halliala_602   20   0.62738174   nodesDOCUMENT:DATE:LOCATION-edgesREFERENCES:SIMDATES:SIMLOC:SIMPAGE-date_th0.3-doc_th0.6-loc_th0.4
# 2   rel3-3   causeofirelandpl00orei_315   21   0.6241031   nodesDOCUMENT:DATE:LOCATION-edgesREFERENCES:SIMDATES:SIMLOC:SIMPAGE-date_th0.3-doc_th0.6-loc_th0.4
# 2   rel3-3   politicalstudies00broduoft_350   22   0.6226687   nodesDOCUMENT:DATE:LOCATION-edgesREFERENCES:SIMDATES:SIMLOC:SIMPAGE-date_th0.3-doc_th0.6-loc_th0.4
# 2   rel3-3   constitutionalhi03hall_416   23   0.62259763   nodesDOCUMENT:DATE:LOCATION-edgesREFERENCES:SIMDATES:SIMLOC:SIMPAGE-date_th0.3-doc_th0.6-loc_th0.4
# 2   rel3-3   hallamsworks04halliala_599   24   0.6205621   nodesDOCUMENT:DATE:LOCATION-edgesREFERENCES:SIMDATES:SIMLOC:SIMPAGE-date_th0.3-doc_th0.6-loc_th0.4
# 2   rel3-3   calendarstatepa00levagoog_361   25   0.62015265   nodesDOCUMENT:DATE:LOCATION-edgesREFERENCES:SIMDATES:SIMLOC:SIMPAGE-date_th0.3-doc_th0.6-loc_th0.4
# 2   rel3-3   constitutionalhi03hall_415   26   0.6172136   nodesDOCUMENT:DATE:LOCATION-edgesREFERENCES:SIMDATES:SIMLOC:SIMPAGE-date_th0.3-doc_th0.6-loc_th0.4
# 2   rel3-3   historyirishper01maddgoog_67   27   0.61489016   nodesDOCUMENT:DATE:LOCATION-edgesREFERENCES:SIMDATES:SIMLOC:SIMPAGE-date_th0.3-doc_th0.6-loc_th0.4
# 2   rel3-3   causeofirelandpl00orei_431   28   0.61383706   nodesDOCUMENT:DATE:LOCATION-edgesREFERENCES:SIMDATES:SIMLOC:SIMPAGE-date_th0.3-doc_th0.6-loc_th0.4
# 2   rel3-3   selectspeecheswi00cannuoft_358   29   0.6137229   nodesDOCUMENT:DATE:LOCATION-edgesREFERENCES:SIMDATES:SIMLOC:SIMPAGE-date_th0.3-doc_th0.6-loc_th0.4
# 2   rel3-3   completehistoryo0306kenn_434   30   0.61180645   nodesDOCUMENT:DATE:LOCATION-edgesREFERENCES:SIMDATES:SIMLOC:SIMPAGE-date_th0.3-doc_th0.6-loc_th0.4
# 2   rel3-3   politicalstudies00broduoft_383   31   0.6109615   nodesDOCUMENT:DATE:LOCATION-edgesREFERENCES:SIMDATES:SIMLOC:SIMPAGE-date_th0.3-doc_th0.6-loc_th0.4
# 2   rel3-3   selectspeecheswi00cannuoft_359   32   0.60880375   nodesDOCUMENT:DATE:LOCATION-edgesREFERENCES:SIMDATES:SIMLOC:SIMPAGE-date_th0.3-doc_th0.6-loc_th0.4
# 2   rel3-3   causeofirelandpl00orei_249   33   0.60823846   nodesDOCUMENT:DATE:LOCATION-edgesREFERENCES:SIMDATES:SIMLOC:SIMPAGE-date_th0.3-doc_th0.6-loc_th0.4
# 2   rel3-3   politicalstudies00broduoft_382   34   0.60815203   nodesDOCUMENT:DATE:LOCATION-edgesREFERENCES:SIMDATES:SIMLOC:SIMPAGE-date_th0.3-doc_th0.6-loc_th0.4
# 2   rel3-3   historyirishper01maddgoog_229   35   0.6072254   nodesDOCUMENT:DATE:LOCATION-edgesREFERENCES:SIMDATES:SIMLOC:SIMPAGE-date_th0.3-doc_th0.6-loc_th0.4
# 2   rel3-3   calendarstatepa12offigoog_21   36   0.6067627   nodesDOCUMENT:DATE:LOCATION-edgesREFERENCES:SIMDATES:SIMLOC:SIMPAGE-date_th0.3-doc_th0.6-loc_th0.4
# 2   rel3-3   historyirelanda00smilgoog_119   37   0.6064698   nodesDOCUMENT:DATE:LOCATION-edgesREFERENCES:SIMDATES:SIMLOC:SIMPAGE-date_th0.3-doc_th0.6-loc_th0.4
# 2   rel3-3   historyirelanda00smilgoog_120   38   0.60632265   nodesDOCUMENT:DATE:LOCATION-edgesREFERENCES:SIMDATES:SIMLOC:SIMPAGE-date_th0.3-doc_th0.6-loc_th0.4
# 2   rel3-3   dublinreview14londuoft_195   39   0.6054997   nodesDOCUMENT:DATE:LOCATION-edgesREFERENCES:SIMDATES:SIMLOC:SIMPAGE-date_th0.3-doc_th0.6-loc_th0.4
# 2   rel3-3   studentshistoryo03garduoft_42   40   0.60477144   nodesDOCUMENT:DATE:LOCATION-edgesREFERENCES:SIMDATES:SIMLOC:SIMPAGE-date_th0.3-doc_th0.6-loc_th0.4
