nodestouse,relationships,doc_th,date_th,loc_th,iter,seeds,number of spread. activ. pulses,final number of activated nodes,final overall activation,running time,run-id,map,P5,P10,P20,R-prec,
DOCUMENT:DATE:LOCATION,REFERENCES:SIMLOC,0.6,0.3,0.4,rel1-1,1,2,18,3.6,20319,book_collection_true_dates/location/query4//useDOCUMENT:DATE:LOCATIONuseREFERENCES:SIMLOC/rel1-1-date_th0.3-doc_th0.6-loc_th0.4.res.clean,0.247,0.800,0.400,0.364,0.364,
DOCUMENT:DATE:LOCATION,REFERENCES:SIMLOC,0.5,0.25,0.35,rel1-1,1,2,18,3.6,33981,book_collection_true_dates/location/query4//useDOCUMENT:DATE:LOCATIONuseREFERENCES:SIMLOC/rel1-1-date_th0.25-doc_th0.5-loc_th0.35.res.clean,0.247,0.800,0.400,0.364,0.364,
DOCUMENT:DATE:LOCATION,REFERENCES:SIMLOC,0.7,0.3,0.35,rel1-1,1,2,18,3.6,19817,book_collection_true_dates/location/query4//useDOCUMENT:DATE:LOCATIONuseREFERENCES:SIMLOC/rel1-1-date_th0.3-doc_th0.7-loc_th0.35.res.clean,0.247,0.800,0.400,0.364,0.364,
DOCUMENT:DATE:LOCATION,REFERENCES:SIMLOC,0.6,0.25,0.35,rel1-1,1,2,18,3.6,20765,book_collection_true_dates/location/query4//useDOCUMENT:DATE:LOCATIONuseREFERENCES:SIMLOC/rel1-1-date_th0.25-doc_th0.6-loc_th0.35.res.clean,0.247,0.800,0.400,0.364,0.364,
DOCUMENT:DATE:LOCATION,REFERENCES:SIMLOC,0.5,0.25,0.4,rel1-1,1,2,18,3.6,19894,book_collection_true_dates/location/query4//useDOCUMENT:DATE:LOCATIONuseREFERENCES:SIMLOC/rel1-1-date_th0.25-doc_th0.5-loc_th0.4.res.clean,0.247,0.800,0.400,0.364,0.364,
DOCUMENT:DATE:LOCATION,REFERENCES:SIMLOC,0.5,0.3,0.4,rel1-1,1,2,18,3.6,20247,book_collection_true_dates/location/query4//useDOCUMENT:DATE:LOCATIONuseREFERENCES:SIMLOC/rel1-1-date_th0.3-doc_th0.5-loc_th0.4.res.clean,0.247,0.800,0.400,0.364,0.364,
DOCUMENT:DATE:LOCATION,REFERENCES:SIMLOC,0.6,0.3,0.35,rel1-1,1,2,18,3.6,19877,book_collection_true_dates/location/query4//useDOCUMENT:DATE:LOCATIONuseREFERENCES:SIMLOC/rel1-1-date_th0.3-doc_th0.6-loc_th0.35.res.clean,0.247,0.800,0.400,0.364,0.364,
DOCUMENT:DATE:LOCATION,REFERENCES:SIMLOC,0.7,0.3,0.4,rel1-1,1,2,18,3.6,20168,book_collection_true_dates/location/query4//useDOCUMENT:DATE:LOCATIONuseREFERENCES:SIMLOC/rel1-1-date_th0.3-doc_th0.7-loc_th0.4.res.clean,0.247,0.800,0.400,0.364,0.364,
DOCUMENT:DATE:LOCATION,REFERENCES:SIMLOC,0.7,0.25,0.4,rel1-1,1,2,18,3.6,20148,book_collection_true_dates/location/query4//useDOCUMENT:DATE:LOCATIONuseREFERENCES:SIMLOC/rel1-1-date_th0.25-doc_th0.7-loc_th0.4.res.clean,0.247,0.800,0.400,0.364,0.364,
DOCUMENT:DATE:LOCATION,REFERENCES:SIMLOC,0.6,0.25,0.4,rel1-1,1,2,18,3.6,20018,book_collection_true_dates/location/query4//useDOCUMENT:DATE:LOCATIONuseREFERENCES:SIMLOC/rel1-1-date_th0.25-doc_th0.6-loc_th0.4.res.clean,0.247,0.800,0.400,0.364,0.364,
DOCUMENT:DATE:LOCATION,REFERENCES:SIMLOC,0.7,0.25,0.35,rel1-1,1,2,18,3.6,20426,book_collection_true_dates/location/query4//useDOCUMENT:DATE:LOCATIONuseREFERENCES:SIMLOC/rel1-1-date_th0.25-doc_th0.7-loc_th0.35.res.clean,0.247,0.800,0.400,0.364,0.364,
DOCUMENT:DATE:LOCATION,REFERENCES:SIMLOC,0.5,0.3,0.35,rel1-1,1,2,18,3.6,19964,book_collection_true_dates/location/query4//useDOCUMENT:DATE:LOCATIONuseREFERENCES:SIMLOC/rel1-1-date_th0.3-doc_th0.5-loc_th0.35.res.clean,0.247,0.800,0.400,0.364,0.364,

Sig-Test:,randomized,,threshold,set,to,0.050000
