relationships,lambda,decay,norm_threshold,number of spread. activ. pulses,final number of activated nodes,final overall activation,running time,run-id,map,P10,P20,
,,,,,,,,22books/eyor-mini-no_cats.res,0.141,0.600,0.400,
REFERENCES,0.25,0.1,0.1,6,11334,7871.8,617,22books-10loc/output-europe-1848//query1-runREFERENCES/iterQ1-decay0.1-lambda0.25-norm_threshold0.1.res,0.242,0.500,0.400,
REFERENCES,0.25,0.1,0,6,11341,8029.2,1494,22books-10loc/output-europe-1848//query1-runREFERENCES/iterQ1-decay0.1-lambda0.25-norm_threshold0.res,0.245,0.600,0.400,
REFERENCES,0.5,0.1,0.1,8,11334,7674.6,485,22books-10loc/output-europe-1848//query1-runREFERENCES/iterQ1-decay0.1-lambda0.5-norm_threshold0.1.res,0.294,0.700,0.450,
REFERENCES,0.5,0.1,0,8,11341,7843.5,480,22books-10loc/output-europe-1848//query1-runREFERENCES/iterQ1-decay0.1-lambda0.5-norm_threshold0.res,0.305,0.700,0.450,
REFERENCES,0.25,0.2,0.1,6,11332,6710.6,451,22books-10loc/output-europe-1848//query1-runREFERENCES/iterQ1-decay0.2-lambda0.25-norm_threshold0.1.res,0.242,0.500,0.400,
REFERENCES,0.25,0.2,0,6,11341,6839.7,464,22books-10loc/output-europe-1848//query1-runREFERENCES/iterQ1-decay0.2-lambda0.25-norm_threshold0.res,0.244,0.600,0.400,
REFERENCES,0.5,0.2,0.1,8,11333,6550.4,482,22books-10loc/output-europe-1848//query1-runREFERENCES/iterQ1-decay0.2-lambda0.5-norm_threshold0.1.res,0.295,0.700,0.450,
REFERENCES,0.5,0.2,0,7,11341,6512.0,469,22books-10loc/output-europe-1848//query1-runREFERENCES/iterQ1-decay0.2-lambda0.5-norm_threshold0.res,0.314,0.700,0.450,
REFERENCES,0.25,0.25,0.1,6,11330,6162.0,486,22books-10loc/output-europe-1848//query1-runREFERENCES/iterQ1-decay0.25-lambda0.25-norm_threshold0.1.res,0.256,0.500,0.450,
REFERENCES,0.25,0.25,0,6,11333,6275.7,550,22books-10loc/output-europe-1848//query1-runREFERENCES/iterQ1-decay0.25-lambda0.25-norm_threshold0.res,0.244,0.600,0.400,
REFERENCES,0.5,0.25,0.1,7,11329,5854.1,569,22books-10loc/output-europe-1848//query1-runREFERENCES/iterQ1-decay0.25-lambda0.5-norm_threshold0.1.res,0.316,0.700,0.450,
REFERENCES,0.5,0.25,0,7,11333,5986.3,536,22books-10loc/output-europe-1848//query1-runREFERENCES/iterQ1-decay0.25-lambda0.5-norm_threshold0.res,0.312,0.700,0.450,

Sig-Test:,randomized,,threshold,set,to,0.050000
