###################################
# parameters: 
#   date_th: 0.3
#   doc_th: 0.5
#   loc_th: 0.35
#   nodestouse: DOCUMENT:DATE:LOCATION
#   relationships: REFERENCES:SIMDATES:SIMLOC

###################################
# configuration: 
#   sa.act_diff_ratio_limit = 0.01
#   sa.act_diff_ratio_limit_diff = 0.01
#   sa.function = ciir.multi.sa.function.MaxSAFunction(norm_function)
#   sa.id_property_name.DATE = dateID
#   sa.id_property_name.DOCUMENT = docID
#   sa.id_property_name.LOCATION = locID
#   sa.max_pulses = 10
#   sa.nodes_to_print = DATE:LOCATION
#   sa.nodes_to_use = DOCUMENT:DATE:LOCATION
#   sa.norm_function = ciir.multi.sa.SigmoidFunction(0.0, 1.0)
#   sa.relationships_to_use = REFERENCES:SIMDATES:SIMLOC
#   sa.spread_threshold.DATE = 0.3
#   sa.spread_threshold.DOCUMENT = 0.5
#   sa.spread_threshold.LOCATION = 0.35
#   sa.weight_property.REFERENCES = relevance
#   sa.weight_property.SIMDATES = sim
#   sa.weight_property.SIMDOC = sim
#   sa.weight_property.SIMLOC = sim
#   sa.weight_property.SIMPAGE = pagesim

###################################
# initial activations (1): 
#   newannualarmylis1874hart_464, 1

###################################
# spreading activation process log: 
#   pulse 0: activated: 1, non-zero: 1, borderline: 1, overall act: 1.000, act diff: 1.000, ratio: 1.000
#   pulse 1: activated: 37, non-zero: 37, borderline: 36, overall act: 5.340, act diff: 4.340, ratio: 0.813
#   pulse 2: activated: 37, non-zero: 37, borderline: 36, overall act: 5.340, act diff: 0.000, ratio: 0.000

###################################
# spreading activation process summary: 
#   final number of activated nodes: 37
#   final overall activation: 5.3
#   number of spread. activ. pulses: 2
#   running time: 11166

###################################
# top k results in TREC format: 

1   rel1-5   panjnad river   1   0.23228055   nodesDOCUMENT:DATE:LOCATION-edgesREFERENCES:SIMDATES:SIMLOC-date_th0.3-doc_th0.5-loc_th0.35
1   rel1-5   cabool   2   0.23228055   nodesDOCUMENT:DATE:LOCATION-edgesREFERENCES:SIMDATES:SIMLOC-date_th0.3-doc_th0.5-loc_th0.35
1   rel1-5   gwalior   3   0.23228055   nodesDOCUMENT:DATE:LOCATION-edgesREFERENCES:SIMDATES:SIMLOC-date_th0.3-doc_th0.5-loc_th0.35
1   rel1-5   delhi   4   0.20101978   nodesDOCUMENT:DATE:LOCATION-edgesREFERENCES:SIMDATES:SIMLOC-date_th0.3-doc_th0.5-loc_th0.35
1   rel1-5   lucknow   5   0.16011405   nodesDOCUMENT:DATE:LOCATION-edgesREFERENCES:SIMDATES:SIMLOC-date_th0.3-doc_th0.5-loc_th0.35
1   rel1-5   punjaub   6   0.16011405   nodesDOCUMENT:DATE:LOCATION-edgesREFERENCES:SIMDATES:SIMLOC-date_th0.3-doc_th0.5-loc_th0.35
1   rel1-5   china   7   0.16011405   nodesDOCUMENT:DATE:LOCATION-edgesREFERENCES:SIMDATES:SIMLOC-date_th0.3-doc_th0.5-loc_th0.35
1   rel1-5   bareilly   8   0.16011405   nodesDOCUMENT:DATE:LOCATION-edgesREFERENCES:SIMDATES:SIMLOC-date_th0.3-doc_th0.5-loc_th0.35
1   rel1-5   shanghai   9   0.10154631   nodesDOCUMENT:DATE:LOCATION-edgesREFERENCES:SIMDATES:SIMLOC-date_th0.3-doc_th0.5-loc_th0.35
1   rel1-5   chandakhar   10   0.10154631   nodesDOCUMENT:DATE:LOCATION-edgesREFERENCES:SIMDATES:SIMLOC-date_th0.3-doc_th0.5-loc_th0.35
1   rel1-5   cholin   11   0.10154631   nodesDOCUMENT:DATE:LOCATION-edgesREFERENCES:SIMDATES:SIMLOC-date_th0.3-doc_th0.5-loc_th0.35
1   rel1-5   mulka   12   0.10154631   nodesDOCUMENT:DATE:LOCATION-edgesREFERENCES:SIMDATES:SIMLOC-date_th0.3-doc_th0.5-loc_th0.35
1   rel1-5   neemuch   13   0.10154631   nodesDOCUMENT:DATE:LOCATION-edgesREFERENCES:SIMDATES:SIMLOC-date_th0.3-doc_th0.5-loc_th0.35
1   rel1-5   kading   14   0.10154631   nodesDOCUMENT:DATE:LOCATION-edgesREFERENCES:SIMDATES:SIMLOC-date_th0.3-doc_th0.5-loc_th0.35

###################################
# top nodes: 

# 1   rel1-5   newannualarmylis1874hart_464   1   1.0   nodesDOCUMENT:DATE:LOCATION-edgesREFERENCES:SIMDATES:SIMLOC-date_th0.3-doc_th0.5-loc_th0.35
# 1   rel1-5   cabool   2   0.23228055   nodesDOCUMENT:DATE:LOCATION-edgesREFERENCES:SIMDATES:SIMLOC-date_th0.3-doc_th0.5-loc_th0.35
# 1   rel1-5   panjnad river   3   0.23228055   nodesDOCUMENT:DATE:LOCATION-edgesREFERENCES:SIMDATES:SIMLOC-date_th0.3-doc_th0.5-loc_th0.35
# 1   rel1-5   gwalior   4   0.23228055   nodesDOCUMENT:DATE:LOCATION-edgesREFERENCES:SIMDATES:SIMLOC-date_th0.3-doc_th0.5-loc_th0.35
# 1   rel1-5   delhi   5   0.20101978   nodesDOCUMENT:DATE:LOCATION-edgesREFERENCES:SIMDATES:SIMLOC-date_th0.3-doc_th0.5-loc_th0.35
# 1   rel1-5   china   6   0.16011405   nodesDOCUMENT:DATE:LOCATION-edgesREFERENCES:SIMDATES:SIMLOC-date_th0.3-doc_th0.5-loc_th0.35
# 1   rel1-5   lucknow   7   0.16011405   nodesDOCUMENT:DATE:LOCATION-edgesREFERENCES:SIMDATES:SIMLOC-date_th0.3-doc_th0.5-loc_th0.35
# 1   rel1-5   punjaub   8   0.16011405   nodesDOCUMENT:DATE:LOCATION-edgesREFERENCES:SIMDATES:SIMLOC-date_th0.3-doc_th0.5-loc_th0.35
# 1   rel1-5   bareilly   9   0.16011405   nodesDOCUMENT:DATE:LOCATION-edgesREFERENCES:SIMDATES:SIMLOC-date_th0.3-doc_th0.5-loc_th0.35
# 1   rel1-5   neemuch   10   0.10154631   nodesDOCUMENT:DATE:LOCATION-edgesREFERENCES:SIMDATES:SIMLOC-date_th0.3-doc_th0.5-loc_th0.35
# 1   rel1-5   mulka   11   0.10154631   nodesDOCUMENT:DATE:LOCATION-edgesREFERENCES:SIMDATES:SIMLOC-date_th0.3-doc_th0.5-loc_th0.35
# 1   rel1-5   chandakhar   12   0.10154631   nodesDOCUMENT:DATE:LOCATION-edgesREFERENCES:SIMDATES:SIMLOC-date_th0.3-doc_th0.5-loc_th0.35
# 1   rel1-5   cholin   13   0.10154631   nodesDOCUMENT:DATE:LOCATION-edgesREFERENCES:SIMDATES:SIMLOC-date_th0.3-doc_th0.5-loc_th0.35
# 1   rel1-5   shanghai   14   0.10154631   nodesDOCUMENT:DATE:LOCATION-edgesREFERENCES:SIMDATES:SIMLOC-date_th0.3-doc_th0.5-loc_th0.35
# 1   rel1-5   kading   15   0.10154631   nodesDOCUMENT:DATE:LOCATION-edgesREFERENCES:SIMDATES:SIMLOC-date_th0.3-doc_th0.5-loc_th0.35
# 1   rel1-5   1842   16   0.099667996   nodesDOCUMENT:DATE:LOCATION-edgesREFERENCES:SIMDATES:SIMLOC-date_th0.3-doc_th0.5-loc_th0.35
# 1   rel1-5   1847   17   0.099667996   nodesDOCUMENT:DATE:LOCATION-edgesREFERENCES:SIMDATES:SIMLOC-date_th0.3-doc_th0.5-loc_th0.35
# 1   rel1-5   1868   18   0.099667996   nodesDOCUMENT:DATE:LOCATION-edgesREFERENCES:SIMDATES:SIMLOC-date_th0.3-doc_th0.5-loc_th0.35
# 1   rel1-5   1846   19   0.099667996   nodesDOCUMENT:DATE:LOCATION-edgesREFERENCES:SIMDATES:SIMLOC-date_th0.3-doc_th0.5-loc_th0.35
# 1   rel1-5   1869   20   0.099667996   nodesDOCUMENT:DATE:LOCATION-edgesREFERENCES:SIMDATES:SIMLOC-date_th0.3-doc_th0.5-loc_th0.35
# 1   rel1-5   1863   21   0.099667996   nodesDOCUMENT:DATE:LOCATION-edgesREFERENCES:SIMDATES:SIMLOC-date_th0.3-doc_th0.5-loc_th0.35
# 1   rel1-5   1848   22   0.099667996   nodesDOCUMENT:DATE:LOCATION-edgesREFERENCES:SIMDATES:SIMLOC-date_th0.3-doc_th0.5-loc_th0.35
# 1   rel1-5   1849   23   0.099667996   nodesDOCUMENT:DATE:LOCATION-edgesREFERENCES:SIMDATES:SIMLOC-date_th0.3-doc_th0.5-loc_th0.35
# 1   rel1-5   1860   24   0.099667996   nodesDOCUMENT:DATE:LOCATION-edgesREFERENCES:SIMDATES:SIMLOC-date_th0.3-doc_th0.5-loc_th0.35
# 1   rel1-5   1862   25   0.099667996   nodesDOCUMENT:DATE:LOCATION-edgesREFERENCES:SIMDATES:SIMLOC-date_th0.3-doc_th0.5-loc_th0.35
# 1   rel1-5   1840   26   0.099667996   nodesDOCUMENT:DATE:LOCATION-edgesREFERENCES:SIMDATES:SIMLOC-date_th0.3-doc_th0.5-loc_th0.35
# 1   rel1-5   1841   27   0.099667996   nodesDOCUMENT:DATE:LOCATION-edgesREFERENCES:SIMDATES:SIMLOC-date_th0.3-doc_th0.5-loc_th0.35
# 1   rel1-5   1864   28   0.099667996   nodesDOCUMENT:DATE:LOCATION-edgesREFERENCES:SIMDATES:SIMLOC-date_th0.3-doc_th0.5-loc_th0.35
# 1   rel1-5   1858   29   0.099667996   nodesDOCUMENT:DATE:LOCATION-edgesREFERENCES:SIMDATES:SIMLOC-date_th0.3-doc_th0.5-loc_th0.35
# 1   rel1-5   1857   30   0.099667996   nodesDOCUMENT:DATE:LOCATION-edgesREFERENCES:SIMDATES:SIMLOC-date_th0.3-doc_th0.5-loc_th0.35
# 1   rel1-5   1859   31   0.099667996   nodesDOCUMENT:DATE:LOCATION-edgesREFERENCES:SIMDATES:SIMLOC-date_th0.3-doc_th0.5-loc_th0.35
# 1   rel1-5   1843   32   0.099667996   nodesDOCUMENT:DATE:LOCATION-edgesREFERENCES:SIMDATES:SIMLOC-date_th0.3-doc_th0.5-loc_th0.35
# 1   rel1-5   1871   33   0.099667996   nodesDOCUMENT:DATE:LOCATION-edgesREFERENCES:SIMDATES:SIMLOC-date_th0.3-doc_th0.5-loc_th0.35
# 1   rel1-5   1838   34   0.099667996   nodesDOCUMENT:DATE:LOCATION-edgesREFERENCES:SIMDATES:SIMLOC-date_th0.3-doc_th0.5-loc_th0.35
# 1   rel1-5   1839   35   0.099667996   nodesDOCUMENT:DATE:LOCATION-edgesREFERENCES:SIMDATES:SIMLOC-date_th0.3-doc_th0.5-loc_th0.35
# 1   rel1-5   1872   36   0.099667996   nodesDOCUMENT:DATE:LOCATION-edgesREFERENCES:SIMDATES:SIMLOC-date_th0.3-doc_th0.5-loc_th0.35
# 1   rel1-5   1855   37   0.099667996   nodesDOCUMENT:DATE:LOCATION-edgesREFERENCES:SIMDATES:SIMLOC-date_th0.3-doc_th0.5-loc_th0.35
