###################################
# parameters: 
#   date_th: 0.3
#   doc_th: 0.7
#   loc_th: 0.35
#   nodestouse: DOCUMENT:DATE:LOCATION
#   relationships: REFERENCES

###################################
# configuration: 
#   sa.act_diff_ratio_limit = 0.01
#   sa.act_diff_ratio_limit_diff = 0.01
#   sa.function = ciir.multi.sa.function.MaxSAFunction(norm_function)
#   sa.id_property_name.DATE = dateID
#   sa.id_property_name.DOCUMENT = docID
#   sa.id_property_name.LOCATION = locID
#   sa.max_pulses = 10
#   sa.nodes_to_print = DATE:LOCATION
#   sa.nodes_to_use = DOCUMENT:DATE:LOCATION
#   sa.norm_function = ciir.multi.sa.SigmoidFunction(0.0, 1.0)
#   sa.relationships_to_use = REFERENCES
#   sa.spread_threshold.DATE = 0.3
#   sa.spread_threshold.DOCUMENT = 0.7
#   sa.spread_threshold.LOCATION = 0.35
#   sa.weight_property.REFERENCES = relevance
#   sa.weight_property.SIMDATES = sim
#   sa.weight_property.SIMDOC = sim
#   sa.weight_property.SIMLOC = sim
#   sa.weight_property.SIMPAGE = pagesim

###################################
# initial activations (2): 
#   newannualarmylis1874hart_463, 1
#   newannualarmylis1874hart_481, 1

###################################
# spreading activation process log: 
#   pulse 0: activated: 2, non-zero: 2, borderline: 2, overall act: 2.000, act diff: 2.000, ratio: 1.000
#   pulse 1: activated: 58, non-zero: 58, borderline: 56, overall act: 9.654, act diff: 7.654, ratio: 0.793
#   pulse 2: activated: 16768, non-zero: 16768, borderline: 16763, overall act: 1700.173, act diff: 1690.519, ratio: 0.994
#   pulse 3: activated: 16768, non-zero: 16768, borderline: 16763, overall act: 1700.173, act diff: 0.000, ratio: 0.000

###################################
# spreading activation process summary: 
#   final number of activated nodes: 16768
#   final overall activation: 1700.2
#   number of spread. activ. pulses: 3
#   running time: 14621

###################################
# top k results in TREC format: 

1   rel2-17   1857   1   0.20473441   nodesDOCUMENT:DATE:LOCATION-edgesREFERENCES-date_th0.3-doc_th0.7-loc_th0.35
1   rel2-17   1865   2   0.20473441   nodesDOCUMENT:DATE:LOCATION-edgesREFERENCES-date_th0.3-doc_th0.7-loc_th0.35
1   rel2-17   1858   3   0.20473441   nodesDOCUMENT:DATE:LOCATION-edgesREFERENCES-date_th0.3-doc_th0.7-loc_th0.35
1   rel2-17   1859   4   0.20473441   nodesDOCUMENT:DATE:LOCATION-edgesREFERENCES-date_th0.3-doc_th0.7-loc_th0.35
1   rel2-17   1860   5   0.107255004   nodesDOCUMENT:DATE:LOCATION-edgesREFERENCES-date_th0.3-doc_th0.7-loc_th0.35
1   rel2-17   1861   6   0.107255004   nodesDOCUMENT:DATE:LOCATION-edgesREFERENCES-date_th0.3-doc_th0.7-loc_th0.35
1   rel2-17   1851   7   0.107255004   nodesDOCUMENT:DATE:LOCATION-edgesREFERENCES-date_th0.3-doc_th0.7-loc_th0.35
1   rel2-17   1862   8   0.107255004   nodesDOCUMENT:DATE:LOCATION-edgesREFERENCES-date_th0.3-doc_th0.7-loc_th0.35
1   rel2-17   1863   9   0.107255004   nodesDOCUMENT:DATE:LOCATION-edgesREFERENCES-date_th0.3-doc_th0.7-loc_th0.35
1   rel2-17   1764   10   0.107255004   nodesDOCUMENT:DATE:LOCATION-edgesREFERENCES-date_th0.3-doc_th0.7-loc_th0.35
1   rel2-17   1849   11   0.099667996   nodesDOCUMENT:DATE:LOCATION-edgesREFERENCES-date_th0.3-doc_th0.7-loc_th0.35
1   rel2-17   1846   12   0.099667996   nodesDOCUMENT:DATE:LOCATION-edgesREFERENCES-date_th0.3-doc_th0.7-loc_th0.35
1   rel2-17   1856   13   0.099667996   nodesDOCUMENT:DATE:LOCATION-edgesREFERENCES-date_th0.3-doc_th0.7-loc_th0.35
1   rel2-17   1855   14   0.099667996   nodesDOCUMENT:DATE:LOCATION-edgesREFERENCES-date_th0.3-doc_th0.7-loc_th0.35
1   rel2-17   1853   15   0.099667996   nodesDOCUMENT:DATE:LOCATION-edgesREFERENCES-date_th0.3-doc_th0.7-loc_th0.35
1   rel2-17   1854   16   0.099667996   nodesDOCUMENT:DATE:LOCATION-edgesREFERENCES-date_th0.3-doc_th0.7-loc_th0.35
1   rel2-17   1845   17   0.099667996   nodesDOCUMENT:DATE:LOCATION-edgesREFERENCES-date_th0.3-doc_th0.7-loc_th0.35
1   rel2-17   1848   18   0.099667996   nodesDOCUMENT:DATE:LOCATION-edgesREFERENCES-date_th0.3-doc_th0.7-loc_th0.35
1   rel2-17   1842   19   0.099667996   nodesDOCUMENT:DATE:LOCATION-edgesREFERENCES-date_th0.3-doc_th0.7-loc_th0.35
1   rel2-17   1843   20   0.099667996   nodesDOCUMENT:DATE:LOCATION-edgesREFERENCES-date_th0.3-doc_th0.7-loc_th0.35

###################################
# top nodes: 

# 1   rel2-17   newannualarmylis1874hart_481   1   1.0   nodesDOCUMENT:DATE:LOCATION-edgesREFERENCES-date_th0.3-doc_th0.7-loc_th0.35
# 1   rel2-17   newannualarmylis1874hart_463   2   1.0   nodesDOCUMENT:DATE:LOCATION-edgesREFERENCES-date_th0.3-doc_th0.7-loc_th0.35
# 1   rel2-17   lucknow   3   0.46180055   nodesDOCUMENT:DATE:LOCATION-edgesREFERENCES-date_th0.3-doc_th0.7-loc_th0.35
# 1   rel2-17   agra   4   0.3870665   nodesDOCUMENT:DATE:LOCATION-edgesREFERENCES-date_th0.3-doc_th0.7-loc_th0.35
# 1   rel2-17   hartsannualarmy17hartgoog_258   5   0.37931392   nodesDOCUMENT:DATE:LOCATION-edgesREFERENCES-date_th0.3-doc_th0.7-loc_th0.35
# 1   rel2-17   delhi   6   0.3742353   nodesDOCUMENT:DATE:LOCATION-edgesREFERENCES-date_th0.3-doc_th0.7-loc_th0.35
# 1   rel2-17   hartsannualarmy17hartgoog_280   7   0.3686912   nodesDOCUMENT:DATE:LOCATION-edgesREFERENCES-date_th0.3-doc_th0.7-loc_th0.35
# 1   rel2-17   hartsannualarmy17hartgoog_257   8   0.3475487   nodesDOCUMENT:DATE:LOCATION-edgesREFERENCES-date_th0.3-doc_th0.7-loc_th0.35
# 1   rel2-17   newannualarmylis1874hart_203   9   0.34391147   nodesDOCUMENT:DATE:LOCATION-edgesREFERENCES-date_th0.3-doc_th0.7-loc_th0.35
# 1   rel2-17   newannualarmylis1874hart_176   10   0.340207   nodesDOCUMENT:DATE:LOCATION-edgesREFERENCES-date_th0.3-doc_th0.7-loc_th0.35
# 1   rel2-17   newannualarmylis1874hart_479   11   0.33128658   nodesDOCUMENT:DATE:LOCATION-edgesREFERENCES-date_th0.3-doc_th0.7-loc_th0.35
# 1   rel2-17   hartsannualarmy17hartgoog_568   12   0.33104292   nodesDOCUMENT:DATE:LOCATION-edgesREFERENCES-date_th0.3-doc_th0.7-loc_th0.35
# 1   rel2-17   hartsannualarmy17hartgoog_256   13   0.3264852   nodesDOCUMENT:DATE:LOCATION-edgesREFERENCES-date_th0.3-doc_th0.7-loc_th0.35
# 1   rel2-17   hartsannualarmy17hartgoog_212   14   0.31138858   nodesDOCUMENT:DATE:LOCATION-edgesREFERENCES-date_th0.3-doc_th0.7-loc_th0.35
# 1   rel2-17   fortyoneyearsini00robe_20   15   0.30906636   nodesDOCUMENT:DATE:LOCATION-edgesREFERENCES-date_th0.3-doc_th0.7-loc_th0.35
# 1   rel2-17   blackwoodsmagazi134edinuoft_786   16   0.3083072   nodesDOCUMENT:DATE:LOCATION-edgesREFERENCES-date_th0.3-doc_th0.7-loc_th0.35
# 1   rel2-17   newannualarmylis1874hart_409   17   0.3066129   nodesDOCUMENT:DATE:LOCATION-edgesREFERENCES-date_th0.3-doc_th0.7-loc_th0.35
# 1   rel2-17   newannualarmylis1874hart_483   18   0.30653375   nodesDOCUMENT:DATE:LOCATION-edgesREFERENCES-date_th0.3-doc_th0.7-loc_th0.35
# 1   rel2-17   newannualarmylis1874hart_482   19   0.3003197   nodesDOCUMENT:DATE:LOCATION-edgesREFERENCES-date_th0.3-doc_th0.7-loc_th0.35
# 1   rel2-17   newannualarmylis1874hart_472   20   0.29986513   nodesDOCUMENT:DATE:LOCATION-edgesREFERENCES-date_th0.3-doc_th0.7-loc_th0.35
# 1   rel2-17   cu31924023561933_82   21   0.29658914   nodesDOCUMENT:DATE:LOCATION-edgesREFERENCES-date_th0.3-doc_th0.7-loc_th0.35
# 1   rel2-17   narrativeofvisit00fort_266   22   0.29658914   nodesDOCUMENT:DATE:LOCATION-edgesREFERENCES-date_th0.3-doc_th0.7-loc_th0.35
# 1   rel2-17   highroadofempire00murrrich_223   23   0.29658914   nodesDOCUMENT:DATE:LOCATION-edgesREFERENCES-date_th0.3-doc_th0.7-loc_th0.35
# 1   rel2-17   aroundworld00hend_260   24   0.2949667   nodesDOCUMENT:DATE:LOCATION-edgesREFERENCES-date_th0.3-doc_th0.7-loc_th0.35
# 1   rel2-17   blackwoodsmagazi161edinuoft_316   25   0.2908984   nodesDOCUMENT:DATE:LOCATION-edgesREFERENCES-date_th0.3-doc_th0.7-loc_th0.35
# 1   rel2-17   newannualarmylis1874hart_175   26   0.29061925   nodesDOCUMENT:DATE:LOCATION-edgesREFERENCES-date_th0.3-doc_th0.7-loc_th0.35
# 1   rel2-17   cu31924022525475_47   27   0.29031804   nodesDOCUMENT:DATE:LOCATION-edgesREFERENCES-date_th0.3-doc_th0.7-loc_th0.35
# 1   rel2-17   hartsannualarmy17hartgoog_279   28   0.289463   nodesDOCUMENT:DATE:LOCATION-edgesREFERENCES-date_th0.3-doc_th0.7-loc_th0.35
# 1   rel2-17   cu31924023223872_138   29   0.28870627   nodesDOCUMENT:DATE:LOCATION-edgesREFERENCES-date_th0.3-doc_th0.7-loc_th0.35
# 1   rel2-17   newannualarmylis1898lond_633   30   0.28529316   nodesDOCUMENT:DATE:LOCATION-edgesREFERENCES-date_th0.3-doc_th0.7-loc_th0.35
# 1   rel2-17   winterindia01scid_204   31   0.28187796   nodesDOCUMENT:DATE:LOCATION-edgesREFERENCES-date_th0.3-doc_th0.7-loc_th0.35
# 1   rel2-17   historyofsepoywa00kaye_473   32   0.28187796   nodesDOCUMENT:DATE:LOCATION-edgesREFERENCES-date_th0.3-doc_th0.7-loc_th0.35
# 1   rel2-17   redyearstoryofin00traciala_257   33   0.2810592   nodesDOCUMENT:DATE:LOCATION-edgesREFERENCES-date_th0.3-doc_th0.7-loc_th0.35
# 1   rel2-17   delhisiegeassau00youngoog_385   34   0.2804446   nodesDOCUMENT:DATE:LOCATION-edgesREFERENCES-date_th0.3-doc_th0.7-loc_th0.35
# 1   rel2-17   blackwoodsmagazi84edinuoft_510   35   0.2804397   nodesDOCUMENT:DATE:LOCATION-edgesREFERENCES-date_th0.3-doc_th0.7-loc_th0.35
# 1   rel2-17   cu31924023252962_432   36   0.2792306   nodesDOCUMENT:DATE:LOCATION-edgesREFERENCES-date_th0.3-doc_th0.7-loc_th0.35
# 1   rel2-17   reminiscencesofb00edwauoft_273   37   0.27901137   nodesDOCUMENT:DATE:LOCATION-edgesREFERENCES-date_th0.3-doc_th0.7-loc_th0.35
# 1   rel2-17   aroundworld00hend_265   38   0.27764004   nodesDOCUMENT:DATE:LOCATION-edgesREFERENCES-date_th0.3-doc_th0.7-loc_th0.35
# 1   rel2-17   cu31924023968237_411   39   0.27729294   nodesDOCUMENT:DATE:LOCATION-edgesREFERENCES-date_th0.3-doc_th0.7-loc_th0.35
# 1   rel2-17   indianempirehist01mart_35   40   0.27478173   nodesDOCUMENT:DATE:LOCATION-edgesREFERENCES-date_th0.3-doc_th0.7-loc_th0.35
