###################################
# parameters: 
#   date_th: 0.25
#   doc_th: 0.6
#   loc_th: 0.4
#   nodestouse: DOCUMENT:DATE:LOCATION
#   relationships: REFERENCES

###################################
# configuration: 
#   sa.act_diff_ratio_limit = 0.01
#   sa.act_diff_ratio_limit_diff = 0.01
#   sa.function = ciir.multi.sa.function.MaxSAFunction(norm_function)
#   sa.id_property_name.DATE = dateID
#   sa.id_property_name.DOCUMENT = docID
#   sa.id_property_name.LOCATION = locID
#   sa.max_pulses = 10
#   sa.nodes_to_print = DATE:LOCATION
#   sa.nodes_to_use = DOCUMENT:DATE:LOCATION
#   sa.norm_function = ciir.multi.sa.SigmoidFunction(0.0, 1.0)
#   sa.relationships_to_use = REFERENCES
#   sa.spread_threshold.DATE = 0.25
#   sa.spread_threshold.DOCUMENT = 0.6
#   sa.spread_threshold.LOCATION = 0.4
#   sa.weight_property.REFERENCES = relevance
#   sa.weight_property.SIMDATES = sim
#   sa.weight_property.SIMDOC = sim
#   sa.weight_property.SIMLOC = sim
#   sa.weight_property.SIMPAGE = pagesim

###################################
# initial activations (2): 
#   newannualarmylis1874hart_410, 1
#   newannualarmylis1874hart_481, 1

###################################
# spreading activation process log: 
#   pulse 0: activated: 2, non-zero: 2, borderline: 2, overall act: 2.000, act diff: 2.000, ratio: 1.000
#   pulse 1: activated: 49, non-zero: 49, borderline: 47, overall act: 9.017, act diff: 7.017, ratio: 0.778
#   pulse 2: activated: 9492, non-zero: 9492, borderline: 9488, overall act: 1036.428, act diff: 1027.411, ratio: 0.991
#   pulse 3: activated: 9492, non-zero: 9492, borderline: 9488, overall act: 1036.428, act diff: 0.000, ratio: 0.000

###################################
# spreading activation process summary: 
#   final number of activated nodes: 9492
#   final overall activation: 1036.4
#   number of spread. activ. pulses: 3
#   running time: 12785

###################################
# top k results in TREC format: 

1   rel2-12   1857   1   0.21207042   nodesDOCUMENT:DATE:LOCATION-edgesREFERENCES-date_th0.25-doc_th0.6-loc_th0.4
1   rel2-12   1863   2   0.21207042   nodesDOCUMENT:DATE:LOCATION-edgesREFERENCES-date_th0.25-doc_th0.6-loc_th0.4
1   rel2-12   1865   3   0.21207042   nodesDOCUMENT:DATE:LOCATION-edgesREFERENCES-date_th0.25-doc_th0.6-loc_th0.4
1   rel2-12   1858   4   0.21207042   nodesDOCUMENT:DATE:LOCATION-edgesREFERENCES-date_th0.25-doc_th0.6-loc_th0.4
1   rel2-12   1862   5   0.21207042   nodesDOCUMENT:DATE:LOCATION-edgesREFERENCES-date_th0.25-doc_th0.6-loc_th0.4
1   rel2-12   1860   6   0.21207042   nodesDOCUMENT:DATE:LOCATION-edgesREFERENCES-date_th0.25-doc_th0.6-loc_th0.4
1   rel2-12   1859   7   0.21207042   nodesDOCUMENT:DATE:LOCATION-edgesREFERENCES-date_th0.25-doc_th0.6-loc_th0.4
1   rel2-12   1866   8   0.107255004   nodesDOCUMENT:DATE:LOCATION-edgesREFERENCES-date_th0.25-doc_th0.6-loc_th0.4
1   rel2-12   1854   9   0.107255004   nodesDOCUMENT:DATE:LOCATION-edgesREFERENCES-date_th0.25-doc_th0.6-loc_th0.4
1   rel2-12   1868   10   0.107255004   nodesDOCUMENT:DATE:LOCATION-edgesREFERENCES-date_th0.25-doc_th0.6-loc_th0.4
1   rel2-12   1861   11   0.107255004   nodesDOCUMENT:DATE:LOCATION-edgesREFERENCES-date_th0.25-doc_th0.6-loc_th0.4
1   rel2-12   1851   12   0.107255004   nodesDOCUMENT:DATE:LOCATION-edgesREFERENCES-date_th0.25-doc_th0.6-loc_th0.4
1   rel2-12   1855   13   0.107255004   nodesDOCUMENT:DATE:LOCATION-edgesREFERENCES-date_th0.25-doc_th0.6-loc_th0.4
1   rel2-12   1764   14   0.107255004   nodesDOCUMENT:DATE:LOCATION-edgesREFERENCES-date_th0.25-doc_th0.6-loc_th0.4

###################################
# top nodes: 

# 1   rel2-12   newannualarmylis1874hart_481   1   1.0   nodesDOCUMENT:DATE:LOCATION-edgesREFERENCES-date_th0.25-doc_th0.6-loc_th0.4
# 1   rel2-12   newannualarmylis1874hart_410   2   1.0   nodesDOCUMENT:DATE:LOCATION-edgesREFERENCES-date_th0.25-doc_th0.6-loc_th0.4
# 1   rel2-12   lucknow   3   0.46341977   nodesDOCUMENT:DATE:LOCATION-edgesREFERENCES-date_th0.25-doc_th0.6-loc_th0.4
# 1   rel2-12   agra   4   0.44686997   nodesDOCUMENT:DATE:LOCATION-edgesREFERENCES-date_th0.25-doc_th0.6-loc_th0.4
# 1   rel2-12   cu31924023252962_432   5   0.3038301   nodesDOCUMENT:DATE:LOCATION-edgesREFERENCES-date_th0.25-doc_th0.6-loc_th0.4
# 1   rel2-12   winterindia01scid_204   6   0.30105987   nodesDOCUMENT:DATE:LOCATION-edgesREFERENCES-date_th0.25-doc_th0.6-loc_th0.4
# 1   rel2-12   historyofsepoywa00kaye_473   7   0.30105987   nodesDOCUMENT:DATE:LOCATION-edgesREFERENCES-date_th0.25-doc_th0.6-loc_th0.4
# 1   rel2-12   delhisiegeassau00youngoog_385   8   0.29954138   nodesDOCUMENT:DATE:LOCATION-edgesREFERENCES-date_th0.25-doc_th0.6-loc_th0.4
# 1   rel2-12   delhi   9   0.2888946   nodesDOCUMENT:DATE:LOCATION-edgesREFERENCES-date_th0.25-doc_th0.6-loc_th0.4
# 1   rel2-12   fromindependence00brew_149   10   0.28704527   nodesDOCUMENT:DATE:LOCATION-edgesREFERENCES-date_th0.25-doc_th0.6-loc_th0.4
# 1   rel2-12   historyofchristi02houg_487   11   0.28704527   nodesDOCUMENT:DATE:LOCATION-edgesREFERENCES-date_th0.25-doc_th0.6-loc_th0.4
# 1   rel2-12   delhisiegeassau00youngoog_152   12   0.28482288   nodesDOCUMENT:DATE:LOCATION-edgesREFERENCES-date_th0.25-doc_th0.6-loc_th0.4
# 1   rel2-12   delhisiegeassau00youngoog_246   13   0.28420296   nodesDOCUMENT:DATE:LOCATION-edgesREFERENCES-date_th0.25-doc_th0.6-loc_th0.4
# 1   rel2-12   delhisiegeassau00youngoog_221   14   0.28248182   nodesDOCUMENT:DATE:LOCATION-edgesREFERENCES-date_th0.25-doc_th0.6-loc_th0.4
# 1   rel2-12   cu31924031774155_92   15   0.2795229   nodesDOCUMENT:DATE:LOCATION-edgesREFERENCES-date_th0.25-doc_th0.6-loc_th0.4
# 1   rel2-12   recollectionsofm1900fayr_200   16   0.2795229   nodesDOCUMENT:DATE:LOCATION-edgesREFERENCES-date_th0.25-doc_th0.6-loc_th0.4
# 1   rel2-12   tigershootingind00fiferich_276   17   0.2795229   nodesDOCUMENT:DATE:LOCATION-edgesREFERENCES-date_th0.25-doc_th0.6-loc_th0.4
# 1   rel2-12   hartsannualarmy17hartgoog_258   18   0.27421722   nodesDOCUMENT:DATE:LOCATION-edgesREFERENCES-date_th0.25-doc_th0.6-loc_th0.4
# 1   rel2-12   hartsannualarmy17hartgoog_280   19   0.26128906   nodesDOCUMENT:DATE:LOCATION-edgesREFERENCES-date_th0.25-doc_th0.6-loc_th0.4
# 1   rel2-12   newannualarmylis1874hart_176   20   0.25511286   nodesDOCUMENT:DATE:LOCATION-edgesREFERENCES-date_th0.25-doc_th0.6-loc_th0.4
# 1   rel2-12   cu31924023518214_423   21   0.2523398   nodesDOCUMENT:DATE:LOCATION-edgesREFERENCES-date_th0.25-doc_th0.6-loc_th0.4
# 1   rel2-12   newannualarmylis1874hart_203   22   0.25230268   nodesDOCUMENT:DATE:LOCATION-edgesREFERENCES-date_th0.25-doc_th0.6-loc_th0.4
# 1   rel2-12   cu31924003933409_547   23   0.25145313   nodesDOCUMENT:DATE:LOCATION-edgesREFERENCES-date_th0.25-doc_th0.6-loc_th0.4
# 1   rel2-12   cu31924023252640_268   24   0.25145313   nodesDOCUMENT:DATE:LOCATION-edgesREFERENCES-date_th0.25-doc_th0.6-loc_th0.4
# 1   rel2-12   cu31924031774155_97   25   0.25145313   nodesDOCUMENT:DATE:LOCATION-edgesREFERENCES-date_th0.25-doc_th0.6-loc_th0.4
# 1   rel2-12   hartsannualarmy17hartgoog_568   26   0.25116453   nodesDOCUMENT:DATE:LOCATION-edgesREFERENCES-date_th0.25-doc_th0.6-loc_th0.4
# 1   rel2-12   mytravelsvisits01shiegoog_270   27   0.24904537   nodesDOCUMENT:DATE:LOCATION-edgesREFERENCES-date_th0.25-doc_th0.6-loc_th0.4
# 1   rel2-12   cu31924031774155_94   28   0.24904537   nodesDOCUMENT:DATE:LOCATION-edgesREFERENCES-date_th0.25-doc_th0.6-loc_th0.4
# 1   rel2-12   fortyoneyearsini00robe_20   29   0.24859892   nodesDOCUMENT:DATE:LOCATION-edgesREFERENCES-date_th0.25-doc_th0.6-loc_th0.4
# 1   rel2-12   delhisiegeassau00youngoog_400   30   0.2485026   nodesDOCUMENT:DATE:LOCATION-edgesREFERENCES-date_th0.25-doc_th0.6-loc_th0.4
# 1   rel2-12   gwalior   31   0.24717967   nodesDOCUMENT:DATE:LOCATION-edgesREFERENCES-date_th0.25-doc_th0.6-loc_th0.4
# 1   rel2-12   cu31924023561933_83   32   0.24708898   nodesDOCUMENT:DATE:LOCATION-edgesREFERENCES-date_th0.25-doc_th0.6-loc_th0.4
# 1   rel2-12   cu31924022525475_47   33   0.24507187   nodesDOCUMENT:DATE:LOCATION-edgesREFERENCES-date_th0.25-doc_th0.6-loc_th0.4
# 1   rel2-12   fortyoneyearsini00robe_191   34   0.24318562   nodesDOCUMENT:DATE:LOCATION-edgesREFERENCES-date_th0.25-doc_th0.6-loc_th0.4
# 1   rel2-12   aroundworld00hend_260   35   0.24289724   nodesDOCUMENT:DATE:LOCATION-edgesREFERENCES-date_th0.25-doc_th0.6-loc_th0.4
# 1   rel2-12   hartsannualarmy17hartgoog_256   36   0.24179806   nodesDOCUMENT:DATE:LOCATION-edgesREFERENCES-date_th0.25-doc_th0.6-loc_th0.4
# 1   rel2-12   livesofindianoff02kayeiala_393   37   0.23989493   nodesDOCUMENT:DATE:LOCATION-edgesREFERENCES-date_th0.25-doc_th0.6-loc_th0.4
# 1   rel2-12   newannualarmylis1874hart_483   38   0.2391246   nodesDOCUMENT:DATE:LOCATION-edgesREFERENCES-date_th0.25-doc_th0.6-loc_th0.4
# 1   rel2-12   annualregister108unkngoog_363   39   0.23652779   nodesDOCUMENT:DATE:LOCATION-edgesREFERENCES-date_th0.25-doc_th0.6-loc_th0.4
# 1   rel2-12   reminiscencesofb00edwauoft_273   40   0.23593256   nodesDOCUMENT:DATE:LOCATION-edgesREFERENCES-date_th0.25-doc_th0.6-loc_th0.4
