###################################
# parameters: 
#   date_th: 0.3
#   doc_th: 0.5
#   loc_th: 0.35
#   nodestouse: DOCUMENT:DATE:LOCATION
#   relationships: REFERENCES

###################################
# configuration: 
#   sa.act_diff_ratio_limit = 0.01
#   sa.act_diff_ratio_limit_diff = 0.01
#   sa.function = ciir.multi.sa.function.MaxSAFunction(norm_function)
#   sa.id_property_name.DATE = dateID
#   sa.id_property_name.DOCUMENT = docID
#   sa.id_property_name.LOCATION = locID
#   sa.max_pulses = 10
#   sa.nodes_to_print = DATE:LOCATION
#   sa.nodes_to_use = DOCUMENT:DATE:LOCATION
#   sa.norm_function = ciir.multi.sa.SigmoidFunction(0.0, 1.0)
#   sa.relationships_to_use = REFERENCES
#   sa.spread_threshold.DATE = 0.3
#   sa.spread_threshold.DOCUMENT = 0.5
#   sa.spread_threshold.LOCATION = 0.35
#   sa.weight_property.REFERENCES = relevance
#   sa.weight_property.SIMDATES = sim
#   sa.weight_property.SIMDOC = sim
#   sa.weight_property.SIMLOC = sim
#   sa.weight_property.SIMPAGE = pagesim

###################################
# initial activations (2): 
#   newannualarmylis1874hart_464, 1
#   newannualarmylis1874hart_347, 1

###################################
# spreading activation process log: 
#   pulse 0: activated: 2, non-zero: 2, borderline: 2, overall act: 2.000, act diff: 2.000, ratio: 1.000
#   pulse 1: activated: 71, non-zero: 71, borderline: 69, overall act: 11.729, act diff: 9.729, ratio: 0.829
#   pulse 2: activated: 71, non-zero: 71, borderline: 69, overall act: 11.729, act diff: 0.000, ratio: 0.000

###################################
# spreading activation process summary: 
#   final number of activated nodes: 71
#   final overall activation: 11.7
#   number of spread. activ. pulses: 2
#   running time: 21420

###################################
# top k results in TREC format: 

1   rel2-23   1859   1   0.20232438   nodesDOCUMENT:DATE:LOCATION-edgesREFERENCES-date_th0.3-doc_th0.5-loc_th0.35
1   rel2-23   1857   2   0.20232438   nodesDOCUMENT:DATE:LOCATION-edgesREFERENCES-date_th0.3-doc_th0.5-loc_th0.35
1   rel2-23   1863   3   0.20232438   nodesDOCUMENT:DATE:LOCATION-edgesREFERENCES-date_th0.3-doc_th0.5-loc_th0.35
1   rel2-23   1838   4   0.20232438   nodesDOCUMENT:DATE:LOCATION-edgesREFERENCES-date_th0.3-doc_th0.5-loc_th0.35
1   rel2-23   1848   5   0.20232438   nodesDOCUMENT:DATE:LOCATION-edgesREFERENCES-date_th0.3-doc_th0.5-loc_th0.35
1   rel2-23   1849   6   0.20232438   nodesDOCUMENT:DATE:LOCATION-edgesREFERENCES-date_th0.3-doc_th0.5-loc_th0.35
1   rel2-23   1839   7   0.20232438   nodesDOCUMENT:DATE:LOCATION-edgesREFERENCES-date_th0.3-doc_th0.5-loc_th0.35
1   rel2-23   1858   8   0.20232438   nodesDOCUMENT:DATE:LOCATION-edgesREFERENCES-date_th0.3-doc_th0.5-loc_th0.35
1   rel2-23   1860   9   0.20232438   nodesDOCUMENT:DATE:LOCATION-edgesREFERENCES-date_th0.3-doc_th0.5-loc_th0.35
1   rel2-23   1846   10   0.20232438   nodesDOCUMENT:DATE:LOCATION-edgesREFERENCES-date_th0.3-doc_th0.5-loc_th0.35
1   rel2-23   1847   11   0.20232438   nodesDOCUMENT:DATE:LOCATION-edgesREFERENCES-date_th0.3-doc_th0.5-loc_th0.35
1   rel2-23   1855   12   0.20232438   nodesDOCUMENT:DATE:LOCATION-edgesREFERENCES-date_th0.3-doc_th0.5-loc_th0.35
1   rel2-23   1844   13   0.10476908   nodesDOCUMENT:DATE:LOCATION-edgesREFERENCES-date_th0.3-doc_th0.5-loc_th0.35
1   rel2-23   1824   14   0.10476908   nodesDOCUMENT:DATE:LOCATION-edgesREFERENCES-date_th0.3-doc_th0.5-loc_th0.35
1   rel2-23   1845   15   0.10476908   nodesDOCUMENT:DATE:LOCATION-edgesREFERENCES-date_th0.3-doc_th0.5-loc_th0.35
1   rel2-23   1861   16   0.10476908   nodesDOCUMENT:DATE:LOCATION-edgesREFERENCES-date_th0.3-doc_th0.5-loc_th0.35
1   rel2-23   1854   17   0.10476908   nodesDOCUMENT:DATE:LOCATION-edgesREFERENCES-date_th0.3-doc_th0.5-loc_th0.35
1   rel2-23   1872   18   0.099667996   nodesDOCUMENT:DATE:LOCATION-edgesREFERENCES-date_th0.3-doc_th0.5-loc_th0.35
1   rel2-23   1843   19   0.099667996   nodesDOCUMENT:DATE:LOCATION-edgesREFERENCES-date_th0.3-doc_th0.5-loc_th0.35
1   rel2-23   1842   20   0.099667996   nodesDOCUMENT:DATE:LOCATION-edgesREFERENCES-date_th0.3-doc_th0.5-loc_th0.35

###################################
# top nodes: 

# 1   rel2-23   newannualarmylis1874hart_347   1   1.0   nodesDOCUMENT:DATE:LOCATION-edgesREFERENCES-date_th0.3-doc_th0.5-loc_th0.35
# 1   rel2-23   newannualarmylis1874hart_464   2   1.0   nodesDOCUMENT:DATE:LOCATION-edgesREFERENCES-date_th0.3-doc_th0.5-loc_th0.35
# 1   rel2-23   delhi   3   0.3293947   nodesDOCUMENT:DATE:LOCATION-edgesREFERENCES-date_th0.3-doc_th0.5-loc_th0.35
# 1   rel2-23   china   4   0.3239797   nodesDOCUMENT:DATE:LOCATION-edgesREFERENCES-date_th0.3-doc_th0.5-loc_th0.35
# 1   rel2-23   gwalior   5   0.31302044   nodesDOCUMENT:DATE:LOCATION-edgesREFERENCES-date_th0.3-doc_th0.5-loc_th0.35
# 1   rel2-23   lucknow   6   0.29118252   nodesDOCUMENT:DATE:LOCATION-edgesREFERENCES-date_th0.3-doc_th0.5-loc_th0.35
# 1   rel2-23   punjaub   7   0.29118252   nodesDOCUMENT:DATE:LOCATION-edgesREFERENCES-date_th0.3-doc_th0.5-loc_th0.35
# 1   rel2-23   sebastopol   8   0.24026829   nodesDOCUMENT:DATE:LOCATION-edgesREFERENCES-date_th0.3-doc_th0.5-loc_th0.35
# 1   rel2-23   panjnad river   9   0.23228055   nodesDOCUMENT:DATE:LOCATION-edgesREFERENCES-date_th0.3-doc_th0.5-loc_th0.35
# 1   rel2-23   cabool   10   0.23228055   nodesDOCUMENT:DATE:LOCATION-edgesREFERENCES-date_th0.3-doc_th0.5-loc_th0.35
# 1   rel2-23   canton   11   0.22189257   nodesDOCUMENT:DATE:LOCATION-edgesREFERENCES-date_th0.3-doc_th0.5-loc_th0.35
# 1   rel2-23   1849   12   0.20232438   nodesDOCUMENT:DATE:LOCATION-edgesREFERENCES-date_th0.3-doc_th0.5-loc_th0.35
# 1   rel2-23   1859   13   0.20232438   nodesDOCUMENT:DATE:LOCATION-edgesREFERENCES-date_th0.3-doc_th0.5-loc_th0.35
# 1   rel2-23   1857   14   0.20232438   nodesDOCUMENT:DATE:LOCATION-edgesREFERENCES-date_th0.3-doc_th0.5-loc_th0.35
# 1   rel2-23   1863   15   0.20232438   nodesDOCUMENT:DATE:LOCATION-edgesREFERENCES-date_th0.3-doc_th0.5-loc_th0.35
# 1   rel2-23   1848   16   0.20232438   nodesDOCUMENT:DATE:LOCATION-edgesREFERENCES-date_th0.3-doc_th0.5-loc_th0.35
# 1   rel2-23   1860   17   0.20232438   nodesDOCUMENT:DATE:LOCATION-edgesREFERENCES-date_th0.3-doc_th0.5-loc_th0.35
# 1   rel2-23   1838   18   0.20232438   nodesDOCUMENT:DATE:LOCATION-edgesREFERENCES-date_th0.3-doc_th0.5-loc_th0.35
# 1   rel2-23   1839   19   0.20232438   nodesDOCUMENT:DATE:LOCATION-edgesREFERENCES-date_th0.3-doc_th0.5-loc_th0.35
# 1   rel2-23   1846   20   0.20232438   nodesDOCUMENT:DATE:LOCATION-edgesREFERENCES-date_th0.3-doc_th0.5-loc_th0.35
# 1   rel2-23   1847   21   0.20232438   nodesDOCUMENT:DATE:LOCATION-edgesREFERENCES-date_th0.3-doc_th0.5-loc_th0.35
# 1   rel2-23   1858   22   0.20232438   nodesDOCUMENT:DATE:LOCATION-edgesREFERENCES-date_th0.3-doc_th0.5-loc_th0.35
# 1   rel2-23   1855   23   0.20232438   nodesDOCUMENT:DATE:LOCATION-edgesREFERENCES-date_th0.3-doc_th0.5-loc_th0.35
# 1   rel2-23   shanghai   24   0.1869639   nodesDOCUMENT:DATE:LOCATION-edgesREFERENCES-date_th0.3-doc_th0.5-loc_th0.35
# 1   rel2-23   crimea   25   0.17283106   nodesDOCUMENT:DATE:LOCATION-edgesREFERENCES-date_th0.3-doc_th0.5-loc_th0.35
# 1   rel2-23   bareilly   26   0.16011405   nodesDOCUMENT:DATE:LOCATION-edgesREFERENCES-date_th0.3-doc_th0.5-loc_th0.35
# 1   rel2-23   heights   27   0.13747801   nodesDOCUMENT:DATE:LOCATION-edgesREFERENCES-date_th0.3-doc_th0.5-loc_th0.35
# 1   rel2-23   india   28   0.13747801   nodesDOCUMENT:DATE:LOCATION-edgesREFERENCES-date_th0.3-doc_th0.5-loc_th0.35
# 1   rel2-23   1861   29   0.10476908   nodesDOCUMENT:DATE:LOCATION-edgesREFERENCES-date_th0.3-doc_th0.5-loc_th0.35
# 1   rel2-23   1845   30   0.10476908   nodesDOCUMENT:DATE:LOCATION-edgesREFERENCES-date_th0.3-doc_th0.5-loc_th0.35
# 1   rel2-23   1824   31   0.10476908   nodesDOCUMENT:DATE:LOCATION-edgesREFERENCES-date_th0.3-doc_th0.5-loc_th0.35
# 1   rel2-23   1844   32   0.10476908   nodesDOCUMENT:DATE:LOCATION-edgesREFERENCES-date_th0.3-doc_th0.5-loc_th0.35
# 1   rel2-23   1854   33   0.10476908   nodesDOCUMENT:DATE:LOCATION-edgesREFERENCES-date_th0.3-doc_th0.5-loc_th0.35
# 1   rel2-23   kading   34   0.10154631   nodesDOCUMENT:DATE:LOCATION-edgesREFERENCES-date_th0.3-doc_th0.5-loc_th0.35
# 1   rel2-23   chandakhar   35   0.10154631   nodesDOCUMENT:DATE:LOCATION-edgesREFERENCES-date_th0.3-doc_th0.5-loc_th0.35
# 1   rel2-23   mulka   36   0.10154631   nodesDOCUMENT:DATE:LOCATION-edgesREFERENCES-date_th0.3-doc_th0.5-loc_th0.35
# 1   rel2-23   cholin   37   0.10154631   nodesDOCUMENT:DATE:LOCATION-edgesREFERENCES-date_th0.3-doc_th0.5-loc_th0.35
# 1   rel2-23   neemuch   38   0.10154631   nodesDOCUMENT:DATE:LOCATION-edgesREFERENCES-date_th0.3-doc_th0.5-loc_th0.35
# 1   rel2-23   1862   39   0.099667996   nodesDOCUMENT:DATE:LOCATION-edgesREFERENCES-date_th0.3-doc_th0.5-loc_th0.35
# 1   rel2-23   1872   40   0.099667996   nodesDOCUMENT:DATE:LOCATION-edgesREFERENCES-date_th0.3-doc_th0.5-loc_th0.35
