###################################
# parameters: 
#   date_th: 0.3
#   doc_th: 0.5
#   loc_th: 0.4
#   nodestouse: DOCUMENT:DATE:LOCATION
#   relationships: REFERENCES

###################################
# configuration: 
#   sa.act_diff_ratio_limit = 0.01
#   sa.act_diff_ratio_limit_diff = 0.01
#   sa.function = ciir.multi.sa.function.MaxSAFunction(norm_function)
#   sa.id_property_name.DATE = dateID
#   sa.id_property_name.DOCUMENT = docID
#   sa.id_property_name.LOCATION = locID
#   sa.max_pulses = 10
#   sa.nodes_to_print = DATE:LOCATION
#   sa.nodes_to_use = DOCUMENT:DATE:LOCATION
#   sa.norm_function = ciir.multi.sa.SigmoidFunction(0.0, 1.0)
#   sa.relationships_to_use = REFERENCES
#   sa.spread_threshold.DATE = 0.3
#   sa.spread_threshold.DOCUMENT = 0.5
#   sa.spread_threshold.LOCATION = 0.4
#   sa.weight_property.REFERENCES = relevance
#   sa.weight_property.SIMDATES = sim
#   sa.weight_property.SIMDOC = sim
#   sa.weight_property.SIMLOC = sim
#   sa.weight_property.SIMPAGE = pagesim

###################################
# initial activations (2): 
#   newannualarmylis1874hart_463, 1
#   newannualarmylis1874hart_464, 1

###################################
# spreading activation process log: 
#   pulse 0: activated: 2, non-zero: 2, borderline: 2, overall act: 2.000, act diff: 2.000, ratio: 1.000
#   pulse 1: activated: 61, non-zero: 61, borderline: 59, overall act: 10.678, act diff: 8.678, ratio: 0.813
#   pulse 2: activated: 5765, non-zero: 5765, borderline: 5761, overall act: 547.841, act diff: 537.163, ratio: 0.981
#   pulse 3: activated: 5765, non-zero: 5765, borderline: 5761, overall act: 547.841, act diff: 0.000, ratio: 0.000

###################################
# spreading activation process summary: 
#   final number of activated nodes: 5765
#   final overall activation: 547.8
#   number of spread. activ. pulses: 3
#   running time: 18306

###################################
# top k results in TREC format: 

1   rel2-15   1842   1   0.19737533   nodesDOCUMENT:DATE:LOCATION-edgesREFERENCES-date_th0.3-doc_th0.5-loc_th0.4
1   rel2-15   1846   2   0.19737533   nodesDOCUMENT:DATE:LOCATION-edgesREFERENCES-date_th0.3-doc_th0.5-loc_th0.4
1   rel2-15   1855   3   0.19737533   nodesDOCUMENT:DATE:LOCATION-edgesREFERENCES-date_th0.3-doc_th0.5-loc_th0.4
1   rel2-15   1857   4   0.19737533   nodesDOCUMENT:DATE:LOCATION-edgesREFERENCES-date_th0.3-doc_th0.5-loc_th0.4
1   rel2-15   1868   5   0.19737533   nodesDOCUMENT:DATE:LOCATION-edgesREFERENCES-date_th0.3-doc_th0.5-loc_th0.4
1   rel2-15   1858   6   0.19737533   nodesDOCUMENT:DATE:LOCATION-edgesREFERENCES-date_th0.3-doc_th0.5-loc_th0.4
1   rel2-15   1859   7   0.19737533   nodesDOCUMENT:DATE:LOCATION-edgesREFERENCES-date_th0.3-doc_th0.5-loc_th0.4
1   rel2-15   1848   8   0.19737533   nodesDOCUMENT:DATE:LOCATION-edgesREFERENCES-date_th0.3-doc_th0.5-loc_th0.4
1   rel2-15   1849   9   0.19737533   nodesDOCUMENT:DATE:LOCATION-edgesREFERENCES-date_th0.3-doc_th0.5-loc_th0.4
1   rel2-15   1843   10   0.19737533   nodesDOCUMENT:DATE:LOCATION-edgesREFERENCES-date_th0.3-doc_th0.5-loc_th0.4
1   rel2-15   1865   11   0.099667996   nodesDOCUMENT:DATE:LOCATION-edgesREFERENCES-date_th0.3-doc_th0.5-loc_th0.4
1   rel2-15   1853   12   0.099667996   nodesDOCUMENT:DATE:LOCATION-edgesREFERENCES-date_th0.3-doc_th0.5-loc_th0.4
1   rel2-15   1854   13   0.099667996   nodesDOCUMENT:DATE:LOCATION-edgesREFERENCES-date_th0.3-doc_th0.5-loc_th0.4
1   rel2-15   1845   14   0.099667996   nodesDOCUMENT:DATE:LOCATION-edgesREFERENCES-date_th0.3-doc_th0.5-loc_th0.4
1   rel2-15   1847   15   0.099667996   nodesDOCUMENT:DATE:LOCATION-edgesREFERENCES-date_th0.3-doc_th0.5-loc_th0.4
1   rel2-15   1856   16   0.099667996   nodesDOCUMENT:DATE:LOCATION-edgesREFERENCES-date_th0.3-doc_th0.5-loc_th0.4
1   rel2-15   1840   17   0.099667996   nodesDOCUMENT:DATE:LOCATION-edgesREFERENCES-date_th0.3-doc_th0.5-loc_th0.4
1   rel2-15   1841   18   0.099667996   nodesDOCUMENT:DATE:LOCATION-edgesREFERENCES-date_th0.3-doc_th0.5-loc_th0.4
1   rel2-15   1844   19   0.099667996   nodesDOCUMENT:DATE:LOCATION-edgesREFERENCES-date_th0.3-doc_th0.5-loc_th0.4
1   rel2-15   1838   20   0.099667996   nodesDOCUMENT:DATE:LOCATION-edgesREFERENCES-date_th0.3-doc_th0.5-loc_th0.4

###################################
# top nodes: 

# 1   rel2-15   newannualarmylis1874hart_463   1   1.0   nodesDOCUMENT:DATE:LOCATION-edgesREFERENCES-date_th0.3-doc_th0.5-loc_th0.4
# 1   rel2-15   newannualarmylis1874hart_464   2   1.0   nodesDOCUMENT:DATE:LOCATION-edgesREFERENCES-date_th0.3-doc_th0.5-loc_th0.4
# 1   rel2-15   lucknow   3   0.40611652   nodesDOCUMENT:DATE:LOCATION-edgesREFERENCES-date_th0.3-doc_th0.5-loc_th0.4
# 1   rel2-15   cabool   4   0.40411505   nodesDOCUMENT:DATE:LOCATION-edgesREFERENCES-date_th0.3-doc_th0.5-loc_th0.4
# 1   rel2-15   panjnad river   5   0.3702583   nodesDOCUMENT:DATE:LOCATION-edgesREFERENCES-date_th0.3-doc_th0.5-loc_th0.4
# 1   rel2-15   gwalior   6   0.3208354   nodesDOCUMENT:DATE:LOCATION-edgesREFERENCES-date_th0.3-doc_th0.5-loc_th0.4
# 1   rel2-15   punjaub   7   0.3037335   nodesDOCUMENT:DATE:LOCATION-edgesREFERENCES-date_th0.3-doc_th0.5-loc_th0.4
# 1   rel2-15   delhi   8   0.29110616   nodesDOCUMENT:DATE:LOCATION-edgesREFERENCES-date_th0.3-doc_th0.5-loc_th0.4
# 1   rel2-15   bareilly   9   0.25193992   nodesDOCUMENT:DATE:LOCATION-edgesREFERENCES-date_th0.3-doc_th0.5-loc_th0.4
# 1   rel2-15   apersonaljourna00andegoog_121   10   0.20031266   nodesDOCUMENT:DATE:LOCATION-edgesREFERENCES-date_th0.3-doc_th0.5-loc_th0.4
# 1   rel2-15   systemsoflandte00cobd_226   11   0.20031266   nodesDOCUMENT:DATE:LOCATION-edgesREFERENCES-date_th0.3-doc_th0.5-loc_th0.4
# 1   rel2-15   reportsofmission1896pres_306   12   0.20031266   nodesDOCUMENT:DATE:LOCATION-edgesREFERENCES-date_th0.3-doc_th0.5-loc_th0.4
# 1   rel2-15   apersonaljourna00andegoog_110   13   0.20031266   nodesDOCUMENT:DATE:LOCATION-edgesREFERENCES-date_th0.3-doc_th0.5-loc_th0.4
# 1   rel2-15   tennysonhisarta01broogoog_251   14   0.20031266   nodesDOCUMENT:DATE:LOCATION-edgesREFERENCES-date_th0.3-doc_th0.5-loc_th0.4
# 1   rel2-15   journalofroyalin7188183roya_413   15   0.20031266   nodesDOCUMENT:DATE:LOCATION-edgesREFERENCES-date_th0.3-doc_th0.5-loc_th0.4
# 1   rel2-15   phoeberowe01thob_185   16   0.20031266   nodesDOCUMENT:DATE:LOCATION-edgesREFERENCES-date_th0.3-doc_th0.5-loc_th0.4
# 1   rel2-15   narrativemutini00hutcgoog_6   17   0.20031266   nodesDOCUMENT:DATE:LOCATION-edgesREFERENCES-date_th0.3-doc_th0.5-loc_th0.4
# 1   rel2-15   reminiscencesofb00edwauoft_279   18   0.20031266   nodesDOCUMENT:DATE:LOCATION-edgesREFERENCES-date_th0.3-doc_th0.5-loc_th0.4
# 1   rel2-15   libraryofworldsbe22warn_51   19   0.20031266   nodesDOCUMENT:DATE:LOCATION-edgesREFERENCES-date_th0.3-doc_th0.5-loc_th0.4
# 1   rel2-15   reminiscencesofb00edwauoft_267   20   0.20031266   nodesDOCUMENT:DATE:LOCATION-edgesREFERENCES-date_th0.3-doc_th0.5-loc_th0.4
# 1   rel2-15   memoirofsirwilli00veitrich_344   21   0.20031266   nodesDOCUMENT:DATE:LOCATION-edgesREFERENCES-date_th0.3-doc_th0.5-loc_th0.4
# 1   rel2-15   newannualarmylis1898lond_946   22   0.20031266   nodesDOCUMENT:DATE:LOCATION-edgesREFERENCES-date_th0.3-doc_th0.5-loc_th0.4
# 1   rel2-15   reminiscencesofb00edwauoft_211   23   0.20031266   nodesDOCUMENT:DATE:LOCATION-edgesREFERENCES-date_th0.3-doc_th0.5-loc_th0.4
# 1   rel2-15   reminiscencesofb00edwauoft_234   24   0.20031266   nodesDOCUMENT:DATE:LOCATION-edgesREFERENCES-date_th0.3-doc_th0.5-loc_th0.4
# 1   rel2-15   fortyoneyearsini00robe_316   25   0.20031266   nodesDOCUMENT:DATE:LOCATION-edgesREFERENCES-date_th0.3-doc_th0.5-loc_th0.4
# 1   rel2-15   reminiscencesofb00edwauoft_231   26   0.20031266   nodesDOCUMENT:DATE:LOCATION-edgesREFERENCES-date_th0.3-doc_th0.5-loc_th0.4
# 1   rel2-15   reminiscencesofb00edwauoft_230   27   0.20031266   nodesDOCUMENT:DATE:LOCATION-edgesREFERENCES-date_th0.3-doc_th0.5-loc_th0.4
# 1   rel2-15   historyofindianm01forr_16   28   0.20031266   nodesDOCUMENT:DATE:LOCATION-edgesREFERENCES-date_th0.3-doc_th0.5-loc_th0.4
# 1   rel2-15   historyofindianm01forr_14   29   0.20031266   nodesDOCUMENT:DATE:LOCATION-edgesREFERENCES-date_th0.3-doc_th0.5-loc_th0.4
# 1   rel2-15   historyofindianm01forr_29   30   0.20031266   nodesDOCUMENT:DATE:LOCATION-edgesREFERENCES-date_th0.3-doc_th0.5-loc_th0.4
# 1   rel2-15   memorialsoflife02edwa_52   31   0.20031266   nodesDOCUMENT:DATE:LOCATION-edgesREFERENCES-date_th0.3-doc_th0.5-loc_th0.4
# 1   rel2-15   recordsofindianm06indi_263   32   0.20031266   nodesDOCUMENT:DATE:LOCATION-edgesREFERENCES-date_th0.3-doc_th0.5-loc_th0.4
# 1   rel2-15   macmillansmagazi43macmuoft_261   33   0.20031266   nodesDOCUMENT:DATE:LOCATION-edgesREFERENCES-date_th0.3-doc_th0.5-loc_th0.4
# 1   rel2-15   memorialsoflife02edwa_49   34   0.20031266   nodesDOCUMENT:DATE:LOCATION-edgesREFERENCES-date_th0.3-doc_th0.5-loc_th0.4
# 1   rel2-15   livesofindianoff02kayeiala_346   35   0.20031266   nodesDOCUMENT:DATE:LOCATION-edgesREFERENCES-date_th0.3-doc_th0.5-loc_th0.4
# 1   rel2-15   livesofindianoff02kayeiala_348   36   0.20031266   nodesDOCUMENT:DATE:LOCATION-edgesREFERENCES-date_th0.3-doc_th0.5-loc_th0.4
# 1   rel2-15   cu31924022927283_266   37   0.20031266   nodesDOCUMENT:DATE:LOCATION-edgesREFERENCES-date_th0.3-doc_th0.5-loc_th0.4
# 1   rel2-15   cu31924013563865_47   38   0.20031266   nodesDOCUMENT:DATE:LOCATION-edgesREFERENCES-date_th0.3-doc_th0.5-loc_th0.4
# 1   rel2-15   lifeofisabellath00thobrich_290   39   0.20031266   nodesDOCUMENT:DATE:LOCATION-edgesREFERENCES-date_th0.3-doc_th0.5-loc_th0.4
# 1   rel2-15   lifeofisabellath00thobrich_286   40   0.20031266   nodesDOCUMENT:DATE:LOCATION-edgesREFERENCES-date_th0.3-doc_th0.5-loc_th0.4
