nodestouse,relationships,doc_th,date_th,loc_th,iter,seeds,number of spread. activ. pulses,final number of activated nodes,final overall activation,running time,run-id,map,P5,P10,P20,R-prec,
DOCUMENT:DATE:LOCATION,REFERENCES:SIMDATES:SIMLOC:SIMPAGE,0.6,0.3,0.4,rel1-1,1,2,20,4.5,18055,book_collection_true_dates/date/query4//useDOCUMENT:DATE:LOCATIONuseREFERENCES:SIMDATES:SIMLOC:SIMPAGE/rel1-1-date_th0.3-doc_th0.6-loc_th0.4.res.clean,0.514,0.600,0.400,0.400,0.667,
DOCUMENT:DATE:LOCATION,REFERENCES:SIMDATES:SIMLOC:SIMPAGE,0.5,0.25,0.35,rel1-1,1,2,20,4.5,35210,book_collection_true_dates/date/query4//useDOCUMENT:DATE:LOCATIONuseREFERENCES:SIMDATES:SIMLOC:SIMPAGE/rel1-1-date_th0.25-doc_th0.5-loc_th0.35.res.clean,0.514,0.600,0.400,0.400,0.667,
DOCUMENT:DATE:LOCATION,REFERENCES:SIMDATES:SIMLOC:SIMPAGE,0.7,0.3,0.35,rel1-1,1,2,20,4.5,17159,book_collection_true_dates/date/query4//useDOCUMENT:DATE:LOCATIONuseREFERENCES:SIMDATES:SIMLOC:SIMPAGE/rel1-1-date_th0.3-doc_th0.7-loc_th0.35.res.clean,0.514,0.600,0.400,0.400,0.667,
DOCUMENT:DATE:LOCATION,REFERENCES:SIMDATES:SIMLOC:SIMPAGE,0.6,0.25,0.35,rel1-1,1,2,20,4.5,18228,book_collection_true_dates/date/query4//useDOCUMENT:DATE:LOCATIONuseREFERENCES:SIMDATES:SIMLOC:SIMPAGE/rel1-1-date_th0.25-doc_th0.6-loc_th0.35.res.clean,0.514,0.600,0.400,0.400,0.667,
DOCUMENT:DATE:LOCATION,REFERENCES:SIMDATES:SIMLOC:SIMPAGE,0.5,0.25,0.4,rel1-1,1,2,20,4.5,18162,book_collection_true_dates/date/query4//useDOCUMENT:DATE:LOCATIONuseREFERENCES:SIMDATES:SIMLOC:SIMPAGE/rel1-1-date_th0.25-doc_th0.5-loc_th0.4.res.clean,0.514,0.600,0.400,0.400,0.667,
DOCUMENT:DATE:LOCATION,REFERENCES:SIMDATES:SIMLOC:SIMPAGE,0.5,0.3,0.4,rel1-1,1,2,20,4.5,17628,book_collection_true_dates/date/query4//useDOCUMENT:DATE:LOCATIONuseREFERENCES:SIMDATES:SIMLOC:SIMPAGE/rel1-1-date_th0.3-doc_th0.5-loc_th0.4.res.clean,0.514,0.600,0.400,0.400,0.667,
DOCUMENT:DATE:LOCATION,REFERENCES:SIMDATES:SIMLOC:SIMPAGE,0.6,0.3,0.35,rel1-1,1,2,20,4.5,17174,book_collection_true_dates/date/query4//useDOCUMENT:DATE:LOCATIONuseREFERENCES:SIMDATES:SIMLOC:SIMPAGE/rel1-1-date_th0.3-doc_th0.6-loc_th0.35.res.clean,0.514,0.600,0.400,0.400,0.667,
DOCUMENT:DATE:LOCATION,REFERENCES:SIMDATES:SIMLOC:SIMPAGE,0.7,0.3,0.4,rel1-1,1,2,20,4.5,17852,book_collection_true_dates/date/query4//useDOCUMENT:DATE:LOCATIONuseREFERENCES:SIMDATES:SIMLOC:SIMPAGE/rel1-1-date_th0.3-doc_th0.7-loc_th0.4.res.clean,0.514,0.600,0.400,0.400,0.667,
DOCUMENT:DATE:LOCATION,REFERENCES:SIMDATES:SIMLOC:SIMPAGE,0.7,0.25,0.4,rel1-1,1,2,20,4.5,17586,book_collection_true_dates/date/query4//useDOCUMENT:DATE:LOCATIONuseREFERENCES:SIMDATES:SIMLOC:SIMPAGE/rel1-1-date_th0.25-doc_th0.7-loc_th0.4.res.clean,0.514,0.600,0.400,0.400,0.667,
DOCUMENT:DATE:LOCATION,REFERENCES:SIMDATES:SIMLOC:SIMPAGE,0.6,0.25,0.4,rel1-1,1,2,20,4.5,17269,book_collection_true_dates/date/query4//useDOCUMENT:DATE:LOCATIONuseREFERENCES:SIMDATES:SIMLOC:SIMPAGE/rel1-1-date_th0.25-doc_th0.6-loc_th0.4.res.clean,0.514,0.600,0.400,0.400,0.667,
DOCUMENT:DATE:LOCATION,REFERENCES:SIMDATES:SIMLOC:SIMPAGE,0.7,0.25,0.35,rel1-1,1,2,20,4.5,18386,book_collection_true_dates/date/query4//useDOCUMENT:DATE:LOCATIONuseREFERENCES:SIMDATES:SIMLOC:SIMPAGE/rel1-1-date_th0.25-doc_th0.7-loc_th0.35.res.clean,0.514,0.600,0.400,0.400,0.667,
DOCUMENT:DATE:LOCATION,REFERENCES:SIMDATES:SIMLOC:SIMPAGE,0.5,0.3,0.35,rel1-1,1,2,20,4.5,17155,book_collection_true_dates/date/query4//useDOCUMENT:DATE:LOCATIONuseREFERENCES:SIMDATES:SIMLOC:SIMPAGE/rel1-1-date_th0.3-doc_th0.5-loc_th0.35.res.clean,0.514,0.600,0.400,0.400,0.667,

Sig-Test:,randomized,,threshold,set,to,0.050000
