nodestouse,relationships,doc_th,date_th,loc_th,iter,seeds,number of spread. activ. pulses,final number of activated nodes,final overall activation,running time,run-id,map,P5,P10,P20,R-prec,
DOCUMENT:DATE:LOCATION,REFERENCES,0.6,0.3,0.4,rel1-1,1,2,50,6.4,22968,book_collection_true_dates/location/query9//useDOCUMENT:DATE:LOCATIONuseREFERENCES/rel1-1-date_th0.3-doc_th0.6-loc_th0.4.res.clean,0.152,0.600,0.500,0.350,0.000,
DOCUMENT:DATE:LOCATION,REFERENCES,0.7,0.25,0.4,rel1-2,1,2,29,4.5,23734,book_collection_true_dates/location/query9//useDOCUMENT:DATE:LOCATIONuseREFERENCES/rel1-2-date_th0.25-doc_th0.7-loc_th0.4.res.clean,0.247,0.400,0.600,0.500,0.000,
DOCUMENT:DATE:LOCATION,REFERENCES,0.5,0.25,0.35,rel1-1,1,2,50,6.4,38277,book_collection_true_dates/location/query9//useDOCUMENT:DATE:LOCATIONuseREFERENCES/rel1-1-date_th0.25-doc_th0.5-loc_th0.35.res.clean,0.152,0.600,0.500,0.350,0.000,
DOCUMENT:DATE:LOCATION,REFERENCES,0.7,0.25,0.35,rel2-1,2,3,113975,10321.0,49607,book_collection_true_dates/location/query9//useDOCUMENT:DATE:LOCATIONuseREFERENCES/rel2-1-date_th0.25-doc_th0.7-loc_th0.35.res.clean,0.231,0.600,0.500,0.500,0.000,
DOCUMENT:DATE:LOCATION,REFERENCES,0.6,0.25,0.35,rel2-3,2,3,110055,9407.9,34174,book_collection_true_dates/location/query9//useDOCUMENT:DATE:LOCATIONuseREFERENCES/rel2-3-date_th0.25-doc_th0.6-loc_th0.35.res.clean,0.258,0.600,0.700,0.450,0.000,
DOCUMENT:DATE:LOCATION,REFERENCES,0.5,0.3,0.4,rel2-5,2,3,75157,6352.0,29943,book_collection_true_dates/location/query9//useDOCUMENT:DATE:LOCATIONuseREFERENCES/rel2-5-date_th0.3-doc_th0.5-loc_th0.4.res.clean,0.292,0.800,0.500,0.550,0.000,
DOCUMENT:DATE:LOCATION,REFERENCES,0.6,0.3,0.35,rel3-2,3,3,127583,15775.3,49520,book_collection_true_dates/location/query9//useDOCUMENT:DATE:LOCATIONuseREFERENCES/rel3-2-date_th0.3-doc_th0.6-loc_th0.35.res.clean,0.312,0.600,0.600,0.600,0.000,
DOCUMENT:DATE:LOCATION,REFERENCES,0.7,0.25,0.35,rel2-5,2,3,110034,10168.3,33813,book_collection_true_dates/location/query9//useDOCUMENT:DATE:LOCATIONuseREFERENCES/rel2-5-date_th0.25-doc_th0.7-loc_th0.35.res.clean,0.293,0.800,0.500,0.550,0.000,
DOCUMENT:DATE:LOCATION,REFERENCES,0.7,0.3,0.35,rel2-3,2,3,110055,9407.9,33492,book_collection_true_dates/location/query9//useDOCUMENT:DATE:LOCATIONuseREFERENCES/rel2-3-date_th0.3-doc_th0.7-loc_th0.35.res.clean,0.258,0.600,0.700,0.450,0.000,
DOCUMENT:DATE:LOCATION,REFERENCES,0.7,0.3,0.35,rel1-1,1,2,50,6.4,23400,book_collection_true_dates/location/query9//useDOCUMENT:DATE:LOCATIONuseREFERENCES/rel1-1-date_th0.3-doc_th0.7-loc_th0.35.res.clean,0.152,0.600,0.500,0.350,0.000,
DOCUMENT:DATE:LOCATION,REFERENCES,0.6,0.25,0.35,rel1-1,1,2,50,6.4,24033,book_collection_true_dates/location/query9//useDOCUMENT:DATE:LOCATIONuseREFERENCES/rel1-1-date_th0.25-doc_th0.6-loc_th0.35.res.clean,0.152,0.600,0.500,0.350,0.000,
DOCUMENT:DATE:LOCATION,REFERENCES,0.5,0.25,0.4,rel1-1,1,2,50,6.4,23575,book_collection_true_dates/location/query9//useDOCUMENT:DATE:LOCATIONuseREFERENCES/rel1-1-date_th0.25-doc_th0.5-loc_th0.4.res.clean,0.152,0.600,0.500,0.350,0.000,
DOCUMENT:DATE:LOCATION,REFERENCES,0.5,0.3,0.4,rel1-4,1,2,12,2.7,3774,book_collection_true_dates/location/query9//useDOCUMENT:DATE:LOCATIONuseREFERENCES/rel1-4-date_th0.3-doc_th0.5-loc_th0.4.res.clean,0.197,0.800,0.600,0.545,0.000,
DOCUMENT:DATE:LOCATION,REFERENCES,0.5,0.25,0.4,rel1-4,1,2,12,2.7,3756,book_collection_true_dates/location/query9//useDOCUMENT:DATE:LOCATIONuseREFERENCES/rel1-4-date_th0.25-doc_th0.5-loc_th0.4.res.clean,0.197,0.800,0.600,0.545,0.000,
DOCUMENT:DATE:LOCATION,REFERENCES,0.6,0.3,0.35,rel2-3,2,3,110055,9407.9,33531,book_collection_true_dates/location/query9//useDOCUMENT:DATE:LOCATIONuseREFERENCES/rel2-3-date_th0.3-doc_th0.6-loc_th0.35.res.clean,0.258,0.600,0.700,0.450,0.000,
DOCUMENT:DATE:LOCATION,REFERENCES,0.7,0.3,0.35,rel1-4,1,2,12,2.7,3755,book_collection_true_dates/location/query9//useDOCUMENT:DATE:LOCATIONuseREFERENCES/rel1-4-date_th0.3-doc_th0.7-loc_th0.35.res.clean,0.197,0.800,0.600,0.545,0.000,
DOCUMENT:DATE:LOCATION,REFERENCES,0.5,0.3,0.4,rel3-2,3,3,124076,15423.7,49888,book_collection_true_dates/location/query9//useDOCUMENT:DATE:LOCATIONuseREFERENCES/rel3-2-date_th0.3-doc_th0.5-loc_th0.4.res.clean,0.312,0.600,0.600,0.600,0.000,
DOCUMENT:DATE:LOCATION,REFERENCES,0.6,0.25,0.4,rel1-4,1,2,12,2.7,3750,book_collection_true_dates/location/query9//useDOCUMENT:DATE:LOCATIONuseREFERENCES/rel1-4-date_th0.25-doc_th0.6-loc_th0.4.res.clean,0.197,0.800,0.600,0.545,0.000,
DOCUMENT:DATE:LOCATION,REFERENCES,0.5,0.25,0.35,rel2-3,2,3,110055,9407.9,34064,book_collection_true_dates/location/query9//useDOCUMENT:DATE:LOCATIONuseREFERENCES/rel2-3-date_th0.25-doc_th0.5-loc_th0.35.res.clean,0.258,0.600,0.700,0.450,0.000,
DOCUMENT:DATE:LOCATION,REFERENCES,0.7,0.25,0.4,rel2-3,2,3,75178,5892.1,29465,book_collection_true_dates/location/query9//useDOCUMENT:DATE:LOCATIONuseREFERENCES/rel2-3-date_th0.25-doc_th0.7-loc_th0.4.res.clean,0.232,0.600,0.700,0.400,0.000,
DOCUMENT:DATE:LOCATION,REFERENCES,0.7,0.25,0.4,rel3-2,3,3,124076,15423.7,50207,book_collection_true_dates/location/query9//useDOCUMENT:DATE:LOCATIONuseREFERENCES/rel3-2-date_th0.25-doc_th0.7-loc_th0.4.res.clean,0.312,0.600,0.600,0.600,0.000,
DOCUMENT:DATE:LOCATION,REFERENCES,0.6,0.3,0.4,rel2-5,2,3,75157,6352.0,29865,book_collection_true_dates/location/query9//useDOCUMENT:DATE:LOCATIONuseREFERENCES/rel2-5-date_th0.3-doc_th0.6-loc_th0.4.res.clean,0.292,0.800,0.500,0.550,0.000,
DOCUMENT:DATE:LOCATION,REFERENCES,0.5,0.3,0.4,rel1-1,1,2,50,6.4,22995,book_collection_true_dates/location/query9//useDOCUMENT:DATE:LOCATIONuseREFERENCES/rel1-1-date_th0.3-doc_th0.5-loc_th0.4.res.clean,0.152,0.600,0.500,0.350,0.000,
DOCUMENT:DATE:LOCATION,REFERENCES,0.6,0.25,0.4,rel2-5,2,3,75157,6352.0,29911,book_collection_true_dates/location/query9//useDOCUMENT:DATE:LOCATIONuseREFERENCES/rel2-5-date_th0.25-doc_th0.6-loc_th0.4.res.clean,0.292,0.800,0.500,0.550,0.000,
DOCUMENT:DATE:LOCATION,REFERENCES,0.7,0.3,0.4,rel1-4,1,2,12,2.7,3749,book_collection_true_dates/location/query9//useDOCUMENT:DATE:LOCATIONuseREFERENCES/rel1-4-date_th0.3-doc_th0.7-loc_th0.4.res.clean,0.197,0.800,0.600,0.545,0.000,
DOCUMENT:DATE:LOCATION,REFERENCES,0.5,0.25,0.4,rel3-2,3,3,124076,15423.7,56124,book_collection_true_dates/location/query9//useDOCUMENT:DATE:LOCATIONuseREFERENCES/rel3-2-date_th0.25-doc_th0.5-loc_th0.4.res.clean,0.312,0.600,0.600,0.600,0.000,
DOCUMENT:DATE:LOCATION,REFERENCES,0.5,0.3,0.35,rel3-2,3,3,127583,15775.3,50660,book_collection_true_dates/location/query9//useDOCUMENT:DATE:LOCATIONuseREFERENCES/rel3-2-date_th0.3-doc_th0.5-loc_th0.35.res.clean,0.312,0.600,0.600,0.600,0.000,
DOCUMENT:DATE:LOCATION,REFERENCES,0.5,0.3,0.35,rel2-5,2,3,110034,10168.3,34246,book_collection_true_dates/location/query9//useDOCUMENT:DATE:LOCATIONuseREFERENCES/rel2-5-date_th0.3-doc_th0.5-loc_th0.35.res.clean,0.293,0.800,0.500,0.550,0.000,
DOCUMENT:DATE:LOCATION,REFERENCES,0.7,0.3,0.4,rel2-1,2,3,75190,6150.0,44203,book_collection_true_dates/location/query9//useDOCUMENT:DATE:LOCATIONuseREFERENCES/rel2-1-date_th0.3-doc_th0.7-loc_th0.4.res.clean,0.277,0.600,0.400,0.600,0.000,
DOCUMENT:DATE:LOCATION,REFERENCES,0.5,0.3,0.4,rel2-1,2,3,75190,6150.0,43858,book_collection_true_dates/location/query9//useDOCUMENT:DATE:LOCATIONuseREFERENCES/rel2-1-date_th0.3-doc_th0.5-loc_th0.4.res.clean,0.277,0.600,0.400,0.600,0.000,
DOCUMENT:DATE:LOCATION,REFERENCES,0.7,0.3,0.4,rel2-3,2,3,75178,5892.1,29586,book_collection_true_dates/location/query9//useDOCUMENT:DATE:LOCATIONuseREFERENCES/rel2-3-date_th0.3-doc_th0.7-loc_th0.4.res.clean,0.232,0.600,0.700,0.400,0.000,
DOCUMENT:DATE:LOCATION,REFERENCES,0.5,0.25,0.35,rel1-4,1,2,12,2.7,3926,book_collection_true_dates/location/query9//useDOCUMENT:DATE:LOCATIONuseREFERENCES/rel1-4-date_th0.25-doc_th0.5-loc_th0.35.res.clean,0.197,0.800,0.600,0.545,0.000,
DOCUMENT:DATE:LOCATION,REFERENCES,0.7,0.25,0.35,rel2-3,2,3,110055,9407.9,33404,book_collection_true_dates/location/query9//useDOCUMENT:DATE:LOCATIONuseREFERENCES/rel2-3-date_th0.25-doc_th0.7-loc_th0.35.res.clean,0.258,0.600,0.700,0.450,0.000,
DOCUMENT:DATE:LOCATION,REFERENCES,0.5,0.25,0.4,rel2-3,2,3,75178,5892.1,29473,book_collection_true_dates/location/query9//useDOCUMENT:DATE:LOCATIONuseREFERENCES/rel2-3-date_th0.25-doc_th0.5-loc_th0.4.res.clean,0.232,0.600,0.700,0.400,0.000,
DOCUMENT:DATE:LOCATION,REFERENCES,0.6,0.25,0.4,rel1-2,1,2,29,4.5,23002,book_collection_true_dates/location/query9//useDOCUMENT:DATE:LOCATIONuseREFERENCES/rel1-2-date_th0.25-doc_th0.6-loc_th0.4.res.clean,0.247,0.400,0.600,0.500,0.000,
DOCUMENT:DATE:LOCATION,REFERENCES,0.7,0.25,0.35,rel1-2,1,2,29,4.5,22962,book_collection_true_dates/location/query9//useDOCUMENT:DATE:LOCATIONuseREFERENCES/rel1-2-date_th0.25-doc_th0.7-loc_th0.35.res.clean,0.247,0.400,0.600,0.500,0.000,
DOCUMENT:DATE:LOCATION,REFERENCES,0.6,0.3,0.4,rel2-3,2,3,75178,5892.1,29757,book_collection_true_dates/location/query9//useDOCUMENT:DATE:LOCATIONuseREFERENCES/rel2-3-date_th0.3-doc_th0.6-loc_th0.4.res.clean,0.232,0.600,0.700,0.400,0.000,
DOCUMENT:DATE:LOCATION,REFERENCES,0.7,0.3,0.4,rel2-5,2,3,75157,6352.0,29749,book_collection_true_dates/location/query9//useDOCUMENT:DATE:LOCATIONuseREFERENCES/rel2-5-date_th0.3-doc_th0.7-loc_th0.4.res.clean,0.292,0.800,0.500,0.550,0.000,
DOCUMENT:DATE:LOCATION,REFERENCES,0.5,0.3,0.35,rel1-4,1,2,12,2.7,3785,book_collection_true_dates/location/query9//useDOCUMENT:DATE:LOCATIONuseREFERENCES/rel1-4-date_th0.3-doc_th0.5-loc_th0.35.res.clean,0.197,0.800,0.600,0.545,0.000,
DOCUMENT:DATE:LOCATION,REFERENCES,0.5,0.3,0.4,rel1-2,1,2,29,4.5,22949,book_collection_true_dates/location/query9//useDOCUMENT:DATE:LOCATIONuseREFERENCES/rel1-2-date_th0.3-doc_th0.5-loc_th0.4.res.clean,0.247,0.400,0.600,0.500,0.000,
DOCUMENT:DATE:LOCATION,REFERENCES,0.7,0.25,0.35,rel3-2,3,3,127583,15775.3,53691,book_collection_true_dates/location/query9//useDOCUMENT:DATE:LOCATIONuseREFERENCES/rel3-2-date_th0.25-doc_th0.7-loc_th0.35.res.clean,0.312,0.600,0.600,0.600,0.000,
DOCUMENT:DATE:LOCATION,REFERENCES,0.5,0.3,0.35,rel2-1,2,3,113975,10321.0,49302,book_collection_true_dates/location/query9//useDOCUMENT:DATE:LOCATIONuseREFERENCES/rel2-1-date_th0.3-doc_th0.5-loc_th0.35.res.clean,0.231,0.600,0.500,0.500,0.000,
DOCUMENT:DATE:LOCATION,REFERENCES,0.7,0.3,0.4,rel1-2,1,2,29,4.5,23209,book_collection_true_dates/location/query9//useDOCUMENT:DATE:LOCATIONuseREFERENCES/rel1-2-date_th0.3-doc_th0.7-loc_th0.4.res.clean,0.247,0.400,0.600,0.500,0.000,
DOCUMENT:DATE:LOCATION,REFERENCES,0.5,0.25,0.35,rel3-2,3,3,127583,15775.3,71427,book_collection_true_dates/location/query9//useDOCUMENT:DATE:LOCATIONuseREFERENCES/rel3-2-date_th0.25-doc_th0.5-loc_th0.35.res.clean,0.312,0.600,0.600,0.600,0.000,
DOCUMENT:DATE:LOCATION,REFERENCES,0.6,0.3,0.35,rel1-2,1,2,29,4.5,23036,book_collection_true_dates/location/query9//useDOCUMENT:DATE:LOCATIONuseREFERENCES/rel1-2-date_th0.3-doc_th0.6-loc_th0.35.res.clean,0.247,0.400,0.600,0.500,0.000,
DOCUMENT:DATE:LOCATION,REFERENCES,0.6,0.3,0.4,rel3-2,3,3,124076,15423.7,51825,book_collection_true_dates/location/query9//useDOCUMENT:DATE:LOCATIONuseREFERENCES/rel3-2-date_th0.3-doc_th0.6-loc_th0.4.res.clean,0.312,0.600,0.600,0.600,0.000,
DOCUMENT:DATE:LOCATION,REFERENCES,0.6,0.3,0.35,rel1-1,1,2,50,6.4,23491,book_collection_true_dates/location/query9//useDOCUMENT:DATE:LOCATIONuseREFERENCES/rel1-1-date_th0.3-doc_th0.6-loc_th0.35.res.clean,0.152,0.600,0.500,0.350,0.000,
DOCUMENT:DATE:LOCATION,REFERENCES,0.7,0.3,0.35,rel1-2,1,2,29,4.5,22938,book_collection_true_dates/location/query9//useDOCUMENT:DATE:LOCATIONuseREFERENCES/rel1-2-date_th0.3-doc_th0.7-loc_th0.35.res.clean,0.247,0.400,0.600,0.500,0.000,
DOCUMENT:DATE:LOCATION,REFERENCES,0.5,0.25,0.4,rel1-2,1,2,29,4.5,23008,book_collection_true_dates/location/query9//useDOCUMENT:DATE:LOCATIONuseREFERENCES/rel1-2-date_th0.25-doc_th0.5-loc_th0.4.res.clean,0.247,0.400,0.600,0.500,0.000,
DOCUMENT:DATE:LOCATION,REFERENCES,0.7,0.3,0.4,rel1-1,1,2,50,6.4,22874,book_collection_true_dates/location/query9//useDOCUMENT:DATE:LOCATIONuseREFERENCES/rel1-1-date_th0.3-doc_th0.7-loc_th0.4.res.clean,0.152,0.600,0.500,0.350,0.000,
DOCUMENT:DATE:LOCATION,REFERENCES,0.7,0.3,0.4,rel3-2,3,3,124076,15423.7,49928,book_collection_true_dates/location/query9//useDOCUMENT:DATE:LOCATIONuseREFERENCES/rel3-2-date_th0.3-doc_th0.7-loc_th0.4.res.clean,0.312,0.600,0.600,0.600,0.000,
DOCUMENT:DATE:LOCATION,REFERENCES,0.5,0.25,0.4,rel2-5,2,3,75157,6352.0,30069,book_collection_true_dates/location/query9//useDOCUMENT:DATE:LOCATIONuseREFERENCES/rel2-5-date_th0.25-doc_th0.5-loc_th0.4.res.clean,0.292,0.800,0.500,0.550,0.000,
DOCUMENT:DATE:LOCATION,REFERENCES,0.7,0.25,0.4,rel2-5,2,3,75157,6352.0,29878,book_collection_true_dates/location/query9//useDOCUMENT:DATE:LOCATIONuseREFERENCES/rel2-5-date_th0.25-doc_th0.7-loc_th0.4.res.clean,0.292,0.800,0.500,0.550,0.000,
DOCUMENT:DATE:LOCATION,REFERENCES,0.7,0.25,0.35,rel1-4,1,2,12,2.7,3754,book_collection_true_dates/location/query9//useDOCUMENT:DATE:LOCATIONuseREFERENCES/rel1-4-date_th0.25-doc_th0.7-loc_th0.35.res.clean,0.197,0.800,0.600,0.545,0.000,
DOCUMENT:DATE:LOCATION,REFERENCES,0.5,0.3,0.35,rel1-2,1,2,29,4.5,23059,book_collection_true_dates/location/query9//useDOCUMENT:DATE:LOCATIONuseREFERENCES/rel1-2-date_th0.3-doc_th0.5-loc_th0.35.res.clean,0.247,0.400,0.600,0.500,0.000,
DOCUMENT:DATE:LOCATION,REFERENCES,0.7,0.3,0.35,rel2-5,2,3,110034,10168.3,34032,book_collection_true_dates/location/query9//useDOCUMENT:DATE:LOCATIONuseREFERENCES/rel2-5-date_th0.3-doc_th0.7-loc_th0.35.res.clean,0.293,0.800,0.500,0.550,0.000,
DOCUMENT:DATE:LOCATION,REFERENCES,0.7,0.3,0.35,rel3-2,3,3,127583,15775.3,48562,book_collection_true_dates/location/query9//useDOCUMENT:DATE:LOCATIONuseREFERENCES/rel3-2-date_th0.3-doc_th0.7-loc_th0.35.res.clean,0.312,0.600,0.600,0.600,0.000,
DOCUMENT:DATE:LOCATION,REFERENCES,0.6,0.3,0.4,rel1-4,1,2,12,2.7,3747,book_collection_true_dates/location/query9//useDOCUMENT:DATE:LOCATIONuseREFERENCES/rel1-4-date_th0.3-doc_th0.6-loc_th0.4.res.clean,0.197,0.800,0.600,0.545,0.000,
DOCUMENT:DATE:LOCATION,REFERENCES,0.6,0.25,0.4,rel2-1,2,3,75190,6150.0,47945,book_collection_true_dates/location/query9//useDOCUMENT:DATE:LOCATIONuseREFERENCES/rel2-1-date_th0.25-doc_th0.6-loc_th0.4.res.clean,0.277,0.600,0.400,0.600,0.000,
DOCUMENT:DATE:LOCATION,REFERENCES,0.6,0.25,0.35,rel3-2,3,3,127583,15775.3,49894,book_collection_true_dates/location/query9//useDOCUMENT:DATE:LOCATIONuseREFERENCES/rel3-2-date_th0.25-doc_th0.6-loc_th0.35.res.clean,0.312,0.600,0.600,0.600,0.000,
DOCUMENT:DATE:LOCATION,REFERENCES,0.5,0.25,0.35,rel2-1,2,3,113975,10321.0,73184,book_collection_true_dates/location/query9//useDOCUMENT:DATE:LOCATIONuseREFERENCES/rel2-1-date_th0.25-doc_th0.5-loc_th0.35.res.clean,0.231,0.600,0.500,0.500,0.000,
DOCUMENT:DATE:LOCATION,REFERENCES,0.5,0.3,0.35,rel2-3,2,3,110055,9407.9,33788,book_collection_true_dates/location/query9//useDOCUMENT:DATE:LOCATIONuseREFERENCES/rel2-3-date_th0.3-doc_th0.5-loc_th0.35.res.clean,0.258,0.600,0.700,0.450,0.000,
DOCUMENT:DATE:LOCATION,REFERENCES,0.6,0.3,0.4,rel2-1,2,3,75190,6150.0,44421,book_collection_true_dates/location/query9//useDOCUMENT:DATE:LOCATIONuseREFERENCES/rel2-1-date_th0.3-doc_th0.6-loc_th0.4.res.clean,0.277,0.600,0.400,0.600,0.000,
DOCUMENT:DATE:LOCATION,REFERENCES,0.6,0.25,0.35,rel1-4,1,2,12,2.7,3758,book_collection_true_dates/location/query9//useDOCUMENT:DATE:LOCATIONuseREFERENCES/rel1-4-date_th0.25-doc_th0.6-loc_th0.35.res.clean,0.197,0.800,0.600,0.545,0.000,
DOCUMENT:DATE:LOCATION,REFERENCES,0.7,0.25,0.4,rel1-1,1,2,50,6.4,23284,book_collection_true_dates/location/query9//useDOCUMENT:DATE:LOCATIONuseREFERENCES/rel1-1-date_th0.25-doc_th0.7-loc_th0.4.res.clean,0.152,0.600,0.500,0.350,0.000,
DOCUMENT:DATE:LOCATION,REFERENCES,0.6,0.3,0.35,rel2-5,2,3,110034,10168.3,34325,book_collection_true_dates/location/query9//useDOCUMENT:DATE:LOCATIONuseREFERENCES/rel2-5-date_th0.3-doc_th0.6-loc_th0.35.res.clean,0.293,0.800,0.500,0.550,0.000,
DOCUMENT:DATE:LOCATION,REFERENCES,0.5,0.25,0.35,rel1-2,1,2,29,4.5,24764,book_collection_true_dates/location/query9//useDOCUMENT:DATE:LOCATIONuseREFERENCES/rel1-2-date_th0.25-doc_th0.5-loc_th0.35.res.clean,0.247,0.400,0.600,0.500,0.000,
DOCUMENT:DATE:LOCATION,REFERENCES,0.6,0.3,0.4,rel1-2,1,2,29,4.5,22962,book_collection_true_dates/location/query9//useDOCUMENT:DATE:LOCATIONuseREFERENCES/rel1-2-date_th0.3-doc_th0.6-loc_th0.4.res.clean,0.247,0.400,0.600,0.500,0.000,
DOCUMENT:DATE:LOCATION,REFERENCES,0.6,0.25,0.4,rel1-1,1,2,50,6.4,23820,book_collection_true_dates/location/query9//useDOCUMENT:DATE:LOCATIONuseREFERENCES/rel1-1-date_th0.25-doc_th0.6-loc_th0.4.res.clean,0.152,0.600,0.500,0.350,0.000,
DOCUMENT:DATE:LOCATION,REFERENCES,0.6,0.25,0.4,rel3-2,3,3,124076,15423.7,51258,book_collection_true_dates/location/query9//useDOCUMENT:DATE:LOCATIONuseREFERENCES/rel3-2-date_th0.25-doc_th0.6-loc_th0.4.res.clean,0.312,0.600,0.600,0.600,0.000,
DOCUMENT:DATE:LOCATION,REFERENCES,0.7,0.25,0.4,rel1-4,1,2,12,2.7,3759,book_collection_true_dates/location/query9//useDOCUMENT:DATE:LOCATIONuseREFERENCES/rel1-4-date_th0.25-doc_th0.7-loc_th0.4.res.clean,0.197,0.800,0.600,0.545,0.000,
DOCUMENT:DATE:LOCATION,REFERENCES,0.5,0.3,0.4,rel2-3,2,3,75178,5892.1,29273,book_collection_true_dates/location/query9//useDOCUMENT:DATE:LOCATIONuseREFERENCES/rel2-3-date_th0.3-doc_th0.5-loc_th0.4.res.clean,0.232,0.600,0.700,0.400,0.000,
DOCUMENT:DATE:LOCATION,REFERENCES,0.6,0.3,0.35,rel2-1,2,3,113975,10321.0,48622,book_collection_true_dates/location/query9//useDOCUMENT:DATE:LOCATIONuseREFERENCES/rel2-1-date_th0.3-doc_th0.6-loc_th0.35.res.clean,0.231,0.600,0.500,0.500,0.000,
DOCUMENT:DATE:LOCATION,REFERENCES,0.7,0.25,0.35,rel1-1,1,2,50,6.4,23040,book_collection_true_dates/location/query9//useDOCUMENT:DATE:LOCATIONuseREFERENCES/rel1-1-date_th0.25-doc_th0.7-loc_th0.35.res.clean,0.152,0.600,0.500,0.350,0.000,
DOCUMENT:DATE:LOCATION,REFERENCES,0.6,0.25,0.4,rel2-3,2,3,75178,5892.1,29450,book_collection_true_dates/location/query9//useDOCUMENT:DATE:LOCATIONuseREFERENCES/rel2-3-date_th0.25-doc_th0.6-loc_th0.4.res.clean,0.232,0.600,0.700,0.400,0.000,
DOCUMENT:DATE:LOCATION,REFERENCES,0.5,0.3,0.35,rel1-1,1,2,50,6.4,23577,book_collection_true_dates/location/query9//useDOCUMENT:DATE:LOCATIONuseREFERENCES/rel1-1-date_th0.3-doc_th0.5-loc_th0.35.res.clean,0.152,0.600,0.500,0.350,0.000,
DOCUMENT:DATE:LOCATION,REFERENCES,0.5,0.25,0.4,rel2-1,2,3,75190,6150.0,45793,book_collection_true_dates/location/query9//useDOCUMENT:DATE:LOCATIONuseREFERENCES/rel2-1-date_th0.25-doc_th0.5-loc_th0.4.res.clean,0.277,0.600,0.400,0.600,0.000,
DOCUMENT:DATE:LOCATION,REFERENCES,0.5,0.25,0.35,rel2-5,2,3,110034,10168.3,34214,book_collection_true_dates/location/query9//useDOCUMENT:DATE:LOCATIONuseREFERENCES/rel2-5-date_th0.25-doc_th0.5-loc_th0.35.res.clean,0.293,0.800,0.500,0.550,0.000,
DOCUMENT:DATE:LOCATION,REFERENCES,0.6,0.3,0.35,rel1-4,1,2,12,2.7,3781,book_collection_true_dates/location/query9//useDOCUMENT:DATE:LOCATIONuseREFERENCES/rel1-4-date_th0.3-doc_th0.6-loc_th0.35.res.clean,0.197,0.800,0.600,0.545,0.000,
DOCUMENT:DATE:LOCATION,REFERENCES,0.7,0.3,0.35,rel2-1,2,3,113975,10321.0,48588,book_collection_true_dates/location/query9//useDOCUMENT:DATE:LOCATIONuseREFERENCES/rel2-1-date_th0.3-doc_th0.7-loc_th0.35.res.clean,0.231,0.600,0.500,0.500,0.000,
DOCUMENT:DATE:LOCATION,REFERENCES,0.6,0.25,0.35,rel2-5,2,3,110034,10168.3,33955,book_collection_true_dates/location/query9//useDOCUMENT:DATE:LOCATIONuseREFERENCES/rel2-5-date_th0.25-doc_th0.6-loc_th0.35.res.clean,0.293,0.800,0.500,0.550,0.000,
DOCUMENT:DATE:LOCATION,REFERENCES,0.6,0.25,0.35,rel2-1,2,3,113975,10321.0,52062,book_collection_true_dates/location/query9//useDOCUMENT:DATE:LOCATIONuseREFERENCES/rel2-1-date_th0.25-doc_th0.6-loc_th0.35.res.clean,0.231,0.600,0.500,0.500,0.000,
DOCUMENT:DATE:LOCATION,REFERENCES,0.7,0.25,0.4,rel2-1,2,3,75190,6150.0,44519,book_collection_true_dates/location/query9//useDOCUMENT:DATE:LOCATIONuseREFERENCES/rel2-1-date_th0.25-doc_th0.7-loc_th0.4.res.clean,0.277,0.600,0.400,0.600,0.000,
DOCUMENT:DATE:LOCATION,REFERENCES,0.6,0.25,0.35,rel1-2,1,2,29,4.5,23570,book_collection_true_dates/location/query9//useDOCUMENT:DATE:LOCATIONuseREFERENCES/rel1-2-date_th0.25-doc_th0.6-loc_th0.35.res.clean,0.247,0.400,0.600,0.500,0.000,

Sig-Test:,randomized,,threshold,set,to,0.050000
