nodestouse,relationships,doc_th,date_th,loc_th,iter,seeds,number of spread. activ. pulses,final number of activated nodes,final overall activation,running time,run-id,map,P5,P10,P20,R-prec,
DOCUMENT:DATE:LOCATION,REFERENCES:SIMDATES:SIMLOC,0.6,0.3,0.4,rel1-1,1,2,50,6.4,22050,book_collection_true_dates/location/query9//useDOCUMENT:DATE:LOCATIONuseREFERENCES:SIMDATES:SIMLOC/rel1-1-date_th0.3-doc_th0.6-loc_th0.4.res.clean,0.152,0.600,0.500,0.350,0.000,
DOCUMENT:DATE:LOCATION,REFERENCES:SIMDATES:SIMLOC,0.7,0.25,0.4,rel1-2,1,2,29,4.5,22292,book_collection_true_dates/location/query9//useDOCUMENT:DATE:LOCATIONuseREFERENCES:SIMDATES:SIMLOC/rel1-2-date_th0.25-doc_th0.7-loc_th0.4.res.clean,0.247,0.400,0.600,0.500,0.000,
DOCUMENT:DATE:LOCATION,REFERENCES:SIMDATES:SIMLOC,0.5,0.25,0.35,rel1-1,1,2,50,6.4,39256,book_collection_true_dates/location/query9//useDOCUMENT:DATE:LOCATIONuseREFERENCES:SIMDATES:SIMLOC/rel1-1-date_th0.25-doc_th0.5-loc_th0.35.res.clean,0.152,0.600,0.500,0.350,0.000,
DOCUMENT:DATE:LOCATION,REFERENCES:SIMDATES:SIMLOC,0.7,0.25,0.35,rel2-1,2,3,114014,10327.5,58210,book_collection_true_dates/location/query9//useDOCUMENT:DATE:LOCATIONuseREFERENCES:SIMDATES:SIMLOC/rel2-1-date_th0.25-doc_th0.7-loc_th0.35.res.clean,0.110,0.600,0.400,0.200,0.000,
DOCUMENT:DATE:LOCATION,REFERENCES:SIMDATES:SIMLOC,0.6,0.25,0.35,rel2-3,2,3,110081,9412.6,40701,book_collection_true_dates/location/query9//useDOCUMENT:DATE:LOCATIONuseREFERENCES:SIMDATES:SIMLOC/rel2-3-date_th0.25-doc_th0.6-loc_th0.35.res.clean,0.146,0.600,0.500,0.250,0.000,
DOCUMENT:DATE:LOCATION,REFERENCES:SIMDATES:SIMLOC,0.5,0.3,0.4,rel2-5,2,3,75171,6355.1,36040,book_collection_true_dates/location/query9//useDOCUMENT:DATE:LOCATIONuseREFERENCES:SIMDATES:SIMLOC/rel2-5-date_th0.3-doc_th0.5-loc_th0.4.res.clean,0.147,0.800,0.400,0.250,0.000,
DOCUMENT:DATE:LOCATION,REFERENCES:SIMDATES:SIMLOC,0.6,0.3,0.35,rel3-2,3,3,127633,15785.8,48810,book_collection_true_dates/location/query9//useDOCUMENT:DATE:LOCATIONuseREFERENCES:SIMDATES:SIMLOC/rel3-2-date_th0.3-doc_th0.6-loc_th0.35.res.clean,0.166,0.600,0.500,0.300,0.000,
DOCUMENT:DATE:LOCATION,REFERENCES:SIMDATES:SIMLOC,0.7,0.25,0.35,rel2-5,2,3,110060,10173.5,39681,book_collection_true_dates/location/query9//useDOCUMENT:DATE:LOCATIONuseREFERENCES:SIMDATES:SIMLOC/rel2-5-date_th0.25-doc_th0.7-loc_th0.35.res.clean,0.147,0.800,0.400,0.250,0.000,
DOCUMENT:DATE:LOCATION,REFERENCES:SIMDATES:SIMLOC,0.7,0.3,0.35,rel2-3,2,3,110081,9412.6,39853,book_collection_true_dates/location/query9//useDOCUMENT:DATE:LOCATIONuseREFERENCES:SIMDATES:SIMLOC/rel2-3-date_th0.3-doc_th0.7-loc_th0.35.res.clean,0.146,0.600,0.500,0.250,0.000,
DOCUMENT:DATE:LOCATION,REFERENCES:SIMDATES:SIMLOC,0.7,0.3,0.35,rel1-1,1,2,50,6.4,22658,book_collection_true_dates/location/query9//useDOCUMENT:DATE:LOCATIONuseREFERENCES:SIMDATES:SIMLOC/rel1-1-date_th0.3-doc_th0.7-loc_th0.35.res.clean,0.152,0.600,0.500,0.350,0.000,
DOCUMENT:DATE:LOCATION,REFERENCES:SIMDATES:SIMLOC,0.6,0.25,0.35,rel1-1,1,2,50,6.4,23033,book_collection_true_dates/location/query9//useDOCUMENT:DATE:LOCATIONuseREFERENCES:SIMDATES:SIMLOC/rel1-1-date_th0.25-doc_th0.6-loc_th0.35.res.clean,0.152,0.600,0.500,0.350,0.000,
DOCUMENT:DATE:LOCATION,REFERENCES:SIMDATES:SIMLOC,0.5,0.25,0.4,rel1-1,1,2,50,6.4,22817,book_collection_true_dates/location/query9//useDOCUMENT:DATE:LOCATIONuseREFERENCES:SIMDATES:SIMLOC/rel1-1-date_th0.25-doc_th0.5-loc_th0.4.res.clean,0.152,0.600,0.500,0.350,0.000,
DOCUMENT:DATE:LOCATION,REFERENCES:SIMDATES:SIMLOC,0.5,0.3,0.4,rel1-4,1,2,12,2.7,3610,book_collection_true_dates/location/query9//useDOCUMENT:DATE:LOCATIONuseREFERENCES:SIMDATES:SIMLOC/rel1-4-date_th0.3-doc_th0.5-loc_th0.4.res.clean,0.197,0.800,0.600,0.545,0.000,
DOCUMENT:DATE:LOCATION,REFERENCES:SIMDATES:SIMLOC,0.5,0.25,0.4,rel1-4,1,2,12,2.7,3625,book_collection_true_dates/location/query9//useDOCUMENT:DATE:LOCATIONuseREFERENCES:SIMDATES:SIMLOC/rel1-4-date_th0.25-doc_th0.5-loc_th0.4.res.clean,0.197,0.800,0.600,0.545,0.000,
DOCUMENT:DATE:LOCATION,REFERENCES:SIMDATES:SIMLOC,0.6,0.3,0.35,rel2-3,2,3,110081,9412.6,39369,book_collection_true_dates/location/query9//useDOCUMENT:DATE:LOCATIONuseREFERENCES:SIMDATES:SIMLOC/rel2-3-date_th0.3-doc_th0.6-loc_th0.35.res.clean,0.146,0.600,0.500,0.250,0.000,
DOCUMENT:DATE:LOCATION,REFERENCES:SIMDATES:SIMLOC,0.7,0.3,0.35,rel1-4,1,2,12,2.7,3654,book_collection_true_dates/location/query9//useDOCUMENT:DATE:LOCATIONuseREFERENCES:SIMDATES:SIMLOC/rel1-4-date_th0.3-doc_th0.7-loc_th0.35.res.clean,0.197,0.800,0.600,0.545,0.000,
DOCUMENT:DATE:LOCATION,REFERENCES:SIMDATES:SIMLOC,0.5,0.3,0.4,rel3-2,3,3,124113,15432.8,50013,book_collection_true_dates/location/query9//useDOCUMENT:DATE:LOCATIONuseREFERENCES:SIMDATES:SIMLOC/rel3-2-date_th0.3-doc_th0.5-loc_th0.4.res.clean,0.166,0.600,0.500,0.300,0.000,
DOCUMENT:DATE:LOCATION,REFERENCES:SIMDATES:SIMLOC,0.6,0.25,0.4,rel1-4,1,2,12,2.7,3606,book_collection_true_dates/location/query9//useDOCUMENT:DATE:LOCATIONuseREFERENCES:SIMDATES:SIMLOC/rel1-4-date_th0.25-doc_th0.6-loc_th0.4.res.clean,0.197,0.800,0.600,0.545,0.000,
DOCUMENT:DATE:LOCATION,REFERENCES:SIMDATES:SIMLOC,0.5,0.25,0.35,rel2-3,2,3,110081,9412.6,39946,book_collection_true_dates/location/query9//useDOCUMENT:DATE:LOCATIONuseREFERENCES:SIMDATES:SIMLOC/rel2-3-date_th0.25-doc_th0.5-loc_th0.35.res.clean,0.146,0.600,0.500,0.250,0.000,
DOCUMENT:DATE:LOCATION,REFERENCES:SIMDATES:SIMLOC,0.7,0.25,0.4,rel2-3,2,3,75192,5894.9,35118,book_collection_true_dates/location/query9//useDOCUMENT:DATE:LOCATIONuseREFERENCES:SIMDATES:SIMLOC/rel2-3-date_th0.25-doc_th0.7-loc_th0.4.res.clean,0.146,0.600,0.500,0.250,0.000,
DOCUMENT:DATE:LOCATION,REFERENCES:SIMDATES:SIMLOC,0.7,0.25,0.4,rel3-2,3,3,124113,15432.8,49599,book_collection_true_dates/location/query9//useDOCUMENT:DATE:LOCATIONuseREFERENCES:SIMDATES:SIMLOC/rel3-2-date_th0.25-doc_th0.7-loc_th0.4.res.clean,0.166,0.600,0.500,0.300,0.000,
DOCUMENT:DATE:LOCATION,REFERENCES:SIMDATES:SIMLOC,0.6,0.3,0.4,rel2-5,2,3,75171,6355.1,35615,book_collection_true_dates/location/query9//useDOCUMENT:DATE:LOCATIONuseREFERENCES:SIMDATES:SIMLOC/rel2-5-date_th0.3-doc_th0.6-loc_th0.4.res.clean,0.147,0.800,0.400,0.250,0.000,
DOCUMENT:DATE:LOCATION,REFERENCES:SIMDATES:SIMLOC,0.5,0.3,0.4,rel1-1,1,2,50,6.4,21912,book_collection_true_dates/location/query9//useDOCUMENT:DATE:LOCATIONuseREFERENCES:SIMDATES:SIMLOC/rel1-1-date_th0.3-doc_th0.5-loc_th0.4.res.clean,0.152,0.600,0.500,0.350,0.000,
DOCUMENT:DATE:LOCATION,REFERENCES:SIMDATES:SIMLOC,0.6,0.25,0.4,rel2-5,2,3,75171,6355.1,35390,book_collection_true_dates/location/query9//useDOCUMENT:DATE:LOCATIONuseREFERENCES:SIMDATES:SIMLOC/rel2-5-date_th0.25-doc_th0.6-loc_th0.4.res.clean,0.147,0.800,0.400,0.250,0.000,
DOCUMENT:DATE:LOCATION,REFERENCES:SIMDATES:SIMLOC,0.7,0.3,0.4,rel1-4,1,2,12,2.7,3628,book_collection_true_dates/location/query9//useDOCUMENT:DATE:LOCATIONuseREFERENCES:SIMDATES:SIMLOC/rel1-4-date_th0.3-doc_th0.7-loc_th0.4.res.clean,0.197,0.800,0.600,0.545,0.000,
DOCUMENT:DATE:LOCATION,REFERENCES:SIMDATES:SIMLOC,0.5,0.25,0.4,rel3-2,3,3,124113,15432.8,50977,book_collection_true_dates/location/query9//useDOCUMENT:DATE:LOCATIONuseREFERENCES:SIMDATES:SIMLOC/rel3-2-date_th0.25-doc_th0.5-loc_th0.4.res.clean,0.166,0.600,0.500,0.300,0.000,
DOCUMENT:DATE:LOCATION,REFERENCES:SIMDATES:SIMLOC,0.5,0.3,0.35,rel3-2,3,3,127633,15785.8,50317,book_collection_true_dates/location/query9//useDOCUMENT:DATE:LOCATIONuseREFERENCES:SIMDATES:SIMLOC/rel3-2-date_th0.3-doc_th0.5-loc_th0.35.res.clean,0.166,0.600,0.500,0.300,0.000,
DOCUMENT:DATE:LOCATION,REFERENCES:SIMDATES:SIMLOC,0.5,0.3,0.35,rel2-5,2,3,110060,10173.5,39903,book_collection_true_dates/location/query9//useDOCUMENT:DATE:LOCATIONuseREFERENCES:SIMDATES:SIMLOC/rel2-5-date_th0.3-doc_th0.5-loc_th0.35.res.clean,0.147,0.800,0.400,0.250,0.000,
DOCUMENT:DATE:LOCATION,REFERENCES:SIMDATES:SIMLOC,0.7,0.3,0.4,rel2-1,2,3,75204,6153.0,51293,book_collection_true_dates/location/query9//useDOCUMENT:DATE:LOCATIONuseREFERENCES:SIMDATES:SIMLOC/rel2-1-date_th0.3-doc_th0.7-loc_th0.4.res.clean,0.110,0.600,0.400,0.200,0.000,
DOCUMENT:DATE:LOCATION,REFERENCES:SIMDATES:SIMLOC,0.5,0.3,0.4,rel2-1,2,3,75204,6153.0,51589,book_collection_true_dates/location/query9//useDOCUMENT:DATE:LOCATIONuseREFERENCES:SIMDATES:SIMLOC/rel2-1-date_th0.3-doc_th0.5-loc_th0.4.res.clean,0.110,0.600,0.400,0.200,0.000,
DOCUMENT:DATE:LOCATION,REFERENCES:SIMDATES:SIMLOC,0.7,0.3,0.4,rel2-3,2,3,75192,5894.9,34902,book_collection_true_dates/location/query9//useDOCUMENT:DATE:LOCATIONuseREFERENCES:SIMDATES:SIMLOC/rel2-3-date_th0.3-doc_th0.7-loc_th0.4.res.clean,0.146,0.600,0.500,0.250,0.000,
DOCUMENT:DATE:LOCATION,REFERENCES:SIMDATES:SIMLOC,0.5,0.25,0.35,rel1-4,1,2,12,2.7,3863,book_collection_true_dates/location/query9//useDOCUMENT:DATE:LOCATIONuseREFERENCES:SIMDATES:SIMLOC/rel1-4-date_th0.25-doc_th0.5-loc_th0.35.res.clean,0.197,0.800,0.600,0.545,0.000,
DOCUMENT:DATE:LOCATION,REFERENCES:SIMDATES:SIMLOC,0.7,0.25,0.35,rel2-3,2,3,110081,9412.6,39432,book_collection_true_dates/location/query9//useDOCUMENT:DATE:LOCATIONuseREFERENCES:SIMDATES:SIMLOC/rel2-3-date_th0.25-doc_th0.7-loc_th0.35.res.clean,0.146,0.600,0.500,0.250,0.000,
DOCUMENT:DATE:LOCATION,REFERENCES:SIMDATES:SIMLOC,0.5,0.25,0.4,rel2-3,2,3,75192,5894.9,34575,book_collection_true_dates/location/query9//useDOCUMENT:DATE:LOCATIONuseREFERENCES:SIMDATES:SIMLOC/rel2-3-date_th0.25-doc_th0.5-loc_th0.4.res.clean,0.146,0.600,0.500,0.250,0.000,
DOCUMENT:DATE:LOCATION,REFERENCES:SIMDATES:SIMLOC,0.6,0.25,0.4,rel1-2,1,2,29,4.5,22994,book_collection_true_dates/location/query9//useDOCUMENT:DATE:LOCATIONuseREFERENCES:SIMDATES:SIMLOC/rel1-2-date_th0.25-doc_th0.6-loc_th0.4.res.clean,0.247,0.400,0.600,0.500,0.000,
DOCUMENT:DATE:LOCATION,REFERENCES:SIMDATES:SIMLOC,0.7,0.25,0.35,rel1-2,1,2,29,4.5,22243,book_collection_true_dates/location/query9//useDOCUMENT:DATE:LOCATIONuseREFERENCES:SIMDATES:SIMLOC/rel1-2-date_th0.25-doc_th0.7-loc_th0.35.res.clean,0.247,0.400,0.600,0.500,0.000,
DOCUMENT:DATE:LOCATION,REFERENCES:SIMDATES:SIMLOC,0.6,0.3,0.4,rel2-3,2,3,75192,5894.9,35075,book_collection_true_dates/location/query9//useDOCUMENT:DATE:LOCATIONuseREFERENCES:SIMDATES:SIMLOC/rel2-3-date_th0.3-doc_th0.6-loc_th0.4.res.clean,0.146,0.600,0.500,0.250,0.000,
DOCUMENT:DATE:LOCATION,REFERENCES:SIMDATES:SIMLOC,0.7,0.3,0.4,rel2-5,2,3,75171,6355.1,35115,book_collection_true_dates/location/query9//useDOCUMENT:DATE:LOCATIONuseREFERENCES:SIMDATES:SIMLOC/rel2-5-date_th0.3-doc_th0.7-loc_th0.4.res.clean,0.147,0.800,0.400,0.250,0.000,
DOCUMENT:DATE:LOCATION,REFERENCES:SIMDATES:SIMLOC,0.5,0.3,0.35,rel1-4,1,2,12,2.7,3614,book_collection_true_dates/location/query9//useDOCUMENT:DATE:LOCATIONuseREFERENCES:SIMDATES:SIMLOC/rel1-4-date_th0.3-doc_th0.5-loc_th0.35.res.clean,0.197,0.800,0.600,0.545,0.000,
DOCUMENT:DATE:LOCATION,REFERENCES:SIMDATES:SIMLOC,0.5,0.3,0.4,rel1-2,1,2,29,4.5,22301,book_collection_true_dates/location/query9//useDOCUMENT:DATE:LOCATIONuseREFERENCES:SIMDATES:SIMLOC/rel1-2-date_th0.3-doc_th0.5-loc_th0.4.res.clean,0.247,0.400,0.600,0.500,0.000,
DOCUMENT:DATE:LOCATION,REFERENCES:SIMDATES:SIMLOC,0.7,0.25,0.35,rel3-2,3,3,127633,15785.8,49923,book_collection_true_dates/location/query9//useDOCUMENT:DATE:LOCATIONuseREFERENCES:SIMDATES:SIMLOC/rel3-2-date_th0.25-doc_th0.7-loc_th0.35.res.clean,0.166,0.600,0.500,0.300,0.000,
DOCUMENT:DATE:LOCATION,REFERENCES:SIMDATES:SIMLOC,0.5,0.3,0.35,rel2-1,2,3,114014,10327.5,56909,book_collection_true_dates/location/query9//useDOCUMENT:DATE:LOCATIONuseREFERENCES:SIMDATES:SIMLOC/rel2-1-date_th0.3-doc_th0.5-loc_th0.35.res.clean,0.110,0.600,0.400,0.200,0.000,
DOCUMENT:DATE:LOCATION,REFERENCES:SIMDATES:SIMLOC,0.7,0.3,0.4,rel1-2,1,2,29,4.5,22243,book_collection_true_dates/location/query9//useDOCUMENT:DATE:LOCATIONuseREFERENCES:SIMDATES:SIMLOC/rel1-2-date_th0.3-doc_th0.7-loc_th0.4.res.clean,0.247,0.400,0.600,0.500,0.000,
DOCUMENT:DATE:LOCATION,REFERENCES:SIMDATES:SIMLOC,0.5,0.25,0.35,rel3-2,3,3,127633,15785.8,74187,book_collection_true_dates/location/query9//useDOCUMENT:DATE:LOCATIONuseREFERENCES:SIMDATES:SIMLOC/rel3-2-date_th0.25-doc_th0.5-loc_th0.35.res.clean,0.166,0.600,0.500,0.300,0.000,
DOCUMENT:DATE:LOCATION,REFERENCES:SIMDATES:SIMLOC,0.6,0.3,0.35,rel1-2,1,2,29,4.5,22231,book_collection_true_dates/location/query9//useDOCUMENT:DATE:LOCATIONuseREFERENCES:SIMDATES:SIMLOC/rel1-2-date_th0.3-doc_th0.6-loc_th0.35.res.clean,0.247,0.400,0.600,0.500,0.000,
DOCUMENT:DATE:LOCATION,REFERENCES:SIMDATES:SIMLOC,0.6,0.3,0.4,rel3-2,3,3,124113,15432.8,49343,book_collection_true_dates/location/query9//useDOCUMENT:DATE:LOCATIONuseREFERENCES:SIMDATES:SIMLOC/rel3-2-date_th0.3-doc_th0.6-loc_th0.4.res.clean,0.166,0.600,0.500,0.300,0.000,
DOCUMENT:DATE:LOCATION,REFERENCES:SIMDATES:SIMLOC,0.6,0.3,0.35,rel1-1,1,2,50,6.4,22908,book_collection_true_dates/location/query9//useDOCUMENT:DATE:LOCATIONuseREFERENCES:SIMDATES:SIMLOC/rel1-1-date_th0.3-doc_th0.6-loc_th0.35.res.clean,0.152,0.600,0.500,0.350,0.000,
DOCUMENT:DATE:LOCATION,REFERENCES:SIMDATES:SIMLOC,0.7,0.3,0.35,rel1-2,1,2,29,4.5,22339,book_collection_true_dates/location/query9//useDOCUMENT:DATE:LOCATIONuseREFERENCES:SIMDATES:SIMLOC/rel1-2-date_th0.3-doc_th0.7-loc_th0.35.res.clean,0.247,0.400,0.600,0.500,0.000,
DOCUMENT:DATE:LOCATION,REFERENCES:SIMDATES:SIMLOC,0.5,0.25,0.4,rel1-2,1,2,29,4.5,22908,book_collection_true_dates/location/query9//useDOCUMENT:DATE:LOCATIONuseREFERENCES:SIMDATES:SIMLOC/rel1-2-date_th0.25-doc_th0.5-loc_th0.4.res.clean,0.247,0.400,0.600,0.500,0.000,
DOCUMENT:DATE:LOCATION,REFERENCES:SIMDATES:SIMLOC,0.7,0.3,0.4,rel1-1,1,2,50,6.4,22028,book_collection_true_dates/location/query9//useDOCUMENT:DATE:LOCATIONuseREFERENCES:SIMDATES:SIMLOC/rel1-1-date_th0.3-doc_th0.7-loc_th0.4.res.clean,0.152,0.600,0.500,0.350,0.000,
DOCUMENT:DATE:LOCATION,REFERENCES:SIMDATES:SIMLOC,0.7,0.3,0.4,rel3-2,3,3,124113,15432.8,49493,book_collection_true_dates/location/query9//useDOCUMENT:DATE:LOCATIONuseREFERENCES:SIMDATES:SIMLOC/rel3-2-date_th0.3-doc_th0.7-loc_th0.4.res.clean,0.166,0.600,0.500,0.300,0.000,
DOCUMENT:DATE:LOCATION,REFERENCES:SIMDATES:SIMLOC,0.5,0.25,0.4,rel2-5,2,3,75171,6355.1,35525,book_collection_true_dates/location/query9//useDOCUMENT:DATE:LOCATIONuseREFERENCES:SIMDATES:SIMLOC/rel2-5-date_th0.25-doc_th0.5-loc_th0.4.res.clean,0.147,0.800,0.400,0.250,0.000,
DOCUMENT:DATE:LOCATION,REFERENCES:SIMDATES:SIMLOC,0.7,0.25,0.4,rel2-5,2,3,75171,6355.1,35407,book_collection_true_dates/location/query9//useDOCUMENT:DATE:LOCATIONuseREFERENCES:SIMDATES:SIMLOC/rel2-5-date_th0.25-doc_th0.7-loc_th0.4.res.clean,0.147,0.800,0.400,0.250,0.000,
DOCUMENT:DATE:LOCATION,REFERENCES:SIMDATES:SIMLOC,0.7,0.25,0.35,rel1-4,1,2,12,2.7,3616,book_collection_true_dates/location/query9//useDOCUMENT:DATE:LOCATIONuseREFERENCES:SIMDATES:SIMLOC/rel1-4-date_th0.25-doc_th0.7-loc_th0.35.res.clean,0.197,0.800,0.600,0.545,0.000,
DOCUMENT:DATE:LOCATION,REFERENCES:SIMDATES:SIMLOC,0.5,0.3,0.35,rel1-2,1,2,29,4.5,22628,book_collection_true_dates/location/query9//useDOCUMENT:DATE:LOCATIONuseREFERENCES:SIMDATES:SIMLOC/rel1-2-date_th0.3-doc_th0.5-loc_th0.35.res.clean,0.247,0.400,0.600,0.500,0.000,
DOCUMENT:DATE:LOCATION,REFERENCES:SIMDATES:SIMLOC,0.7,0.3,0.35,rel2-5,2,3,110060,10173.5,39657,book_collection_true_dates/location/query9//useDOCUMENT:DATE:LOCATIONuseREFERENCES:SIMDATES:SIMLOC/rel2-5-date_th0.3-doc_th0.7-loc_th0.35.res.clean,0.147,0.800,0.400,0.250,0.000,
DOCUMENT:DATE:LOCATION,REFERENCES:SIMDATES:SIMLOC,0.7,0.3,0.35,rel3-2,3,3,127633,15785.8,49419,book_collection_true_dates/location/query9//useDOCUMENT:DATE:LOCATIONuseREFERENCES:SIMDATES:SIMLOC/rel3-2-date_th0.3-doc_th0.7-loc_th0.35.res.clean,0.166,0.600,0.500,0.300,0.000,
DOCUMENT:DATE:LOCATION,REFERENCES:SIMDATES:SIMLOC,0.6,0.3,0.4,rel1-4,1,2,12,2.7,3676,book_collection_true_dates/location/query9//useDOCUMENT:DATE:LOCATIONuseREFERENCES:SIMDATES:SIMLOC/rel1-4-date_th0.3-doc_th0.6-loc_th0.4.res.clean,0.197,0.800,0.600,0.545,0.000,
DOCUMENT:DATE:LOCATION,REFERENCES:SIMDATES:SIMLOC,0.6,0.25,0.4,rel2-1,2,3,75204,6153.0,55363,book_collection_true_dates/location/query9//useDOCUMENT:DATE:LOCATIONuseREFERENCES:SIMDATES:SIMLOC/rel2-1-date_th0.25-doc_th0.6-loc_th0.4.res.clean,0.110,0.600,0.400,0.200,0.000,
DOCUMENT:DATE:LOCATION,REFERENCES:SIMDATES:SIMLOC,0.6,0.25,0.35,rel3-2,3,3,127633,15785.8,51203,book_collection_true_dates/location/query9//useDOCUMENT:DATE:LOCATIONuseREFERENCES:SIMDATES:SIMLOC/rel3-2-date_th0.25-doc_th0.6-loc_th0.35.res.clean,0.166,0.600,0.500,0.300,0.000,
DOCUMENT:DATE:LOCATION,REFERENCES:SIMDATES:SIMLOC,0.5,0.25,0.35,rel2-1,2,3,114014,10327.5,75510,book_collection_true_dates/location/query9//useDOCUMENT:DATE:LOCATIONuseREFERENCES:SIMDATES:SIMLOC/rel2-1-date_th0.25-doc_th0.5-loc_th0.35.res.clean,0.110,0.600,0.400,0.200,0.000,
DOCUMENT:DATE:LOCATION,REFERENCES:SIMDATES:SIMLOC,0.5,0.3,0.35,rel2-3,2,3,110081,9412.6,39340,book_collection_true_dates/location/query9//useDOCUMENT:DATE:LOCATIONuseREFERENCES:SIMDATES:SIMLOC/rel2-3-date_th0.3-doc_th0.5-loc_th0.35.res.clean,0.146,0.600,0.500,0.250,0.000,
DOCUMENT:DATE:LOCATION,REFERENCES:SIMDATES:SIMLOC,0.6,0.3,0.4,rel2-1,2,3,75204,6153.0,52234,book_collection_true_dates/location/query9//useDOCUMENT:DATE:LOCATIONuseREFERENCES:SIMDATES:SIMLOC/rel2-1-date_th0.3-doc_th0.6-loc_th0.4.res.clean,0.110,0.600,0.400,0.200,0.000,
DOCUMENT:DATE:LOCATION,REFERENCES:SIMDATES:SIMLOC,0.6,0.25,0.35,rel1-4,1,2,12,2.7,3621,book_collection_true_dates/location/query9//useDOCUMENT:DATE:LOCATIONuseREFERENCES:SIMDATES:SIMLOC/rel1-4-date_th0.25-doc_th0.6-loc_th0.35.res.clean,0.197,0.800,0.600,0.545,0.000,
DOCUMENT:DATE:LOCATION,REFERENCES:SIMDATES:SIMLOC,0.7,0.25,0.4,rel1-1,1,2,50,6.4,22387,book_collection_true_dates/location/query9//useDOCUMENT:DATE:LOCATIONuseREFERENCES:SIMDATES:SIMLOC/rel1-1-date_th0.25-doc_th0.7-loc_th0.4.res.clean,0.152,0.600,0.500,0.350,0.000,
DOCUMENT:DATE:LOCATION,REFERENCES:SIMDATES:SIMLOC,0.6,0.3,0.35,rel2-5,2,3,110060,10173.5,39772,book_collection_true_dates/location/query9//useDOCUMENT:DATE:LOCATIONuseREFERENCES:SIMDATES:SIMLOC/rel2-5-date_th0.3-doc_th0.6-loc_th0.35.res.clean,0.147,0.800,0.400,0.250,0.000,
DOCUMENT:DATE:LOCATION,REFERENCES:SIMDATES:SIMLOC,0.5,0.25,0.35,rel1-2,1,2,29,4.5,24339,book_collection_true_dates/location/query9//useDOCUMENT:DATE:LOCATIONuseREFERENCES:SIMDATES:SIMLOC/rel1-2-date_th0.25-doc_th0.5-loc_th0.35.res.clean,0.247,0.400,0.600,0.500,0.000,
DOCUMENT:DATE:LOCATION,REFERENCES:SIMDATES:SIMLOC,0.6,0.3,0.4,rel1-2,1,2,29,4.5,22255,book_collection_true_dates/location/query9//useDOCUMENT:DATE:LOCATIONuseREFERENCES:SIMDATES:SIMLOC/rel1-2-date_th0.3-doc_th0.6-loc_th0.4.res.clean,0.247,0.400,0.600,0.500,0.000,
DOCUMENT:DATE:LOCATION,REFERENCES:SIMDATES:SIMLOC,0.6,0.25,0.4,rel1-1,1,2,50,6.4,23065,book_collection_true_dates/location/query9//useDOCUMENT:DATE:LOCATIONuseREFERENCES:SIMDATES:SIMLOC/rel1-1-date_th0.25-doc_th0.6-loc_th0.4.res.clean,0.152,0.600,0.500,0.350,0.000,
DOCUMENT:DATE:LOCATION,REFERENCES:SIMDATES:SIMLOC,0.6,0.25,0.4,rel3-2,3,3,124113,15432.8,55098,book_collection_true_dates/location/query9//useDOCUMENT:DATE:LOCATIONuseREFERENCES:SIMDATES:SIMLOC/rel3-2-date_th0.25-doc_th0.6-loc_th0.4.res.clean,0.166,0.600,0.500,0.300,0.000,
DOCUMENT:DATE:LOCATION,REFERENCES:SIMDATES:SIMLOC,0.7,0.25,0.4,rel1-4,1,2,12,2.7,3613,book_collection_true_dates/location/query9//useDOCUMENT:DATE:LOCATIONuseREFERENCES:SIMDATES:SIMLOC/rel1-4-date_th0.25-doc_th0.7-loc_th0.4.res.clean,0.197,0.800,0.600,0.545,0.000,
DOCUMENT:DATE:LOCATION,REFERENCES:SIMDATES:SIMLOC,0.5,0.3,0.4,rel2-3,2,3,75192,5894.9,34795,book_collection_true_dates/location/query9//useDOCUMENT:DATE:LOCATIONuseREFERENCES:SIMDATES:SIMLOC/rel2-3-date_th0.3-doc_th0.5-loc_th0.4.res.clean,0.146,0.600,0.500,0.250,0.000,
DOCUMENT:DATE:LOCATION,REFERENCES:SIMDATES:SIMLOC,0.6,0.3,0.35,rel2-1,2,3,114014,10327.5,58352,book_collection_true_dates/location/query9//useDOCUMENT:DATE:LOCATIONuseREFERENCES:SIMDATES:SIMLOC/rel2-1-date_th0.3-doc_th0.6-loc_th0.35.res.clean,0.110,0.600,0.400,0.200,0.000,
DOCUMENT:DATE:LOCATION,REFERENCES:SIMDATES:SIMLOC,0.7,0.25,0.35,rel1-1,1,2,50,6.4,22038,book_collection_true_dates/location/query9//useDOCUMENT:DATE:LOCATIONuseREFERENCES:SIMDATES:SIMLOC/rel1-1-date_th0.25-doc_th0.7-loc_th0.35.res.clean,0.152,0.600,0.500,0.350,0.000,
DOCUMENT:DATE:LOCATION,REFERENCES:SIMDATES:SIMLOC,0.6,0.25,0.4,rel2-3,2,3,75192,5894.9,34543,book_collection_true_dates/location/query9//useDOCUMENT:DATE:LOCATIONuseREFERENCES:SIMDATES:SIMLOC/rel2-3-date_th0.25-doc_th0.6-loc_th0.4.res.clean,0.146,0.600,0.500,0.250,0.000,
DOCUMENT:DATE:LOCATION,REFERENCES:SIMDATES:SIMLOC,0.5,0.3,0.35,rel1-1,1,2,50,6.4,22623,book_collection_true_dates/location/query9//useDOCUMENT:DATE:LOCATIONuseREFERENCES:SIMDATES:SIMLOC/rel1-1-date_th0.3-doc_th0.5-loc_th0.35.res.clean,0.152,0.600,0.500,0.350,0.000,
DOCUMENT:DATE:LOCATION,REFERENCES:SIMDATES:SIMLOC,0.5,0.25,0.4,rel2-1,2,3,75204,6153.0,53317,book_collection_true_dates/location/query9//useDOCUMENT:DATE:LOCATIONuseREFERENCES:SIMDATES:SIMLOC/rel2-1-date_th0.25-doc_th0.5-loc_th0.4.res.clean,0.110,0.600,0.400,0.200,0.000,
DOCUMENT:DATE:LOCATION,REFERENCES:SIMDATES:SIMLOC,0.5,0.25,0.35,rel2-5,2,3,110060,10173.5,39815,book_collection_true_dates/location/query9//useDOCUMENT:DATE:LOCATIONuseREFERENCES:SIMDATES:SIMLOC/rel2-5-date_th0.25-doc_th0.5-loc_th0.35.res.clean,0.147,0.800,0.400,0.250,0.000,
DOCUMENT:DATE:LOCATION,REFERENCES:SIMDATES:SIMLOC,0.6,0.3,0.35,rel1-4,1,2,12,2.7,3767,book_collection_true_dates/location/query9//useDOCUMENT:DATE:LOCATIONuseREFERENCES:SIMDATES:SIMLOC/rel1-4-date_th0.3-doc_th0.6-loc_th0.35.res.clean,0.197,0.800,0.600,0.545,0.000,
DOCUMENT:DATE:LOCATION,REFERENCES:SIMDATES:SIMLOC,0.7,0.3,0.35,rel2-1,2,3,114014,10327.5,56525,book_collection_true_dates/location/query9//useDOCUMENT:DATE:LOCATIONuseREFERENCES:SIMDATES:SIMLOC/rel2-1-date_th0.3-doc_th0.7-loc_th0.35.res.clean,0.110,0.600,0.400,0.200,0.000,
DOCUMENT:DATE:LOCATION,REFERENCES:SIMDATES:SIMLOC,0.6,0.25,0.35,rel2-5,2,3,110060,10173.5,39789,book_collection_true_dates/location/query9//useDOCUMENT:DATE:LOCATIONuseREFERENCES:SIMDATES:SIMLOC/rel2-5-date_th0.25-doc_th0.6-loc_th0.35.res.clean,0.147,0.800,0.400,0.250,0.000,
DOCUMENT:DATE:LOCATION,REFERENCES:SIMDATES:SIMLOC,0.6,0.25,0.35,rel2-1,2,3,114014,10327.5,59696,book_collection_true_dates/location/query9//useDOCUMENT:DATE:LOCATIONuseREFERENCES:SIMDATES:SIMLOC/rel2-1-date_th0.25-doc_th0.6-loc_th0.35.res.clean,0.110,0.600,0.400,0.200,0.000,
DOCUMENT:DATE:LOCATION,REFERENCES:SIMDATES:SIMLOC,0.7,0.25,0.4,rel2-1,2,3,75204,6153.0,52297,book_collection_true_dates/location/query9//useDOCUMENT:DATE:LOCATIONuseREFERENCES:SIMDATES:SIMLOC/rel2-1-date_th0.25-doc_th0.7-loc_th0.4.res.clean,0.110,0.600,0.400,0.200,0.000,
DOCUMENT:DATE:LOCATION,REFERENCES:SIMDATES:SIMLOC,0.6,0.25,0.35,rel1-2,1,2,29,4.5,22237,book_collection_true_dates/location/query9//useDOCUMENT:DATE:LOCATIONuseREFERENCES:SIMDATES:SIMLOC/rel1-2-date_th0.25-doc_th0.6-loc_th0.35.res.clean,0.247,0.400,0.600,0.500,0.000,

Sig-Test:,randomized,,threshold,set,to,0.050000
