###################################
# parameters: 
#   date_th: 0.25
#   doc_th: 0.6
#   loc_th: 0.35
#   nodestouse: DOCUMENT:DATE:LOCATION
#   relationships: REFERENCES:SIMDATES:SIMLOC:SIMPAGE

###################################
# configuration: 
#   sa.act_diff_ratio_limit = 0.01
#   sa.act_diff_ratio_limit_diff = 0.01
#   sa.function = ciir.multi.sa.function.MaxSAFunction(norm_function)
#   sa.id_property_name.DATE = dateID
#   sa.id_property_name.DOCUMENT = docID
#   sa.id_property_name.LOCATION = locID
#   sa.max_pulses = 10
#   sa.nodes_to_print = DATE:LOCATION
#   sa.nodes_to_use = DOCUMENT:DATE:LOCATION
#   sa.norm_function = ciir.multi.sa.SigmoidFunction(0.0, 1.0)
#   sa.relationships_to_use = REFERENCES:SIMDATES:SIMLOC:SIMPAGE
#   sa.spread_threshold.DATE = 0.25
#   sa.spread_threshold.DOCUMENT = 0.6
#   sa.spread_threshold.LOCATION = 0.35
#   sa.weight_property.REFERENCES = relevance
#   sa.weight_property.SIMDATES = sim
#   sa.weight_property.SIMDOC = sim
#   sa.weight_property.SIMLOC = sim
#   sa.weight_property.SIMPAGE = pagesim

###################################
# initial activations (2): 
#   encyclopediabrit03newyrich_155, 1
#   cu31924082142666_16, 1

###################################
# spreading activation process log: 
#   pulse 0: activated: 2, non-zero: 2, borderline: 2, overall act: 2.000, act diff: 2.000, ratio: 1.000
#   pulse 1: activated: 38, non-zero: 38, borderline: 36, overall act: 8.953, act diff: 6.953, ratio: 0.777
#   pulse 2: activated: 110060, non-zero: 110060, borderline: 110056, overall act: 10175.131, act diff: 10166.178, ratio: 0.999
#   pulse 3: activated: 110088, non-zero: 110088, borderline: 110082, overall act: 10179.892, act diff: 4.761, ratio: 0.000

###################################
# spreading activation process summary: 
#   final number of activated nodes: 110088
#   final overall activation: 10179.9
#   number of spread. activ. pulses: 3
#   running time: 55452

###################################
# top k results in TREC format: 

9   rel2-5   austria   1   0.6887858   nodesDOCUMENT:DATE:LOCATION-edgesREFERENCES:SIMDATES:SIMLOC:SIMPAGE-date_th0.25-doc_th0.6-loc_th0.35
9   rel2-5   prussia   2   0.6217152   nodesDOCUMENT:DATE:LOCATION-edgesREFERENCES:SIMDATES:SIMLOC:SIMPAGE-date_th0.25-doc_th0.6-loc_th0.35
9   rel2-5   holstein   3   0.47974977   nodesDOCUMENT:DATE:LOCATION-edgesREFERENCES:SIMDATES:SIMLOC:SIMPAGE-date_th0.25-doc_th0.6-loc_th0.35
9   rel2-5   saxony   4   0.38813838   nodesDOCUMENT:DATE:LOCATION-edgesREFERENCES:SIMDATES:SIMLOC:SIMPAGE-date_th0.25-doc_th0.6-loc_th0.35
9   rel2-5   germany   5   0.3119695   nodesDOCUMENT:DATE:LOCATION-edgesREFERENCES:SIMDATES:SIMLOC:SIMPAGE-date_th0.25-doc_th0.6-loc_th0.35
9   rel2-5   1863   6   0.30125496   nodesDOCUMENT:DATE:LOCATION-edgesREFERENCES:SIMDATES:SIMLOC:SIMPAGE-date_th0.25-doc_th0.6-loc_th0.35
9   rel2-5   1852   7   0.30125496   nodesDOCUMENT:DATE:LOCATION-edgesREFERENCES:SIMDATES:SIMLOC:SIMPAGE-date_th0.25-doc_th0.6-loc_th0.35
9   rel2-5   hanover   8   0.27869135   nodesDOCUMENT:DATE:LOCATION-edgesREFERENCES:SIMDATES:SIMLOC:SIMPAGE-date_th0.25-doc_th0.6-loc_th0.35
9   rel2-5   vienna   9   0.26805797   nodesDOCUMENT:DATE:LOCATION-edgesREFERENCES:SIMDATES:SIMLOC:SIMPAGE-date_th0.25-doc_th0.6-loc_th0.35
9   rel2-5   hungary   10   0.23376568   nodesDOCUMENT:DATE:LOCATION-edgesREFERENCES:SIMDATES:SIMLOC:SIMPAGE-date_th0.25-doc_th0.6-loc_th0.35
9   rel2-5   acropolis hill   11   0.22465234   nodesDOCUMENT:DATE:LOCATION-edgesREFERENCES:SIMDATES:SIMLOC:SIMPAGE-date_th0.25-doc_th0.6-loc_th0.35
9   rel2-5   art gallery   12   0.22386755   nodesDOCUMENT:DATE:LOCATION-edgesREFERENCES:SIMDATES:SIMLOC:SIMPAGE-date_th0.25-doc_th0.6-loc_th0.35
9   rel2-5   acropolis museum   13   0.22263062   nodesDOCUMENT:DATE:LOCATION-edgesREFERENCES:SIMDATES:SIMLOC:SIMPAGE-date_th0.25-doc_th0.6-loc_th0.35
9   rel2-5   propylaia   14   0.22229607   nodesDOCUMENT:DATE:LOCATION-edgesREFERENCES:SIMDATES:SIMLOC:SIMPAGE-date_th0.25-doc_th0.6-loc_th0.35
9   rel2-5   acropolis   15   0.22222655   nodesDOCUMENT:DATE:LOCATION-edgesREFERENCES:SIMDATES:SIMLOC:SIMPAGE-date_th0.25-doc_th0.6-loc_th0.35
9   rel2-5   acropolis of athens   16   0.22221826   nodesDOCUMENT:DATE:LOCATION-edgesREFERENCES:SIMDATES:SIMLOC:SIMPAGE-date_th0.25-doc_th0.6-loc_th0.35
9   rel2-5   parthenon   17   0.22215997   nodesDOCUMENT:DATE:LOCATION-edgesREFERENCES:SIMDATES:SIMLOC:SIMPAGE-date_th0.25-doc_th0.6-loc_th0.35
9   rel2-5   areopagus   18   0.22204874   nodesDOCUMENT:DATE:LOCATION-edgesREFERENCES:SIMDATES:SIMLOC:SIMPAGE-date_th0.25-doc_th0.6-loc_th0.35
9   rel2-5   erechtheion   19   0.22193715   nodesDOCUMENT:DATE:LOCATION-edgesREFERENCES:SIMDATES:SIMLOC:SIMPAGE-date_th0.25-doc_th0.6-loc_th0.35
9   rel2-5   pnyx   20   0.22191302   nodesDOCUMENT:DATE:LOCATION-edgesREFERENCES:SIMDATES:SIMLOC:SIMPAGE-date_th0.25-doc_th0.6-loc_th0.35

###################################
# top nodes: 

# 9   rel2-5   encyclopediabrit03newyrich_155   1   1.0   nodesDOCUMENT:DATE:LOCATION-edgesREFERENCES:SIMDATES:SIMLOC:SIMPAGE-date_th0.25-doc_th0.6-loc_th0.35
# 9   rel2-5   cu31924082142666_16   2   1.0   nodesDOCUMENT:DATE:LOCATION-edgesREFERENCES:SIMDATES:SIMLOC:SIMPAGE-date_th0.25-doc_th0.6-loc_th0.35
# 9   rel2-5   austria   3   0.6887858   nodesDOCUMENT:DATE:LOCATION-edgesREFERENCES:SIMDATES:SIMLOC:SIMPAGE-date_th0.25-doc_th0.6-loc_th0.35
# 9   rel2-5   encyclopediabrit03newyrich_154   4   0.635461   nodesDOCUMENT:DATE:LOCATION-edgesREFERENCES:SIMDATES:SIMLOC:SIMPAGE-date_th0.25-doc_th0.6-loc_th0.35
# 9   rel2-5   prussia   5   0.6217152   nodesDOCUMENT:DATE:LOCATION-edgesREFERENCES:SIMDATES:SIMLOC:SIMPAGE-date_th0.25-doc_th0.6-loc_th0.35
# 9   rel2-5   cu31924082142666_15   6   0.6081361   nodesDOCUMENT:DATE:LOCATION-edgesREFERENCES:SIMDATES:SIMLOC:SIMPAGE-date_th0.25-doc_th0.6-loc_th0.35
# 9   rel2-5   cu31924082142666_17   7   0.5689918   nodesDOCUMENT:DATE:LOCATION-edgesREFERENCES:SIMDATES:SIMLOC:SIMPAGE-date_th0.25-doc_th0.6-loc_th0.35
# 9   rel2-5   encyclopediabrit03newyrich_156   8   0.53354925   nodesDOCUMENT:DATE:LOCATION-edgesREFERENCES:SIMDATES:SIMLOC:SIMPAGE-date_th0.25-doc_th0.6-loc_th0.35
# 9   rel2-5   cu31924082142666_14   9   0.5286388   nodesDOCUMENT:DATE:LOCATION-edgesREFERENCES:SIMDATES:SIMLOC:SIMPAGE-date_th0.25-doc_th0.6-loc_th0.35
# 9   rel2-5   encyclopediabrit03newyrich_153   10   0.52065754   nodesDOCUMENT:DATE:LOCATION-edgesREFERENCES:SIMDATES:SIMLOC:SIMPAGE-date_th0.25-doc_th0.6-loc_th0.35
# 9   rel2-5   holstein   11   0.47974977   nodesDOCUMENT:DATE:LOCATION-edgesREFERENCES:SIMDATES:SIMLOC:SIMPAGE-date_th0.25-doc_th0.6-loc_th0.35
# 9   rel2-5   saxony   12   0.38813838   nodesDOCUMENT:DATE:LOCATION-edgesREFERENCES:SIMDATES:SIMLOC:SIMPAGE-date_th0.25-doc_th0.6-loc_th0.35
# 9   rel2-5   germany   13   0.3119695   nodesDOCUMENT:DATE:LOCATION-edgesREFERENCES:SIMDATES:SIMLOC:SIMPAGE-date_th0.25-doc_th0.6-loc_th0.35
# 9   rel2-5   lifetimesofstein02seeluoft_364   14   0.30337334   nodesDOCUMENT:DATE:LOCATION-edgesREFERENCES:SIMDATES:SIMLOC:SIMPAGE-date_th0.25-doc_th0.6-loc_th0.35
# 9   rel2-5   ourchancellorske00buscuoft_352   15   0.30178598   nodesDOCUMENT:DATE:LOCATION-edgesREFERENCES:SIMDATES:SIMLOC:SIMPAGE-date_th0.25-doc_th0.6-loc_th0.35
# 9   rel2-5   1863   16   0.30125496   nodesDOCUMENT:DATE:LOCATION-edgesREFERENCES:SIMDATES:SIMLOC:SIMPAGE-date_th0.25-doc_th0.6-loc_th0.35
# 9   rel2-5   1852   17   0.30125496   nodesDOCUMENT:DATE:LOCATION-edgesREFERENCES:SIMDATES:SIMLOC:SIMPAGE-date_th0.25-doc_th0.6-loc_th0.35
# 9   rel2-5   ourchancellorske00buscuoft_365   18   0.3011069   nodesDOCUMENT:DATE:LOCATION-edgesREFERENCES:SIMDATES:SIMLOC:SIMPAGE-date_th0.25-doc_th0.6-loc_th0.35
# 9   rel2-5   foundingofgerman02sybeuoft_32   19   0.3011069   nodesDOCUMENT:DATE:LOCATION-edgesREFERENCES:SIMDATES:SIMLOC:SIMPAGE-date_th0.25-doc_th0.6-loc_th0.35
# 9   rel2-5   serbiaeurope00mark_142   20   0.29991737   nodesDOCUMENT:DATE:LOCATION-edgesREFERENCES:SIMDATES:SIMLOC:SIMPAGE-date_th0.25-doc_th0.6-loc_th0.35
# 9   rel2-5   foundingofgerman02sybeuoft_96   21   0.29926082   nodesDOCUMENT:DATE:LOCATION-edgesREFERENCES:SIMDATES:SIMLOC:SIMPAGE-date_th0.25-doc_th0.6-loc_th0.35
# 9   rel2-5   historyofeuropef00holt_116   22   0.29766142   nodesDOCUMENT:DATE:LOCATION-edgesREFERENCES:SIMDATES:SIMLOC:SIMPAGE-date_th0.25-doc_th0.6-loc_th0.35
# 9   rel2-5   historyofcontemp00seiguoft_295   23   0.2969326   nodesDOCUMENT:DATE:LOCATION-edgesREFERENCES:SIMDATES:SIMLOC:SIMPAGE-date_th0.25-doc_th0.6-loc_th0.35
# 9   rel2-5   historyofcontemp00seigrich_299   24   0.2969326   nodesDOCUMENT:DATE:LOCATION-edgesREFERENCES:SIMDATES:SIMLOC:SIMPAGE-date_th0.25-doc_th0.6-loc_th0.35
# 9   rel2-5   cu31924082142666_119   25   0.29687622   nodesDOCUMENT:DATE:LOCATION-edgesREFERENCES:SIMDATES:SIMLOC:SIMPAGE-date_th0.25-doc_th0.6-loc_th0.35
# 9   rel2-5   europe1789192000turnrich_282   26   0.29516795   nodesDOCUMENT:DATE:LOCATION-edgesREFERENCES:SIMDATES:SIMLOC:SIMPAGE-date_th0.25-doc_th0.6-loc_th0.35
# 9   rel2-5   universalantho25garn_415   27   0.2945559   nodesDOCUMENT:DATE:LOCATION-edgesREFERENCES:SIMDATES:SIMLOC:SIMPAGE-date_th0.25-doc_th0.6-loc_th0.35
# 9   rel2-5   reckoningdiscuss00beckrich_146   28   0.2921813   nodesDOCUMENT:DATE:LOCATION-edgesREFERENCES:SIMDATES:SIMLOC:SIMPAGE-date_th0.25-doc_th0.6-loc_th0.35
# 9   rel2-5   lifetimesofstein02seeluoft_37   29   0.29072815   nodesDOCUMENT:DATE:LOCATION-edgesREFERENCES:SIMDATES:SIMLOC:SIMPAGE-date_th0.25-doc_th0.6-loc_th0.35
# 9   rel2-5   cu31924031684685_715   30   0.2903676   nodesDOCUMENT:DATE:LOCATION-edgesREFERENCES:SIMDATES:SIMLOC:SIMPAGE-date_th0.25-doc_th0.6-loc_th0.35
# 9   rel2-5   ourchancellorske00buscuoft_301   31   0.28978553   nodesDOCUMENT:DATE:LOCATION-edgesREFERENCES:SIMDATES:SIMLOC:SIMPAGE-date_th0.25-doc_th0.6-loc_th0.35
# 9   rel2-5   ourchancellorske00buscuoft_357   32   0.28973222   nodesDOCUMENT:DATE:LOCATION-edgesREFERENCES:SIMDATES:SIMLOC:SIMPAGE-date_th0.25-doc_th0.6-loc_th0.35
# 9   rel2-5   shorthistoryofeu00terr_459   33   0.289004   nodesDOCUMENT:DATE:LOCATION-edgesREFERENCES:SIMDATES:SIMLOC:SIMPAGE-date_th0.25-doc_th0.6-loc_th0.35
# 9   rel2-5   outlineseuropea04beargoog_378   34   0.28842348   nodesDOCUMENT:DATE:LOCATION-edgesREFERENCES:SIMDATES:SIMLOC:SIMPAGE-date_th0.25-doc_th0.6-loc_th0.35
# 9   rel2-5   storygreatwar04ruhlgoog_345   35   0.28808984   nodesDOCUMENT:DATE:LOCATION-edgesREFERENCES:SIMDATES:SIMLOC:SIMPAGE-date_th0.25-doc_th0.6-loc_th0.35
# 9   rel2-5   foundationsofger00barkuoft_248   36   0.28776932   nodesDOCUMENT:DATE:LOCATION-edgesREFERENCES:SIMDATES:SIMLOC:SIMPAGE-date_th0.25-doc_th0.6-loc_th0.35
# 9   rel2-5   foundingofgerman02sybeuoft_537   37   0.28754726   nodesDOCUMENT:DATE:LOCATION-edgesREFERENCES:SIMDATES:SIMLOC:SIMPAGE-date_th0.25-doc_th0.6-loc_th0.35
# 9   rel2-5   briefhistoryofna00fish_538   38   0.2875003   nodesDOCUMENT:DATE:LOCATION-edgesREFERENCES:SIMDATES:SIMLOC:SIMPAGE-date_th0.25-doc_th0.6-loc_th0.35
# 9   rel2-5   ourchancellorske00buscuoft_312   39   0.28738642   nodesDOCUMENT:DATE:LOCATION-edgesREFERENCES:SIMDATES:SIMLOC:SIMPAGE-date_th0.25-doc_th0.6-loc_th0.35
# 9   rel2-5   ourchancellorske00buscuoft_359   40   0.28697816   nodesDOCUMENT:DATE:LOCATION-edgesREFERENCES:SIMDATES:SIMLOC:SIMPAGE-date_th0.25-doc_th0.6-loc_th0.35
