###################################
# parameters: 
#   date_th: 0.25
#   doc_th: 0.7
#   loc_th: 0.4
#   nodestouse: DOCUMENT:DATE:LOCATION
#   relationships: REFERENCES:SIMPAGE

###################################
# configuration: 
#   sa.act_diff_ratio_limit = 0.01
#   sa.act_diff_ratio_limit_diff = 0.01
#   sa.function = ciir.multi.sa.function.MaxSAFunction(norm_function)
#   sa.id_property_name.DATE = dateID
#   sa.id_property_name.DOCUMENT = docID
#   sa.id_property_name.LOCATION = locID
#   sa.max_pulses = 10
#   sa.nodes_to_print = DATE:LOCATION
#   sa.nodes_to_use = DOCUMENT:DATE:LOCATION
#   sa.norm_function = ciir.multi.sa.SigmoidFunction(0.0, 1.0)
#   sa.relationships_to_use = REFERENCES:SIMPAGE
#   sa.spread_threshold.DATE = 0.25
#   sa.spread_threshold.DOCUMENT = 0.7
#   sa.spread_threshold.LOCATION = 0.4
#   sa.weight_property.REFERENCES = relevance
#   sa.weight_property.SIMDATES = sim
#   sa.weight_property.SIMDOC = sim
#   sa.weight_property.SIMLOC = sim
#   sa.weight_property.SIMPAGE = pagesim

###################################
# initial activations (1): 
#   medievalandmode02robigoog_789, 1

###################################
# spreading activation process log: 
#   pulse 0: activated: 1, non-zero: 1, borderline: 1, overall act: 1.000, act diff: 1.000, ratio: 1.000
#   pulse 1: activated: 5, non-zero: 5, borderline: 4, overall act: 1.705, act diff: 0.705, ratio: 0.413
#   pulse 2: activated: 5, non-zero: 5, borderline: 4, overall act: 1.705, act diff: 0.000, ratio: 0.000

###################################
# spreading activation process summary: 
#   final number of activated nodes: 5
#   final overall activation: 1.7
#   number of spread. activ. pulses: 2
#   running time: 1779

###################################
# top k results in TREC format: 

7   rel1-3   1830   1   0.17624399   nodesDOCUMENT:DATE:LOCATION-edgesREFERENCES:SIMPAGE-date_th0.25-doc_th0.7-loc_th0.4
7   rel1-3   1825   2   0.17624399   nodesDOCUMENT:DATE:LOCATION-edgesREFERENCES:SIMPAGE-date_th0.25-doc_th0.7-loc_th0.4
7   rel1-3   1863   3   0.17624399   nodesDOCUMENT:DATE:LOCATION-edgesREFERENCES:SIMPAGE-date_th0.25-doc_th0.7-loc_th0.4
7   rel1-3   1831   4   0.17624399   nodesDOCUMENT:DATE:LOCATION-edgesREFERENCES:SIMPAGE-date_th0.25-doc_th0.7-loc_th0.4

###################################
# top nodes: 

# 7   rel1-3   medievalandmode02robigoog_789   1   1.0   nodesDOCUMENT:DATE:LOCATION-edgesREFERENCES:SIMPAGE-date_th0.25-doc_th0.7-loc_th0.4
# 7   rel1-3   1825   2   0.17624399   nodesDOCUMENT:DATE:LOCATION-edgesREFERENCES:SIMPAGE-date_th0.25-doc_th0.7-loc_th0.4
# 7   rel1-3   1830   3   0.17624399   nodesDOCUMENT:DATE:LOCATION-edgesREFERENCES:SIMPAGE-date_th0.25-doc_th0.7-loc_th0.4
# 7   rel1-3   1863   4   0.17624399   nodesDOCUMENT:DATE:LOCATION-edgesREFERENCES:SIMPAGE-date_th0.25-doc_th0.7-loc_th0.4
# 7   rel1-3   1831   5   0.17624399   nodesDOCUMENT:DATE:LOCATION-edgesREFERENCES:SIMPAGE-date_th0.25-doc_th0.7-loc_th0.4
