###################################
# parameters: 
#   date_th: 0.3
#   doc_th: 0.5
#   loc_th: 0.35
#   nodestouse: DOCUMENT:DATE:LOCATION
#   relationships: REFERENCES:SIMDATES

###################################
# configuration: 
#   sa.act_diff_ratio_limit = 0.01
#   sa.act_diff_ratio_limit_diff = 0.01
#   sa.function = ciir.multi.sa.function.MaxSAFunction(norm_function)
#   sa.id_property_name.DATE = dateID
#   sa.id_property_name.DOCUMENT = docID
#   sa.id_property_name.LOCATION = locID
#   sa.max_pulses = 10
#   sa.nodes_to_print = DATE:LOCATION
#   sa.nodes_to_use = DOCUMENT:DATE:LOCATION
#   sa.norm_function = ciir.multi.sa.SigmoidFunction(0.0, 1.0)
#   sa.relationships_to_use = REFERENCES:SIMDATES
#   sa.spread_threshold.DATE = 0.3
#   sa.spread_threshold.DOCUMENT = 0.5
#   sa.spread_threshold.LOCATION = 0.35
#   sa.weight_property.REFERENCES = relevance
#   sa.weight_property.SIMDATES = sim
#   sa.weight_property.SIMDOC = sim
#   sa.weight_property.SIMLOC = sim
#   sa.weight_property.SIMPAGE = pagesim

###################################
# initial activations (1): 
#   cu31924082142666_16, 1

###################################
# spreading activation process log: 
#   pulse 0: activated: 1, non-zero: 1, borderline: 1, overall act: 1.000, act diff: 1.000, ratio: 1.000
#   pulse 1: activated: 12, non-zero: 12, borderline: 11, overall act: 2.719, act diff: 1.719, ratio: 0.632
#   pulse 2: activated: 12, non-zero: 12, borderline: 11, overall act: 2.719, act diff: 0.000, ratio: 0.000

###################################
# spreading activation process summary: 
#   final number of activated nodes: 12
#   final overall activation: 2.7
#   number of spread. activ. pulses: 2
#   running time: 3613

###################################
# top k results in TREC format: 

9   rel1-4   austria   1   0.23115462   nodesDOCUMENT:DATE:LOCATION-edgesREFERENCES:SIMDATES-date_th0.3-doc_th0.5-loc_th0.35
9   rel1-4   hanover   2   0.23115462   nodesDOCUMENT:DATE:LOCATION-edgesREFERENCES:SIMDATES-date_th0.3-doc_th0.5-loc_th0.35
9   rel1-4   saxony   3   0.18442257   nodesDOCUMENT:DATE:LOCATION-edgesREFERENCES:SIMDATES-date_th0.3-doc_th0.5-loc_th0.35
9   rel1-4   prussia   4   0.18442257   nodesDOCUMENT:DATE:LOCATION-edgesREFERENCES:SIMDATES-date_th0.3-doc_th0.5-loc_th0.35
9   rel1-4   holstein   5   0.18442257   nodesDOCUMENT:DATE:LOCATION-edgesREFERENCES:SIMDATES-date_th0.3-doc_th0.5-loc_th0.35
9   rel1-4   bad langensalza   6   0.11716388   nodesDOCUMENT:DATE:LOCATION-edgesREFERENCES:SIMDATES-date_th0.3-doc_th0.5-loc_th0.35
9   rel1-4   moravia   7   0.11716388   nodesDOCUMENT:DATE:LOCATION-edgesREFERENCES:SIMDATES-date_th0.3-doc_th0.5-loc_th0.35
9   rel1-4   berlin   8   0.11716388   nodesDOCUMENT:DATE:LOCATION-edgesREFERENCES:SIMDATES-date_th0.3-doc_th0.5-loc_th0.35
9   rel1-4   trutnowo   9   0.11716388   nodesDOCUMENT:DATE:LOCATION-edgesREFERENCES:SIMDATES-date_th0.3-doc_th0.5-loc_th0.35
9   rel1-4   gottingen   10   0.11716388   nodesDOCUMENT:DATE:LOCATION-edgesREFERENCES:SIMDATES-date_th0.3-doc_th0.5-loc_th0.35
9   rel1-4   hesse   11   0.11716388   nodesDOCUMENT:DATE:LOCATION-edgesREFERENCES:SIMDATES-date_th0.3-doc_th0.5-loc_th0.35

###################################
# top nodes: 

# 9   rel1-4   cu31924082142666_16   1   1.0   nodesDOCUMENT:DATE:LOCATION-edgesREFERENCES:SIMDATES-date_th0.3-doc_th0.5-loc_th0.35
# 9   rel1-4   austria   2   0.23115462   nodesDOCUMENT:DATE:LOCATION-edgesREFERENCES:SIMDATES-date_th0.3-doc_th0.5-loc_th0.35
# 9   rel1-4   hanover   3   0.23115462   nodesDOCUMENT:DATE:LOCATION-edgesREFERENCES:SIMDATES-date_th0.3-doc_th0.5-loc_th0.35
# 9   rel1-4   saxony   4   0.18442257   nodesDOCUMENT:DATE:LOCATION-edgesREFERENCES:SIMDATES-date_th0.3-doc_th0.5-loc_th0.35
# 9   rel1-4   prussia   5   0.18442257   nodesDOCUMENT:DATE:LOCATION-edgesREFERENCES:SIMDATES-date_th0.3-doc_th0.5-loc_th0.35
# 9   rel1-4   holstein   6   0.18442257   nodesDOCUMENT:DATE:LOCATION-edgesREFERENCES:SIMDATES-date_th0.3-doc_th0.5-loc_th0.35
# 9   rel1-4   bad langensalza   7   0.11716388   nodesDOCUMENT:DATE:LOCATION-edgesREFERENCES:SIMDATES-date_th0.3-doc_th0.5-loc_th0.35
# 9   rel1-4   moravia   8   0.11716388   nodesDOCUMENT:DATE:LOCATION-edgesREFERENCES:SIMDATES-date_th0.3-doc_th0.5-loc_th0.35
# 9   rel1-4   berlin   9   0.11716388   nodesDOCUMENT:DATE:LOCATION-edgesREFERENCES:SIMDATES-date_th0.3-doc_th0.5-loc_th0.35
# 9   rel1-4   trutnowo   10   0.11716388   nodesDOCUMENT:DATE:LOCATION-edgesREFERENCES:SIMDATES-date_th0.3-doc_th0.5-loc_th0.35
# 9   rel1-4   gottingen   11   0.11716388   nodesDOCUMENT:DATE:LOCATION-edgesREFERENCES:SIMDATES-date_th0.3-doc_th0.5-loc_th0.35
# 9   rel1-4   hesse   12   0.11716388   nodesDOCUMENT:DATE:LOCATION-edgesREFERENCES:SIMDATES-date_th0.3-doc_th0.5-loc_th0.35
