###################################
# parameters: 
#   date_th: 0.25
#   doc_th: 0.7
#   loc_th: 0.4
#   nodestouse: DOCUMENT:DATE:LOCATION
#   relationships: REFERENCES:SIMDATES

###################################
# configuration: 
#   sa.act_diff_ratio_limit = 0.01
#   sa.act_diff_ratio_limit_diff = 0.01
#   sa.function = ciir.multi.sa.function.MaxSAFunction(norm_function)
#   sa.id_property_name.DATE = dateID
#   sa.id_property_name.DOCUMENT = docID
#   sa.id_property_name.LOCATION = locID
#   sa.max_pulses = 10
#   sa.nodes_to_print = DATE:LOCATION
#   sa.nodes_to_use = DOCUMENT:DATE:LOCATION
#   sa.norm_function = ciir.multi.sa.SigmoidFunction(0.0, 1.0)
#   sa.relationships_to_use = REFERENCES:SIMDATES
#   sa.spread_threshold.DATE = 0.25
#   sa.spread_threshold.DOCUMENT = 0.7
#   sa.spread_threshold.LOCATION = 0.4
#   sa.weight_property.REFERENCES = relevance
#   sa.weight_property.SIMDATES = sim
#   sa.weight_property.SIMDOC = sim
#   sa.weight_property.SIMLOC = sim
#   sa.weight_property.SIMPAGE = pagesim

###################################
# initial activations (3): 
#   cu31924014592566_749, 1
#   encyclopediabrit03newyrich_155, 1
#   cu31924082142666_16, 1

###################################
# spreading activation process log: 
#   pulse 0: activated: 3, non-zero: 3, borderline: 3, overall act: 3.000, act diff: 3.000, ratio: 1.000
#   pulse 1: activated: 70, non-zero: 70, borderline: 67, overall act: 13.279, act diff: 10.279, ratio: 0.774
#   pulse 2: activated: 124076, non-zero: 124076, borderline: 124070, overall act: 15423.710, act diff: 15410.431, ratio: 0.999
#   pulse 3: activated: 124076, non-zero: 124076, borderline: 124070, overall act: 15423.710, act diff: 0.000, ratio: 0.000

###################################
# spreading activation process summary: 
#   final number of activated nodes: 124076
#   final overall activation: 15423.7
#   number of spread. activ. pulses: 3
#   running time: 63538

###################################
# top k results in TREC format: 

9   rel3-2   austria   1   0.61092687   nodesDOCUMENT:DATE:LOCATION-edgesREFERENCES:SIMDATES-date_th0.25-doc_th0.7-loc_th0.4
9   rel3-2   prussia   2   0.534032   nodesDOCUMENT:DATE:LOCATION-edgesREFERENCES:SIMDATES-date_th0.25-doc_th0.7-loc_th0.4
9   rel3-2   saxony   3   0.46734744   nodesDOCUMENT:DATE:LOCATION-edgesREFERENCES:SIMDATES-date_th0.25-doc_th0.7-loc_th0.4
9   rel3-2   elbe   4   0.3939273   nodesDOCUMENT:DATE:LOCATION-edgesREFERENCES:SIMDATES-date_th0.25-doc_th0.7-loc_th0.4
9   rel3-2   hanover   5   0.31738377   nodesDOCUMENT:DATE:LOCATION-edgesREFERENCES:SIMDATES-date_th0.25-doc_th0.7-loc_th0.4
9   rel3-2   holstein   6   0.31223398   nodesDOCUMENT:DATE:LOCATION-edgesREFERENCES:SIMDATES-date_th0.25-doc_th0.7-loc_th0.4
9   rel3-2   bohemia   7   0.30960995   nodesDOCUMENT:DATE:LOCATION-edgesREFERENCES:SIMDATES-date_th0.25-doc_th0.7-loc_th0.4
9   rel3-2   berlin   8   0.2886825   nodesDOCUMENT:DATE:LOCATION-edgesREFERENCES:SIMDATES-date_th0.25-doc_th0.7-loc_th0.4
9   rel3-2   moravia   9   0.2886825   nodesDOCUMENT:DATE:LOCATION-edgesREFERENCES:SIMDATES-date_th0.25-doc_th0.7-loc_th0.4
9   rel3-2   silesia   10   0.2851132   nodesDOCUMENT:DATE:LOCATION-edgesREFERENCES:SIMDATES-date_th0.25-doc_th0.7-loc_th0.4
9   rel3-2   jicin   11   0.25945282   nodesDOCUMENT:DATE:LOCATION-edgesREFERENCES:SIMDATES-date_th0.25-doc_th0.7-loc_th0.4
9   rel3-2   dresden   12   0.25945282   nodesDOCUMENT:DATE:LOCATION-edgesREFERENCES:SIMDATES-date_th0.25-doc_th0.7-loc_th0.4
9   rel3-2   italy   13   0.22582704   nodesDOCUMENT:DATE:LOCATION-edgesREFERENCES:SIMDATES-date_th0.25-doc_th0.7-loc_th0.4
9   rel3-2   bad langensalza   14   0.2079528   nodesDOCUMENT:DATE:LOCATION-edgesREFERENCES:SIMDATES-date_th0.25-doc_th0.7-loc_th0.4
9   rel3-2   trutnowo   15   0.2010266   nodesDOCUMENT:DATE:LOCATION-edgesREFERENCES:SIMDATES-date_th0.25-doc_th0.7-loc_th0.4
9   rel3-2   prague   16   0.177523   nodesDOCUMENT:DATE:LOCATION-edgesREFERENCES:SIMDATES-date_th0.25-doc_th0.7-loc_th0.4
9   rel3-2   bavaria   17   0.14684908   nodesDOCUMENT:DATE:LOCATION-edgesREFERENCES:SIMDATES-date_th0.25-doc_th0.7-loc_th0.4
9   rel3-2   koniggratz   18   0.13562085   nodesDOCUMENT:DATE:LOCATION-edgesREFERENCES:SIMDATES-date_th0.25-doc_th0.7-loc_th0.4
9   rel3-2   hungary   19   0.13562085   nodesDOCUMENT:DATE:LOCATION-edgesREFERENCES:SIMDATES-date_th0.25-doc_th0.7-loc_th0.4
9   rel3-2   germany   20   0.13562085   nodesDOCUMENT:DATE:LOCATION-edgesREFERENCES:SIMDATES-date_th0.25-doc_th0.7-loc_th0.4

###################################
# top nodes: 

# 9   rel3-2   cu31924014592566_749   1   1.0   nodesDOCUMENT:DATE:LOCATION-edgesREFERENCES:SIMDATES-date_th0.25-doc_th0.7-loc_th0.4
# 9   rel3-2   encyclopediabrit03newyrich_155   2   1.0   nodesDOCUMENT:DATE:LOCATION-edgesREFERENCES:SIMDATES-date_th0.25-doc_th0.7-loc_th0.4
# 9   rel3-2   cu31924082142666_16   3   1.0   nodesDOCUMENT:DATE:LOCATION-edgesREFERENCES:SIMDATES-date_th0.25-doc_th0.7-loc_th0.4
# 9   rel3-2   austria   4   0.61092687   nodesDOCUMENT:DATE:LOCATION-edgesREFERENCES:SIMDATES-date_th0.25-doc_th0.7-loc_th0.4
# 9   rel3-2   prussia   5   0.534032   nodesDOCUMENT:DATE:LOCATION-edgesREFERENCES:SIMDATES-date_th0.25-doc_th0.7-loc_th0.4
# 9   rel3-2   saxony   6   0.46734744   nodesDOCUMENT:DATE:LOCATION-edgesREFERENCES:SIMDATES-date_th0.25-doc_th0.7-loc_th0.4
# 9   rel3-2   lifetimesofstein02seeluoft_259   7   0.44077384   nodesDOCUMENT:DATE:LOCATION-edgesREFERENCES:SIMDATES-date_th0.25-doc_th0.7-loc_th0.4
# 9   rel3-2   ourchancellorske00buscuoft_403   8   0.43216068   nodesDOCUMENT:DATE:LOCATION-edgesREFERENCES:SIMDATES-date_th0.25-doc_th0.7-loc_th0.4
# 9   rel3-2   foundationsofger00barkuoft_97   9   0.43139943   nodesDOCUMENT:DATE:LOCATION-edgesREFERENCES:SIMDATES-date_th0.25-doc_th0.7-loc_th0.4
# 9   rel3-2   journalpolitica02socigoog_11   10   0.42867306   nodesDOCUMENT:DATE:LOCATION-edgesREFERENCES:SIMDATES-date_th0.25-doc_th0.7-loc_th0.4
# 9   rel3-2   cu31924088053800_143   11   0.42857257   nodesDOCUMENT:DATE:LOCATION-edgesREFERENCES:SIMDATES-date_th0.25-doc_th0.7-loc_th0.4
# 9   rel3-2   foundationsofger00barkuoft_248   12   0.42854428   nodesDOCUMENT:DATE:LOCATION-edgesREFERENCES:SIMDATES-date_th0.25-doc_th0.7-loc_th0.4
# 9   rel3-2   menwhohavemaden00stragoog_155   13   0.42679802   nodesDOCUMENT:DATE:LOCATION-edgesREFERENCES:SIMDATES-date_th0.25-doc_th0.7-loc_th0.4
# 9   rel3-2   threegermanysgl00faygoog_392   14   0.42219427   nodesDOCUMENT:DATE:LOCATION-edgesREFERENCES:SIMDATES-date_th0.25-doc_th0.7-loc_th0.4
# 9   rel3-2   outlineseuropea04beargoog_378   15   0.42109182   nodesDOCUMENT:DATE:LOCATION-edgesREFERENCES:SIMDATES-date_th0.25-doc_th0.7-loc_th0.4
# 9   rel3-2   threegermanysgl00faygoog_397   16   0.42103443   nodesDOCUMENT:DATE:LOCATION-edgesREFERENCES:SIMDATES-date_th0.25-doc_th0.7-loc_th0.4
# 9   rel3-2   foundationsofger00barkuoft_95   17   0.42039192   nodesDOCUMENT:DATE:LOCATION-edgesREFERENCES:SIMDATES-date_th0.25-doc_th0.7-loc_th0.4
# 9   rel3-2   europe1789192000turnrich_277   18   0.418939   nodesDOCUMENT:DATE:LOCATION-edgesREFERENCES:SIMDATES-date_th0.25-doc_th0.7-loc_th0.4
# 9   rel3-2   marvelousstoryof00nort_227   19   0.41795135   nodesDOCUMENT:DATE:LOCATION-edgesREFERENCES:SIMDATES-date_th0.25-doc_th0.7-loc_th0.4
# 9   rel3-2   shorthistoryofeu00terr_454   20   0.4173598   nodesDOCUMENT:DATE:LOCATION-edgesREFERENCES:SIMDATES-date_th0.25-doc_th0.7-loc_th0.4
# 9   rel3-2   threegermanysgl00faygoog_358   21   0.41639733   nodesDOCUMENT:DATE:LOCATION-edgesREFERENCES:SIMDATES-date_th0.25-doc_th0.7-loc_th0.4
# 9   rel3-2   foundationsofger00barkuoft_355   22   0.4163128   nodesDOCUMENT:DATE:LOCATION-edgesREFERENCES:SIMDATES-date_th0.25-doc_th0.7-loc_th0.4
# 9   rel3-2   foundationsofger00barkuoft_359   23   0.4161592   nodesDOCUMENT:DATE:LOCATION-edgesREFERENCES:SIMDATES-date_th0.25-doc_th0.7-loc_th0.4
# 9   rel3-2   cu31924014592566_291   24   0.41568854   nodesDOCUMENT:DATE:LOCATION-edgesREFERENCES:SIMDATES-date_th0.25-doc_th0.7-loc_th0.4
# 9   rel3-2   travelsinnorthg00dwiggoog_356   25   0.4120073   nodesDOCUMENT:DATE:LOCATION-edgesREFERENCES:SIMDATES-date_th0.25-doc_th0.7-loc_th0.4
# 9   rel3-2   cu31924014592566_362   26   0.4112486   nodesDOCUMENT:DATE:LOCATION-edgesREFERENCES:SIMDATES-date_th0.25-doc_th0.7-loc_th0.4
# 9   rel3-2   ourchancellorske00buscuoft_354   27   0.41015857   nodesDOCUMENT:DATE:LOCATION-edgesREFERENCES:SIMDATES-date_th0.25-doc_th0.7-loc_th0.4
# 9   rel3-2   cu31924082142666_334   28   0.40823767   nodesDOCUMENT:DATE:LOCATION-edgesREFERENCES:SIMDATES-date_th0.25-doc_th0.7-loc_th0.4
# 9   rel3-2   politicalliferi05stapgoog_26   29   0.40781617   nodesDOCUMENT:DATE:LOCATION-edgesREFERENCES:SIMDATES-date_th0.25-doc_th0.7-loc_th0.4
# 9   rel3-2   europe1789192000turnrich_275   30   0.4074076   nodesDOCUMENT:DATE:LOCATION-edgesREFERENCES:SIMDATES-date_th0.25-doc_th0.7-loc_th0.4
# 9   rel3-2   commentariesupon01philuoft_251   31   0.40706715   nodesDOCUMENT:DATE:LOCATION-edgesREFERENCES:SIMDATES-date_th0.25-doc_th0.7-loc_th0.4
# 9   rel3-2   cu31924082142666_25   32   0.40328336   nodesDOCUMENT:DATE:LOCATION-edgesREFERENCES:SIMDATES-date_th0.25-doc_th0.7-loc_th0.4
# 9   rel3-2   worldshistoryits06sandiala_247   33   0.40210712   nodesDOCUMENT:DATE:LOCATION-edgesREFERENCES:SIMDATES-date_th0.25-doc_th0.7-loc_th0.4
# 9   rel3-2   theglobe02philuoft_246   34   0.40152532   nodesDOCUMENT:DATE:LOCATION-edgesREFERENCES:SIMDATES-date_th0.25-doc_th0.7-loc_th0.4
# 9   rel3-2   greatbritainprus00lodguoft_68   35   0.4010329   nodesDOCUMENT:DATE:LOCATION-edgesREFERENCES:SIMDATES-date_th0.25-doc_th0.7-loc_th0.4
# 9   rel3-2   no11candidquarte06londuoft_129   36   0.40081078   nodesDOCUMENT:DATE:LOCATION-edgesREFERENCES:SIMDATES-date_th0.25-doc_th0.7-loc_th0.4
# 9   rel3-2   lifeofnapoleonbu00scot_443   37   0.40075928   nodesDOCUMENT:DATE:LOCATION-edgesREFERENCES:SIMDATES-date_th0.25-doc_th0.7-loc_th0.4
# 9   rel3-2   lifetimesofstein02seeluoft_364   38   0.40055582   nodesDOCUMENT:DATE:LOCATION-edgesREFERENCES:SIMDATES-date_th0.25-doc_th0.7-loc_th0.4
# 9   rel3-2   bebelsreminiscen00bebe_154   39   0.40018126   nodesDOCUMENT:DATE:LOCATION-edgesREFERENCES:SIMDATES-date_th0.25-doc_th0.7-loc_th0.4
# 9   rel3-2   lifetimesofstein02seeluoft_379   40   0.40009952   nodesDOCUMENT:DATE:LOCATION-edgesREFERENCES:SIMDATES-date_th0.25-doc_th0.7-loc_th0.4
