nodestouse,relationships,doc_th,date_th,loc_th,iter,seeds,number of spread. activ. pulses,final number of activated nodes,final overall activation,running time,run-id,map,P5,P10,P20,R-prec,
DOCUMENT:DATE:LOCATION,REFERENCES:SIMDATES,0.6,0.3,0.4,rel1-1,1,2,50,6.4,22012,book_collection_true_dates/location/query9//useDOCUMENT:DATE:LOCATIONuseREFERENCES:SIMDATES/rel1-1-date_th0.3-doc_th0.6-loc_th0.4.res.clean,0.152,0.600,0.500,0.350,0.000,
DOCUMENT:DATE:LOCATION,REFERENCES:SIMDATES,0.7,0.25,0.4,rel1-2,1,2,29,4.5,22095,book_collection_true_dates/location/query9//useDOCUMENT:DATE:LOCATIONuseREFERENCES:SIMDATES/rel1-2-date_th0.25-doc_th0.7-loc_th0.4.res.clean,0.247,0.400,0.600,0.500,0.000,
DOCUMENT:DATE:LOCATION,REFERENCES:SIMDATES,0.5,0.25,0.35,rel1-1,1,2,50,6.4,36144,book_collection_true_dates/location/query9//useDOCUMENT:DATE:LOCATIONuseREFERENCES:SIMDATES/rel1-1-date_th0.25-doc_th0.5-loc_th0.35.res.clean,0.152,0.600,0.500,0.350,0.000,
DOCUMENT:DATE:LOCATION,REFERENCES:SIMDATES,0.7,0.25,0.35,rel2-1,2,3,113975,10321.0,59794,book_collection_true_dates/location/query9//useDOCUMENT:DATE:LOCATIONuseREFERENCES:SIMDATES/rel2-1-date_th0.25-doc_th0.7-loc_th0.35.res.clean,0.231,0.600,0.500,0.500,0.000,
DOCUMENT:DATE:LOCATION,REFERENCES:SIMDATES,0.6,0.25,0.35,rel2-3,2,3,110055,9407.9,41030,book_collection_true_dates/location/query9//useDOCUMENT:DATE:LOCATIONuseREFERENCES:SIMDATES/rel2-3-date_th0.25-doc_th0.6-loc_th0.35.res.clean,0.258,0.600,0.700,0.450,0.000,
DOCUMENT:DATE:LOCATION,REFERENCES:SIMDATES,0.5,0.3,0.4,rel2-5,2,3,75157,6352.0,36752,book_collection_true_dates/location/query9//useDOCUMENT:DATE:LOCATIONuseREFERENCES:SIMDATES/rel2-5-date_th0.3-doc_th0.5-loc_th0.4.res.clean,0.292,0.800,0.500,0.550,0.000,
DOCUMENT:DATE:LOCATION,REFERENCES:SIMDATES,0.6,0.3,0.35,rel3-2,3,3,127583,15775.3,62426,book_collection_true_dates/location/query9//useDOCUMENT:DATE:LOCATIONuseREFERENCES:SIMDATES/rel3-2-date_th0.3-doc_th0.6-loc_th0.35.res.clean,0.312,0.600,0.600,0.600,0.000,
DOCUMENT:DATE:LOCATION,REFERENCES:SIMDATES,0.7,0.25,0.35,rel2-5,2,3,110034,10168.3,40826,book_collection_true_dates/location/query9//useDOCUMENT:DATE:LOCATIONuseREFERENCES:SIMDATES/rel2-5-date_th0.25-doc_th0.7-loc_th0.35.res.clean,0.293,0.800,0.500,0.550,0.000,
DOCUMENT:DATE:LOCATION,REFERENCES:SIMDATES,0.7,0.3,0.35,rel2-3,2,3,110055,9407.9,41425,book_collection_true_dates/location/query9//useDOCUMENT:DATE:LOCATIONuseREFERENCES:SIMDATES/rel2-3-date_th0.3-doc_th0.7-loc_th0.35.res.clean,0.258,0.600,0.700,0.450,0.000,
DOCUMENT:DATE:LOCATION,REFERENCES:SIMDATES,0.7,0.3,0.35,rel1-1,1,2,50,6.4,22700,book_collection_true_dates/location/query9//useDOCUMENT:DATE:LOCATIONuseREFERENCES:SIMDATES/rel1-1-date_th0.3-doc_th0.7-loc_th0.35.res.clean,0.152,0.600,0.500,0.350,0.000,
DOCUMENT:DATE:LOCATION,REFERENCES:SIMDATES,0.6,0.25,0.35,rel1-1,1,2,50,6.4,23212,book_collection_true_dates/location/query9//useDOCUMENT:DATE:LOCATIONuseREFERENCES:SIMDATES/rel1-1-date_th0.25-doc_th0.6-loc_th0.35.res.clean,0.152,0.600,0.500,0.350,0.000,
DOCUMENT:DATE:LOCATION,REFERENCES:SIMDATES,0.5,0.25,0.4,rel1-1,1,2,50,6.4,23301,book_collection_true_dates/location/query9//useDOCUMENT:DATE:LOCATIONuseREFERENCES:SIMDATES/rel1-1-date_th0.25-doc_th0.5-loc_th0.4.res.clean,0.152,0.600,0.500,0.350,0.000,
DOCUMENT:DATE:LOCATION,REFERENCES:SIMDATES,0.5,0.3,0.4,rel1-4,1,2,12,2.7,3644,book_collection_true_dates/location/query9//useDOCUMENT:DATE:LOCATIONuseREFERENCES:SIMDATES/rel1-4-date_th0.3-doc_th0.5-loc_th0.4.res.clean,0.197,0.800,0.600,0.545,0.000,
DOCUMENT:DATE:LOCATION,REFERENCES:SIMDATES,0.5,0.25,0.4,rel1-4,1,2,12,2.7,3652,book_collection_true_dates/location/query9//useDOCUMENT:DATE:LOCATIONuseREFERENCES:SIMDATES/rel1-4-date_th0.25-doc_th0.5-loc_th0.4.res.clean,0.197,0.800,0.600,0.545,0.000,
DOCUMENT:DATE:LOCATION,REFERENCES:SIMDATES,0.6,0.3,0.35,rel2-3,2,3,110055,9407.9,41133,book_collection_true_dates/location/query9//useDOCUMENT:DATE:LOCATIONuseREFERENCES:SIMDATES/rel2-3-date_th0.3-doc_th0.6-loc_th0.35.res.clean,0.258,0.600,0.700,0.450,0.000,
DOCUMENT:DATE:LOCATION,REFERENCES:SIMDATES,0.7,0.3,0.35,rel1-4,1,2,12,2.7,3680,book_collection_true_dates/location/query9//useDOCUMENT:DATE:LOCATIONuseREFERENCES:SIMDATES/rel1-4-date_th0.3-doc_th0.7-loc_th0.35.res.clean,0.197,0.800,0.600,0.545,0.000,
DOCUMENT:DATE:LOCATION,REFERENCES:SIMDATES,0.5,0.3,0.4,rel3-2,3,3,124076,15423.7,61342,book_collection_true_dates/location/query9//useDOCUMENT:DATE:LOCATIONuseREFERENCES:SIMDATES/rel3-2-date_th0.3-doc_th0.5-loc_th0.4.res.clean,0.312,0.600,0.600,0.600,0.000,
DOCUMENT:DATE:LOCATION,REFERENCES:SIMDATES,0.6,0.25,0.4,rel1-4,1,2,12,2.7,3627,book_collection_true_dates/location/query9//useDOCUMENT:DATE:LOCATIONuseREFERENCES:SIMDATES/rel1-4-date_th0.25-doc_th0.6-loc_th0.4.res.clean,0.197,0.800,0.600,0.545,0.000,
DOCUMENT:DATE:LOCATION,REFERENCES:SIMDATES,0.5,0.25,0.35,rel2-3,2,3,110055,9407.9,41871,book_collection_true_dates/location/query9//useDOCUMENT:DATE:LOCATIONuseREFERENCES:SIMDATES/rel2-3-date_th0.25-doc_th0.5-loc_th0.35.res.clean,0.258,0.600,0.700,0.450,0.000,
DOCUMENT:DATE:LOCATION,REFERENCES:SIMDATES,0.7,0.25,0.4,rel2-3,2,3,75178,5892.1,35517,book_collection_true_dates/location/query9//useDOCUMENT:DATE:LOCATIONuseREFERENCES:SIMDATES/rel2-3-date_th0.25-doc_th0.7-loc_th0.4.res.clean,0.232,0.600,0.700,0.400,0.000,
DOCUMENT:DATE:LOCATION,REFERENCES:SIMDATES,0.7,0.25,0.4,rel3-2,3,3,124076,15423.7,63538,book_collection_true_dates/location/query9//useDOCUMENT:DATE:LOCATIONuseREFERENCES:SIMDATES/rel3-2-date_th0.25-doc_th0.7-loc_th0.4.res.clean,0.312,0.600,0.600,0.600,0.000,
DOCUMENT:DATE:LOCATION,REFERENCES:SIMDATES,0.6,0.3,0.4,rel2-5,2,3,75157,6352.0,36574,book_collection_true_dates/location/query9//useDOCUMENT:DATE:LOCATIONuseREFERENCES:SIMDATES/rel2-5-date_th0.3-doc_th0.6-loc_th0.4.res.clean,0.292,0.800,0.500,0.550,0.000,
DOCUMENT:DATE:LOCATION,REFERENCES:SIMDATES,0.5,0.3,0.4,rel1-1,1,2,50,6.4,21949,book_collection_true_dates/location/query9//useDOCUMENT:DATE:LOCATIONuseREFERENCES:SIMDATES/rel1-1-date_th0.3-doc_th0.5-loc_th0.4.res.clean,0.152,0.600,0.500,0.350,0.000,
DOCUMENT:DATE:LOCATION,REFERENCES:SIMDATES,0.6,0.25,0.4,rel2-5,2,3,75157,6352.0,36389,book_collection_true_dates/location/query9//useDOCUMENT:DATE:LOCATIONuseREFERENCES:SIMDATES/rel2-5-date_th0.25-doc_th0.6-loc_th0.4.res.clean,0.292,0.800,0.500,0.550,0.000,
DOCUMENT:DATE:LOCATION,REFERENCES:SIMDATES,0.7,0.3,0.4,rel1-4,1,2,12,2.7,3612,book_collection_true_dates/location/query9//useDOCUMENT:DATE:LOCATIONuseREFERENCES:SIMDATES/rel1-4-date_th0.3-doc_th0.7-loc_th0.4.res.clean,0.197,0.800,0.600,0.545,0.000,
DOCUMENT:DATE:LOCATION,REFERENCES:SIMDATES,0.5,0.25,0.4,rel3-2,3,3,124076,15423.7,65979,book_collection_true_dates/location/query9//useDOCUMENT:DATE:LOCATIONuseREFERENCES:SIMDATES/rel3-2-date_th0.25-doc_th0.5-loc_th0.4.res.clean,0.312,0.600,0.600,0.600,0.000,
DOCUMENT:DATE:LOCATION,REFERENCES:SIMDATES,0.5,0.3,0.35,rel3-2,3,3,127583,15775.3,62163,book_collection_true_dates/location/query9//useDOCUMENT:DATE:LOCATIONuseREFERENCES:SIMDATES/rel3-2-date_th0.3-doc_th0.5-loc_th0.35.res.clean,0.312,0.600,0.600,0.600,0.000,
DOCUMENT:DATE:LOCATION,REFERENCES:SIMDATES,0.5,0.3,0.35,rel2-5,2,3,110034,10168.3,41183,book_collection_true_dates/location/query9//useDOCUMENT:DATE:LOCATIONuseREFERENCES:SIMDATES/rel2-5-date_th0.3-doc_th0.5-loc_th0.35.res.clean,0.293,0.800,0.500,0.550,0.000,
DOCUMENT:DATE:LOCATION,REFERENCES:SIMDATES,0.7,0.3,0.4,rel2-1,2,3,75190,6150.0,53841,book_collection_true_dates/location/query9//useDOCUMENT:DATE:LOCATIONuseREFERENCES:SIMDATES/rel2-1-date_th0.3-doc_th0.7-loc_th0.4.res.clean,0.277,0.600,0.400,0.600,0.000,
DOCUMENT:DATE:LOCATION,REFERENCES:SIMDATES,0.5,0.3,0.4,rel2-1,2,3,75190,6150.0,53645,book_collection_true_dates/location/query9//useDOCUMENT:DATE:LOCATIONuseREFERENCES:SIMDATES/rel2-1-date_th0.3-doc_th0.5-loc_th0.4.res.clean,0.277,0.600,0.400,0.600,0.000,
DOCUMENT:DATE:LOCATION,REFERENCES:SIMDATES,0.7,0.3,0.4,rel2-3,2,3,75178,5892.1,35713,book_collection_true_dates/location/query9//useDOCUMENT:DATE:LOCATIONuseREFERENCES:SIMDATES/rel2-3-date_th0.3-doc_th0.7-loc_th0.4.res.clean,0.232,0.600,0.700,0.400,0.000,
DOCUMENT:DATE:LOCATION,REFERENCES:SIMDATES,0.5,0.25,0.35,rel1-4,1,2,12,2.7,3642,book_collection_true_dates/location/query9//useDOCUMENT:DATE:LOCATIONuseREFERENCES:SIMDATES/rel1-4-date_th0.25-doc_th0.5-loc_th0.35.res.clean,0.197,0.800,0.600,0.545,0.000,
DOCUMENT:DATE:LOCATION,REFERENCES:SIMDATES,0.7,0.25,0.35,rel2-3,2,3,110055,9407.9,42347,book_collection_true_dates/location/query9//useDOCUMENT:DATE:LOCATIONuseREFERENCES:SIMDATES/rel2-3-date_th0.25-doc_th0.7-loc_th0.35.res.clean,0.258,0.600,0.700,0.450,0.000,
DOCUMENT:DATE:LOCATION,REFERENCES:SIMDATES,0.5,0.25,0.4,rel2-3,2,3,75178,5892.1,35735,book_collection_true_dates/location/query9//useDOCUMENT:DATE:LOCATIONuseREFERENCES:SIMDATES/rel2-3-date_th0.25-doc_th0.5-loc_th0.4.res.clean,0.232,0.600,0.700,0.400,0.000,
DOCUMENT:DATE:LOCATION,REFERENCES:SIMDATES,0.6,0.25,0.4,rel1-2,1,2,29,4.5,22811,book_collection_true_dates/location/query9//useDOCUMENT:DATE:LOCATIONuseREFERENCES:SIMDATES/rel1-2-date_th0.25-doc_th0.6-loc_th0.4.res.clean,0.247,0.400,0.600,0.500,0.000,
DOCUMENT:DATE:LOCATION,REFERENCES:SIMDATES,0.7,0.25,0.35,rel1-2,1,2,29,4.5,22052,book_collection_true_dates/location/query9//useDOCUMENT:DATE:LOCATIONuseREFERENCES:SIMDATES/rel1-2-date_th0.25-doc_th0.7-loc_th0.35.res.clean,0.247,0.400,0.600,0.500,0.000,
DOCUMENT:DATE:LOCATION,REFERENCES:SIMDATES,0.6,0.3,0.4,rel2-3,2,3,75178,5892.1,35732,book_collection_true_dates/location/query9//useDOCUMENT:DATE:LOCATIONuseREFERENCES:SIMDATES/rel2-3-date_th0.3-doc_th0.6-loc_th0.4.res.clean,0.232,0.600,0.700,0.400,0.000,
DOCUMENT:DATE:LOCATION,REFERENCES:SIMDATES,0.7,0.3,0.4,rel2-5,2,3,75157,6352.0,36374,book_collection_true_dates/location/query9//useDOCUMENT:DATE:LOCATIONuseREFERENCES:SIMDATES/rel2-5-date_th0.3-doc_th0.7-loc_th0.4.res.clean,0.292,0.800,0.500,0.550,0.000,
DOCUMENT:DATE:LOCATION,REFERENCES:SIMDATES,0.5,0.3,0.35,rel1-4,1,2,12,2.7,3613,book_collection_true_dates/location/query9//useDOCUMENT:DATE:LOCATIONuseREFERENCES:SIMDATES/rel1-4-date_th0.3-doc_th0.5-loc_th0.35.res.clean,0.197,0.800,0.600,0.545,0.000,
DOCUMENT:DATE:LOCATION,REFERENCES:SIMDATES,0.5,0.3,0.4,rel1-2,1,2,29,4.5,22238,book_collection_true_dates/location/query9//useDOCUMENT:DATE:LOCATIONuseREFERENCES:SIMDATES/rel1-2-date_th0.3-doc_th0.5-loc_th0.4.res.clean,0.247,0.400,0.600,0.500,0.000,
DOCUMENT:DATE:LOCATION,REFERENCES:SIMDATES,0.7,0.25,0.35,rel3-2,3,3,127583,15775.3,62109,book_collection_true_dates/location/query9//useDOCUMENT:DATE:LOCATIONuseREFERENCES:SIMDATES/rel3-2-date_th0.25-doc_th0.7-loc_th0.35.res.clean,0.312,0.600,0.600,0.600,0.000,
DOCUMENT:DATE:LOCATION,REFERENCES:SIMDATES,0.5,0.3,0.35,rel2-1,2,3,113975,10321.0,59220,book_collection_true_dates/location/query9//useDOCUMENT:DATE:LOCATIONuseREFERENCES:SIMDATES/rel2-1-date_th0.3-doc_th0.5-loc_th0.35.res.clean,0.231,0.600,0.500,0.500,0.000,
DOCUMENT:DATE:LOCATION,REFERENCES:SIMDATES,0.7,0.3,0.4,rel1-2,1,2,29,4.5,22093,book_collection_true_dates/location/query9//useDOCUMENT:DATE:LOCATIONuseREFERENCES:SIMDATES/rel1-2-date_th0.3-doc_th0.7-loc_th0.4.res.clean,0.247,0.400,0.600,0.500,0.000,
DOCUMENT:DATE:LOCATION,REFERENCES:SIMDATES,0.5,0.25,0.35,rel3-2,3,3,127583,15775.3,72114,book_collection_true_dates/location/query9//useDOCUMENT:DATE:LOCATIONuseREFERENCES:SIMDATES/rel3-2-date_th0.25-doc_th0.5-loc_th0.35.res.clean,0.312,0.600,0.600,0.600,0.000,
DOCUMENT:DATE:LOCATION,REFERENCES:SIMDATES,0.6,0.3,0.35,rel1-2,1,2,29,4.5,22038,book_collection_true_dates/location/query9//useDOCUMENT:DATE:LOCATIONuseREFERENCES:SIMDATES/rel1-2-date_th0.3-doc_th0.6-loc_th0.35.res.clean,0.247,0.400,0.600,0.500,0.000,
DOCUMENT:DATE:LOCATION,REFERENCES:SIMDATES,0.6,0.3,0.4,rel3-2,3,3,124076,15423.7,59858,book_collection_true_dates/location/query9//useDOCUMENT:DATE:LOCATIONuseREFERENCES:SIMDATES/rel3-2-date_th0.3-doc_th0.6-loc_th0.4.res.clean,0.312,0.600,0.600,0.600,0.000,
DOCUMENT:DATE:LOCATION,REFERENCES:SIMDATES,0.6,0.3,0.35,rel1-1,1,2,50,6.4,22859,book_collection_true_dates/location/query9//useDOCUMENT:DATE:LOCATIONuseREFERENCES:SIMDATES/rel1-1-date_th0.3-doc_th0.6-loc_th0.35.res.clean,0.152,0.600,0.500,0.350,0.000,
DOCUMENT:DATE:LOCATION,REFERENCES:SIMDATES,0.7,0.3,0.35,rel1-2,1,2,29,4.5,22363,book_collection_true_dates/location/query9//useDOCUMENT:DATE:LOCATIONuseREFERENCES:SIMDATES/rel1-2-date_th0.3-doc_th0.7-loc_th0.35.res.clean,0.247,0.400,0.600,0.500,0.000,
DOCUMENT:DATE:LOCATION,REFERENCES:SIMDATES,0.5,0.25,0.4,rel1-2,1,2,29,4.5,22675,book_collection_true_dates/location/query9//useDOCUMENT:DATE:LOCATIONuseREFERENCES:SIMDATES/rel1-2-date_th0.25-doc_th0.5-loc_th0.4.res.clean,0.247,0.400,0.600,0.500,0.000,
DOCUMENT:DATE:LOCATION,REFERENCES:SIMDATES,0.7,0.3,0.4,rel1-1,1,2,50,6.4,22004,book_collection_true_dates/location/query9//useDOCUMENT:DATE:LOCATIONuseREFERENCES:SIMDATES/rel1-1-date_th0.3-doc_th0.7-loc_th0.4.res.clean,0.152,0.600,0.500,0.350,0.000,
DOCUMENT:DATE:LOCATION,REFERENCES:SIMDATES,0.7,0.3,0.4,rel3-2,3,3,124076,15423.7,61451,book_collection_true_dates/location/query9//useDOCUMENT:DATE:LOCATIONuseREFERENCES:SIMDATES/rel3-2-date_th0.3-doc_th0.7-loc_th0.4.res.clean,0.312,0.600,0.600,0.600,0.000,
DOCUMENT:DATE:LOCATION,REFERENCES:SIMDATES,0.5,0.25,0.4,rel2-5,2,3,75157,6352.0,35982,book_collection_true_dates/location/query9//useDOCUMENT:DATE:LOCATIONuseREFERENCES:SIMDATES/rel2-5-date_th0.25-doc_th0.5-loc_th0.4.res.clean,0.292,0.800,0.500,0.550,0.000,
DOCUMENT:DATE:LOCATION,REFERENCES:SIMDATES,0.7,0.25,0.4,rel2-5,2,3,75157,6352.0,37230,book_collection_true_dates/location/query9//useDOCUMENT:DATE:LOCATIONuseREFERENCES:SIMDATES/rel2-5-date_th0.25-doc_th0.7-loc_th0.4.res.clean,0.292,0.800,0.500,0.550,0.000,
DOCUMENT:DATE:LOCATION,REFERENCES:SIMDATES,0.7,0.25,0.35,rel1-4,1,2,12,2.7,3625,book_collection_true_dates/location/query9//useDOCUMENT:DATE:LOCATIONuseREFERENCES:SIMDATES/rel1-4-date_th0.25-doc_th0.7-loc_th0.35.res.clean,0.197,0.800,0.600,0.545,0.000,
DOCUMENT:DATE:LOCATION,REFERENCES:SIMDATES,0.5,0.3,0.35,rel1-2,1,2,29,4.5,22313,book_collection_true_dates/location/query9//useDOCUMENT:DATE:LOCATIONuseREFERENCES:SIMDATES/rel1-2-date_th0.3-doc_th0.5-loc_th0.35.res.clean,0.247,0.400,0.600,0.500,0.000,
DOCUMENT:DATE:LOCATION,REFERENCES:SIMDATES,0.7,0.3,0.35,rel2-5,2,3,110034,10168.3,40627,book_collection_true_dates/location/query9//useDOCUMENT:DATE:LOCATIONuseREFERENCES:SIMDATES/rel2-5-date_th0.3-doc_th0.7-loc_th0.35.res.clean,0.293,0.800,0.500,0.550,0.000,
DOCUMENT:DATE:LOCATION,REFERENCES:SIMDATES,0.7,0.3,0.35,rel3-2,3,3,127583,15775.3,62106,book_collection_true_dates/location/query9//useDOCUMENT:DATE:LOCATIONuseREFERENCES:SIMDATES/rel3-2-date_th0.3-doc_th0.7-loc_th0.35.res.clean,0.312,0.600,0.600,0.600,0.000,
DOCUMENT:DATE:LOCATION,REFERENCES:SIMDATES,0.6,0.3,0.4,rel1-4,1,2,12,2.7,3763,book_collection_true_dates/location/query9//useDOCUMENT:DATE:LOCATIONuseREFERENCES:SIMDATES/rel1-4-date_th0.3-doc_th0.6-loc_th0.4.res.clean,0.197,0.800,0.600,0.545,0.000,
DOCUMENT:DATE:LOCATION,REFERENCES:SIMDATES,0.6,0.25,0.4,rel2-1,2,3,75190,6150.0,53934,book_collection_true_dates/location/query9//useDOCUMENT:DATE:LOCATIONuseREFERENCES:SIMDATES/rel2-1-date_th0.25-doc_th0.6-loc_th0.4.res.clean,0.277,0.600,0.400,0.600,0.000,
DOCUMENT:DATE:LOCATION,REFERENCES:SIMDATES,0.6,0.25,0.35,rel3-2,3,3,127583,15775.3,61092,book_collection_true_dates/location/query9//useDOCUMENT:DATE:LOCATIONuseREFERENCES:SIMDATES/rel3-2-date_th0.25-doc_th0.6-loc_th0.35.res.clean,0.312,0.600,0.600,0.600,0.000,
DOCUMENT:DATE:LOCATION,REFERENCES:SIMDATES,0.5,0.25,0.35,rel2-1,2,3,113975,10321.0,71113,book_collection_true_dates/location/query9//useDOCUMENT:DATE:LOCATIONuseREFERENCES:SIMDATES/rel2-1-date_th0.25-doc_th0.5-loc_th0.35.res.clean,0.231,0.600,0.500,0.500,0.000,
DOCUMENT:DATE:LOCATION,REFERENCES:SIMDATES,0.5,0.3,0.35,rel2-3,2,3,110055,9407.9,41519,book_collection_true_dates/location/query9//useDOCUMENT:DATE:LOCATIONuseREFERENCES:SIMDATES/rel2-3-date_th0.3-doc_th0.5-loc_th0.35.res.clean,0.258,0.600,0.700,0.450,0.000,
DOCUMENT:DATE:LOCATION,REFERENCES:SIMDATES,0.6,0.3,0.4,rel2-1,2,3,75190,6150.0,53843,book_collection_true_dates/location/query9//useDOCUMENT:DATE:LOCATIONuseREFERENCES:SIMDATES/rel2-1-date_th0.3-doc_th0.6-loc_th0.4.res.clean,0.277,0.600,0.400,0.600,0.000,
DOCUMENT:DATE:LOCATION,REFERENCES:SIMDATES,0.6,0.25,0.35,rel1-4,1,2,12,2.7,3624,book_collection_true_dates/location/query9//useDOCUMENT:DATE:LOCATIONuseREFERENCES:SIMDATES/rel1-4-date_th0.25-doc_th0.6-loc_th0.35.res.clean,0.197,0.800,0.600,0.545,0.000,
DOCUMENT:DATE:LOCATION,REFERENCES:SIMDATES,0.7,0.25,0.4,rel1-1,1,2,50,6.4,22248,book_collection_true_dates/location/query9//useDOCUMENT:DATE:LOCATIONuseREFERENCES:SIMDATES/rel1-1-date_th0.25-doc_th0.7-loc_th0.4.res.clean,0.152,0.600,0.500,0.350,0.000,
DOCUMENT:DATE:LOCATION,REFERENCES:SIMDATES,0.6,0.3,0.35,rel2-5,2,3,110034,10168.3,40768,book_collection_true_dates/location/query9//useDOCUMENT:DATE:LOCATIONuseREFERENCES:SIMDATES/rel2-5-date_th0.3-doc_th0.6-loc_th0.35.res.clean,0.293,0.800,0.500,0.550,0.000,
DOCUMENT:DATE:LOCATION,REFERENCES:SIMDATES,0.5,0.25,0.35,rel1-2,1,2,29,4.5,22813,book_collection_true_dates/location/query9//useDOCUMENT:DATE:LOCATIONuseREFERENCES:SIMDATES/rel1-2-date_th0.25-doc_th0.5-loc_th0.35.res.clean,0.247,0.400,0.600,0.500,0.000,
DOCUMENT:DATE:LOCATION,REFERENCES:SIMDATES,0.6,0.3,0.4,rel1-2,1,2,29,4.5,22114,book_collection_true_dates/location/query9//useDOCUMENT:DATE:LOCATIONuseREFERENCES:SIMDATES/rel1-2-date_th0.3-doc_th0.6-loc_th0.4.res.clean,0.247,0.400,0.600,0.500,0.000,
DOCUMENT:DATE:LOCATION,REFERENCES:SIMDATES,0.6,0.25,0.4,rel1-1,1,2,50,6.4,23072,book_collection_true_dates/location/query9//useDOCUMENT:DATE:LOCATIONuseREFERENCES:SIMDATES/rel1-1-date_th0.25-doc_th0.6-loc_th0.4.res.clean,0.152,0.600,0.500,0.350,0.000,
DOCUMENT:DATE:LOCATION,REFERENCES:SIMDATES,0.6,0.25,0.4,rel3-2,3,3,124076,15423.7,61355,book_collection_true_dates/location/query9//useDOCUMENT:DATE:LOCATIONuseREFERENCES:SIMDATES/rel3-2-date_th0.25-doc_th0.6-loc_th0.4.res.clean,0.312,0.600,0.600,0.600,0.000,
DOCUMENT:DATE:LOCATION,REFERENCES:SIMDATES,0.7,0.25,0.4,rel1-4,1,2,12,2.7,3609,book_collection_true_dates/location/query9//useDOCUMENT:DATE:LOCATIONuseREFERENCES:SIMDATES/rel1-4-date_th0.25-doc_th0.7-loc_th0.4.res.clean,0.197,0.800,0.600,0.545,0.000,
DOCUMENT:DATE:LOCATION,REFERENCES:SIMDATES,0.5,0.3,0.4,rel2-3,2,3,75178,5892.1,35552,book_collection_true_dates/location/query9//useDOCUMENT:DATE:LOCATIONuseREFERENCES:SIMDATES/rel2-3-date_th0.3-doc_th0.5-loc_th0.4.res.clean,0.232,0.600,0.700,0.400,0.000,
DOCUMENT:DATE:LOCATION,REFERENCES:SIMDATES,0.6,0.3,0.35,rel2-1,2,3,113975,10321.0,59854,book_collection_true_dates/location/query9//useDOCUMENT:DATE:LOCATIONuseREFERENCES:SIMDATES/rel2-1-date_th0.3-doc_th0.6-loc_th0.35.res.clean,0.231,0.600,0.500,0.500,0.000,
DOCUMENT:DATE:LOCATION,REFERENCES:SIMDATES,0.7,0.25,0.35,rel1-1,1,2,50,6.4,22052,book_collection_true_dates/location/query9//useDOCUMENT:DATE:LOCATIONuseREFERENCES:SIMDATES/rel1-1-date_th0.25-doc_th0.7-loc_th0.35.res.clean,0.152,0.600,0.500,0.350,0.000,
DOCUMENT:DATE:LOCATION,REFERENCES:SIMDATES,0.6,0.25,0.4,rel2-3,2,3,75178,5892.1,35607,book_collection_true_dates/location/query9//useDOCUMENT:DATE:LOCATIONuseREFERENCES:SIMDATES/rel2-3-date_th0.25-doc_th0.6-loc_th0.4.res.clean,0.232,0.600,0.700,0.400,0.000,
DOCUMENT:DATE:LOCATION,REFERENCES:SIMDATES,0.5,0.3,0.35,rel1-1,1,2,50,6.4,22568,book_collection_true_dates/location/query9//useDOCUMENT:DATE:LOCATIONuseREFERENCES:SIMDATES/rel1-1-date_th0.3-doc_th0.5-loc_th0.35.res.clean,0.152,0.600,0.500,0.350,0.000,
DOCUMENT:DATE:LOCATION,REFERENCES:SIMDATES,0.5,0.25,0.4,rel2-1,2,3,75190,6150.0,55059,book_collection_true_dates/location/query9//useDOCUMENT:DATE:LOCATIONuseREFERENCES:SIMDATES/rel2-1-date_th0.25-doc_th0.5-loc_th0.4.res.clean,0.277,0.600,0.400,0.600,0.000,
DOCUMENT:DATE:LOCATION,REFERENCES:SIMDATES,0.5,0.25,0.35,rel2-5,2,3,110034,10168.3,41166,book_collection_true_dates/location/query9//useDOCUMENT:DATE:LOCATIONuseREFERENCES:SIMDATES/rel2-5-date_th0.25-doc_th0.5-loc_th0.35.res.clean,0.293,0.800,0.500,0.550,0.000,
DOCUMENT:DATE:LOCATION,REFERENCES:SIMDATES,0.6,0.3,0.35,rel1-4,1,2,12,2.7,3652,book_collection_true_dates/location/query9//useDOCUMENT:DATE:LOCATIONuseREFERENCES:SIMDATES/rel1-4-date_th0.3-doc_th0.6-loc_th0.35.res.clean,0.197,0.800,0.600,0.545,0.000,
DOCUMENT:DATE:LOCATION,REFERENCES:SIMDATES,0.7,0.3,0.35,rel2-1,2,3,113975,10321.0,59426,book_collection_true_dates/location/query9//useDOCUMENT:DATE:LOCATIONuseREFERENCES:SIMDATES/rel2-1-date_th0.3-doc_th0.7-loc_th0.35.res.clean,0.231,0.600,0.500,0.500,0.000,
DOCUMENT:DATE:LOCATION,REFERENCES:SIMDATES,0.6,0.25,0.35,rel2-5,2,3,110034,10168.3,43950,book_collection_true_dates/location/query9//useDOCUMENT:DATE:LOCATIONuseREFERENCES:SIMDATES/rel2-5-date_th0.25-doc_th0.6-loc_th0.35.res.clean,0.293,0.800,0.500,0.550,0.000,
DOCUMENT:DATE:LOCATION,REFERENCES:SIMDATES,0.6,0.25,0.35,rel2-1,2,3,113975,10321.0,63409,book_collection_true_dates/location/query9//useDOCUMENT:DATE:LOCATIONuseREFERENCES:SIMDATES/rel2-1-date_th0.25-doc_th0.6-loc_th0.35.res.clean,0.231,0.600,0.500,0.500,0.000,
DOCUMENT:DATE:LOCATION,REFERENCES:SIMDATES,0.7,0.25,0.4,rel2-1,2,3,75190,6150.0,53753,book_collection_true_dates/location/query9//useDOCUMENT:DATE:LOCATIONuseREFERENCES:SIMDATES/rel2-1-date_th0.25-doc_th0.7-loc_th0.4.res.clean,0.277,0.600,0.400,0.600,0.000,
DOCUMENT:DATE:LOCATION,REFERENCES:SIMDATES,0.6,0.25,0.35,rel1-2,1,2,29,4.5,22057,book_collection_true_dates/location/query9//useDOCUMENT:DATE:LOCATIONuseREFERENCES:SIMDATES/rel1-2-date_th0.25-doc_th0.6-loc_th0.35.res.clean,0.247,0.400,0.600,0.500,0.000,

Sig-Test:,randomized,,threshold,set,to,0.050000
