###################################
# parameters: 
#   date_th: 0.3
#   doc_th: 0.5
#   loc_th: 0.35
#   nodestouse: DOCUMENT:DATE:LOCATION
#   relationships: REFERENCES:SIMPAGE

###################################
# configuration: 
#   sa.act_diff_ratio_limit = 0.01
#   sa.act_diff_ratio_limit_diff = 0.01
#   sa.function = ciir.multi.sa.function.MaxSAFunction(norm_function)
#   sa.id_property_name.DATE = dateID
#   sa.id_property_name.DOCUMENT = docID
#   sa.id_property_name.LOCATION = locID
#   sa.max_pulses = 10
#   sa.nodes_to_print = DATE:LOCATION
#   sa.nodes_to_use = DOCUMENT:DATE:LOCATION
#   sa.norm_function = ciir.multi.sa.SigmoidFunction(0.0, 1.0)
#   sa.relationships_to_use = REFERENCES:SIMPAGE
#   sa.spread_threshold.DATE = 0.3
#   sa.spread_threshold.DOCUMENT = 0.5
#   sa.spread_threshold.LOCATION = 0.35
#   sa.weight_property.REFERENCES = relevance
#   sa.weight_property.SIMDATES = sim
#   sa.weight_property.SIMDOC = sim
#   sa.weight_property.SIMLOC = sim
#   sa.weight_property.SIMPAGE = pagesim

###################################
# initial activations (1): 
#   cu31924031684685_795, 1

###################################
# spreading activation process log: 
#   pulse 0: activated: 1, non-zero: 1, borderline: 1, overall act: 1.000, act diff: 1.000, ratio: 1.000
#   pulse 1: activated: 13, non-zero: 13, borderline: 12, overall act: 3.739, act diff: 2.739, ratio: 0.733
#   pulse 2: activated: 36007, non-zero: 36007, borderline: 36005, overall act: 2590.297, act diff: 2586.557, ratio: 0.999
#   pulse 3: activated: 36015, non-zero: 36015, borderline: 36012, overall act: 2591.262, act diff: 0.965, ratio: 0.000

###################################
# spreading activation process summary: 
#   final number of activated nodes: 36015
#   final overall activation: 2591.3
#   number of spread. activ. pulses: 3
#   running time: 35814

###################################
# top k results in TREC format: 

7   rel1-2   1830   1   0.17624399   nodesDOCUMENT:DATE:LOCATION-edgesREFERENCES:SIMPAGE-date_th0.3-doc_th0.5-loc_th0.35
7   rel1-2   1863   2   0.17624399   nodesDOCUMENT:DATE:LOCATION-edgesREFERENCES:SIMPAGE-date_th0.3-doc_th0.5-loc_th0.35
7   rel1-2   1831   3   0.17624399   nodesDOCUMENT:DATE:LOCATION-edgesREFERENCES:SIMPAGE-date_th0.3-doc_th0.5-loc_th0.35
7   rel1-2   1825   4   0.17624399   nodesDOCUMENT:DATE:LOCATION-edgesREFERENCES:SIMPAGE-date_th0.3-doc_th0.5-loc_th0.35

###################################
# top nodes: 

# 7   rel1-2   cu31924031684685_795   1   1.0   nodesDOCUMENT:DATE:LOCATION-edgesREFERENCES:SIMPAGE-date_th0.3-doc_th0.5-loc_th0.35
# 7   rel1-2   cu31924031684685_794   2   0.5008992   nodesDOCUMENT:DATE:LOCATION-edgesREFERENCES:SIMPAGE-date_th0.3-doc_th0.5-loc_th0.35
# 7   rel1-2   cu31924031684685_796   3   0.46211717   nodesDOCUMENT:DATE:LOCATION-edgesREFERENCES:SIMPAGE-date_th0.3-doc_th0.5-loc_th0.35
# 7   rel1-2   poland   4   0.4212316   nodesDOCUMENT:DATE:LOCATION-edgesREFERENCES:SIMPAGE-date_th0.3-doc_th0.5-loc_th0.35
# 7   rel1-2   europe   5   0.27662143   nodesDOCUMENT:DATE:LOCATION-edgesREFERENCES:SIMPAGE-date_th0.3-doc_th0.5-loc_th0.35
# 7   rel1-2   cu31924031684685_793   6   0.24534124   nodesDOCUMENT:DATE:LOCATION-edgesREFERENCES:SIMPAGE-date_th0.3-doc_th0.5-loc_th0.35
# 7   rel1-2   russia   7   0.24101025   nodesDOCUMENT:DATE:LOCATION-edgesREFERENCES:SIMPAGE-date_th0.3-doc_th0.5-loc_th0.35
# 7   rel1-2   curiositiesfori00unkngoog_100   8   0.17910853   nodesDOCUMENT:DATE:LOCATION-edgesREFERENCES:SIMPAGE-date_th0.3-doc_th0.5-loc_th0.35
# 7   rel1-2   onrightwrong00lill_339   9   0.17910853   nodesDOCUMENT:DATE:LOCATION-edgesREFERENCES:SIMPAGE-date_th0.3-doc_th0.5-loc_th0.35
# 7   rel1-2   hilltop03sout_846   10   0.17910853   nodesDOCUMENT:DATE:LOCATION-edgesREFERENCES:SIMPAGE-date_th0.3-doc_th0.5-loc_th0.35
# 7   rel1-2   hilltop03sout_848   11   0.17910853   nodesDOCUMENT:DATE:LOCATION-edgesREFERENCES:SIMPAGE-date_th0.3-doc_th0.5-loc_th0.35
# 7   rel1-2   naturalistscabin02smituoft_237   12   0.17910853   nodesDOCUMENT:DATE:LOCATION-edgesREFERENCES:SIMPAGE-date_th0.3-doc_th0.5-loc_th0.35
# 7   rel1-2   songshistoryand00libbgoog_215   13   0.17910853   nodesDOCUMENT:DATE:LOCATION-edgesREFERENCES:SIMPAGE-date_th0.3-doc_th0.5-loc_th0.35
# 7   rel1-2   principlespracti18861fagg_674   14   0.17910853   nodesDOCUMENT:DATE:LOCATION-edgesREFERENCES:SIMPAGE-date_th0.3-doc_th0.5-loc_th0.35
# 7   rel1-2   principlespracti18861fagg_673   15   0.17910853   nodesDOCUMENT:DATE:LOCATION-edgesREFERENCES:SIMPAGE-date_th0.3-doc_th0.5-loc_th0.35
# 7   rel1-2   principlespracti18861fagg_675   16   0.17910853   nodesDOCUMENT:DATE:LOCATION-edgesREFERENCES:SIMPAGE-date_th0.3-doc_th0.5-loc_th0.35
# 7   rel1-2   secretmemoirsco01orlgoog_336   17   0.17910853   nodesDOCUMENT:DATE:LOCATION-edgesREFERENCES:SIMPAGE-date_th0.3-doc_th0.5-loc_th0.35
# 7   rel1-2   reubenmedlicotto03sava_93   18   0.17910853   nodesDOCUMENT:DATE:LOCATION-edgesREFERENCES:SIMPAGE-date_th0.3-doc_th0.5-loc_th0.35
# 7   rel1-2   bluecraneshoreso00swifrich_43   19   0.17910853   nodesDOCUMENT:DATE:LOCATION-edgesREFERENCES:SIMPAGE-date_th0.3-doc_th0.5-loc_th0.35
# 7   rel1-2   britishforeignm34londuoft_95   20   0.17910853   nodesDOCUMENT:DATE:LOCATION-edgesREFERENCES:SIMPAGE-date_th0.3-doc_th0.5-loc_th0.35
# 7   rel1-2   britishforeignm34londuoft_94   21   0.17910853   nodesDOCUMENT:DATE:LOCATION-edgesREFERENCES:SIMPAGE-date_th0.3-doc_th0.5-loc_th0.35
# 7   rel1-2   worksofhonorde32balzuoft_196   22   0.17910853   nodesDOCUMENT:DATE:LOCATION-edgesREFERENCES:SIMPAGE-date_th0.3-doc_th0.5-loc_th0.35
# 7   rel1-2   biennialreportofsec1918mont_13   23   0.17910853   nodesDOCUMENT:DATE:LOCATION-edgesREFERENCES:SIMPAGE-date_th0.3-doc_th0.5-loc_th0.35
# 7   rel1-2   americanvocalist00mans_67   24   0.17910853   nodesDOCUMENT:DATE:LOCATION-edgesREFERENCES:SIMPAGE-date_th0.3-doc_th0.5-loc_th0.35
# 7   rel1-2   principlespracti18861fagg_668   25   0.17910853   nodesDOCUMENT:DATE:LOCATION-edgesREFERENCES:SIMPAGE-date_th0.3-doc_th0.5-loc_th0.35
# 7   rel1-2   worksofhonorde32balzuoft_209   26   0.17910853   nodesDOCUMENT:DATE:LOCATION-edgesREFERENCES:SIMPAGE-date_th0.3-doc_th0.5-loc_th0.35
# 7   rel1-2   cu31924024898896_116   27   0.17910853   nodesDOCUMENT:DATE:LOCATION-edgesREFERENCES:SIMPAGE-date_th0.3-doc_th0.5-loc_th0.35
# 7   rel1-2   politicalscienc01walsgoog_340   28   0.17910853   nodesDOCUMENT:DATE:LOCATION-edgesREFERENCES:SIMPAGE-date_th0.3-doc_th0.5-loc_th0.35
# 7   rel1-2   treatiseonpoliti00destuoft_268   29   0.17910853   nodesDOCUMENT:DATE:LOCATION-edgesREFERENCES:SIMPAGE-date_th0.3-doc_th0.5-loc_th0.35
# 7   rel1-2   annualreportofst1893ohio_210   30   0.17910853   nodesDOCUMENT:DATE:LOCATION-edgesREFERENCES:SIMPAGE-date_th0.3-doc_th0.5-loc_th0.35
# 7   rel1-2   correspondencer01bourgoog_142   31   0.17910853   nodesDOCUMENT:DATE:LOCATION-edgesREFERENCES:SIMPAGE-date_th0.3-doc_th0.5-loc_th0.35
# 7   rel1-2   henryfourth00abboiala_176   32   0.17910853   nodesDOCUMENT:DATE:LOCATION-edgesREFERENCES:SIMPAGE-date_th0.3-doc_th0.5-loc_th0.35
# 7   rel1-2   vanityofhumangra00russ_47   33   0.17910853   nodesDOCUMENT:DATE:LOCATION-edgesREFERENCES:SIMPAGE-date_th0.3-doc_th0.5-loc_th0.35
# 7   rel1-2   russianpolitica02kovagoog_75   34   0.17910853   nodesDOCUMENT:DATE:LOCATION-edgesREFERENCES:SIMPAGE-date_th0.3-doc_th0.5-loc_th0.35
# 7   rel1-2   elliottspoems01elliiala_101   35   0.17910853   nodesDOCUMENT:DATE:LOCATION-edgesREFERENCES:SIMPAGE-date_th0.3-doc_th0.5-loc_th0.35
# 7   rel1-2   hilltop03sout_948   36   0.17910853   nodesDOCUMENT:DATE:LOCATION-edgesREFERENCES:SIMPAGE-date_th0.3-doc_th0.5-loc_th0.35
# 7   rel1-2   myexileinsiberi00gertgoog_253   37   0.17910853   nodesDOCUMENT:DATE:LOCATION-edgesREFERENCES:SIMPAGE-date_th0.3-doc_th0.5-loc_th0.35
# 7   rel1-2   infootprintsofhe00formiala_130   38   0.17910853   nodesDOCUMENT:DATE:LOCATION-edgesREFERENCES:SIMPAGE-date_th0.3-doc_th0.5-loc_th0.35
# 7   rel1-2   hilltop03sout_920   39   0.17910853   nodesDOCUMENT:DATE:LOCATION-edgesREFERENCES:SIMPAGE-date_th0.3-doc_th0.5-loc_th0.35
# 7   rel1-2   hilltop03sout_916   40   0.17910853   nodesDOCUMENT:DATE:LOCATION-edgesREFERENCES:SIMPAGE-date_th0.3-doc_th0.5-loc_th0.35
