###################################
# parameters: 
#   decay: 0.25
#   lambda: 0.0
#   norm_threshold: 0
#   relationships: REFERENCES

###################################
# configuration: 
#   sa.act_diff_ratio_limit = 0.05
#   sa.function = ciir.multi.sa.DecayedSumSALogNormFunction(norm_function, 0.25, 0.0, DOCUMENT)
#   sa.id_property_name.DATE = dateID
#   sa.id_property_name.DOCUMENT = docID
#   sa.id_property_name.LOCATION = locID
#   sa.max_pulses = 15
#   sa.norm_function = ciir.multi.sa.SigmoidFunction(0, 1.0)
#   sa.relationships_to_use = REFERENCES
#   sa.weight_property.REFERENCES = relevance
#   sa.weight_property.SIMDATES = sim
#   sa.weight_property.SIMLOC = sim

###################################
# initial activations: 
#   generalhistoryfo00myerrich_787: 1.0
#   selwynhouseschoo1940selw_21: 1.0
#   lifeofstratfordc02laneuoft_185: 1.0
#   historyofuniteds07good_239: 1.0
#   shorthistoryofmo00haslrich_98: 1.0
#   cambridgemodern09protgoog_449: 1.0

###################################
# spreading activation process log: 
#   pulse 0: activated nodes: 6, borderline nodes: 6, overall activation: 0.000, activation diff: 0.000, ratio: Infinity
#   pulse 1: activated nodes: 69, borderline nodes: 63, overall activation: 33.730, activation diff: 39.730, ratio: 1.178
#   pulse 2: activated nodes: 5255, borderline nodes: 5186, overall activation: 2538.427, activation diff: 2572.157, ratio: 1.013
#   pulse 3: activated nodes: 8664, borderline nodes: 3409, overall activation: 944.244, activation diff: 3482.672, ratio: 3.688
#   pulse 4: activated nodes: 10836, borderline nodes: 2172, overall activation: 4199.395, activation diff: 5143.639, ratio: 1.225
#   pulse 5: activated nodes: 11305, borderline nodes: 469, overall activation: 1197.766, activation diff: 5397.160, ratio: 4.506
#   pulse 6: activated nodes: 11305, borderline nodes: 469, overall activation: 4226.076, activation diff: 5423.842, ratio: 1.283
#   pulse 7: activated nodes: 11305, borderline nodes: 469, overall activation: 1202.166, activation diff: 5428.242, ratio: 4.515
#   pulse 8: activated nodes: 11305, borderline nodes: 469, overall activation: 4227.026, activation diff: 5429.192, ratio: 1.284
#   pulse 9: activated nodes: 11305, borderline nodes: 469, overall activation: 1202.370, activation diff: 5429.396, ratio: 4.516
#   pulse 10: activated nodes: 11305, borderline nodes: 469, overall activation: 4227.113, activation diff: 5429.482, ratio: 1.284
#   pulse 11: activated nodes: 11305, borderline nodes: 469, overall activation: 1202.387, activation diff: 5429.499, ratio: 4.516
#   pulse 12: activated nodes: 11305, borderline nodes: 469, overall activation: 4227.124, activation diff: 5429.511, ratio: 1.284
#   pulse 13: activated nodes: 11305, borderline nodes: 469, overall activation: 1202.389, activation diff: 5429.513, ratio: 4.516
#   pulse 14: activated nodes: 11305, borderline nodes: 469, overall activation: 4227.126, activation diff: 5429.515, ratio: 1.284
#   pulse 15: activated nodes: 11305, borderline nodes: 469, overall activation: 1202.389, activation diff: 5429.515, ratio: 4.516

###################################
# spreading activation process summary: 
#   final number of activated nodes: 11305
#   final overall activation: 1202.4
#   number of spread. activ. pulses: 15
#   running time: 545

###################################
# top k results in TREC format: 

1   Q1   miningcampsstudy00shin_200   1   0.0   REFERENCES
1   Q1   miningcampsstudy00shin_202   2   0.0   REFERENCES
1   Q1   bostoncollegebul0405bost_192   3   0.0   REFERENCES
1   Q1   bostoncollegebul0405bost_193   4   0.0   REFERENCES
1   Q1   bostoncollegebul0405bost_195   5   0.0   REFERENCES
1   Q1   bostoncollegebul0405bost_196   6   0.0   REFERENCES
1   Q1   miningcampsstudy00shin_206   7   0.0   REFERENCES
1   Q1   bostoncollegebul0405bost_188   8   0.0   REFERENCES
1   Q1   miningcampsstudy00shin_214   9   0.0   REFERENCES
1   Q1   historyofuniteds07good_350   10   0.0   REFERENCES
1   Q1   historyofuniteds07good_351   11   0.0   REFERENCES
1   Q1   bostoncollegebul0405bost_190   12   0.0   REFERENCES
1   Q1   bostoncollegebul0405bost_197   13   0.0   REFERENCES
1   Q1   miningcampsstudy00shin_204   14   0.0   REFERENCES
1   Q1   miningcampsstudy00shin_205   15   0.0   REFERENCES
1   Q1   miningcampsstudy00shin_208   16   0.0   REFERENCES
1   Q1   bostoncollegebul0405bost_191   17   0.0   REFERENCES
1   Q1   miningcampsstudy00shin_203   18   0.0   REFERENCES
1   Q1   bostoncollegebul0405bost_199   19   0.0   REFERENCES
1   Q1   miningcampsstudy00shin_201   20   0.0   REFERENCES
