###################################
# parameters: 
#   decay: 0.2
#   lambda: 0.0
#   norm_threshold: 0.1
#   relationships: REFERENCES

###################################
# configuration: 
#   sa.act_diff_ratio_limit = 0.05
#   sa.function = ciir.multi.sa.DecayedSumSALogNormFunction(norm_function, 0.2, 0.0, DOCUMENT)
#   sa.id_property_name.DATE = dateID
#   sa.id_property_name.DOCUMENT = docID
#   sa.id_property_name.LOCATION = locID
#   sa.max_pulses = 15
#   sa.norm_function = ciir.multi.sa.SigmoidFunction(0.1, 1.0)
#   sa.relationships_to_use = REFERENCES
#   sa.weight_property.REFERENCES = relevance
#   sa.weight_property.SIMDATES = sim
#   sa.weight_property.SIMLOC = sim

###################################
# initial activations: 
#   generalhistoryfo00myerrich_787: 1.0
#   selwynhouseschoo1940selw_21: 1.0
#   lifeofstratfordc02laneuoft_185: 1.0
#   historyofuniteds07good_239: 1.0
#   shorthistoryofmo00haslrich_98: 1.0
#   cambridgemodern09protgoog_449: 1.0

###################################
# spreading activation process log: 
#   pulse 0: activated nodes: 6, borderline nodes: 6, overall activation: 0.000, activation diff: 0.000, ratio: Infinity
#   pulse 1: activated nodes: 69, borderline nodes: 63, overall activation: 31.499, activation diff: 37.499, ratio: 1.190
#   pulse 2: activated nodes: 5255, borderline nodes: 5186, overall activation: 2517.245, activation diff: 2548.744, ratio: 1.013
#   pulse 3: activated nodes: 8664, borderline nodes: 3409, overall activation: 1037.916, activation diff: 3555.161, ratio: 3.425
#   pulse 4: activated nodes: 10835, borderline nodes: 2225, overall activation: 4739.619, activation diff: 5777.536, ratio: 1.219
#   pulse 5: activated nodes: 11302, borderline nodes: 550, overall activation: 1433.697, activation diff: 6173.316, ratio: 4.306
#   pulse 6: activated nodes: 11331, borderline nodes: 71, overall activation: 4790.544, activation diff: 6224.241, ratio: 1.299
#   pulse 7: activated nodes: 11333, borderline nodes: 43, overall activation: 1442.427, activation diff: 6232.971, ratio: 4.321
#   pulse 8: activated nodes: 11335, borderline nodes: 31, overall activation: 4792.892, activation diff: 6235.319, ratio: 1.301
#   pulse 9: activated nodes: 11335, borderline nodes: 31, overall activation: 1442.968, activation diff: 6235.860, ratio: 4.322
#   pulse 10: activated nodes: 11335, borderline nodes: 31, overall activation: 4793.146, activation diff: 6236.114, ratio: 1.301
#   pulse 11: activated nodes: 11335, borderline nodes: 31, overall activation: 1443.028, activation diff: 6236.174, ratio: 4.322
#   pulse 12: activated nodes: 11335, borderline nodes: 31, overall activation: 4793.183, activation diff: 6236.211, ratio: 1.301
#   pulse 13: activated nodes: 11335, borderline nodes: 31, overall activation: 1443.037, activation diff: 6236.220, ratio: 4.322
#   pulse 14: activated nodes: 11335, borderline nodes: 31, overall activation: 4793.190, activation diff: 6236.227, ratio: 1.301
#   pulse 15: activated nodes: 11335, borderline nodes: 31, overall activation: 1443.039, activation diff: 6236.229, ratio: 4.322

###################################
# spreading activation process summary: 
#   final number of activated nodes: 11335
#   final overall activation: 1443.0
#   number of spread. activ. pulses: 15
#   running time: 576

###################################
# top k results in TREC format: 

1   Q1   miningcampsstudy00shin_200   1   0.0   REFERENCES
1   Q1   miningcampsstudy00shin_202   2   0.0   REFERENCES
1   Q1   bostoncollegebul0405bost_192   3   0.0   REFERENCES
1   Q1   bostoncollegebul0405bost_193   4   0.0   REFERENCES
1   Q1   bostoncollegebul0405bost_195   5   0.0   REFERENCES
1   Q1   miningcampsstudy00shin_204   6   0.0   REFERENCES
1   Q1   miningcampsstudy00shin_206   7   0.0   REFERENCES
1   Q1   bostoncollegebul0405bost_188   8   0.0   REFERENCES
1   Q1   miningcampsstudy00shin_214   9   0.0   REFERENCES
1   Q1   historyofuniteds07good_350   10   0.0   REFERENCES
1   Q1   historyofuniteds07good_351   11   0.0   REFERENCES
1   Q1   bostoncollegebul0405bost_190   12   0.0   REFERENCES
1   Q1   bostoncollegebul0405bost_197   13   0.0   REFERENCES
1   Q1   bostoncollegebul0405bost_196   14   0.0   REFERENCES
1   Q1   miningcampsstudy00shin_205   15   0.0   REFERENCES
1   Q1   miningcampsstudy00shin_208   16   0.0   REFERENCES
1   Q1   bostoncollegebul0405bost_191   17   0.0   REFERENCES
1   Q1   miningcampsstudy00shin_203   18   0.0   REFERENCES
1   Q1   bostoncollegebul0405bost_199   19   0.0   REFERENCES
1   Q1   miningcampsstudy00shin_201   20   0.0   REFERENCES
