relationships,lambda,decay,norm_threshold,number of spread. activ. pulses,final number of activated nodes,final overall activation,running time,run-id,map,P10,P20,
,,,,,,,,22books/eyor-mini-no_cats.res,0.159,0.600,0.400,
REFERENCES,0.0,0.1,0.1,15,11341,2084.4,1588,22books/output-log10-DOC/query1-runREFERENCES/iterQ1-decay0.1-lambda0.0-norm_threshold0.1.res,0.000,0.000,0.000,
REFERENCES,0.0,0.1,0.2,15,11341,2009.1,689,22books/output-log10-DOC/query1-runREFERENCES/iterQ1-decay0.1-lambda0.0-norm_threshold0.2.res,0.000,0.000,0.000,
REFERENCES,0.0,0.1,0.3,15,11340,1927.6,561,22books/output-log10-DOC/query1-runREFERENCES/iterQ1-decay0.1-lambda0.0-norm_threshold0.3.res,0.000,0.000,0.000,
REFERENCES,0.25,0.1,0.1,7,11334,7985.9,410,22books/output-log10-DOC/query1-runREFERENCES/iterQ1-decay0.1-lambda0.25-norm_threshold0.1.res,0.389,0.700,0.500,
REFERENCES,0.25,0.1,0.2,7,11331,7864.6,415,22books/output-log10-DOC/query1-runREFERENCES/iterQ1-decay0.1-lambda0.25-norm_threshold0.2.res,0.350,0.800,0.450,
REFERENCES,0.25,0.1,0.3,7,11330,7723.4,414,22books/output-log10-DOC/query1-runREFERENCES/iterQ1-decay0.1-lambda0.25-norm_threshold0.3.res,0.344,0.700,0.450,
REFERENCES,0.25,0.1,0,7,11341,8097.6,417,22books/output-log10-DOC/query1-runREFERENCES/iterQ1-decay0.1-lambda0.25-norm_threshold0.res,0.397,0.800,0.500,
REFERENCES,0.5,0.1,0.1,8,11334,7615.8,428,22books/output-log10-DOC/query1-runREFERENCES/iterQ1-decay0.1-lambda0.5-norm_threshold0.1.res,0.369,0.700,0.450,
REFERENCES,0.5,0.1,0.2,9,11334,7680.7,415,22books/output-log10-DOC/query1-runREFERENCES/iterQ1-decay0.1-lambda0.5-norm_threshold0.2.res,0.393,0.700,0.500,
REFERENCES,0.5,0.1,0.3,9,11331,7532.9,453,22books/output-log10-DOC/query1-runREFERENCES/iterQ1-decay0.1-lambda0.5-norm_threshold0.3.res,0.365,0.800,0.450,
REFERENCES,0.5,0.1,0,8,11341,7757.0,430,22books/output-log10-DOC/query1-runREFERENCES/iterQ1-decay0.1-lambda0.5-norm_threshold0.res,0.391,0.700,0.500,
REFERENCES,0.75,0.1,0.1,12,11334,6935.2,468,22books/output-log10-DOC/query1-runREFERENCES/iterQ1-decay0.1-lambda0.75-norm_threshold0.1.res,0.400,0.800,0.500,
REFERENCES,0.75,0.1,0.2,12,11332,6725.4,491,22books/output-log10-DOC/query1-runREFERENCES/iterQ1-decay0.1-lambda0.75-norm_threshold0.2.res,0.397,0.800,0.500,
REFERENCES,0.75,0.1,0.3,13,11324,6794.2,516,22books/output-log10-DOC/query1-runREFERENCES/iterQ1-decay0.1-lambda0.75-norm_threshold0.3.res,0.398,0.800,0.500,
REFERENCES,0.75,0.1,0,12,11341,7116.8,510,22books/output-log10-DOC/query1-runREFERENCES/iterQ1-decay0.1-lambda0.75-norm_threshold0.res,0.406,0.800,0.500,
REFERENCES,0.0,0.2,0.1,15,11335,1443.0,576,22books/output-log10-DOC/query1-runREFERENCES/iterQ1-decay0.2-lambda0.0-norm_threshold0.1.res,0.000,0.000,0.000,
REFERENCES,0.0,0.2,0.2,15,11326,1387.4,538,22books/output-log10-DOC/query1-runREFERENCES/iterQ1-decay0.2-lambda0.0-norm_threshold0.2.res,0.000,0.000,0.000,
REFERENCES,0.0,0.2,0.3,15,11323,1326.1,497,22books/output-log10-DOC/query1-runREFERENCES/iterQ1-decay0.2-lambda0.0-norm_threshold0.3.res,0.000,0.000,0.000,
REFERENCES,0.0,0.2,0,15,11335,1496.3,622,22books/output-log10-DOC/query1-runREFERENCES/iterQ1-decay0.2-lambda0.0-norm_threshold0.res,0.000,0.000,0.000,
REFERENCES,0.25,0.2,0.1,7,11331,6155.8,417,22books/output-log10-DOC/query1-runREFERENCES/iterQ1-decay0.2-lambda0.25-norm_threshold0.1.res,0.396,0.800,0.500,
REFERENCES,0.25,0.2,0.2,7,11322,6057.2,469,22books/output-log10-DOC/query1-runREFERENCES/iterQ1-decay0.2-lambda0.25-norm_threshold0.2.res,0.360,0.800,0.450,
REFERENCES,0.25,0.2,0.3,7,11316,5935.7,485,22books/output-log10-DOC/query1-runREFERENCES/iterQ1-decay0.2-lambda0.25-norm_threshold0.3.res,0.349,0.800,0.450,
REFERENCES,0.25,0.2,0,7,11335,6246.3,419,22books/output-log10-DOC/query1-runREFERENCES/iterQ1-decay0.2-lambda0.25-norm_threshold0.res,0.399,0.800,0.500,
REFERENCES,0.5,0.2,0.1,8,11331,5874.9,430,22books/output-log10-DOC/query1-runREFERENCES/iterQ1-decay0.2-lambda0.5-norm_threshold0.1.res,0.390,0.700,0.500,
REFERENCES,0.5,0.2,0.2,9,11325,5908.1,454,22books/output-log10-DOC/query1-runREFERENCES/iterQ1-decay0.2-lambda0.5-norm_threshold0.2.res,0.394,0.700,0.500,
REFERENCES,0.5,0.2,0.3,9,11316,5786.7,427,22books/output-log10-DOC/query1-runREFERENCES/iterQ1-decay0.2-lambda0.5-norm_threshold0.3.res,0.387,0.800,0.500,
REFERENCES,0.5,0.2,0,8,11335,5989.4,434,22books/output-log10-DOC/query1-runREFERENCES/iterQ1-decay0.2-lambda0.5-norm_threshold0.res,0.391,0.700,0.500,
REFERENCES,0.75,0.2,0.1,12,11331,5339.2,498,22books/output-log10-DOC/query1-runREFERENCES/iterQ1-decay0.2-lambda0.75-norm_threshold0.1.res,0.400,0.800,0.500,
REFERENCES,0.75,0.2,0.2,12,11318,5168.2,503,22books/output-log10-DOC/query1-runREFERENCES/iterQ1-decay0.2-lambda0.75-norm_threshold0.2.res,0.397,0.800,0.500,
REFERENCES,0.75,0.2,0.3,13,11312,5218.5,533,22books/output-log10-DOC/query1-runREFERENCES/iterQ1-decay0.2-lambda0.75-norm_threshold0.3.res,0.398,0.800,0.500,
REFERENCES,0.75,0.2,0,12,11335,5485.1,493,22books/output-log10-DOC/query1-runREFERENCES/iterQ1-decay0.2-lambda0.75-norm_threshold0.res,0.406,0.800,0.500,
REFERENCES,0.0,0.25,0.1,15,11305,1159.5,540,22books/output-log10-DOC/query1-runREFERENCES/iterQ1-decay0.25-lambda0.0-norm_threshold0.1.res,0.000,0.000,0.000,
REFERENCES,0.0,0.25,0.2,15,11305,1114.5,621,22books/output-log10-DOC/query1-runREFERENCES/iterQ1-decay0.25-lambda0.0-norm_threshold0.2.res,0.000,0.000,0.000,
REFERENCES,0.0,0.25,0.3,15,11304,1063.0,658,22books/output-log10-DOC/query1-runREFERENCES/iterQ1-decay0.25-lambda0.0-norm_threshold0.3.res,0.000,0.000,0.000,
REFERENCES,0.0,0.25,0,15,11305,1202.4,545,22books/output-log10-DOC/query1-runREFERENCES/iterQ1-decay0.25-lambda0.0-norm_threshold0.res,0.000,0.000,0.000,
REFERENCES,0.25,0.25,0.1,7,11305,5299.8,414,22books/output-log10-DOC/query1-runREFERENCES/iterQ1-decay0.25-lambda0.25-norm_threshold0.1.res,0.396,0.800,0.500,
REFERENCES,0.25,0.25,0.2,7,11303,5214.6,410,22books/output-log10-DOC/query1-runREFERENCES/iterQ1-decay0.25-lambda0.25-norm_threshold0.2.res,0.384,0.800,0.500,
REFERENCES,0.25,0.25,0.3,7,11273,5110.8,410,22books/output-log10-DOC/query1-runREFERENCES/iterQ1-decay0.25-lambda0.25-norm_threshold0.3.res,0.352,0.800,0.450,
REFERENCES,0.25,0.25,0,7,11305,5376.9,421,22books/output-log10-DOC/query1-runREFERENCES/iterQ1-decay0.25-lambda0.25-norm_threshold0.res,0.399,0.800,0.500,
REFERENCES,0.5,0.25,0.1,8,11305,5063.1,435,22books/output-log10-DOC/query1-runREFERENCES/iterQ1-decay0.25-lambda0.5-norm_threshold0.1.res,0.390,0.700,0.500,
REFERENCES,0.5,0.25,0.2,9,11277,5088.7,447,22books/output-log10-DOC/query1-runREFERENCES/iterQ1-decay0.25-lambda0.5-norm_threshold0.2.res,0.394,0.700,0.500,
REFERENCES,0.5,0.25,0.3,9,11266,4982.8,440,22books/output-log10-DOC/query1-runREFERENCES/iterQ1-decay0.25-lambda0.5-norm_threshold0.3.res,0.389,0.800,0.500,
REFERENCES,0.5,0.25,0,8,11305,5161.1,439,22books/output-log10-DOC/query1-runREFERENCES/iterQ1-decay0.25-lambda0.5-norm_threshold0.res,0.391,0.700,0.500,
REFERENCES,0.75,0.25,0.1,12,11305,4600.7,496,22books/output-log10-DOC/query1-runREFERENCES/iterQ1-decay0.25-lambda0.75-norm_threshold0.1.res,0.402,0.800,0.500,
REFERENCES,0.75,0.25,0.2,12,11295,4456.2,493,22books/output-log10-DOC/query1-runREFERENCES/iterQ1-decay0.25-lambda0.75-norm_threshold0.2.res,0.396,0.800,0.500,
REFERENCES,0.75,0.25,0.3,13,11298,4494.3,511,22books/output-log10-DOC/query1-runREFERENCES/iterQ1-decay0.25-lambda0.75-norm_threshold0.3.res,0.372,0.800,0.450,
REFERENCES,0.75,0.25,0,12,11305,4725.7,543,22books/output-log10-DOC/query1-runREFERENCES/iterQ1-decay0.25-lambda0.75-norm_threshold0.res,0.406,0.800,0.500,
REFERENCES,0.0,0.5,0.1,15,8664,62.2,478,22books/output-log10-DOC/query1-runREFERENCES/iterQ1-decay0.5-lambda0.0-norm_threshold0.1.res,0.000,0.000,0.000,
REFERENCES,0.0,0.5,0.2,15,8664,62.1,479,22books/output-log10-DOC/query1-runREFERENCES/iterQ1-decay0.5-lambda0.0-norm_threshold0.2.res,0.000,0.000,0.000,
REFERENCES,0.0,0.5,0.3,15,8664,62.0,476,22books/output-log10-DOC/query1-runREFERENCES/iterQ1-decay0.5-lambda0.0-norm_threshold0.3.res,0.000,0.000,0.000,
REFERENCES,0.0,0.5,0,15,8664,62.3,506,22books/output-log10-DOC/query1-runREFERENCES/iterQ1-decay0.5-lambda0.0-norm_threshold0.res,0.000,0.000,0.000,
REFERENCES,0.25,0.5,0.1,6,8664,2091.9,360,22books/output-log10-DOC/query1-runREFERENCES/iterQ1-decay0.5-lambda0.25-norm_threshold0.1.res,0.361,0.700,0.450,
REFERENCES,0.25,0.5,0.2,7,8664,2075.5,367,22books/output-log10-DOC/query1-runREFERENCES/iterQ1-decay0.5-lambda0.25-norm_threshold0.2.res,0.387,0.700,0.500,
REFERENCES,0.25,0.5,0.3,7,8664,2026.8,386,22books/output-log10-DOC/query1-runREFERENCES/iterQ1-decay0.5-lambda0.25-norm_threshold0.3.res,0.378,0.700,0.500,
REFERENCES,0.25,0.5,0,6,8664,2138.6,363,22books/output-log10-DOC/query1-runREFERENCES/iterQ1-decay0.5-lambda0.25-norm_threshold0.res,0.393,0.700,0.500,
REFERENCES,0.5,0.5,0.1,8,8664,2044.9,387,22books/output-log10-DOC/query1-runREFERENCES/iterQ1-decay0.5-lambda0.5-norm_threshold0.1.res,0.390,0.700,0.500,
REFERENCES,0.5,0.5,0.2,8,8664,1992.0,400,22books/output-log10-DOC/query1-runREFERENCES/iterQ1-decay0.5-lambda0.5-norm_threshold0.2.res,0.369,0.700,0.450,
REFERENCES,0.5,0.5,0.3,8,8664,1935.7,477,22books/output-log10-DOC/query1-runREFERENCES/iterQ1-decay0.5-lambda0.5-norm_threshold0.3.res,0.361,0.700,0.450,
REFERENCES,0.5,0.5,0,8,8664,2094.2,367,22books/output-log10-DOC/query1-runREFERENCES/iterQ1-decay0.5-lambda0.5-norm_threshold0.res,0.390,0.700,0.500,
REFERENCES,0.75,0.5,0.1,12,8664,1865.1,461,22books/output-log10-DOC/query1-runREFERENCES/iterQ1-decay0.5-lambda0.75-norm_threshold0.1.res,0.390,0.700,0.500,
REFERENCES,0.75,0.5,0.2,12,8664,1804.3,433,22books/output-log10-DOC/query1-runREFERENCES/iterQ1-decay0.5-lambda0.75-norm_threshold0.2.res,0.366,0.700,0.450,
REFERENCES,0.75,0.5,0.3,12,8664,1738.0,438,22books/output-log10-DOC/query1-runREFERENCES/iterQ1-decay0.5-lambda0.75-norm_threshold0.3.res,0.369,0.700,0.450,
REFERENCES,0.75,0.5,0,11,8664,1850.9,427,22books/output-log10-DOC/query1-runREFERENCES/iterQ1-decay0.5-lambda0.75-norm_threshold0.res,0.393,0.800,0.500,

Sig-Test:,randomized,,threshold,set,to,0.050000
