nodestouse,relationships,doc_th,date_th,loc_th,iter,seeds,number of spread. activ. pulses,final number of activated nodes,final overall activation,running time,run-id,map,P5,P10,P20,R-prec,
DOCUMENT:DATE:LOCATION,REFERENCES,0.6,0.3,0.4,rel1-1,1,2,56,9.3,57443,book_collection_true_dates/date/query5//useDOCUMENT:DATE:LOCATIONuseREFERENCES/rel1-1-date_th0.3-doc_th0.6-loc_th0.4.res.clean,0.119,0.400,0.200,0.200,0.286,
DOCUMENT:DATE:LOCATION,REFERENCES,0.5,0.25,0.35,rel1-1,1,2,56,9.3,84676,book_collection_true_dates/date/query5//useDOCUMENT:DATE:LOCATIONuseREFERENCES/rel1-1-date_th0.25-doc_th0.5-loc_th0.35.res.clean,0.119,0.400,0.200,0.200,0.286,
DOCUMENT:DATE:LOCATION,REFERENCES,0.7,0.3,0.35,rel1-1,1,2,56,9.3,58435,book_collection_true_dates/date/query5//useDOCUMENT:DATE:LOCATIONuseREFERENCES/rel1-1-date_th0.3-doc_th0.7-loc_th0.35.res.clean,0.119,0.400,0.200,0.200,0.286,
DOCUMENT:DATE:LOCATION,REFERENCES,0.6,0.25,0.35,rel1-1,1,2,56,9.3,59881,book_collection_true_dates/date/query5//useDOCUMENT:DATE:LOCATIONuseREFERENCES/rel1-1-date_th0.25-doc_th0.6-loc_th0.35.res.clean,0.119,0.400,0.200,0.200,0.286,
DOCUMENT:DATE:LOCATION,REFERENCES,0.5,0.25,0.4,rel1-1,1,2,56,9.3,74758,book_collection_true_dates/date/query5//useDOCUMENT:DATE:LOCATIONuseREFERENCES/rel1-1-date_th0.25-doc_th0.5-loc_th0.4.res.clean,0.119,0.400,0.200,0.200,0.286,
DOCUMENT:DATE:LOCATION,REFERENCES,0.5,0.3,0.4,rel1-1,1,2,56,9.3,60967,book_collection_true_dates/date/query5//useDOCUMENT:DATE:LOCATIONuseREFERENCES/rel1-1-date_th0.3-doc_th0.5-loc_th0.4.res.clean,0.119,0.400,0.200,0.200,0.286,
DOCUMENT:DATE:LOCATION,REFERENCES,0.6,0.3,0.35,rel1-1,1,2,56,9.3,57368,book_collection_true_dates/date/query5//useDOCUMENT:DATE:LOCATIONuseREFERENCES/rel1-1-date_th0.3-doc_th0.6-loc_th0.35.res.clean,0.119,0.400,0.200,0.200,0.286,
DOCUMENT:DATE:LOCATION,REFERENCES,0.7,0.3,0.4,rel1-1,1,2,56,9.3,58132,book_collection_true_dates/date/query5//useDOCUMENT:DATE:LOCATIONuseREFERENCES/rel1-1-date_th0.3-doc_th0.7-loc_th0.4.res.clean,0.119,0.400,0.200,0.200,0.286,
DOCUMENT:DATE:LOCATION,REFERENCES,0.7,0.25,0.4,rel1-1,1,2,56,9.3,66728,book_collection_true_dates/date/query5//useDOCUMENT:DATE:LOCATIONuseREFERENCES/rel1-1-date_th0.25-doc_th0.7-loc_th0.4.res.clean,0.119,0.400,0.200,0.200,0.286,
DOCUMENT:DATE:LOCATION,REFERENCES,0.6,0.25,0.4,rel1-1,1,2,56,9.3,60548,book_collection_true_dates/date/query5//useDOCUMENT:DATE:LOCATIONuseREFERENCES/rel1-1-date_th0.25-doc_th0.6-loc_th0.4.res.clean,0.119,0.400,0.200,0.200,0.286,
DOCUMENT:DATE:LOCATION,REFERENCES,0.7,0.25,0.35,rel1-1,1,2,56,9.3,67832,book_collection_true_dates/date/query5//useDOCUMENT:DATE:LOCATIONuseREFERENCES/rel1-1-date_th0.25-doc_th0.7-loc_th0.35.res.clean,0.119,0.400,0.200,0.200,0.286,
DOCUMENT:DATE:LOCATION,REFERENCES,0.5,0.3,0.35,rel1-1,1,2,56,9.3,68447,book_collection_true_dates/date/query5//useDOCUMENT:DATE:LOCATIONuseREFERENCES/rel1-1-date_th0.3-doc_th0.5-loc_th0.35.res.clean,0.119,0.400,0.200,0.200,0.286,

Sig-Test:,randomized,,threshold,set,to,0.050000
