relationships,lambda,decay,norm_threshold,number of spread. activ. pulses,final number of activated nodes,final overall activation,running time,run-id,map,P10,P20,
,,,,,,,,22books/eyor-mini-no_cats.res,0.147,0.600,0.400,
REFERENCES:SIMDATES:SIMLOC,0.0,0.1,0.1,7,11461,8399.3,2347,22books/output-log-DOC/query1-runREFERENCES:SIMDATES:SIMLOC/iterQ1-decay0.1-lambda0.0-norm_threshold0.1.res,0.263,0.600,0.350,
REFERENCES:SIMDATES:SIMLOC,0.0,0.1,0.2,7,11458,8219.7,1447,22books/output-log-DOC/query1-runREFERENCES:SIMDATES:SIMLOC/iterQ1-decay0.1-lambda0.0-norm_threshold0.2.res,0.222,0.500,0.300,
REFERENCES:SIMDATES:SIMLOC,0.0,0.1,0.3,7,11454,8042.8,1343,22books/output-log-DOC/query1-runREFERENCES:SIMDATES:SIMLOC/iterQ1-decay0.1-lambda0.0-norm_threshold0.3.res,0.222,0.500,0.300,
REFERENCES:SIMDATES:SIMLOC,0.25,0.1,0.1,7,11460,8238.7,1331,22books/output-log-DOC/query1-runREFERENCES:SIMDATES:SIMLOC/iterQ1-decay0.1-lambda0.25-norm_threshold0.1.res,0.339,0.700,0.500,
REFERENCES:SIMDATES:SIMLOC,0.25,0.1,0.2,7,11455,8007.3,1360,22books/output-log-DOC/query1-runREFERENCES:SIMDATES:SIMLOC/iterQ1-decay0.1-lambda0.25-norm_threshold0.2.res,0.251,0.600,0.350,
REFERENCES:SIMDATES:SIMLOC,0.25,0.1,0.3,8,11455,7953.6,1376,22books/output-log-DOC/query1-runREFERENCES:SIMDATES:SIMLOC/iterQ1-decay0.1-lambda0.25-norm_threshold0.3.res,0.256,0.600,0.350,
REFERENCES:SIMDATES:SIMLOC,0.25,0.1,0,7,11464,8455.1,1330,22books/output-log-DOC/query1-runREFERENCES:SIMDATES:SIMLOC/iterQ1-decay0.1-lambda0.25-norm_threshold0.res,0.346,0.700,0.500,
REFERENCES:SIMDATES:SIMLOC,0.5,0.1,0.1,9,11460,7965.8,1367,22books/output-log-DOC/query1-runREFERENCES:SIMDATES:SIMLOC/iterQ1-decay0.1-lambda0.5-norm_threshold0.1.res,0.351,0.800,0.500,
REFERENCES:SIMDATES:SIMLOC,0.5,0.1,0.2,9,11456,7698.5,1427,22books/output-log-DOC/query1-runREFERENCES:SIMDATES:SIMLOC/iterQ1-decay0.1-lambda0.5-norm_threshold0.2.res,0.346,0.700,0.500,
REFERENCES:SIMDATES:SIMLOC,0.5,0.1,0.3,10,11455,7666.9,1412,22books/output-log-DOC/query1-runREFERENCES:SIMDATES:SIMLOC/iterQ1-decay0.1-lambda0.5-norm_threshold0.3.res,0.291,0.700,0.400,
REFERENCES:SIMDATES:SIMLOC,0.5,0.1,0,9,11464,8237.1,1437,22books/output-log-DOC/query1-runREFERENCES:SIMDATES:SIMLOC/iterQ1-decay0.1-lambda0.5-norm_threshold0.res,0.393,0.800,0.550,
REFERENCES:SIMDATES:SIMLOC,0.75,0.1,0.1,13,11460,7030.3,1562,22books/output-log-DOC/query1-runREFERENCES:SIMDATES:SIMLOC/iterQ1-decay0.1-lambda0.75-norm_threshold0.1.res,0.356,0.800,0.500,
REFERENCES:SIMDATES:SIMLOC,0.75,0.1,0.2,14,11455,6934.4,1715,22books/output-log-DOC/query1-runREFERENCES:SIMDATES:SIMLOC/iterQ1-decay0.1-lambda0.75-norm_threshold0.2.res,0.363,0.800,0.500,
REFERENCES:SIMDATES:SIMLOC,0.75,0.1,0.3,15,11455,6821.5,1577,22books/output-log-DOC/query1-runREFERENCES:SIMDATES:SIMLOC/iterQ1-decay0.1-lambda0.75-norm_threshold0.3.res,0.359,0.800,0.500,
REFERENCES:SIMDATES:SIMLOC,0.75,0.1,0,13,11464,7445.9,1631,22books/output-log-DOC/query1-runREFERENCES:SIMDATES:SIMLOC/iterQ1-decay0.1-lambda0.75-norm_threshold0.res,0.388,0.800,0.550,
REFERENCES:SIMDATES:SIMLOC,0.0,0.2,0.1,7,11460,6816.2,1356,22books/output-log-DOC/query1-runREFERENCES:SIMDATES:SIMLOC/iterQ1-decay0.2-lambda0.0-norm_threshold0.1.res,0.271,0.700,0.350,
REFERENCES:SIMDATES:SIMLOC,0.0,0.2,0.2,7,11454,6617.8,1313,22books/output-log-DOC/query1-runREFERENCES:SIMDATES:SIMLOC/iterQ1-decay0.2-lambda0.0-norm_threshold0.2.res,0.271,0.700,0.350,
REFERENCES:SIMDATES:SIMLOC,0.0,0.2,0.3,7,11454,6437.7,1323,22books/output-log-DOC/query1-runREFERENCES:SIMDATES:SIMLOC/iterQ1-decay0.2-lambda0.0-norm_threshold0.3.res,0.271,0.700,0.350,
REFERENCES:SIMDATES:SIMLOC,0.0,0.2,0,6,11464,6994.4,1578,22books/output-log-DOC/query1-runREFERENCES:SIMDATES:SIMLOC/iterQ1-decay0.2-lambda0.0-norm_threshold0.res,0.271,0.700,0.350,
REFERENCES:SIMDATES:SIMLOC,0.25,0.2,0.1,7,11457,6677.7,1383,22books/output-log-DOC/query1-runREFERENCES:SIMDATES:SIMLOC/iterQ1-decay0.2-lambda0.25-norm_threshold0.1.res,0.302,0.700,0.400,
REFERENCES:SIMDATES:SIMLOC,0.25,0.2,0.2,8,11456,6556.0,1405,22books/output-log-DOC/query1-runREFERENCES:SIMDATES:SIMLOC/iterQ1-decay0.2-lambda0.25-norm_threshold0.2.res,0.286,0.700,0.400,
REFERENCES:SIMDATES:SIMLOC,0.25,0.2,0.3,8,11453,6358.0,1429,22books/output-log-DOC/query1-runREFERENCES:SIMDATES:SIMLOC/iterQ1-decay0.2-lambda0.25-norm_threshold0.3.res,0.286,0.700,0.400,
REFERENCES:SIMDATES:SIMLOC,0.25,0.2,0,7,11464,6918.1,1366,22books/output-log-DOC/query1-runREFERENCES:SIMDATES:SIMLOC/iterQ1-decay0.2-lambda0.25-norm_threshold0.res,0.304,0.700,0.400,
REFERENCES:SIMDATES:SIMLOC,0.5,0.2,0.1,9,11458,6426.4,1561,22books/output-log-DOC/query1-runREFERENCES:SIMDATES:SIMLOC/iterQ1-decay0.2-lambda0.5-norm_threshold0.1.res,0.389,0.800,0.550,
REFERENCES:SIMDATES:SIMLOC,0.5,0.2,0.2,10,11456,6347.8,1592,22books/output-log-DOC/query1-runREFERENCES:SIMDATES:SIMLOC/iterQ1-decay0.2-lambda0.5-norm_threshold0.2.res,0.350,0.700,0.500,
REFERENCES:SIMDATES:SIMLOC,0.5,0.2,0.3,10,11453,6108.7,1539,22books/output-log-DOC/query1-runREFERENCES:SIMDATES:SIMLOC/iterQ1-decay0.2-lambda0.5-norm_threshold0.3.res,0.351,0.800,0.500,
REFERENCES:SIMDATES:SIMLOC,0.5,0.2,0,9,11464,6733.1,1466,22books/output-log-DOC/query1-runREFERENCES:SIMDATES:SIMLOC/iterQ1-decay0.2-lambda0.5-norm_threshold0.res,0.391,0.800,0.550,
REFERENCES:SIMDATES:SIMLOC,0.75,0.2,0.1,14,11457,5858.9,1619,22books/output-log-DOC/query1-runREFERENCES:SIMDATES:SIMLOC/iterQ1-decay0.2-lambda0.75-norm_threshold0.1.res,0.377,0.800,0.500,
REFERENCES:SIMDATES:SIMLOC,0.75,0.2,0.2,14,11454,5527.4,1677,22books/output-log-DOC/query1-runREFERENCES:SIMDATES:SIMLOC/iterQ1-decay0.2-lambda0.75-norm_threshold0.2.res,0.406,0.900,0.550,
REFERENCES:SIMDATES:SIMLOC,0.75,0.2,0.3,15,11451,5423.3,1652,22books/output-log-DOC/query1-runREFERENCES:SIMDATES:SIMLOC/iterQ1-decay0.2-lambda0.75-norm_threshold0.3.res,0.407,0.900,0.550,
REFERENCES:SIMDATES:SIMLOC,0.75,0.2,0,13,11464,6063.5,1647,22books/output-log-DOC/query1-runREFERENCES:SIMDATES:SIMLOC/iterQ1-decay0.2-lambda0.75-norm_threshold0.res,0.402,0.800,0.550,
REFERENCES:SIMDATES:SIMLOC,0.0,0.25,0.1,7,11458,6060.6,1360,22books/output-log-DOC/query1-runREFERENCES:SIMDATES:SIMLOC/iterQ1-decay0.25-lambda0.0-norm_threshold0.1.res,0.271,0.700,0.350,
REFERENCES:SIMDATES:SIMLOC,0.0,0.25,0.2,7,11454,5858.6,1329,22books/output-log-DOC/query1-runREFERENCES:SIMDATES:SIMLOC/iterQ1-decay0.25-lambda0.0-norm_threshold0.2.res,0.271,0.700,0.350,
REFERENCES:SIMDATES:SIMLOC,0.0,0.25,0.3,7,11448,5683.6,1342,22books/output-log-DOC/query1-runREFERENCES:SIMDATES:SIMLOC/iterQ1-decay0.25-lambda0.0-norm_threshold0.3.res,0.271,0.700,0.350,
REFERENCES:SIMDATES:SIMLOC,0.0,0.25,0,6,11464,6246.9,1322,22books/output-log-DOC/query1-runREFERENCES:SIMDATES:SIMLOC/iterQ1-decay0.25-lambda0.0-norm_threshold0.res,0.271,0.700,0.350,
REFERENCES:SIMDATES:SIMLOC,0.25,0.25,0.1,7,11456,5932.8,1358,22books/output-log-DOC/query1-runREFERENCES:SIMDATES:SIMLOC/iterQ1-decay0.25-lambda0.25-norm_threshold0.1.res,0.319,0.700,0.450,
REFERENCES:SIMDATES:SIMLOC,0.25,0.25,0.2,8,11450,5803.5,1350,22books/output-log-DOC/query1-runREFERENCES:SIMDATES:SIMLOC/iterQ1-decay0.25-lambda0.25-norm_threshold0.2.res,0.271,0.700,0.350,
REFERENCES:SIMDATES:SIMLOC,0.25,0.25,0.3,8,11445,5611.0,1447,22books/output-log-DOC/query1-runREFERENCES:SIMDATES:SIMLOC/iterQ1-decay0.25-lambda0.25-norm_threshold0.3.res,0.287,0.700,0.400,
REFERENCES:SIMDATES:SIMLOC,0.25,0.25,0,7,11464,6178.0,1310,22books/output-log-DOC/query1-runREFERENCES:SIMDATES:SIMLOC/iterQ1-decay0.25-lambda0.25-norm_threshold0.res,0.321,0.700,0.450,
REFERENCES:SIMDATES:SIMLOC,0.5,0.25,0.1,9,11451,5699.0,1468,22books/output-log-DOC/query1-runREFERENCES:SIMDATES:SIMLOC/iterQ1-decay0.25-lambda0.5-norm_threshold0.1.res,0.389,0.800,0.550,
REFERENCES:SIMDATES:SIMLOC,0.5,0.25,0.2,10,11448,5611.8,1441,22books/output-log-DOC/query1-runREFERENCES:SIMDATES:SIMLOC/iterQ1-decay0.25-lambda0.5-norm_threshold0.2.res,0.355,0.800,0.500,
REFERENCES:SIMDATES:SIMLOC,0.5,0.25,0.3,10,11442,5383.2,1488,22books/output-log-DOC/query1-runREFERENCES:SIMDATES:SIMLOC/iterQ1-decay0.25-lambda0.5-norm_threshold0.3.res,0.356,0.800,0.500,
REFERENCES:SIMDATES:SIMLOC,0.5,0.25,0,9,11464,6010.4,1454,22books/output-log-DOC/query1-runREFERENCES:SIMDATES:SIMLOC/iterQ1-decay0.25-lambda0.5-norm_threshold0.res,0.390,0.800,0.550,
REFERENCES:SIMDATES:SIMLOC,0.75,0.25,0.1,14,11451,5177.5,1625,22books/output-log-DOC/query1-runREFERENCES:SIMDATES:SIMLOC/iterQ1-decay0.25-lambda0.75-norm_threshold0.1.res,0.377,0.800,0.500,
REFERENCES:SIMDATES:SIMLOC,0.75,0.25,0.2,15,11447,5065.9,1526,22books/output-log-DOC/query1-runREFERENCES:SIMDATES:SIMLOC/iterQ1-decay0.25-lambda0.75-norm_threshold0.2.res,0.400,0.800,0.550,
REFERENCES:SIMDATES:SIMLOC,0.75,0.25,0.3,15,11445,4773.6,1660,22books/output-log-DOC/query1-runREFERENCES:SIMDATES:SIMLOC/iterQ1-decay0.25-lambda0.75-norm_threshold0.3.res,0.406,0.900,0.550,
REFERENCES:SIMDATES:SIMLOC,0.75,0.25,0,13,11464,5403.0,1468,22books/output-log-DOC/query1-runREFERENCES:SIMDATES:SIMLOC/iterQ1-decay0.25-lambda0.75-norm_threshold0.res,0.401,0.800,0.550,
REFERENCES:SIMDATES:SIMLOC,0.0,0.5,0.1,7,10969,2905.2,1260,22books/output-log-DOC/query1-runREFERENCES:SIMDATES:SIMLOC/iterQ1-decay0.5-lambda0.0-norm_threshold0.1.res,0.357,0.800,0.500,
REFERENCES:SIMDATES:SIMLOC,0.0,0.5,0.2,7,10966,2817.6,1308,22books/output-log-DOC/query1-runREFERENCES:SIMDATES:SIMLOC/iterQ1-decay0.5-lambda0.0-norm_threshold0.2.res,0.361,0.800,0.500,
REFERENCES:SIMDATES:SIMLOC,0.0,0.5,0.3,7,10961,2712.6,1282,22books/output-log-DOC/query1-runREFERENCES:SIMDATES:SIMLOC/iterQ1-decay0.5-lambda0.0-norm_threshold0.3.res,0.359,0.800,0.500,
REFERENCES:SIMDATES:SIMLOC,0.0,0.5,0,6,10971,2970.6,1276,22books/output-log-DOC/query1-runREFERENCES:SIMDATES:SIMLOC/iterQ1-decay0.5-lambda0.0-norm_threshold0.res,0.357,0.800,0.500,
REFERENCES:SIMDATES:SIMLOC,0.25,0.5,0.1,7,10969,2845.6,1312,22books/output-log-DOC/query1-runREFERENCES:SIMDATES:SIMLOC/iterQ1-decay0.5-lambda0.25-norm_threshold0.1.res,0.386,0.800,0.550,
REFERENCES:SIMDATES:SIMLOC,0.25,0.5,0.2,8,10967,2797.1,1341,22books/output-log-DOC/query1-runREFERENCES:SIMDATES:SIMLOC/iterQ1-decay0.5-lambda0.25-norm_threshold0.2.res,0.383,0.800,0.550,
REFERENCES:SIMDATES:SIMLOC,0.25,0.5,0.3,8,10961,2685.4,1366,22books/output-log-DOC/query1-runREFERENCES:SIMDATES:SIMLOC/iterQ1-decay0.5-lambda0.25-norm_threshold0.3.res,0.386,0.800,0.550,
REFERENCES:SIMDATES:SIMLOC,0.25,0.5,0,7,10971,2938.6,1335,22books/output-log-DOC/query1-runREFERENCES:SIMDATES:SIMLOC/iterQ1-decay0.5-lambda0.25-norm_threshold0.res,0.382,0.800,0.550,
REFERENCES:SIMDATES:SIMLOC,0.5,0.5,0.1,9,10969,2747.4,1499,22books/output-log-DOC/query1-runREFERENCES:SIMDATES:SIMLOC/iterQ1-decay0.5-lambda0.5-norm_threshold0.1.res,0.416,0.800,0.600,
REFERENCES:SIMDATES:SIMLOC,0.5,0.5,0.2,10,10967,2704.9,1442,22books/output-log-DOC/query1-runREFERENCES:SIMDATES:SIMLOC/iterQ1-decay0.5-lambda0.5-norm_threshold0.2.res,0.389,0.800,0.550,
REFERENCES:SIMDATES:SIMLOC,0.5,0.5,0.3,11,10965,2644.6,1522,22books/output-log-DOC/query1-runREFERENCES:SIMDATES:SIMLOC/iterQ1-decay0.5-lambda0.5-norm_threshold0.3.res,0.387,0.800,0.550,
REFERENCES:SIMDATES:SIMLOC,0.5,0.5,0,9,10971,2857.0,1415,22books/output-log-DOC/query1-runREFERENCES:SIMDATES:SIMLOC/iterQ1-decay0.5-lambda0.5-norm_threshold0.res,0.391,0.800,0.550,
REFERENCES:SIMDATES:SIMLOC,0.75,0.5,0.1,14,10969,2492.2,1635,22books/output-log-DOC/query1-runREFERENCES:SIMDATES:SIMLOC/iterQ1-decay0.5-lambda0.75-norm_threshold0.1.res,0.421,0.800,0.600,
REFERENCES:SIMDATES:SIMLOC,0.75,0.5,0.2,15,10966,2416.4,1615,22books/output-log-DOC/query1-runREFERENCES:SIMDATES:SIMLOC/iterQ1-decay0.5-lambda0.75-norm_threshold0.2.res,0.397,0.800,0.550,
REFERENCES:SIMDATES:SIMLOC,0.75,0.5,0.3,15,10959,2211.8,1688,22books/output-log-DOC/query1-runREFERENCES:SIMDATES:SIMLOC/iterQ1-decay0.5-lambda0.75-norm_threshold0.3.res,0.397,0.800,0.550,
REFERENCES:SIMDATES:SIMLOC,0.75,0.5,0,13,10971,2551.8,1502,22books/output-log-DOC/query1-runREFERENCES:SIMDATES:SIMLOC/iterQ1-decay0.5-lambda0.75-norm_threshold0.res,0.425,0.800,0.600,

Sig-Test:,randomized,,threshold,set,to,0.050000
