###################################
# parameters: 
#   decay: 0.25
#   lambda: 0.5
#   norm_threshold: 0
#   relationships: REFERENCES:SIMLOC

###################################
# configuration: 
#   sa.act_diff_ratio_limit = 0.05
#   sa.function = ciir.multi.sa.DecayedSumSAFunction(norm_function, 0.25, 0.5)
#   sa.id_property_name.DATE = dateID
#   sa.id_property_name.DOCUMENT = docID
#   sa.id_property_name.LOCATION = locID
#   sa.max_pulses = 20
#   sa.norm_function = ciir.multi.sa.SigmoidFunction(0, 1.0)
#   sa.relationships_to_use = REFERENCES:SIMLOC
#   sa.weight_property.REFERENCES = relevance
#   sa.weight_property.SIMDATES = sim
#   sa.weight_property.SIMLOC = sim

###################################
# initial activations: 
#   historyofuniteds07good_239, 1
#   generalhistoryfo00myerrich_787, 1
#   shorthistoryofmo00haslrich_98, 1
#   lifeofstratfordc02laneuoft_185, 1
#   selwynhouseschoo1940selw_21, 1
#   cambridgemodern09protgoog_449, 1

###################################
# spreading activation process log: 
#   pulse 0: activated nodes: 6, borderline nodes: 6, overall activation: 0.000, activation diff: 0.000, ratio: Infinity
#   pulse 1: activated nodes: 69, borderline nodes: 63, overall activation: 19.865, activation diff: 19.865, ratio: 1.000
#   pulse 2: activated nodes: 5721, borderline nodes: 5652, overall activation: 781.372, activation diff: 761.507, ratio: 0.975
#   pulse 3: activated nodes: 9480, borderline nodes: 3759, overall activation: 1576.576, activation diff: 795.204, ratio: 0.504
#   pulse 4: activated nodes: 11369, borderline nodes: 1889, overall activation: 3008.141, activation diff: 1431.565, ratio: 0.476
#   pulse 5: activated nodes: 11448, borderline nodes: 79, overall activation: 4094.401, activation diff: 1086.260, ratio: 0.265
#   pulse 6: activated nodes: 11448, borderline nodes: 79, overall activation: 4800.397, activation diff: 705.996, ratio: 0.147
#   pulse 7: activated nodes: 11448, borderline nodes: 79, overall activation: 5227.030, activation diff: 426.632, ratio: 0.082
#   pulse 8: activated nodes: 11448, borderline nodes: 79, overall activation: 5475.822, activation diff: 248.793, ratio: 0.045

###################################
# spreading activation process summary: 
#   final number of activated nodes: 11448
#   final overall activation: 5475.8
#   number of spread. activ. pulses: 8
#   running time: 719

###################################
# top k results in TREC format: 

1   Q1   historyofuniteds07good_239   1   0.99608874   REFERENCES:SIMLOC
1   Q1   selwynhouseschoo1940selw_21   2   0.99583375   REFERENCES:SIMLOC
1   Q1   cambridgemodern09protgoog_449   3   0.995538   REFERENCES:SIMLOC
1   Q1   shorthistoryofmo00haslrich_98   4   0.99519545   REFERENCES:SIMLOC
1   Q1   generalhistoryfo00myerrich_787   5   0.99180114   REFERENCES:SIMLOC
1   Q1   lifeofstratfordc02laneuoft_185   6   0.98440707   REFERENCES:SIMLOC
1   Q1   englishcyclopae05kniggoog_147   7   0.7441068   REFERENCES:SIMLOC
1   Q1   encyclopediaame28unkngoog_327   8   0.74403894   REFERENCES:SIMLOC
1   Q1   encyclopediaame28unkngoog_325   9   0.74398804   REFERENCES:SIMLOC
1   Q1   europesincenapol00leveuoft_16   10   0.7439866   REFERENCES:SIMLOC
1   Q1   englishcyclopae05kniggoog_88   11   0.7438861   REFERENCES:SIMLOC
1   Q1   encyclopediaame28unkngoog_323   12   0.74380565   REFERENCES:SIMLOC
1   Q1   encyclopediaame28unkngoog_367   13   0.7437982   REFERENCES:SIMLOC
1   Q1   encyclopediaame28unkngoog_318   14   0.7437922   REFERENCES:SIMLOC
1   Q1   essentialsinmod01howegoog_474   15   0.7437537   REFERENCES:SIMLOC
1   Q1   europesincenapol00leveuoft_17   16   0.7437465   REFERENCES:SIMLOC
1   Q1   politicalsketche00retsrich_96   17   0.7437283   REFERENCES:SIMLOC
1   Q1   encyclopediaame28unkngoog_326   18   0.74372613   REFERENCES:SIMLOC
1   Q1   englishcyclopae05kniggoog_118   19   0.74371225   REFERENCES:SIMLOC
1   Q1   shorthistoryofmo00haslrich_23   20   0.7437073   REFERENCES:SIMLOC
