###################################
# parameters: 
#   date_th: 0.25
#   doc_th: 0.7
#   loc_th: 0.4
#   nodestouse: DOCUMENT:DATE:LOCATION
#   relationships: REFERENCES:SIMDATES:SIMPAGE

###################################
# configuration: 
#   sa.act_diff_ratio_limit = 0.01
#   sa.act_diff_ratio_limit_diff = 0.01
#   sa.function = ciir.multi.sa.function.MaxSAFunction(norm_function)
#   sa.id_property_name.DATE = dateID
#   sa.id_property_name.DOCUMENT = docID
#   sa.id_property_name.LOCATION = locID
#   sa.max_pulses = 10
#   sa.nodes_to_print = DATE:LOCATION
#   sa.nodes_to_use = DOCUMENT:DATE:LOCATION
#   sa.norm_function = ciir.multi.sa.SigmoidFunction(0.0, 1.0)
#   sa.relationships_to_use = REFERENCES:SIMDATES:SIMPAGE
#   sa.spread_threshold.DATE = 0.25
#   sa.spread_threshold.DOCUMENT = 0.7
#   sa.spread_threshold.LOCATION = 0.4
#   sa.weight_property.REFERENCES = relevance
#   sa.weight_property.SIMDATES = sim
#   sa.weight_property.SIMDOC = sim
#   sa.weight_property.SIMLOC = sim
#   sa.weight_property.SIMPAGE = pagesim

###################################
# initial activations (3): 
#   englandsfightwit00wals_354, 1
#   viceroysofirelan00omahuoft_97, 1
#   hallamsworks04halliala_600, 1

###################################
# spreading activation process log: 
#   pulse 0: activated: 3, non-zero: 3, borderline: 3, overall act: 3.000, act diff: 3.000, ratio: 1.000
#   pulse 1: activated: 15, non-zero: 15, borderline: 12, overall act: 8.458, act diff: 5.458, ratio: 0.645
#   pulse 2: activated: 1015991, non-zero: 1015991, borderline: 1015984, overall act: 141071.109, act diff: 141062.651, ratio: 1.000
#   pulse 3: activated: 1023477, non-zero: 1023477, borderline: 1023468, overall act: 141870.158, act diff: 799.049, ratio: 0.006

###################################
# spreading activation process summary: 
#   final number of activated nodes: 1023477
#   final overall activation: 141870.2
#   number of spread. activ. pulses: 3
#   running time: 133690

###################################
# top k results in TREC format: 

2   rel3-3   ireland   1   0.80031395   nodesDOCUMENT:DATE:LOCATION-edgesREFERENCES:SIMDATES:SIMPAGE-date_th0.25-doc_th0.7-loc_th0.4
2   rel3-3   1641   2   0.67290056   nodesDOCUMENT:DATE:LOCATION-edgesREFERENCES:SIMDATES:SIMPAGE-date_th0.25-doc_th0.7-loc_th0.4
2   rel3-3   england   3   0.45307326   nodesDOCUMENT:DATE:LOCATION-edgesREFERENCES:SIMDATES:SIMPAGE-date_th0.25-doc_th0.7-loc_th0.4
2   rel3-3   dublin   4   0.38038954   nodesDOCUMENT:DATE:LOCATION-edgesREFERENCES:SIMDATES:SIMPAGE-date_th0.25-doc_th0.7-loc_th0.4
2   rel3-3   1845   5   0.30540052   nodesDOCUMENT:DATE:LOCATION-edgesREFERENCES:SIMDATES:SIMPAGE-date_th0.25-doc_th0.7-loc_th0.4
2   rel3-3   1640   6   0.2505602   nodesDOCUMENT:DATE:LOCATION-edgesREFERENCES:SIMDATES:SIMPAGE-date_th0.25-doc_th0.7-loc_th0.4
2   rel3-3   1642   7   0.2505602   nodesDOCUMENT:DATE:LOCATION-edgesREFERENCES:SIMDATES:SIMPAGE-date_th0.25-doc_th0.7-loc_th0.4
2   rel3-3   strafford   8   0.23413575   nodesDOCUMENT:DATE:LOCATION-edgesREFERENCES:SIMDATES:SIMPAGE-date_th0.25-doc_th0.7-loc_th0.4
2   rel3-3   1846   9   0.15152436   nodesDOCUMENT:DATE:LOCATION-edgesREFERENCES:SIMDATES:SIMPAGE-date_th0.25-doc_th0.7-loc_th0.4
2   rel3-3   1844   10   0.15152436   nodesDOCUMENT:DATE:LOCATION-edgesREFERENCES:SIMDATES:SIMPAGE-date_th0.25-doc_th0.7-loc_th0.4
2   rel3-3   1643   11   0.12462876   nodesDOCUMENT:DATE:LOCATION-edgesREFERENCES:SIMDATES:SIMPAGE-date_th0.25-doc_th0.7-loc_th0.4
2   rel3-3   1639   12   0.12462876   nodesDOCUMENT:DATE:LOCATION-edgesREFERENCES:SIMDATES:SIMPAGE-date_th0.25-doc_th0.7-loc_th0.4

###################################
# top nodes: 

# 2   rel3-3   viceroysofirelan00omahuoft_97   1   1.0   nodesDOCUMENT:DATE:LOCATION-edgesREFERENCES:SIMDATES:SIMPAGE-date_th0.25-doc_th0.7-loc_th0.4
# 2   rel3-3   hallamsworks04halliala_600   2   1.0   nodesDOCUMENT:DATE:LOCATION-edgesREFERENCES:SIMDATES:SIMPAGE-date_th0.25-doc_th0.7-loc_th0.4
# 2   rel3-3   englandsfightwit00wals_354   3   1.0   nodesDOCUMENT:DATE:LOCATION-edgesREFERENCES:SIMDATES:SIMPAGE-date_th0.25-doc_th0.7-loc_th0.4
# 2   rel3-3   ireland   4   0.80031395   nodesDOCUMENT:DATE:LOCATION-edgesREFERENCES:SIMDATES:SIMPAGE-date_th0.25-doc_th0.7-loc_th0.4
# 2   rel3-3   hallamsworks04halliala_601   5   0.69860685   nodesDOCUMENT:DATE:LOCATION-edgesREFERENCES:SIMDATES:SIMPAGE-date_th0.25-doc_th0.7-loc_th0.4
# 2   rel3-3   viceroysofirelan00omahuoft_96   6   0.682079   nodesDOCUMENT:DATE:LOCATION-edgesREFERENCES:SIMDATES:SIMPAGE-date_th0.25-doc_th0.7-loc_th0.4
# 2   rel3-3   englandsfightwit00wals_355   7   0.6776363   nodesDOCUMENT:DATE:LOCATION-edgesREFERENCES:SIMDATES:SIMPAGE-date_th0.25-doc_th0.7-loc_th0.4
# 2   rel3-3   1641   8   0.67290056   nodesDOCUMENT:DATE:LOCATION-edgesREFERENCES:SIMDATES:SIMPAGE-date_th0.25-doc_th0.7-loc_th0.4
# 2   rel3-3   causeofirelandpl00orei_315   9   0.6241031   nodesDOCUMENT:DATE:LOCATION-edgesREFERENCES:SIMDATES:SIMPAGE-date_th0.25-doc_th0.7-loc_th0.4
# 2   rel3-3   hallamsworks04halliala_599   10   0.6205621   nodesDOCUMENT:DATE:LOCATION-edgesREFERENCES:SIMDATES:SIMPAGE-date_th0.25-doc_th0.7-loc_th0.4
# 2   rel3-3   calendarstatepa00levagoog_361   11   0.62015265   nodesDOCUMENT:DATE:LOCATION-edgesREFERENCES:SIMDATES:SIMPAGE-date_th0.25-doc_th0.7-loc_th0.4
# 2   rel3-3   constitutionalhi03hall_415   12   0.6172136   nodesDOCUMENT:DATE:LOCATION-edgesREFERENCES:SIMDATES:SIMPAGE-date_th0.25-doc_th0.7-loc_th0.4
# 2   rel3-3   historyirishper01maddgoog_67   13   0.61489016   nodesDOCUMENT:DATE:LOCATION-edgesREFERENCES:SIMDATES:SIMPAGE-date_th0.25-doc_th0.7-loc_th0.4
# 2   rel3-3   causeofirelandpl00orei_431   14   0.61383706   nodesDOCUMENT:DATE:LOCATION-edgesREFERENCES:SIMDATES:SIMPAGE-date_th0.25-doc_th0.7-loc_th0.4
# 2   rel3-3   selectspeecheswi00cannuoft_358   15   0.6137229   nodesDOCUMENT:DATE:LOCATION-edgesREFERENCES:SIMDATES:SIMPAGE-date_th0.25-doc_th0.7-loc_th0.4
# 2   rel3-3   completehistoryo0306kenn_434   16   0.61180645   nodesDOCUMENT:DATE:LOCATION-edgesREFERENCES:SIMDATES:SIMPAGE-date_th0.25-doc_th0.7-loc_th0.4
# 2   rel3-3   cu31924091770861_898   17   0.61069614   nodesDOCUMENT:DATE:LOCATION-edgesREFERENCES:SIMDATES:SIMPAGE-date_th0.25-doc_th0.7-loc_th0.4
# 2   rel3-3   causeofirelandpl00orei_249   18   0.60823846   nodesDOCUMENT:DATE:LOCATION-edgesREFERENCES:SIMDATES:SIMPAGE-date_th0.25-doc_th0.7-loc_th0.4
# 2   rel3-3   politicalstudies00broduoft_382   19   0.60815203   nodesDOCUMENT:DATE:LOCATION-edgesREFERENCES:SIMDATES:SIMPAGE-date_th0.25-doc_th0.7-loc_th0.4
# 2   rel3-3   historyirishper01maddgoog_229   20   0.6072254   nodesDOCUMENT:DATE:LOCATION-edgesREFERENCES:SIMDATES:SIMPAGE-date_th0.25-doc_th0.7-loc_th0.4
# 2   rel3-3   calendarstatepa12offigoog_21   21   0.6067627   nodesDOCUMENT:DATE:LOCATION-edgesREFERENCES:SIMDATES:SIMPAGE-date_th0.25-doc_th0.7-loc_th0.4
# 2   rel3-3   historyirelanda00smilgoog_120   22   0.60632265   nodesDOCUMENT:DATE:LOCATION-edgesREFERENCES:SIMDATES:SIMPAGE-date_th0.25-doc_th0.7-loc_th0.4
# 2   rel3-3   studentshistoryo03garduoft_42   23   0.60477144   nodesDOCUMENT:DATE:LOCATION-edgesREFERENCES:SIMDATES:SIMPAGE-date_th0.25-doc_th0.7-loc_th0.4
# 2   rel3-3   harleianmiscell00oldygoog_332   24   0.6039614   nodesDOCUMENT:DATE:LOCATION-edgesREFERENCES:SIMDATES:SIMPAGE-date_th0.25-doc_th0.7-loc_th0.4
# 2   rel3-3   dublinreview14londuoft_194   25   0.60325634   nodesDOCUMENT:DATE:LOCATION-edgesREFERENCES:SIMDATES:SIMPAGE-date_th0.25-doc_th0.7-loc_th0.4
# 2   rel3-3   irelandsaintpatr00morriala_201   26   0.60325634   nodesDOCUMENT:DATE:LOCATION-edgesREFERENCES:SIMDATES:SIMPAGE-date_th0.25-doc_th0.7-loc_th0.4
# 2   rel3-3   pt3historyofirel00wriguoft_306   27   0.60325634   nodesDOCUMENT:DATE:LOCATION-edgesREFERENCES:SIMDATES:SIMPAGE-date_th0.25-doc_th0.7-loc_th0.4
# 2   rel3-3   politicalstudies00broduoft_351   28   0.6016643   nodesDOCUMENT:DATE:LOCATION-edgesREFERENCES:SIMDATES:SIMPAGE-date_th0.25-doc_th0.7-loc_th0.4
# 2   rel3-3   worksrighthonor37burkgoog_439   29   0.5956615   nodesDOCUMENT:DATE:LOCATION-edgesREFERENCES:SIMDATES:SIMPAGE-date_th0.25-doc_th0.7-loc_th0.4
# 2   rel3-3   hallamsworks04halliala_612   30   0.5956615   nodesDOCUMENT:DATE:LOCATION-edgesREFERENCES:SIMDATES:SIMPAGE-date_th0.25-doc_th0.7-loc_th0.4
# 2   rel3-3   fairfaxcorrespon01johniala_870   31   0.5956615   nodesDOCUMENT:DATE:LOCATION-edgesREFERENCES:SIMDATES:SIMPAGE-date_th0.25-doc_th0.7-loc_th0.4
# 2   rel3-3   historyirelanda00smilgoog_312   32   0.5956615   nodesDOCUMENT:DATE:LOCATION-edgesREFERENCES:SIMDATES:SIMPAGE-date_th0.25-doc_th0.7-loc_th0.4
# 2   rel3-3   methodistmagazin1834meth_610   33   0.5956615   nodesDOCUMENT:DATE:LOCATION-edgesREFERENCES:SIMDATES:SIMPAGE-date_th0.25-doc_th0.7-loc_th0.4
# 2   rel3-3   publications13irisuoft_16   34   0.5900143   nodesDOCUMENT:DATE:LOCATION-edgesREFERENCES:SIMDATES:SIMPAGE-date_th0.25-doc_th0.7-loc_th0.4
# 2   rel3-3   thomasharrisonr00wessgoog_83   35   0.5846675   nodesDOCUMENT:DATE:LOCATION-edgesREFERENCES:SIMDATES:SIMPAGE-date_th0.25-doc_th0.7-loc_th0.4
# 2   rel3-3   calendarstatepa12offigoog_373   36   0.58458275   nodesDOCUMENT:DATE:LOCATION-edgesREFERENCES:SIMDATES:SIMPAGE-date_th0.25-doc_th0.7-loc_th0.4
# 2   rel3-3   fairfaxcorrespon01johniala_705   37   0.5843118   nodesDOCUMENT:DATE:LOCATION-edgesREFERENCES:SIMDATES:SIMPAGE-date_th0.25-doc_th0.7-loc_th0.4
# 2   rel3-3   politicalstudies00broduoft_380   38   0.5843118   nodesDOCUMENT:DATE:LOCATION-edgesREFERENCES:SIMDATES:SIMPAGE-date_th0.25-doc_th0.7-loc_th0.4
# 2   rel3-3   collinsspeerageof07coll_161   39   0.5843117   nodesDOCUMENT:DATE:LOCATION-edgesREFERENCES:SIMDATES:SIMPAGE-date_th0.25-doc_th0.7-loc_th0.4
# 2   rel3-3   historyforreadyr03larnuoft_235   40   0.58422774   nodesDOCUMENT:DATE:LOCATION-edgesREFERENCES:SIMDATES:SIMPAGE-date_th0.25-doc_th0.7-loc_th0.4
