###################################
# parameters: 
#   date_th: 0.3
#   doc_th: 0.7
#   loc_th: 0.4
#   nodestouse: DOCUMENT:DATE:LOCATION
#   relationships: REFERENCES:SIMDATES:SIMPAGE

###################################
# configuration: 
#   sa.act_diff_ratio_limit = 0.01
#   sa.act_diff_ratio_limit_diff = 0.01
#   sa.function = ciir.multi.sa.function.MaxSAFunction(norm_function)
#   sa.id_property_name.DATE = dateID
#   sa.id_property_name.DOCUMENT = docID
#   sa.id_property_name.LOCATION = locID
#   sa.max_pulses = 10
#   sa.nodes_to_print = DATE:LOCATION
#   sa.nodes_to_use = DOCUMENT:DATE:LOCATION
#   sa.norm_function = ciir.multi.sa.SigmoidFunction(0.0, 1.0)
#   sa.relationships_to_use = REFERENCES:SIMDATES:SIMPAGE
#   sa.spread_threshold.DATE = 0.3
#   sa.spread_threshold.DOCUMENT = 0.7
#   sa.spread_threshold.LOCATION = 0.4
#   sa.weight_property.REFERENCES = relevance
#   sa.weight_property.SIMDATES = sim
#   sa.weight_property.SIMDOC = sim
#   sa.weight_property.SIMLOC = sim
#   sa.weight_property.SIMPAGE = pagesim

###################################
# initial activations (3): 
#   cu31924029563875_157, 1
#   viceroysofirelan00omahuoft_97, 1
#   hallamsworks04halliala_600, 1

###################################
# spreading activation process log: 
#   pulse 0: activated: 3, non-zero: 3, borderline: 3, overall act: 3.000, act diff: 3.000, ratio: 1.000
#   pulse 1: activated: 28, non-zero: 28, borderline: 25, overall act: 10.441, act diff: 7.441, ratio: 0.713
#   pulse 2: activated: 1052104, non-zero: 1052104, borderline: 1052096, overall act: 144368.302, act diff: 144357.861, ratio: 1.000
#   pulse 3: activated: 1052107, non-zero: 1052107, borderline: 1052097, overall act: 144370.156, act diff: 1.854, ratio: 0.000

###################################
# spreading activation process summary: 
#   final number of activated nodes: 1052107
#   final overall activation: 144370.2
#   number of spread. activ. pulses: 3
#   running time: 128964

###################################
# top k results in TREC format: 

2   rel3-4   ireland   1   0.8778098   nodesDOCUMENT:DATE:LOCATION-edgesREFERENCES:SIMDATES:SIMPAGE-date_th0.3-doc_th0.7-loc_th0.4
2   rel3-4   dublin   2   0.6784547   nodesDOCUMENT:DATE:LOCATION-edgesREFERENCES:SIMDATES:SIMPAGE-date_th0.3-doc_th0.7-loc_th0.4
2   rel3-4   england   3   0.6300187   nodesDOCUMENT:DATE:LOCATION-edgesREFERENCES:SIMDATES:SIMPAGE-date_th0.3-doc_th0.7-loc_th0.4
2   rel3-4   strafford   4   0.45536432   nodesDOCUMENT:DATE:LOCATION-edgesREFERENCES:SIMDATES:SIMPAGE-date_th0.3-doc_th0.7-loc_th0.4
2   rel3-4   1641   5   0.44794905   nodesDOCUMENT:DATE:LOCATION-edgesREFERENCES:SIMDATES:SIMPAGE-date_th0.3-doc_th0.7-loc_th0.4
2   rel3-4   london   6   0.36032423   nodesDOCUMENT:DATE:LOCATION-edgesREFERENCES:SIMDATES:SIMPAGE-date_th0.3-doc_th0.7-loc_th0.4
2   rel3-4   1845   7   0.30540052   nodesDOCUMENT:DATE:LOCATION-edgesREFERENCES:SIMDATES:SIMPAGE-date_th0.3-doc_th0.7-loc_th0.4
2   rel3-4   1632   8   0.22286397   nodesDOCUMENT:DATE:LOCATION-edgesREFERENCES:SIMDATES:SIMPAGE-date_th0.3-doc_th0.7-loc_th0.4
2   rel3-4   1629   9   0.22286397   nodesDOCUMENT:DATE:LOCATION-edgesREFERENCES:SIMDATES:SIMPAGE-date_th0.3-doc_th0.7-loc_th0.4
2   rel3-4   1640   10   0.22030298   nodesDOCUMENT:DATE:LOCATION-edgesREFERENCES:SIMDATES:SIMPAGE-date_th0.3-doc_th0.7-loc_th0.4
2   rel3-4   1642   11   0.22030298   nodesDOCUMENT:DATE:LOCATION-edgesREFERENCES:SIMDATES:SIMPAGE-date_th0.3-doc_th0.7-loc_th0.4
2   rel3-4   1701   12   0.16514042   nodesDOCUMENT:DATE:LOCATION-edgesREFERENCES:SIMDATES:SIMPAGE-date_th0.3-doc_th0.7-loc_th0.4
2   rel3-4   1690   13   0.16514042   nodesDOCUMENT:DATE:LOCATION-edgesREFERENCES:SIMDATES:SIMPAGE-date_th0.3-doc_th0.7-loc_th0.4
2   rel3-4   1689   14   0.16514042   nodesDOCUMENT:DATE:LOCATION-edgesREFERENCES:SIMDATES:SIMPAGE-date_th0.3-doc_th0.7-loc_th0.4
2   rel3-4   1651   15   0.16514042   nodesDOCUMENT:DATE:LOCATION-edgesREFERENCES:SIMDATES:SIMPAGE-date_th0.3-doc_th0.7-loc_th0.4
2   rel3-4   1699   16   0.16514042   nodesDOCUMENT:DATE:LOCATION-edgesREFERENCES:SIMDATES:SIMPAGE-date_th0.3-doc_th0.7-loc_th0.4
2   rel3-4   1643   17   0.16514042   nodesDOCUMENT:DATE:LOCATION-edgesREFERENCES:SIMDATES:SIMPAGE-date_th0.3-doc_th0.7-loc_th0.4
2   rel3-4   1846   18   0.15152436   nodesDOCUMENT:DATE:LOCATION-edgesREFERENCES:SIMDATES:SIMPAGE-date_th0.3-doc_th0.7-loc_th0.4
2   rel3-4   1844   19   0.15152436   nodesDOCUMENT:DATE:LOCATION-edgesREFERENCES:SIMDATES:SIMPAGE-date_th0.3-doc_th0.7-loc_th0.4
2   rel3-4   essex   20   0.11341583   nodesDOCUMENT:DATE:LOCATION-edgesREFERENCES:SIMDATES:SIMPAGE-date_th0.3-doc_th0.7-loc_th0.4

###################################
# top nodes: 

# 2   rel3-4   viceroysofirelan00omahuoft_97   1   1.0   nodesDOCUMENT:DATE:LOCATION-edgesREFERENCES:SIMDATES:SIMPAGE-date_th0.3-doc_th0.7-loc_th0.4
# 2   rel3-4   hallamsworks04halliala_600   2   1.0   nodesDOCUMENT:DATE:LOCATION-edgesREFERENCES:SIMDATES:SIMPAGE-date_th0.3-doc_th0.7-loc_th0.4
# 2   rel3-4   cu31924029563875_157   3   1.0   nodesDOCUMENT:DATE:LOCATION-edgesREFERENCES:SIMDATES:SIMPAGE-date_th0.3-doc_th0.7-loc_th0.4
# 2   rel3-4   ireland   4   0.8778098   nodesDOCUMENT:DATE:LOCATION-edgesREFERENCES:SIMDATES:SIMPAGE-date_th0.3-doc_th0.7-loc_th0.4
# 2   rel3-4   hallamsworks04halliala_601   5   0.7221464   nodesDOCUMENT:DATE:LOCATION-edgesREFERENCES:SIMDATES:SIMPAGE-date_th0.3-doc_th0.7-loc_th0.4
# 2   rel3-4   viceroysofirelan00omahuoft_96   6   0.71851975   nodesDOCUMENT:DATE:LOCATION-edgesREFERENCES:SIMDATES:SIMPAGE-date_th0.3-doc_th0.7-loc_th0.4
# 2   rel3-4   dublin   7   0.6784547   nodesDOCUMENT:DATE:LOCATION-edgesREFERENCES:SIMDATES:SIMPAGE-date_th0.3-doc_th0.7-loc_th0.4
# 2   rel3-4   hallamsworks04halliala_599   8   0.65944695   nodesDOCUMENT:DATE:LOCATION-edgesREFERENCES:SIMDATES:SIMPAGE-date_th0.3-doc_th0.7-loc_th0.4
# 2   rel3-4   england   9   0.6300187   nodesDOCUMENT:DATE:LOCATION-edgesREFERENCES:SIMDATES:SIMPAGE-date_th0.3-doc_th0.7-loc_th0.4
# 2   rel3-4   hallamsworks04halliala_602   10   0.6146017   nodesDOCUMENT:DATE:LOCATION-edgesREFERENCES:SIMDATES:SIMPAGE-date_th0.3-doc_th0.7-loc_th0.4
# 2   rel3-4   studentshistoryo03garduoft_42   11   0.6013532   nodesDOCUMENT:DATE:LOCATION-edgesREFERENCES:SIMDATES:SIMPAGE-date_th0.3-doc_th0.7-loc_th0.4
# 2   rel3-4   harleianmiscell00oldygoog_332   12   0.5960795   nodesDOCUMENT:DATE:LOCATION-edgesREFERENCES:SIMDATES:SIMPAGE-date_th0.3-doc_th0.7-loc_th0.4
# 2   rel3-4   causeofirelandpl00orei_24   13   0.5889065   nodesDOCUMENT:DATE:LOCATION-edgesREFERENCES:SIMDATES:SIMPAGE-date_th0.3-doc_th0.7-loc_th0.4
# 2   rel3-4   thomasharrisonr00wessgoog_83   14   0.5870921   nodesDOCUMENT:DATE:LOCATION-edgesREFERENCES:SIMDATES:SIMPAGE-date_th0.3-doc_th0.7-loc_th0.4
# 2   rel3-4   redeemerstearsw00urwigoog_21   15   0.58627963   nodesDOCUMENT:DATE:LOCATION-edgesREFERENCES:SIMDATES:SIMPAGE-date_th0.3-doc_th0.7-loc_th0.4
# 2   rel3-4   strangerinirelan00carr_91   16   0.5800713   nodesDOCUMENT:DATE:LOCATION-edgesREFERENCES:SIMDATES:SIMPAGE-date_th0.3-doc_th0.7-loc_th0.4
# 2   rel3-4   causeofirelandpl00orei_315   17   0.5771714   nodesDOCUMENT:DATE:LOCATION-edgesREFERENCES:SIMDATES:SIMPAGE-date_th0.3-doc_th0.7-loc_th0.4
# 2   rel3-4   calendarstatepa00levagoog_361   18   0.5751702   nodesDOCUMENT:DATE:LOCATION-edgesREFERENCES:SIMDATES:SIMPAGE-date_th0.3-doc_th0.7-loc_th0.4
# 2   rel3-4   historyirelanda00smilgoog_172   19   0.5741105   nodesDOCUMENT:DATE:LOCATION-edgesREFERENCES:SIMDATES:SIMPAGE-date_th0.3-doc_th0.7-loc_th0.4
# 2   rel3-4   causeofirelandpl00orei_431   20   0.57091826   nodesDOCUMENT:DATE:LOCATION-edgesREFERENCES:SIMDATES:SIMPAGE-date_th0.3-doc_th0.7-loc_th0.4
# 2   rel3-4   historyirishper01maddgoog_67   21   0.5707552   nodesDOCUMENT:DATE:LOCATION-edgesREFERENCES:SIMDATES:SIMPAGE-date_th0.3-doc_th0.7-loc_th0.4
# 2   rel3-4   constitutionalhi03hall_415   22   0.57052505   nodesDOCUMENT:DATE:LOCATION-edgesREFERENCES:SIMDATES:SIMPAGE-date_th0.3-doc_th0.7-loc_th0.4
# 2   rel3-4   selectspeecheswi00cannuoft_358   23   0.5678152   nodesDOCUMENT:DATE:LOCATION-edgesREFERENCES:SIMDATES:SIMPAGE-date_th0.3-doc_th0.7-loc_th0.4
# 2   rel3-4   irelandsfightfor1919cree_101   24   0.5672616   nodesDOCUMENT:DATE:LOCATION-edgesREFERENCES:SIMDATES:SIMPAGE-date_th0.3-doc_th0.7-loc_th0.4
# 2   rel3-4   completehistoryo0306kenn_434   25   0.56657606   nodesDOCUMENT:DATE:LOCATION-edgesREFERENCES:SIMDATES:SIMPAGE-date_th0.3-doc_th0.7-loc_th0.4
# 2   rel3-4   historyengland00macagoog_517   26   0.5662921   nodesDOCUMENT:DATE:LOCATION-edgesREFERENCES:SIMDATES:SIMPAGE-date_th0.3-doc_th0.7-loc_th0.4
# 2   rel3-4   cu31924027975733_414   27   0.5662921   nodesDOCUMENT:DATE:LOCATION-edgesREFERENCES:SIMDATES:SIMPAGE-date_th0.3-doc_th0.7-loc_th0.4
# 2   rel3-4   cu31924091770861_873   28   0.5660654   nodesDOCUMENT:DATE:LOCATION-edgesREFERENCES:SIMDATES:SIMPAGE-date_th0.3-doc_th0.7-loc_th0.4
# 2   rel3-4   viceroysofirelan00omahuoft_95   29   0.5646014   nodesDOCUMENT:DATE:LOCATION-edgesREFERENCES:SIMDATES:SIMPAGE-date_th0.3-doc_th0.7-loc_th0.4
# 2   rel3-4   politicalstudies00broduoft_385   30   0.5639206   nodesDOCUMENT:DATE:LOCATION-edgesREFERENCES:SIMDATES:SIMPAGE-date_th0.3-doc_th0.7-loc_th0.4
# 2   rel3-4   historyirishper01maddgoog_229   31   0.5624587   nodesDOCUMENT:DATE:LOCATION-edgesREFERENCES:SIMDATES:SIMPAGE-date_th0.3-doc_th0.7-loc_th0.4
# 2   rel3-4   calendarstatepa12offigoog_21   32   0.5618158   nodesDOCUMENT:DATE:LOCATION-edgesREFERENCES:SIMDATES:SIMPAGE-date_th0.3-doc_th0.7-loc_th0.4
# 2   rel3-4   viceroyspostbag02macdgoog_266   33   0.5610784   nodesDOCUMENT:DATE:LOCATION-edgesREFERENCES:SIMDATES:SIMPAGE-date_th0.3-doc_th0.7-loc_th0.4
# 2   rel3-4   compendiumofhist02lawl_189   34   0.5605369   nodesDOCUMENT:DATE:LOCATION-edgesREFERENCES:SIMDATES:SIMPAGE-date_th0.3-doc_th0.7-loc_th0.4
# 2   rel3-4   irelandonehundre00walsrich_38   35   0.5605369   nodesDOCUMENT:DATE:LOCATION-edgesREFERENCES:SIMDATES:SIMPAGE-date_th0.3-doc_th0.7-loc_th0.4
# 2   rel3-4   landwarinireland00godk_205   36   0.5605369   nodesDOCUMENT:DATE:LOCATION-edgesREFERENCES:SIMDATES:SIMPAGE-date_th0.3-doc_th0.7-loc_th0.4
# 2   rel3-4   commercialrestra00hely_255   37   0.5605369   nodesDOCUMENT:DATE:LOCATION-edgesREFERENCES:SIMDATES:SIMPAGE-date_th0.3-doc_th0.7-loc_th0.4
# 2   rel3-4   causeofirelandpl00orei_249   38   0.55935603   nodesDOCUMENT:DATE:LOCATION-edgesREFERENCES:SIMDATES:SIMPAGE-date_th0.3-doc_th0.7-loc_th0.4
# 2   rel3-4   historyofbritish00colluoft_221   39   0.55848306   nodesDOCUMENT:DATE:LOCATION-edgesREFERENCES:SIMDATES:SIMPAGE-date_th0.3-doc_th0.7-loc_th0.4
# 2   rel3-4   politicalstudies00broduoft_382   40   0.5582852   nodesDOCUMENT:DATE:LOCATION-edgesREFERENCES:SIMDATES:SIMPAGE-date_th0.3-doc_th0.7-loc_th0.4
