coursescat1972747678univ_208
coursescat1972747678univ_644
coursescat1972747678univ_1101
generalcatalog0506bran_337
generalcatalog0506bran_219
coursescat1972747678univ_643
graduateschoolof9192bran_51
encyclopediaame28unkngoog_326
coursescat1972747678univ_1102
youngmidshipman00morrgoog_88
cataloguebooksi00unkngoog_543
coursescat1972747678univ_207
ouroldworldbackg00bearrich_13
generalcatalog9900bran_164
generalcatalog0506bran_218
generalhistoryfo00myerrich_787
historyofuniteds07good_239
selwynhouseschoo1940selw_21
bostoncollegebul0405bost_132
shorthistoryofmo00haslrich_98
lifeofstratfordc02laneuoft_185
catalogue19811982bowd_168
englishcyclopae05kniggoog_40
universityncccat20052007_228
politicalsketche00retsrich_92
millsapscollegec1996mill_75
generalcatalog9900bran_272
generalcatalog9900bran_273
essentialsinmod01howegoog_452
neweasterneurop00butlgoog_162
cambridgemodern09protgoog_449
europesincenapol00leveuoft_193
frenchschoolsth02instgoog_149
catalogueofathe461913univ_51
catalogue190809geor_115
essentialsinmod01howegoog_259
essentialsinmod01howegoog_143
miningcampsstudy00shin_121
coursescat1972747678univ_210
timetable1974752univ_231
coursescat1972747678univ_646
cu31924030898922_52
encyclopediaame28unkngoog_321
generalcatalog0506bran_217
bookman44unkngoog_855
lifeofstratfordc02laneuoft_191
englishcyclopae05kniggoog_41
bostoncollegebul0405bost_129
youngmidshipman00morrgoog_87
essentialsinmod01howegoog_142
