###################################
# parameters: 
#   date_th: 0.4
#   doc_th: 0.8
#   loc_th: 0.4
#   relationships: REFERENCES:SIMDATES

###################################
# configuration: 
#   sa.act_diff_ratio_limit = 0.05
#   sa.function = ciir.multi.sa.MaxSAFunction(norm_function)
#   sa.id_property_name.DATE = dateID
#   sa.id_property_name.DOCUMENT = docID
#   sa.id_property_name.LOCATION = locID
#   sa.max_pulses = 20
#   sa.norm_function = ciir.multi.sa.SigmoidFunction(0.0, 1.0)
#   sa.progress_prefix = 
#   sa.relationships_to_use = REFERENCES:SIMDATES
#   sa.spread_threshold.DATE = 0.4
#   sa.spread_threshold.DOCUMENT = 0.8
#   sa.spread_threshold.LOCATION = 0.4
#   sa.weight_property.REFERENCES = relevance
#   sa.weight_property.SIMDATES = sim
#   sa.weight_property.SIMDOC = sim
#   sa.weight_property.SIMLOC = sim

###################################
# initial activations (1): 
#   generalhistoryfo00myerrich_787, 1

###################################
# spreading activation process log: 
#   pulse 0: activated: 1, non-zero: 1, borderline: 1, overall act: 1.000, act diff: 1.000, ratio: 1.000
#   pulse 1: activated: 8, non-zero: 8, borderline: 7, overall act: 4.235, act diff: 3.235, ratio: 0.764
#   pulse 2: activated: 2736, non-zero: 2736, borderline: 2728, overall act: 904.333, act diff: 900.098, ratio: 0.995
#   pulse 3: activated: 2887, non-zero: 2887, borderline: 2864, overall act: 985.887, act diff: 81.554, ratio: 0.083
#   pulse 4: activated: 5718, non-zero: 5718, borderline: 5624, overall act: 4064.354, act diff: 3078.466, ratio: 0.757
#   pulse 5: activated: 8221, non-zero: 8221, borderline: 5621, overall act: 5953.627, act diff: 1889.273, ratio: 0.317
#   pulse 6: activated: 10059, non-zero: 10059, borderline: 4875, overall act: 8450.892, act diff: 2497.265, ratio: 0.296
#   pulse 7: activated: 11037, non-zero: 11037, borderline: 2897, overall act: 9226.620, act diff: 775.728, ratio: 0.084
#   pulse 8: activated: 11090, non-zero: 11090, borderline: 1884, overall act: 9328.199, act diff: 101.578, ratio: 0.011

###################################
# spreading activation process summary: 
#   final number of activated nodes: 11090
#   final overall activation: 9328.2
#   number of spread. activ. pulses: 8
#   running time: 1259

###################################
# top k results in TREC format: 

1   rel1-1   historyofuniteds07good_349   1   1.0   REFERENCES:SIMDATES-date_th0.4-doc_th0.8-loc_th0.4
1   rel1-1   historyofuniteds07good_345   2   1.0   REFERENCES:SIMDATES-date_th0.4-doc_th0.8-loc_th0.4
1   rel1-1   historyofuniteds07good_347   3   1.0   REFERENCES:SIMDATES-date_th0.4-doc_th0.8-loc_th0.4
1   rel1-1   historyofuniteds07good_348   4   1.0   REFERENCES:SIMDATES-date_th0.4-doc_th0.8-loc_th0.4
1   rel1-1   bostoncollegebul0405bost_139   5   1.0   REFERENCES:SIMDATES-date_th0.4-doc_th0.8-loc_th0.4
1   rel1-1   bookman44unkngoog_929   6   1.0   REFERENCES:SIMDATES-date_th0.4-doc_th0.8-loc_th0.4
1   rel1-1   bostoncollegebul0405bost_140   7   1.0   REFERENCES:SIMDATES-date_th0.4-doc_th0.8-loc_th0.4
1   rel1-1   bostoncollegebul0405bost_111   8   1.0   REFERENCES:SIMDATES-date_th0.4-doc_th0.8-loc_th0.4
1   rel1-1   bostoncollegebul0405bost_5   9   1.0   REFERENCES:SIMDATES-date_th0.4-doc_th0.8-loc_th0.4
1   rel1-1   essentialsinmod01howegoog_473   10   1.0   REFERENCES:SIMDATES-date_th0.4-doc_th0.8-loc_th0.4
1   rel1-1   essentialsinmod01howegoog_470   11   1.0   REFERENCES:SIMDATES-date_th0.4-doc_th0.8-loc_th0.4
1   rel1-1   essentialsinmod01howegoog_471   12   1.0   REFERENCES:SIMDATES-date_th0.4-doc_th0.8-loc_th0.4
1   rel1-1   encyclopediaame28unkngoog_845   13   1.0   REFERENCES:SIMDATES-date_th0.4-doc_th0.8-loc_th0.4
1   rel1-1   essentialsinmod01howegoog_474   14   1.0   REFERENCES:SIMDATES-date_th0.4-doc_th0.8-loc_th0.4
1   rel1-1   encyclopediaame28unkngoog_822   15   1.0   REFERENCES:SIMDATES-date_th0.4-doc_th0.8-loc_th0.4
1   rel1-1   encyclopediaame28unkngoog_836   16   1.0   REFERENCES:SIMDATES-date_th0.4-doc_th0.8-loc_th0.4
1   rel1-1   encyclopediaame28unkngoog_839   17   1.0   REFERENCES:SIMDATES-date_th0.4-doc_th0.8-loc_th0.4
1   rel1-1   generalhistoryfo00myerrich_787   18   1.0   REFERENCES:SIMDATES-date_th0.4-doc_th0.8-loc_th0.4
1   rel1-1   bookman44unkngoog_930   19   1.0   REFERENCES:SIMDATES-date_th0.4-doc_th0.8-loc_th0.4
1   rel1-1   historyofuniteds07good_350   20   1.0   REFERENCES:SIMDATES-date_th0.4-doc_th0.8-loc_th0.4
