###################################
# parameters: 
#   date_th: 0.25
#   doc_th: 0.6
#   loc_th: 0.4
#   nodestouse: DOCUMENT:DATE:LOCATION
#   relationships: REFERENCES:SIMLOC:SIMPAGE

###################################
# configuration: 
#   sa.act_diff_ratio_limit = 0.01
#   sa.act_diff_ratio_limit_diff = 0.01
#   sa.function = ciir.multi.sa.function.MaxSAFunction(norm_function)
#   sa.id_property_name.DATE = dateID
#   sa.id_property_name.DOCUMENT = docID
#   sa.id_property_name.LOCATION = locID
#   sa.max_pulses = 10
#   sa.nodes_to_print = DATE:LOCATION
#   sa.nodes_to_use = DOCUMENT:DATE:LOCATION
#   sa.norm_function = ciir.multi.sa.SigmoidFunction(0.0, 1.0)
#   sa.relationships_to_use = REFERENCES:SIMLOC:SIMPAGE
#   sa.spread_threshold.DATE = 0.25
#   sa.spread_threshold.DOCUMENT = 0.6
#   sa.spread_threshold.LOCATION = 0.4
#   sa.weight_property.REFERENCES = relevance
#   sa.weight_property.SIMDATES = sim
#   sa.weight_property.SIMDOC = sim
#   sa.weight_property.SIMLOC = sim
#   sa.weight_property.SIMPAGE = pagesim

###################################
# initial activations (1): 
#   newannualarmylis1874hart_347, 1

###################################
# spreading activation process log: 
#   pulse 0: activated: 1, non-zero: 1, borderline: 1, overall act: 1.000, act diff: 1.000, ratio: 1.000
#   pulse 1: activated: 54, non-zero: 54, borderline: 53, overall act: 7.377, act diff: 6.377, ratio: 0.864
#   pulse 2: activated: 54, non-zero: 54, borderline: 53, overall act: 7.377, act diff: 0.000, ratio: 0.000

###################################
# spreading activation process summary: 
#   final number of activated nodes: 54
#   final overall activation: 7.4
#   number of spread. activ. pulses: 2
#   running time: 18853

###################################
# top k results in TREC format: 

1   rel1-6   sebastopol   1   0.24026829   nodesDOCUMENT:DATE:LOCATION-edgesREFERENCES:SIMLOC:SIMPAGE-date_th0.25-doc_th0.6-loc_th0.4
1   rel1-6   canton   2   0.22189257   nodesDOCUMENT:DATE:LOCATION-edgesREFERENCES:SIMLOC:SIMPAGE-date_th0.25-doc_th0.6-loc_th0.4
1   rel1-6   china   3   0.17283106   nodesDOCUMENT:DATE:LOCATION-edgesREFERENCES:SIMLOC:SIMPAGE-date_th0.25-doc_th0.6-loc_th0.4
1   rel1-6   crimea   4   0.17283106   nodesDOCUMENT:DATE:LOCATION-edgesREFERENCES:SIMLOC:SIMPAGE-date_th0.25-doc_th0.6-loc_th0.4
1   rel1-6   delhi   5   0.13747801   nodesDOCUMENT:DATE:LOCATION-edgesREFERENCES:SIMLOC:SIMPAGE-date_th0.25-doc_th0.6-loc_th0.4
1   rel1-6   lucknow   6   0.13747801   nodesDOCUMENT:DATE:LOCATION-edgesREFERENCES:SIMLOC:SIMPAGE-date_th0.25-doc_th0.6-loc_th0.4
1   rel1-6   heights   7   0.13747801   nodesDOCUMENT:DATE:LOCATION-edgesREFERENCES:SIMLOC:SIMPAGE-date_th0.25-doc_th0.6-loc_th0.4
1   rel1-6   india   8   0.13747801   nodesDOCUMENT:DATE:LOCATION-edgesREFERENCES:SIMLOC:SIMPAGE-date_th0.25-doc_th0.6-loc_th0.4
1   rel1-6   punjaub   9   0.13747801   nodesDOCUMENT:DATE:LOCATION-edgesREFERENCES:SIMLOC:SIMPAGE-date_th0.25-doc_th0.6-loc_th0.4
1   rel1-6   redan   10   0.08707067   nodesDOCUMENT:DATE:LOCATION-edgesREFERENCES:SIMLOC:SIMPAGE-date_th0.25-doc_th0.6-loc_th0.4
1   rel1-6   kohat pass   11   0.08707067   nodesDOCUMENT:DATE:LOCATION-edgesREFERENCES:SIMLOC:SIMPAGE-date_th0.25-doc_th0.6-loc_th0.4
1   rel1-6   aliwal   12   0.08707067   nodesDOCUMENT:DATE:LOCATION-edgesREFERENCES:SIMLOC:SIMPAGE-date_th0.25-doc_th0.6-loc_th0.4
1   rel1-6   camp   13   0.08707067   nodesDOCUMENT:DATE:LOCATION-edgesREFERENCES:SIMLOC:SIMPAGE-date_th0.25-doc_th0.6-loc_th0.4
1   rel1-6   canada   14   0.08707067   nodesDOCUMENT:DATE:LOCATION-edgesREFERENCES:SIMLOC:SIMPAGE-date_th0.25-doc_th0.6-loc_th0.4
1   rel1-6   parana   15   0.08707067   nodesDOCUMENT:DATE:LOCATION-edgesREFERENCES:SIMLOC:SIMPAGE-date_th0.25-doc_th0.6-loc_th0.4
1   rel1-6   new zealand   16   0.08707067   nodesDOCUMENT:DATE:LOCATION-edgesREFERENCES:SIMLOC:SIMPAGE-date_th0.25-doc_th0.6-loc_th0.4
1   rel1-6   north   17   0.08707067   nodesDOCUMENT:DATE:LOCATION-edgesREFERENCES:SIMLOC:SIMPAGE-date_th0.25-doc_th0.6-loc_th0.4
1   rel1-6   malabar   18   0.08707067   nodesDOCUMENT:DATE:LOCATION-edgesREFERENCES:SIMLOC:SIMPAGE-date_th0.25-doc_th0.6-loc_th0.4
1   rel1-6   matale   19   0.08707067   nodesDOCUMENT:DATE:LOCATION-edgesREFERENCES:SIMLOC:SIMPAGE-date_th0.25-doc_th0.6-loc_th0.4
1   rel1-6   ningbo   20   0.08707067   nodesDOCUMENT:DATE:LOCATION-edgesREFERENCES:SIMLOC:SIMPAGE-date_th0.25-doc_th0.6-loc_th0.4

###################################
# top nodes: 

# 1   rel1-6   newannualarmylis1874hart_347   1   1.0   nodesDOCUMENT:DATE:LOCATION-edgesREFERENCES:SIMLOC:SIMPAGE-date_th0.25-doc_th0.6-loc_th0.4
# 1   rel1-6   newannualarmylis1874hart_348   2   0.46211717   nodesDOCUMENT:DATE:LOCATION-edgesREFERENCES:SIMLOC:SIMPAGE-date_th0.25-doc_th0.6-loc_th0.4
# 1   rel1-6   newannualarmylis1874hart_346   3   0.46211717   nodesDOCUMENT:DATE:LOCATION-edgesREFERENCES:SIMLOC:SIMPAGE-date_th0.25-doc_th0.6-loc_th0.4
# 1   rel1-6   sebastopol   4   0.24026829   nodesDOCUMENT:DATE:LOCATION-edgesREFERENCES:SIMLOC:SIMPAGE-date_th0.25-doc_th0.6-loc_th0.4
# 1   rel1-6   canton   5   0.22189257   nodesDOCUMENT:DATE:LOCATION-edgesREFERENCES:SIMLOC:SIMPAGE-date_th0.25-doc_th0.6-loc_th0.4
# 1   rel1-6   china   6   0.17283106   nodesDOCUMENT:DATE:LOCATION-edgesREFERENCES:SIMLOC:SIMPAGE-date_th0.25-doc_th0.6-loc_th0.4
# 1   rel1-6   crimea   7   0.17283106   nodesDOCUMENT:DATE:LOCATION-edgesREFERENCES:SIMLOC:SIMPAGE-date_th0.25-doc_th0.6-loc_th0.4
# 1   rel1-6   heights   8   0.13747801   nodesDOCUMENT:DATE:LOCATION-edgesREFERENCES:SIMLOC:SIMPAGE-date_th0.25-doc_th0.6-loc_th0.4
# 1   rel1-6   lucknow   9   0.13747801   nodesDOCUMENT:DATE:LOCATION-edgesREFERENCES:SIMLOC:SIMPAGE-date_th0.25-doc_th0.6-loc_th0.4
# 1   rel1-6   delhi   10   0.13747801   nodesDOCUMENT:DATE:LOCATION-edgesREFERENCES:SIMLOC:SIMPAGE-date_th0.25-doc_th0.6-loc_th0.4
# 1   rel1-6   india   11   0.13747801   nodesDOCUMENT:DATE:LOCATION-edgesREFERENCES:SIMLOC:SIMPAGE-date_th0.25-doc_th0.6-loc_th0.4
# 1   rel1-6   punjaub   12   0.13747801   nodesDOCUMENT:DATE:LOCATION-edgesREFERENCES:SIMLOC:SIMPAGE-date_th0.25-doc_th0.6-loc_th0.4
# 1   rel1-6   1859   13   0.10476908   nodesDOCUMENT:DATE:LOCATION-edgesREFERENCES:SIMLOC:SIMPAGE-date_th0.25-doc_th0.6-loc_th0.4
# 1   rel1-6   1854   14   0.10476908   nodesDOCUMENT:DATE:LOCATION-edgesREFERENCES:SIMLOC:SIMPAGE-date_th0.25-doc_th0.6-loc_th0.4
# 1   rel1-6   1844   15   0.10476908   nodesDOCUMENT:DATE:LOCATION-edgesREFERENCES:SIMLOC:SIMPAGE-date_th0.25-doc_th0.6-loc_th0.4
# 1   rel1-6   1838   16   0.10476908   nodesDOCUMENT:DATE:LOCATION-edgesREFERENCES:SIMLOC:SIMPAGE-date_th0.25-doc_th0.6-loc_th0.4
# 1   rel1-6   1839   17   0.10476908   nodesDOCUMENT:DATE:LOCATION-edgesREFERENCES:SIMLOC:SIMPAGE-date_th0.25-doc_th0.6-loc_th0.4
# 1   rel1-6   1863   18   0.10476908   nodesDOCUMENT:DATE:LOCATION-edgesREFERENCES:SIMLOC:SIMPAGE-date_th0.25-doc_th0.6-loc_th0.4
# 1   rel1-6   1860   19   0.10476908   nodesDOCUMENT:DATE:LOCATION-edgesREFERENCES:SIMLOC:SIMPAGE-date_th0.25-doc_th0.6-loc_th0.4
# 1   rel1-6   1845   20   0.10476908   nodesDOCUMENT:DATE:LOCATION-edgesREFERENCES:SIMLOC:SIMPAGE-date_th0.25-doc_th0.6-loc_th0.4
# 1   rel1-6   1846   21   0.10476908   nodesDOCUMENT:DATE:LOCATION-edgesREFERENCES:SIMLOC:SIMPAGE-date_th0.25-doc_th0.6-loc_th0.4
# 1   rel1-6   1847   22   0.10476908   nodesDOCUMENT:DATE:LOCATION-edgesREFERENCES:SIMLOC:SIMPAGE-date_th0.25-doc_th0.6-loc_th0.4
# 1   rel1-6   1848   23   0.10476908   nodesDOCUMENT:DATE:LOCATION-edgesREFERENCES:SIMLOC:SIMPAGE-date_th0.25-doc_th0.6-loc_th0.4
# 1   rel1-6   1824   24   0.10476908   nodesDOCUMENT:DATE:LOCATION-edgesREFERENCES:SIMLOC:SIMPAGE-date_th0.25-doc_th0.6-loc_th0.4
# 1   rel1-6   1849   25   0.10476908   nodesDOCUMENT:DATE:LOCATION-edgesREFERENCES:SIMLOC:SIMPAGE-date_th0.25-doc_th0.6-loc_th0.4
# 1   rel1-6   1861   26   0.10476908   nodesDOCUMENT:DATE:LOCATION-edgesREFERENCES:SIMLOC:SIMPAGE-date_th0.25-doc_th0.6-loc_th0.4
# 1   rel1-6   1858   27   0.10476908   nodesDOCUMENT:DATE:LOCATION-edgesREFERENCES:SIMLOC:SIMPAGE-date_th0.25-doc_th0.6-loc_th0.4
# 1   rel1-6   1857   28   0.10476908   nodesDOCUMENT:DATE:LOCATION-edgesREFERENCES:SIMLOC:SIMPAGE-date_th0.25-doc_th0.6-loc_th0.4
# 1   rel1-6   1855   29   0.10476908   nodesDOCUMENT:DATE:LOCATION-edgesREFERENCES:SIMLOC:SIMPAGE-date_th0.25-doc_th0.6-loc_th0.4
# 1   rel1-6   murree   30   0.08707067   nodesDOCUMENT:DATE:LOCATION-edgesREFERENCES:SIMLOC:SIMPAGE-date_th0.25-doc_th0.6-loc_th0.4
# 1   rel1-6   pekin   31   0.08707067   nodesDOCUMENT:DATE:LOCATION-edgesREFERENCES:SIMLOC:SIMPAGE-date_th0.25-doc_th0.6-loc_th0.4
# 1   rel1-6   chusan   32   0.08707067   nodesDOCUMENT:DATE:LOCATION-edgesREFERENCES:SIMLOC:SIMPAGE-date_th0.25-doc_th0.6-loc_th0.4
# 1   rel1-6   bomarsund   33   0.08707067   nodesDOCUMENT:DATE:LOCATION-edgesREFERENCES:SIMLOC:SIMPAGE-date_th0.25-doc_th0.6-loc_th0.4
# 1   rel1-6   rat island   34   0.08707067   nodesDOCUMENT:DATE:LOCATION-edgesREFERENCES:SIMLOC:SIMPAGE-date_th0.25-doc_th0.6-loc_th0.4
# 1   rel1-6   gulf of finland   35   0.08707067   nodesDOCUMENT:DATE:LOCATION-edgesREFERENCES:SIMLOC:SIMPAGE-date_th0.25-doc_th0.6-loc_th0.4
# 1   rel1-6   new zealand   36   0.08707067   nodesDOCUMENT:DATE:LOCATION-edgesREFERENCES:SIMLOC:SIMPAGE-date_th0.25-doc_th0.6-loc_th0.4
# 1   rel1-6   malabar   37   0.08707067   nodesDOCUMENT:DATE:LOCATION-edgesREFERENCES:SIMLOC:SIMPAGE-date_th0.25-doc_th0.6-loc_th0.4
# 1   rel1-6   north   38   0.08707067   nodesDOCUMENT:DATE:LOCATION-edgesREFERENCES:SIMLOC:SIMPAGE-date_th0.25-doc_th0.6-loc_th0.4
# 1   rel1-6   parana   39   0.08707067   nodesDOCUMENT:DATE:LOCATION-edgesREFERENCES:SIMLOC:SIMPAGE-date_th0.25-doc_th0.6-loc_th0.4
# 1   rel1-6   matale   40   0.08707067   nodesDOCUMENT:DATE:LOCATION-edgesREFERENCES:SIMLOC:SIMPAGE-date_th0.25-doc_th0.6-loc_th0.4
