###################################
# parameters: 
#   date_th: 0.3
#   doc_th: 0.7
#   loc_th: 0.4
#   nodestouse: DOCUMENT:DATE:LOCATION
#   relationships: REFERENCES

###################################
# configuration: 
#   sa.act_diff_ratio_limit = 0.01
#   sa.act_diff_ratio_limit_diff = 0.01
#   sa.function = ciir.multi.sa.function.MaxSAFunction(norm_function)
#   sa.id_property_name.DATE = dateID
#   sa.id_property_name.DOCUMENT = docID
#   sa.id_property_name.LOCATION = locID
#   sa.max_pulses = 10
#   sa.nodes_to_print = DATE:LOCATION
#   sa.nodes_to_use = DOCUMENT:DATE:LOCATION
#   sa.norm_function = ciir.multi.sa.SigmoidFunction(0.0, 1.0)
#   sa.relationships_to_use = REFERENCES
#   sa.spread_threshold.DATE = 0.3
#   sa.spread_threshold.DOCUMENT = 0.7
#   sa.spread_threshold.LOCATION = 0.4
#   sa.weight_property.REFERENCES = relevance
#   sa.weight_property.SIMDATES = sim
#   sa.weight_property.SIMDOC = sim
#   sa.weight_property.SIMLOC = sim
#   sa.weight_property.SIMPAGE = pagesim

###################################
# initial activations (2): 
#   newannualarmylis1874hart_480, 1
#   newannualarmylis1874hart_228, 1

###################################
# spreading activation process log: 
#   pulse 0: activated: 2, non-zero: 2, borderline: 2, overall act: 2.000, act diff: 2.000, ratio: 1.000
#   pulse 1: activated: 50, non-zero: 50, borderline: 48, overall act: 8.798, act diff: 6.798, ratio: 0.773
#   pulse 2: activated: 5122, non-zero: 5122, borderline: 5119, overall act: 762.244, act diff: 753.446, ratio: 0.988
#   pulse 3: activated: 5122, non-zero: 5122, borderline: 5119, overall act: 762.244, act diff: 0.000, ratio: 0.000

###################################
# spreading activation process summary: 
#   final number of activated nodes: 5122
#   final overall activation: 762.2
#   number of spread. activ. pulses: 3
#   running time: 14721

###################################
# top k results in TREC format: 

1   rel2-7   lucknow   1   0.63999975   nodesDOCUMENT:DATE:LOCATION-edgesREFERENCES-date_th0.3-doc_th0.7-loc_th0.4
1   rel2-7   chanda   2   0.23942329   nodesDOCUMENT:DATE:LOCATION-edgesREFERENCES-date_th0.3-doc_th0.7-loc_th0.4
1   rel2-7   1858   3   0.22602305   nodesDOCUMENT:DATE:LOCATION-edgesREFERENCES-date_th0.3-doc_th0.7-loc_th0.4
1   rel2-7   1859   4   0.22602305   nodesDOCUMENT:DATE:LOCATION-edgesREFERENCES-date_th0.3-doc_th0.7-loc_th0.4
1   rel2-7   1856   5   0.22602305   nodesDOCUMENT:DATE:LOCATION-edgesREFERENCES-date_th0.3-doc_th0.7-loc_th0.4
1   rel2-7   1857   6   0.22602305   nodesDOCUMENT:DATE:LOCATION-edgesREFERENCES-date_th0.3-doc_th0.7-loc_th0.4
1   rel2-7   1855   7   0.22602305   nodesDOCUMENT:DATE:LOCATION-edgesREFERENCES-date_th0.3-doc_th0.7-loc_th0.4
1   rel2-7   delhi   8   0.20950438   nodesDOCUMENT:DATE:LOCATION-edgesREFERENCES-date_th0.3-doc_th0.7-loc_th0.4
1   rel2-7   china   9   0.20950438   nodesDOCUMENT:DATE:LOCATION-edgesREFERENCES-date_th0.3-doc_th0.7-loc_th0.4
1   rel2-7   benares   10   0.19423991   nodesDOCUMENT:DATE:LOCATION-edgesREFERENCES-date_th0.3-doc_th0.7-loc_th0.4
1   rel2-7   cawnpore   11   0.18114787   nodesDOCUMENT:DATE:LOCATION-edgesREFERENCES-date_th0.3-doc_th0.7-loc_th0.4
1   rel2-7   arrah   12   0.16514042   nodesDOCUMENT:DATE:LOCATION-edgesREFERENCES-date_th0.3-doc_th0.7-loc_th0.4
1   rel2-7   rooya   13   0.14414719   nodesDOCUMENT:DATE:LOCATION-edgesREFERENCES-date_th0.3-doc_th0.7-loc_th0.4
1   rel2-7   bareilly   14   0.14414719   nodesDOCUMENT:DATE:LOCATION-edgesREFERENCES-date_th0.3-doc_th0.7-loc_th0.4
1   rel2-7   1851   15   0.121718764   nodesDOCUMENT:DATE:LOCATION-edgesREFERENCES-date_th0.3-doc_th0.7-loc_th0.4
1   rel2-7   1852   16   0.121718764   nodesDOCUMENT:DATE:LOCATION-edgesREFERENCES-date_th0.3-doc_th0.7-loc_th0.4
1   rel2-7   1853   17   0.121718764   nodesDOCUMENT:DATE:LOCATION-edgesREFERENCES-date_th0.3-doc_th0.7-loc_th0.4
1   rel2-7   1848   18   0.121718764   nodesDOCUMENT:DATE:LOCATION-edgesREFERENCES-date_th0.3-doc_th0.7-loc_th0.4
1   rel2-7   1845   19   0.121718764   nodesDOCUMENT:DATE:LOCATION-edgesREFERENCES-date_th0.3-doc_th0.7-loc_th0.4
1   rel2-7   1846   20   0.121718764   nodesDOCUMENT:DATE:LOCATION-edgesREFERENCES-date_th0.3-doc_th0.7-loc_th0.4

###################################
# top nodes: 

# 1   rel2-7   newannualarmylis1874hart_480   1   1.0   nodesDOCUMENT:DATE:LOCATION-edgesREFERENCES-date_th0.3-doc_th0.7-loc_th0.4
# 1   rel2-7   newannualarmylis1874hart_228   2   1.0   nodesDOCUMENT:DATE:LOCATION-edgesREFERENCES-date_th0.3-doc_th0.7-loc_th0.4
# 1   rel2-7   lucknow   3   0.63999975   nodesDOCUMENT:DATE:LOCATION-edgesREFERENCES-date_th0.3-doc_th0.7-loc_th0.4
# 1   rel2-7   apersonaljourna00andegoog_121   4   0.3095068   nodesDOCUMENT:DATE:LOCATION-edgesREFERENCES-date_th0.3-doc_th0.7-loc_th0.4
# 1   rel2-7   systemsoflandte00cobd_226   5   0.3095068   nodesDOCUMENT:DATE:LOCATION-edgesREFERENCES-date_th0.3-doc_th0.7-loc_th0.4
# 1   rel2-7   reportsofmission1896pres_306   6   0.3095068   nodesDOCUMENT:DATE:LOCATION-edgesREFERENCES-date_th0.3-doc_th0.7-loc_th0.4
# 1   rel2-7   apersonaljourna00andegoog_110   7   0.3095068   nodesDOCUMENT:DATE:LOCATION-edgesREFERENCES-date_th0.3-doc_th0.7-loc_th0.4
# 1   rel2-7   tennysonhisarta01broogoog_251   8   0.3095068   nodesDOCUMENT:DATE:LOCATION-edgesREFERENCES-date_th0.3-doc_th0.7-loc_th0.4
# 1   rel2-7   journalofroyalin7188183roya_413   9   0.3095068   nodesDOCUMENT:DATE:LOCATION-edgesREFERENCES-date_th0.3-doc_th0.7-loc_th0.4
# 1   rel2-7   phoeberowe01thob_185   10   0.3095068   nodesDOCUMENT:DATE:LOCATION-edgesREFERENCES-date_th0.3-doc_th0.7-loc_th0.4
# 1   rel2-7   narrativemutini00hutcgoog_6   11   0.3095068   nodesDOCUMENT:DATE:LOCATION-edgesREFERENCES-date_th0.3-doc_th0.7-loc_th0.4
# 1   rel2-7   fortyoneyearsini00robe_316   12   0.3095068   nodesDOCUMENT:DATE:LOCATION-edgesREFERENCES-date_th0.3-doc_th0.7-loc_th0.4
# 1   rel2-7   lifeofclaudmarti00hill_182   13   0.3095068   nodesDOCUMENT:DATE:LOCATION-edgesREFERENCES-date_th0.3-doc_th0.7-loc_th0.4
# 1   rel2-7   reminiscencesofb00edwauoft_279   14   0.3095068   nodesDOCUMENT:DATE:LOCATION-edgesREFERENCES-date_th0.3-doc_th0.7-loc_th0.4
# 1   rel2-7   libraryofworldsbe22warn_51   15   0.3095068   nodesDOCUMENT:DATE:LOCATION-edgesREFERENCES-date_th0.3-doc_th0.7-loc_th0.4
# 1   rel2-7   reminiscencesofb00edwauoft_267   16   0.3095068   nodesDOCUMENT:DATE:LOCATION-edgesREFERENCES-date_th0.3-doc_th0.7-loc_th0.4
# 1   rel2-7   memoirofsirwilli00veitrich_344   17   0.3095068   nodesDOCUMENT:DATE:LOCATION-edgesREFERENCES-date_th0.3-doc_th0.7-loc_th0.4
# 1   rel2-7   newannualarmylis1898lond_946   18   0.3095068   nodesDOCUMENT:DATE:LOCATION-edgesREFERENCES-date_th0.3-doc_th0.7-loc_th0.4
# 1   rel2-7   reminiscencesofb00edwauoft_211   19   0.3095068   nodesDOCUMENT:DATE:LOCATION-edgesREFERENCES-date_th0.3-doc_th0.7-loc_th0.4
# 1   rel2-7   reminiscencesofb00edwauoft_234   20   0.3095068   nodesDOCUMENT:DATE:LOCATION-edgesREFERENCES-date_th0.3-doc_th0.7-loc_th0.4
# 1   rel2-7   reminiscencesofb00edwauoft_231   21   0.3095068   nodesDOCUMENT:DATE:LOCATION-edgesREFERENCES-date_th0.3-doc_th0.7-loc_th0.4
# 1   rel2-7   reminiscencesofb00edwauoft_230   22   0.3095068   nodesDOCUMENT:DATE:LOCATION-edgesREFERENCES-date_th0.3-doc_th0.7-loc_th0.4
# 1   rel2-7   passionsanimals00thomgoog_139   23   0.3095068   nodesDOCUMENT:DATE:LOCATION-edgesREFERENCES-date_th0.3-doc_th0.7-loc_th0.4
# 1   rel2-7   historyofindianm01forr_16   24   0.3095068   nodesDOCUMENT:DATE:LOCATION-edgesREFERENCES-date_th0.3-doc_th0.7-loc_th0.4
# 1   rel2-7   historyofindianm01forr_14   25   0.3095068   nodesDOCUMENT:DATE:LOCATION-edgesREFERENCES-date_th0.3-doc_th0.7-loc_th0.4
# 1   rel2-7   historyofindianm01forr_29   26   0.3095068   nodesDOCUMENT:DATE:LOCATION-edgesREFERENCES-date_th0.3-doc_th0.7-loc_th0.4
# 1   rel2-7   memorialsoflife02edwa_52   27   0.3095068   nodesDOCUMENT:DATE:LOCATION-edgesREFERENCES-date_th0.3-doc_th0.7-loc_th0.4
# 1   rel2-7   recordsofindianm06indi_263   28   0.3095068   nodesDOCUMENT:DATE:LOCATION-edgesREFERENCES-date_th0.3-doc_th0.7-loc_th0.4
# 1   rel2-7   macmillansmagazi43macmuoft_261   29   0.3095068   nodesDOCUMENT:DATE:LOCATION-edgesREFERENCES-date_th0.3-doc_th0.7-loc_th0.4
# 1   rel2-7   memorialsoflife02edwa_49   30   0.3095068   nodesDOCUMENT:DATE:LOCATION-edgesREFERENCES-date_th0.3-doc_th0.7-loc_th0.4
# 1   rel2-7   livesofindianoff02kayeiala_346   31   0.3095068   nodesDOCUMENT:DATE:LOCATION-edgesREFERENCES-date_th0.3-doc_th0.7-loc_th0.4
# 1   rel2-7   livesofindianoff02kayeiala_348   32   0.3095068   nodesDOCUMENT:DATE:LOCATION-edgesREFERENCES-date_th0.3-doc_th0.7-loc_th0.4
# 1   rel2-7   cu31924022927283_266   33   0.3095068   nodesDOCUMENT:DATE:LOCATION-edgesREFERENCES-date_th0.3-doc_th0.7-loc_th0.4
# 1   rel2-7   cu31924013563865_47   34   0.3095068   nodesDOCUMENT:DATE:LOCATION-edgesREFERENCES-date_th0.3-doc_th0.7-loc_th0.4
# 1   rel2-7   lifeofisabellath00thobrich_290   35   0.3095068   nodesDOCUMENT:DATE:LOCATION-edgesREFERENCES-date_th0.3-doc_th0.7-loc_th0.4
# 1   rel2-7   lifeofisabellath00thobrich_286   36   0.3095068   nodesDOCUMENT:DATE:LOCATION-edgesREFERENCES-date_th0.3-doc_th0.7-loc_th0.4
# 1   rel2-7   troubadourselect00gibbuoft_36   37   0.3095068   nodesDOCUMENT:DATE:LOCATION-edgesREFERENCES-date_th0.3-doc_th0.7-loc_th0.4
# 1   rel2-7   journaloftravels00wina_252   38   0.3095068   nodesDOCUMENT:DATE:LOCATION-edgesREFERENCES-date_th0.3-doc_th0.7-loc_th0.4
# 1   rel2-7   journaloftravels00wina_251   39   0.3095068   nodesDOCUMENT:DATE:LOCATION-edgesREFERENCES-date_th0.3-doc_th0.7-loc_th0.4
# 1   rel2-7   lifeofclaudmarti00hill_170   40   0.3095068   nodesDOCUMENT:DATE:LOCATION-edgesREFERENCES-date_th0.3-doc_th0.7-loc_th0.4
