###################################
# parameters: 
#   date_th: 0.3
#   doc_th: 0.7
#   loc_th: 0.35
#   nodestouse: DOCUMENT:DATE:LOCATION
#   relationships: REFERENCES

###################################
# configuration: 
#   sa.act_diff_ratio_limit = 0.01
#   sa.act_diff_ratio_limit_diff = 0.01
#   sa.function = ciir.multi.sa.function.MaxSAFunction(norm_function)
#   sa.id_property_name.DATE = dateID
#   sa.id_property_name.DOCUMENT = docID
#   sa.id_property_name.LOCATION = locID
#   sa.max_pulses = 10
#   sa.nodes_to_print = DATE:LOCATION
#   sa.nodes_to_use = DOCUMENT:DATE:LOCATION
#   sa.norm_function = ciir.multi.sa.SigmoidFunction(0.0, 1.0)
#   sa.relationships_to_use = REFERENCES
#   sa.spread_threshold.DATE = 0.3
#   sa.spread_threshold.DOCUMENT = 0.7
#   sa.spread_threshold.LOCATION = 0.35
#   sa.weight_property.REFERENCES = relevance
#   sa.weight_property.SIMDATES = sim
#   sa.weight_property.SIMDOC = sim
#   sa.weight_property.SIMLOC = sim
#   sa.weight_property.SIMPAGE = pagesim

###################################
# initial activations (2): 
#   newannualarmylis1874hart_480, 1
#   newannualarmylis1874hart_481, 1

###################################
# spreading activation process log: 
#   pulse 0: activated: 2, non-zero: 2, borderline: 2, overall act: 2.000, act diff: 2.000, ratio: 1.000
#   pulse 1: activated: 46, non-zero: 46, borderline: 44, overall act: 8.984, act diff: 6.984, ratio: 0.777
#   pulse 2: activated: 13376, non-zero: 13376, borderline: 13372, overall act: 1547.618, act diff: 1538.634, ratio: 0.994
#   pulse 3: activated: 13376, non-zero: 13376, borderline: 13372, overall act: 1547.618, act diff: 0.000, ratio: 0.000

###################################
# spreading activation process summary: 
#   final number of activated nodes: 13376
#   final overall activation: 1547.6
#   number of spread. activ. pulses: 3
#   running time: 13536

###################################
# top k results in TREC format: 

1   rel2-6   lucknow   1   0.5284272   nodesDOCUMENT:DATE:LOCATION-edgesREFERENCES-date_th0.3-doc_th0.7-loc_th0.35
1   rel2-6   delhi   2   0.46995512   nodesDOCUMENT:DATE:LOCATION-edgesREFERENCES-date_th0.3-doc_th0.7-loc_th0.35
1   rel2-6   agra   3   0.33442828   nodesDOCUMENT:DATE:LOCATION-edgesREFERENCES-date_th0.3-doc_th0.7-loc_th0.35
1   rel2-6   cawnpore   4   0.27502245   nodesDOCUMENT:DATE:LOCATION-edgesREFERENCES-date_th0.3-doc_th0.7-loc_th0.35
1   rel2-6   bareilly   5   0.23953253   nodesDOCUMENT:DATE:LOCATION-edgesREFERENCES-date_th0.3-doc_th0.7-loc_th0.35
1   rel2-6   rooya   6   0.23953253   nodesDOCUMENT:DATE:LOCATION-edgesREFERENCES-date_th0.3-doc_th0.7-loc_th0.35
1   rel2-6   1857   7   0.21207042   nodesDOCUMENT:DATE:LOCATION-edgesREFERENCES-date_th0.3-doc_th0.7-loc_th0.35
1   rel2-6   1865   8   0.21207042   nodesDOCUMENT:DATE:LOCATION-edgesREFERENCES-date_th0.3-doc_th0.7-loc_th0.35
1   rel2-6   1860   9   0.21207042   nodesDOCUMENT:DATE:LOCATION-edgesREFERENCES-date_th0.3-doc_th0.7-loc_th0.35
1   rel2-6   1862   10   0.21207042   nodesDOCUMENT:DATE:LOCATION-edgesREFERENCES-date_th0.3-doc_th0.7-loc_th0.35
1   rel2-6   1863   11   0.21207042   nodesDOCUMENT:DATE:LOCATION-edgesREFERENCES-date_th0.3-doc_th0.7-loc_th0.35
1   rel2-6   1858   12   0.21207042   nodesDOCUMENT:DATE:LOCATION-edgesREFERENCES-date_th0.3-doc_th0.7-loc_th0.35
1   rel2-6   1859   13   0.21207042   nodesDOCUMENT:DATE:LOCATION-edgesREFERENCES-date_th0.3-doc_th0.7-loc_th0.35
1   rel2-6   china   14   0.20950438   nodesDOCUMENT:DATE:LOCATION-edgesREFERENCES-date_th0.3-doc_th0.7-loc_th0.35
1   rel2-6   kirwee   15   0.18842584   nodesDOCUMENT:DATE:LOCATION-edgesREFERENCES-date_th0.3-doc_th0.7-loc_th0.35
1   rel2-6   terai   16   0.15582155   nodesDOCUMENT:DATE:LOCATION-edgesREFERENCES-date_th0.3-doc_th0.7-loc_th0.35
1   rel2-6   chingli   17   0.15582155   nodesDOCUMENT:DATE:LOCATION-edgesREFERENCES-date_th0.3-doc_th0.7-loc_th0.35
1   rel2-6   meerut   18   0.15582155   nodesDOCUMENT:DATE:LOCATION-edgesREFERENCES-date_th0.3-doc_th0.7-loc_th0.35
1   rel2-6   1868   19   0.107255004   nodesDOCUMENT:DATE:LOCATION-edgesREFERENCES-date_th0.3-doc_th0.7-loc_th0.35
1   rel2-6   1861   20   0.107255004   nodesDOCUMENT:DATE:LOCATION-edgesREFERENCES-date_th0.3-doc_th0.7-loc_th0.35

###################################
# top nodes: 

# 1   rel2-6   newannualarmylis1874hart_480   1   1.0   nodesDOCUMENT:DATE:LOCATION-edgesREFERENCES-date_th0.3-doc_th0.7-loc_th0.35
# 1   rel2-6   newannualarmylis1874hart_481   2   1.0   nodesDOCUMENT:DATE:LOCATION-edgesREFERENCES-date_th0.3-doc_th0.7-loc_th0.35
# 1   rel2-6   lucknow   3   0.5284272   nodesDOCUMENT:DATE:LOCATION-edgesREFERENCES-date_th0.3-doc_th0.7-loc_th0.35
# 1   rel2-6   delhi   4   0.46995512   nodesDOCUMENT:DATE:LOCATION-edgesREFERENCES-date_th0.3-doc_th0.7-loc_th0.35
# 1   rel2-6   hartsannualarmy17hartgoog_258   5   0.3555323   nodesDOCUMENT:DATE:LOCATION-edgesREFERENCES-date_th0.3-doc_th0.7-loc_th0.35
# 1   rel2-6   hartsannualarmy17hartgoog_280   6   0.34215918   nodesDOCUMENT:DATE:LOCATION-edgesREFERENCES-date_th0.3-doc_th0.7-loc_th0.35
# 1   rel2-6   hartsannualarmy17hartgoog_279   7   0.34043556   nodesDOCUMENT:DATE:LOCATION-edgesREFERENCES-date_th0.3-doc_th0.7-loc_th0.35
# 1   rel2-6   hartsannualarmy17hartgoog_257   8   0.335622   nodesDOCUMENT:DATE:LOCATION-edgesREFERENCES-date_th0.3-doc_th0.7-loc_th0.35
# 1   rel2-6   agra   9   0.33442828   nodesDOCUMENT:DATE:LOCATION-edgesREFERENCES-date_th0.3-doc_th0.7-loc_th0.35
# 1   rel2-6   aroundworld00hend_265   10   0.33061218   nodesDOCUMENT:DATE:LOCATION-edgesREFERENCES-date_th0.3-doc_th0.7-loc_th0.35
# 1   rel2-6   cu31924023968237_411   11   0.32870066   nodesDOCUMENT:DATE:LOCATION-edgesREFERENCES-date_th0.3-doc_th0.7-loc_th0.35
# 1   rel2-6   cu31924023968237_406   12   0.3224051   nodesDOCUMENT:DATE:LOCATION-edgesREFERENCES-date_th0.3-doc_th0.7-loc_th0.35
# 1   rel2-6   newannualarmylis1874hart_203   13   0.3216448   nodesDOCUMENT:DATE:LOCATION-edgesREFERENCES-date_th0.3-doc_th0.7-loc_th0.35
# 1   rel2-6   cu31924023968237_282   14   0.3174246   nodesDOCUMENT:DATE:LOCATION-edgesREFERENCES-date_th0.3-doc_th0.7-loc_th0.35
# 1   rel2-6   apersonaljourna00andegoog_38   15   0.31692955   nodesDOCUMENT:DATE:LOCATION-edgesREFERENCES-date_th0.3-doc_th0.7-loc_th0.35
# 1   rel2-6   cu31924023968237_371   16   0.31692955   nodesDOCUMENT:DATE:LOCATION-edgesREFERENCES-date_th0.3-doc_th0.7-loc_th0.35
# 1   rel2-6   historyofindianm01forr_567   17   0.3157083   nodesDOCUMENT:DATE:LOCATION-edgesREFERENCES-date_th0.3-doc_th0.7-loc_th0.35
# 1   rel2-6   historyofindianm01forr_17   18   0.3157083   nodesDOCUMENT:DATE:LOCATION-edgesREFERENCES-date_th0.3-doc_th0.7-loc_th0.35
# 1   rel2-6   historyofindianm01forr_276   19   0.3157083   nodesDOCUMENT:DATE:LOCATION-edgesREFERENCES-date_th0.3-doc_th0.7-loc_th0.35
# 1   rel2-6   historyofindianm01forr_281   20   0.3157083   nodesDOCUMENT:DATE:LOCATION-edgesREFERENCES-date_th0.3-doc_th0.7-loc_th0.35
# 1   rel2-6   narrativemutini00hutcgoog_82   21   0.3157083   nodesDOCUMENT:DATE:LOCATION-edgesREFERENCES-date_th0.3-doc_th0.7-loc_th0.35
# 1   rel2-6   cu31924023968237_403   22   0.31034496   nodesDOCUMENT:DATE:LOCATION-edgesREFERENCES-date_th0.3-doc_th0.7-loc_th0.35
# 1   rel2-6   livesofindianoff02kayeiala_505   23   0.307989   nodesDOCUMENT:DATE:LOCATION-edgesREFERENCES-date_th0.3-doc_th0.7-loc_th0.35
# 1   rel2-6   narrativeajourn10hebegoog_463   24   0.307989   nodesDOCUMENT:DATE:LOCATION-edgesREFERENCES-date_th0.3-doc_th0.7-loc_th0.35
# 1   rel2-6   cu31924088466333_201   25   0.30743566   nodesDOCUMENT:DATE:LOCATION-edgesREFERENCES-date_th0.3-doc_th0.7-loc_th0.35
# 1   rel2-6   hartsannualarmy17hartgoog_256   26   0.30662644   nodesDOCUMENT:DATE:LOCATION-edgesREFERENCES-date_th0.3-doc_th0.7-loc_th0.35
# 1   rel2-6   selfhelpwithillu00smiliala_318   27   0.30605716   nodesDOCUMENT:DATE:LOCATION-edgesREFERENCES-date_th0.3-doc_th0.7-loc_th0.35
# 1   rel2-6   northamericanre21lodggoog_625   28   0.30605716   nodesDOCUMENT:DATE:LOCATION-edgesREFERENCES-date_th0.3-doc_th0.7-loc_th0.35
# 1   rel2-6   redyearstoryofin00traciala_327   29   0.30605716   nodesDOCUMENT:DATE:LOCATION-edgesREFERENCES-date_th0.3-doc_th0.7-loc_th0.35
# 1   rel2-6   handbooktoenglis00dewa_40   30   0.3049377   nodesDOCUMENT:DATE:LOCATION-edgesREFERENCES-date_th0.3-doc_th0.7-loc_th0.35
# 1   rel2-6   narrativemutini00hutcgoog_70   31   0.3049377   nodesDOCUMENT:DATE:LOCATION-edgesREFERENCES-date_th0.3-doc_th0.7-loc_th0.35
# 1   rel2-6   narrativemutini00hutcgoog_201   32   0.3049377   nodesDOCUMENT:DATE:LOCATION-edgesREFERENCES-date_th0.3-doc_th0.7-loc_th0.35
# 1   rel2-6   talesofdaringdan00hentiala_102   33   0.3049377   nodesDOCUMENT:DATE:LOCATION-edgesREFERENCES-date_th0.3-doc_th0.7-loc_th0.35
# 1   rel2-6   cu31924023968237_215   34   0.3049377   nodesDOCUMENT:DATE:LOCATION-edgesREFERENCES-date_th0.3-doc_th0.7-loc_th0.35
# 1   rel2-6   indianempirehist01mart_50   35   0.3049377   nodesDOCUMENT:DATE:LOCATION-edgesREFERENCES-date_th0.3-doc_th0.7-loc_th0.35
# 1   rel2-6   cu31924023561933_79   36   0.3049377   nodesDOCUMENT:DATE:LOCATION-edgesREFERENCES-date_th0.3-doc_th0.7-loc_th0.35
# 1   rel2-6   essaysforcollege00bowm_180   37   0.3049377   nodesDOCUMENT:DATE:LOCATION-edgesREFERENCES-date_th0.3-doc_th0.7-loc_th0.35
# 1   rel2-6   reminiscencesofb00edwauoft_179   38   0.3049377   nodesDOCUMENT:DATE:LOCATION-edgesREFERENCES-date_th0.3-doc_th0.7-loc_th0.35
# 1   rel2-6   redyearstoryofin00traciala_187   39   0.3049377   nodesDOCUMENT:DATE:LOCATION-edgesREFERENCES-date_th0.3-doc_th0.7-loc_th0.35
# 1   rel2-6   illustrationsofh00thoruoft_338   40   0.3049377   nodesDOCUMENT:DATE:LOCATION-edgesREFERENCES-date_th0.3-doc_th0.7-loc_th0.35
