###################################
# parameters: 
#   date_th: 0.3
#   doc_th: 0.7
#   loc_th: 0.4
#   nodestouse: DOCUMENT:DATE:LOCATION
#   relationships: REFERENCES

###################################
# configuration: 
#   sa.act_diff_ratio_limit = 0.01
#   sa.act_diff_ratio_limit_diff = 0.01
#   sa.function = ciir.multi.sa.function.MaxSAFunction(norm_function)
#   sa.id_property_name.DATE = dateID
#   sa.id_property_name.DOCUMENT = docID
#   sa.id_property_name.LOCATION = locID
#   sa.max_pulses = 10
#   sa.nodes_to_print = DATE:LOCATION
#   sa.nodes_to_use = DOCUMENT:DATE:LOCATION
#   sa.norm_function = ciir.multi.sa.SigmoidFunction(0.0, 1.0)
#   sa.relationships_to_use = REFERENCES
#   sa.spread_threshold.DATE = 0.3
#   sa.spread_threshold.DOCUMENT = 0.7
#   sa.spread_threshold.LOCATION = 0.4
#   sa.weight_property.REFERENCES = relevance
#   sa.weight_property.SIMDATES = sim
#   sa.weight_property.SIMDOC = sim
#   sa.weight_property.SIMLOC = sim
#   sa.weight_property.SIMPAGE = pagesim

###################################
# initial activations (2): 
#   newannualarmylis1874hart_464, 1
#   newannualarmylis1874hart_481, 1

###################################
# spreading activation process log: 
#   pulse 0: activated: 2, non-zero: 2, borderline: 2, overall act: 2.000, act diff: 2.000, ratio: 1.000
#   pulse 1: activated: 54, non-zero: 54, borderline: 52, overall act: 9.569, act diff: 7.569, ratio: 0.791
#   pulse 2: activated: 9224, non-zero: 9224, borderline: 9221, overall act: 911.709, act diff: 902.140, ratio: 0.990
#   pulse 3: activated: 9224, non-zero: 9224, borderline: 9221, overall act: 911.709, act diff: 0.000, ratio: 0.000

###################################
# spreading activation process summary: 
#   final number of activated nodes: 9224
#   final overall activation: 911.7
#   number of spread. activ. pulses: 3
#   running time: 14812

###################################
# top k results in TREC format: 

1   rel2-24   delhi   1   0.46302488   nodesDOCUMENT:DATE:LOCATION-edgesREFERENCES-date_th0.3-doc_th0.7-loc_th0.4
1   rel2-24   lucknow   2   0.3727845   nodesDOCUMENT:DATE:LOCATION-edgesREFERENCES-date_th0.3-doc_th0.7-loc_th0.4
1   rel2-24   gwalior   3   0.32364985   nodesDOCUMENT:DATE:LOCATION-edgesREFERENCES-date_th0.3-doc_th0.7-loc_th0.4
1   rel2-24   bareilly   4   0.2548788   nodesDOCUMENT:DATE:LOCATION-edgesREFERENCES-date_th0.3-doc_th0.7-loc_th0.4
1   rel2-24   agra   5   0.2507578   nodesDOCUMENT:DATE:LOCATION-edgesREFERENCES-date_th0.3-doc_th0.7-loc_th0.4
1   rel2-24   panjnad river   6   0.23228055   nodesDOCUMENT:DATE:LOCATION-edgesREFERENCES-date_th0.3-doc_th0.7-loc_th0.4
1   rel2-24   cabool   7   0.23228055   nodesDOCUMENT:DATE:LOCATION-edgesREFERENCES-date_th0.3-doc_th0.7-loc_th0.4
1   rel2-24   1857   8   0.20473441   nodesDOCUMENT:DATE:LOCATION-edgesREFERENCES-date_th0.3-doc_th0.7-loc_th0.4
1   rel2-24   1858   9   0.20473441   nodesDOCUMENT:DATE:LOCATION-edgesREFERENCES-date_th0.3-doc_th0.7-loc_th0.4
1   rel2-24   1860   10   0.20473441   nodesDOCUMENT:DATE:LOCATION-edgesREFERENCES-date_th0.3-doc_th0.7-loc_th0.4
1   rel2-24   1862   11   0.20473441   nodesDOCUMENT:DATE:LOCATION-edgesREFERENCES-date_th0.3-doc_th0.7-loc_th0.4
1   rel2-24   1863   12   0.20473441   nodesDOCUMENT:DATE:LOCATION-edgesREFERENCES-date_th0.3-doc_th0.7-loc_th0.4
1   rel2-24   1859   13   0.20473441   nodesDOCUMENT:DATE:LOCATION-edgesREFERENCES-date_th0.3-doc_th0.7-loc_th0.4
1   rel2-24   china   14   0.16011405   nodesDOCUMENT:DATE:LOCATION-edgesREFERENCES-date_th0.3-doc_th0.7-loc_th0.4
1   rel2-24   punjaub   15   0.16011405   nodesDOCUMENT:DATE:LOCATION-edgesREFERENCES-date_th0.3-doc_th0.7-loc_th0.4
1   rel2-24   chingli   16   0.15582155   nodesDOCUMENT:DATE:LOCATION-edgesREFERENCES-date_th0.3-doc_th0.7-loc_th0.4
1   rel2-24   meerut   17   0.15582155   nodesDOCUMENT:DATE:LOCATION-edgesREFERENCES-date_th0.3-doc_th0.7-loc_th0.4
1   rel2-24   terai   18   0.15582155   nodesDOCUMENT:DATE:LOCATION-edgesREFERENCES-date_th0.3-doc_th0.7-loc_th0.4
1   rel2-24   1851   19   0.107255004   nodesDOCUMENT:DATE:LOCATION-edgesREFERENCES-date_th0.3-doc_th0.7-loc_th0.4
1   rel2-24   1861   20   0.107255004   nodesDOCUMENT:DATE:LOCATION-edgesREFERENCES-date_th0.3-doc_th0.7-loc_th0.4

###################################
# top nodes: 

# 1   rel2-24   newannualarmylis1874hart_481   1   1.0   nodesDOCUMENT:DATE:LOCATION-edgesREFERENCES-date_th0.3-doc_th0.7-loc_th0.4
# 1   rel2-24   newannualarmylis1874hart_464   2   1.0   nodesDOCUMENT:DATE:LOCATION-edgesREFERENCES-date_th0.3-doc_th0.7-loc_th0.4
# 1   rel2-24   delhi   3   0.46302488   nodesDOCUMENT:DATE:LOCATION-edgesREFERENCES-date_th0.3-doc_th0.7-loc_th0.4
# 1   rel2-24   lucknow   4   0.3727845   nodesDOCUMENT:DATE:LOCATION-edgesREFERENCES-date_th0.3-doc_th0.7-loc_th0.4
# 1   rel2-24   gwalior   5   0.32364985   nodesDOCUMENT:DATE:LOCATION-edgesREFERENCES-date_th0.3-doc_th0.7-loc_th0.4
# 1   rel2-24   bareilly   6   0.2548788   nodesDOCUMENT:DATE:LOCATION-edgesREFERENCES-date_th0.3-doc_th0.7-loc_th0.4
# 1   rel2-24   agra   7   0.2507578   nodesDOCUMENT:DATE:LOCATION-edgesREFERENCES-date_th0.3-doc_th0.7-loc_th0.4
# 1   rel2-24   panjnad river   8   0.23228055   nodesDOCUMENT:DATE:LOCATION-edgesREFERENCES-date_th0.3-doc_th0.7-loc_th0.4
# 1   rel2-24   cabool   9   0.23228055   nodesDOCUMENT:DATE:LOCATION-edgesREFERENCES-date_th0.3-doc_th0.7-loc_th0.4
# 1   rel2-24   manwithoutprofes03rowc_26   10   0.22746304   nodesDOCUMENT:DATE:LOCATION-edgesREFERENCES-date_th0.3-doc_th0.7-loc_th0.4
# 1   rel2-24   inindia00steeiala_76   11   0.22746304   nodesDOCUMENT:DATE:LOCATION-edgesREFERENCES-date_th0.3-doc_th0.7-loc_th0.4
# 1   rel2-24   inindia00steeiala_71   12   0.22746304   nodesDOCUMENT:DATE:LOCATION-edgesREFERENCES-date_th0.3-doc_th0.7-loc_th0.4
# 1   rel2-24   overhillsofhomeo00leveuoft_27   13   0.22746304   nodesDOCUMENT:DATE:LOCATION-edgesREFERENCES-date_th0.3-doc_th0.7-loc_th0.4
# 1   rel2-24   mussulman00maddgoog_190   14   0.22746304   nodesDOCUMENT:DATE:LOCATION-edgesREFERENCES-date_th0.3-doc_th0.7-loc_th0.4
# 1   rel2-24   cu31924002829921_117   15   0.22746304   nodesDOCUMENT:DATE:LOCATION-edgesREFERENCES-date_th0.3-doc_th0.7-loc_th0.4
# 1   rel2-24   reminiscencesofb00edwauoft_229   16   0.22746304   nodesDOCUMENT:DATE:LOCATION-edgesREFERENCES-date_th0.3-doc_th0.7-loc_th0.4
# 1   rel2-24   religioussystemss00lond_323   17   0.22746304   nodesDOCUMENT:DATE:LOCATION-edgesREFERENCES-date_th0.3-doc_th0.7-loc_th0.4
# 1   rel2-24   journalofrouteac00munsrich_241   18   0.22746304   nodesDOCUMENT:DATE:LOCATION-edgesREFERENCES-date_th0.3-doc_th0.7-loc_th0.4
# 1   rel2-24   storiesaboutfam00orpegoog_91   19   0.22746304   nodesDOCUMENT:DATE:LOCATION-edgesREFERENCES-date_th0.3-doc_th0.7-loc_th0.4
# 1   rel2-24   cu31924104225630_200   20   0.22746304   nodesDOCUMENT:DATE:LOCATION-edgesREFERENCES-date_th0.3-doc_th0.7-loc_th0.4
# 1   rel2-24   journaloftravels00wina_286   21   0.22746304   nodesDOCUMENT:DATE:LOCATION-edgesREFERENCES-date_th0.3-doc_th0.7-loc_th0.4
# 1   rel2-24   journaloftravels00wina_282   22   0.22746304   nodesDOCUMENT:DATE:LOCATION-edgesREFERENCES-date_th0.3-doc_th0.7-loc_th0.4
# 1   rel2-24   reminiscencesofb00edwauoft_282   23   0.22746304   nodesDOCUMENT:DATE:LOCATION-edgesREFERENCES-date_th0.3-doc_th0.7-loc_th0.4
# 1   rel2-24   punjabrecordorre50lahouoft_380   24   0.22746304   nodesDOCUMENT:DATE:LOCATION-edgesREFERENCES-date_th0.3-doc_th0.7-loc_th0.4
# 1   rel2-24   historyofindia00delarich_146   25   0.22746304   nodesDOCUMENT:DATE:LOCATION-edgesREFERENCES-date_th0.3-doc_th0.7-loc_th0.4
# 1   rel2-24   historyofindia00delarich_147   26   0.22746304   nodesDOCUMENT:DATE:LOCATION-edgesREFERENCES-date_th0.3-doc_th0.7-loc_th0.4
# 1   rel2-24   pathogenicmicro03krumgoog_785   27   0.22746304   nodesDOCUMENT:DATE:LOCATION-edgesREFERENCES-date_th0.3-doc_th0.7-loc_th0.4
# 1   rel2-24   mussulman00maddgoog_192   28   0.22746304   nodesDOCUMENT:DATE:LOCATION-edgesREFERENCES-date_th0.3-doc_th0.7-loc_th0.4
# 1   rel2-24   historyofdelawar01merr_256   29   0.22746304   nodesDOCUMENT:DATE:LOCATION-edgesREFERENCES-date_th0.3-doc_th0.7-loc_th0.4
# 1   rel2-24   sacredbooksande03horngoog_253   30   0.22746304   nodesDOCUMENT:DATE:LOCATION-edgesREFERENCES-date_th0.3-doc_th0.7-loc_th0.4
# 1   rel2-24   gospelrmakrishn01abhegoog_412   31   0.22746304   nodesDOCUMENT:DATE:LOCATION-edgesREFERENCES-date_th0.3-doc_th0.7-loc_th0.4
# 1   rel2-24   gandhianarchy00sankuoft_156   32   0.22746304   nodesDOCUMENT:DATE:LOCATION-edgesREFERENCES-date_th0.3-doc_th0.7-loc_th0.4
# 1   rel2-24   cu31924021024876_102   33   0.22746304   nodesDOCUMENT:DATE:LOCATION-edgesREFERENCES-date_th0.3-doc_th0.7-loc_th0.4
# 1   rel2-24   fiftyyearsamongb00mill_19   34   0.22746304   nodesDOCUMENT:DATE:LOCATION-edgesREFERENCES-date_th0.3-doc_th0.7-loc_th0.4
# 1   rel2-24   lifeofsirhenryla01edwa_211   35   0.22746304   nodesDOCUMENT:DATE:LOCATION-edgesREFERENCES-date_th0.3-doc_th0.7-loc_th0.4
# 1   rel2-24   phantomrickshaw01kiplgoog_245   36   0.22746304   nodesDOCUMENT:DATE:LOCATION-edgesREFERENCES-date_th0.3-doc_th0.7-loc_th0.4
# 1   rel2-24   inpermanentwayot00steeiala_266   37   0.22746304   nodesDOCUMENT:DATE:LOCATION-edgesREFERENCES-date_th0.3-doc_th0.7-loc_th0.4
# 1   rel2-24   lifeofsirhenryla01edwa_274   38   0.22746304   nodesDOCUMENT:DATE:LOCATION-edgesREFERENCES-date_th0.3-doc_th0.7-loc_th0.4
# 1   rel2-24   punjabrecordorre50lahouoft_65   39   0.22746304   nodesDOCUMENT:DATE:LOCATION-edgesREFERENCES-date_th0.3-doc_th0.7-loc_th0.4
# 1   rel2-24   cu31924023036381_85   40   0.22746304   nodesDOCUMENT:DATE:LOCATION-edgesREFERENCES-date_th0.3-doc_th0.7-loc_th0.4
