###################################
# parameters: 
#   date_th: 0.25
#   doc_th: 0.6
#   loc_th: 0.4
#   nodestouse: DOCUMENT:DATE:LOCATION
#   relationships: REFERENCES

###################################
# configuration: 
#   sa.act_diff_ratio_limit = 0.01
#   sa.act_diff_ratio_limit_diff = 0.01
#   sa.function = ciir.multi.sa.function.MaxSAFunction(norm_function)
#   sa.id_property_name.DATE = dateID
#   sa.id_property_name.DOCUMENT = docID
#   sa.id_property_name.LOCATION = locID
#   sa.max_pulses = 10
#   sa.nodes_to_print = DATE:LOCATION
#   sa.nodes_to_use = DOCUMENT:DATE:LOCATION
#   sa.norm_function = ciir.multi.sa.SigmoidFunction(0.0, 1.0)
#   sa.relationships_to_use = REFERENCES
#   sa.spread_threshold.DATE = 0.25
#   sa.spread_threshold.DOCUMENT = 0.6
#   sa.spread_threshold.LOCATION = 0.4
#   sa.weight_property.REFERENCES = relevance
#   sa.weight_property.SIMDATES = sim
#   sa.weight_property.SIMDOC = sim
#   sa.weight_property.SIMLOC = sim
#   sa.weight_property.SIMPAGE = pagesim

###################################
# initial activations (2): 
#   newannualarmylis1874hart_466, 1
#   newannualarmylis1874hart_481, 1

###################################
# spreading activation process log: 
#   pulse 0: activated: 2, non-zero: 2, borderline: 2, overall act: 2.000, act diff: 2.000, ratio: 1.000
#   pulse 1: activated: 47, non-zero: 47, borderline: 45, overall act: 8.757, act diff: 6.757, ratio: 0.772
#   pulse 2: activated: 16757, non-zero: 16757, borderline: 16752, overall act: 1903.493, act diff: 1894.736, ratio: 0.995
#   pulse 3: activated: 16757, non-zero: 16757, borderline: 16752, overall act: 1903.493, act diff: 0.000, ratio: 0.000

###################################
# spreading activation process summary: 
#   final number of activated nodes: 16757
#   final overall activation: 1903.5
#   number of spread. activ. pulses: 3
#   running time: 12273

###################################
# top k results in TREC format: 

1   rel2-21   delhi   1   0.49853885   nodesDOCUMENT:DATE:LOCATION-edgesREFERENCES-date_th0.25-doc_th0.6-loc_th0.4
1   rel2-21   lucknow   2   0.41818276   nodesDOCUMENT:DATE:LOCATION-edgesREFERENCES-date_th0.25-doc_th0.6-loc_th0.4
1   rel2-21   agra   3   0.4027046   nodesDOCUMENT:DATE:LOCATION-edgesREFERENCES-date_th0.25-doc_th0.6-loc_th0.4
1   rel2-21   gwalior   4   0.36048275   nodesDOCUMENT:DATE:LOCATION-edgesREFERENCES-date_th0.25-doc_th0.6-loc_th0.4
1   rel2-21   1858   5   0.21083225   nodesDOCUMENT:DATE:LOCATION-edgesREFERENCES-date_th0.25-doc_th0.6-loc_th0.4
1   rel2-21   1860   6   0.21083225   nodesDOCUMENT:DATE:LOCATION-edgesREFERENCES-date_th0.25-doc_th0.6-loc_th0.4
1   rel2-21   1865   7   0.21083225   nodesDOCUMENT:DATE:LOCATION-edgesREFERENCES-date_th0.25-doc_th0.6-loc_th0.4
1   rel2-21   1857   8   0.21083225   nodesDOCUMENT:DATE:LOCATION-edgesREFERENCES-date_th0.25-doc_th0.6-loc_th0.4
1   rel2-21   1859   9   0.21083225   nodesDOCUMENT:DATE:LOCATION-edgesREFERENCES-date_th0.25-doc_th0.6-loc_th0.4
1   rel2-21   cawnpore   10   0.20389108   nodesDOCUMENT:DATE:LOCATION-edgesREFERENCES-date_th0.25-doc_th0.6-loc_th0.4
1   rel2-21   terai   11   0.15582155   nodesDOCUMENT:DATE:LOCATION-edgesREFERENCES-date_th0.25-doc_th0.6-loc_th0.4
1   rel2-21   chingli   12   0.15582155   nodesDOCUMENT:DATE:LOCATION-edgesREFERENCES-date_th0.25-doc_th0.6-loc_th0.4
1   rel2-21   meerut   13   0.15582155   nodesDOCUMENT:DATE:LOCATION-edgesREFERENCES-date_th0.25-doc_th0.6-loc_th0.4
1   rel2-21   city   14   0.107255004   nodesDOCUMENT:DATE:LOCATION-edgesREFERENCES-date_th0.25-doc_th0.6-loc_th0.4
1   rel2-21   1863   15   0.107255004   nodesDOCUMENT:DATE:LOCATION-edgesREFERENCES-date_th0.25-doc_th0.6-loc_th0.4
1   rel2-21   kakrala   16   0.107255004   nodesDOCUMENT:DATE:LOCATION-edgesREFERENCES-date_th0.25-doc_th0.6-loc_th0.4
1   rel2-21   punjaub   17   0.107255004   nodesDOCUMENT:DATE:LOCATION-edgesREFERENCES-date_th0.25-doc_th0.6-loc_th0.4
1   rel2-21   1764   18   0.107255004   nodesDOCUMENT:DATE:LOCATION-edgesREFERENCES-date_th0.25-doc_th0.6-loc_th0.4
1   rel2-21   1851   19   0.107255004   nodesDOCUMENT:DATE:LOCATION-edgesREFERENCES-date_th0.25-doc_th0.6-loc_th0.4
1   rel2-21   1861   20   0.107255004   nodesDOCUMENT:DATE:LOCATION-edgesREFERENCES-date_th0.25-doc_th0.6-loc_th0.4

###################################
# top nodes: 

# 1   rel2-21   newannualarmylis1874hart_481   1   1.0   nodesDOCUMENT:DATE:LOCATION-edgesREFERENCES-date_th0.25-doc_th0.6-loc_th0.4
# 1   rel2-21   newannualarmylis1874hart_466   2   1.0   nodesDOCUMENT:DATE:LOCATION-edgesREFERENCES-date_th0.25-doc_th0.6-loc_th0.4
# 1   rel2-21   delhi   3   0.49853885   nodesDOCUMENT:DATE:LOCATION-edgesREFERENCES-date_th0.25-doc_th0.6-loc_th0.4
# 1   rel2-21   lucknow   4   0.41818276   nodesDOCUMENT:DATE:LOCATION-edgesREFERENCES-date_th0.25-doc_th0.6-loc_th0.4
# 1   rel2-21   hartsannualarmy17hartgoog_258   5   0.40498686   nodesDOCUMENT:DATE:LOCATION-edgesREFERENCES-date_th0.25-doc_th0.6-loc_th0.4
# 1   rel2-21   agra   6   0.4027046   nodesDOCUMENT:DATE:LOCATION-edgesREFERENCES-date_th0.25-doc_th0.6-loc_th0.4
# 1   rel2-21   hartsannualarmy17hartgoog_280   7   0.39633295   nodesDOCUMENT:DATE:LOCATION-edgesREFERENCES-date_th0.25-doc_th0.6-loc_th0.4
# 1   rel2-21   hartsannualarmy17hartgoog_257   8   0.37688956   nodesDOCUMENT:DATE:LOCATION-edgesREFERENCES-date_th0.25-doc_th0.6-loc_th0.4
# 1   rel2-21   newannualarmylis1874hart_176   9   0.36628297   nodesDOCUMENT:DATE:LOCATION-edgesREFERENCES-date_th0.25-doc_th0.6-loc_th0.4
# 1   rel2-21   newannualarmylis1874hart_203   10   0.3657717   nodesDOCUMENT:DATE:LOCATION-edgesREFERENCES-date_th0.25-doc_th0.6-loc_th0.4
# 1   rel2-21   gwalior   11   0.36048275   nodesDOCUMENT:DATE:LOCATION-edgesREFERENCES-date_th0.25-doc_th0.6-loc_th0.4
# 1   rel2-21   newannualarmylis1874hart_479   12   0.35809168   nodesDOCUMENT:DATE:LOCATION-edgesREFERENCES-date_th0.25-doc_th0.6-loc_th0.4
# 1   rel2-21   hartsannualarmy17hartgoog_568   13   0.3505094   nodesDOCUMENT:DATE:LOCATION-edgesREFERENCES-date_th0.25-doc_th0.6-loc_th0.4
# 1   rel2-21   hartsannualarmy17hartgoog_256   14   0.34604484   nodesDOCUMENT:DATE:LOCATION-edgesREFERENCES-date_th0.25-doc_th0.6-loc_th0.4
# 1   rel2-21   hartsannualarmy17hartgoog_212   15   0.34005398   nodesDOCUMENT:DATE:LOCATION-edgesREFERENCES-date_th0.25-doc_th0.6-loc_th0.4
# 1   rel2-21   blackwoodsmagazi134edinuoft_786   16   0.3356454   nodesDOCUMENT:DATE:LOCATION-edgesREFERENCES-date_th0.25-doc_th0.6-loc_th0.4
# 1   rel2-21   newannualarmylis1874hart_409   17   0.33330503   nodesDOCUMENT:DATE:LOCATION-edgesREFERENCES-date_th0.25-doc_th0.6-loc_th0.4
# 1   rel2-21   fortyoneyearsini00robe_20   18   0.32675073   nodesDOCUMENT:DATE:LOCATION-edgesREFERENCES-date_th0.25-doc_th0.6-loc_th0.4
# 1   rel2-21   newannualarmylis1874hart_472   19   0.3229378   nodesDOCUMENT:DATE:LOCATION-edgesREFERENCES-date_th0.25-doc_th0.6-loc_th0.4
# 1   rel2-21   newannualarmylis1874hart_483   20   0.32219926   nodesDOCUMENT:DATE:LOCATION-edgesREFERENCES-date_th0.25-doc_th0.6-loc_th0.4
# 1   rel2-21   narrativeofvisit00fort_266   21   0.31839186   nodesDOCUMENT:DATE:LOCATION-edgesREFERENCES-date_th0.25-doc_th0.6-loc_th0.4
# 1   rel2-21   cu31924023561933_82   22   0.31839186   nodesDOCUMENT:DATE:LOCATION-edgesREFERENCES-date_th0.25-doc_th0.6-loc_th0.4
# 1   rel2-21   highroadofempire00murrrich_223   23   0.31839186   nodesDOCUMENT:DATE:LOCATION-edgesREFERENCES-date_th0.25-doc_th0.6-loc_th0.4
# 1   rel2-21   newannualarmylis1874hart_482   24   0.31808898   nodesDOCUMENT:DATE:LOCATION-edgesREFERENCES-date_th0.25-doc_th0.6-loc_th0.4
# 1   rel2-21   cu31924023223872_138   25   0.3175227   nodesDOCUMENT:DATE:LOCATION-edgesREFERENCES-date_th0.25-doc_th0.6-loc_th0.4
# 1   rel2-21   blackwoodsmagazi161edinuoft_316   26   0.31691778   nodesDOCUMENT:DATE:LOCATION-edgesREFERENCES-date_th0.25-doc_th0.6-loc_th0.4
# 1   rel2-21   newannualarmylis1874hart_175   27   0.31610915   nodesDOCUMENT:DATE:LOCATION-edgesREFERENCES-date_th0.25-doc_th0.6-loc_th0.4
# 1   rel2-21   aroundworld00hend_265   28   0.3133135   nodesDOCUMENT:DATE:LOCATION-edgesREFERENCES-date_th0.25-doc_th0.6-loc_th0.4
# 1   rel2-21   blackwoodsmagazi84edinuoft_510   29   0.31212467   nodesDOCUMENT:DATE:LOCATION-edgesREFERENCES-date_th0.25-doc_th0.6-loc_th0.4
# 1   rel2-21   hartsannualarmy17hartgoog_279   30   0.3112446   nodesDOCUMENT:DATE:LOCATION-edgesREFERENCES-date_th0.25-doc_th0.6-loc_th0.4
# 1   rel2-21   highroadofempire00murrrich_377   31   0.30936775   nodesDOCUMENT:DATE:LOCATION-edgesREFERENCES-date_th0.25-doc_th0.6-loc_th0.4
# 1   rel2-21   cu31924023968237_411   32   0.30707797   nodesDOCUMENT:DATE:LOCATION-edgesREFERENCES-date_th0.25-doc_th0.6-loc_th0.4
# 1   rel2-21   indianempirehist01mart_35   33   0.30595934   nodesDOCUMENT:DATE:LOCATION-edgesREFERENCES-date_th0.25-doc_th0.6-loc_th0.4
# 1   rel2-21   cu31924022525475_47   34   0.30423537   nodesDOCUMENT:DATE:LOCATION-edgesREFERENCES-date_th0.25-doc_th0.6-loc_th0.4
# 1   rel2-21   aroundworld00hend_260   35   0.30362424   nodesDOCUMENT:DATE:LOCATION-edgesREFERENCES-date_th0.25-doc_th0.6-loc_th0.4
# 1   rel2-21   newannualarmylis1898lond_633   36   0.30312985   nodesDOCUMENT:DATE:LOCATION-edgesREFERENCES-date_th0.25-doc_th0.6-loc_th0.4
# 1   rel2-21   memorialsoflife02edwa_97   37   0.30289656   nodesDOCUMENT:DATE:LOCATION-edgesREFERENCES-date_th0.25-doc_th0.6-loc_th0.4
# 1   rel2-21   cu31924023223872_92   38   0.30191028   nodesDOCUMENT:DATE:LOCATION-edgesREFERENCES-date_th0.25-doc_th0.6-loc_th0.4
# 1   rel2-21   imperialgazette18huntgoog_343   39   0.3011425   nodesDOCUMENT:DATE:LOCATION-edgesREFERENCES-date_th0.25-doc_th0.6-loc_th0.4
# 1   rel2-21   delhisiegeassau00youngoog_177   40   0.29918686   nodesDOCUMENT:DATE:LOCATION-edgesREFERENCES-date_th0.25-doc_th0.6-loc_th0.4
