###################################
# parameters: 
#   date_th: 0.3
#   doc_th: 0.5
#   loc_th: 0.4
#   nodestouse: DOCUMENT:DATE:LOCATION
#   relationships: REFERENCES

###################################
# configuration: 
#   sa.act_diff_ratio_limit = 0.01
#   sa.act_diff_ratio_limit_diff = 0.01
#   sa.function = ciir.multi.sa.function.MaxSAFunction(norm_function)
#   sa.id_property_name.DATE = dateID
#   sa.id_property_name.DOCUMENT = docID
#   sa.id_property_name.LOCATION = locID
#   sa.max_pulses = 10
#   sa.nodes_to_print = DATE:LOCATION
#   sa.nodes_to_use = DOCUMENT:DATE:LOCATION
#   sa.norm_function = ciir.multi.sa.SigmoidFunction(0.0, 1.0)
#   sa.relationships_to_use = REFERENCES
#   sa.spread_threshold.DATE = 0.3
#   sa.spread_threshold.DOCUMENT = 0.5
#   sa.spread_threshold.LOCATION = 0.4
#   sa.weight_property.REFERENCES = relevance
#   sa.weight_property.SIMDATES = sim
#   sa.weight_property.SIMDOC = sim
#   sa.weight_property.SIMLOC = sim
#   sa.weight_property.SIMPAGE = pagesim

###################################
# initial activations (2): 
#   newannualarmylis1874hart_410, 1
#   newannualarmylis1874hart_463, 1

###################################
# spreading activation process log: 
#   pulse 0: activated: 2, non-zero: 2, borderline: 2, overall act: 2.000, act diff: 2.000, ratio: 1.000
#   pulse 1: activated: 62, non-zero: 62, borderline: 60, overall act: 10.155, act diff: 8.155, ratio: 0.803
#   pulse 2: activated: 5134, non-zero: 5134, borderline: 5131, overall act: 594.831, act diff: 584.676, ratio: 0.983
#   pulse 3: activated: 5134, non-zero: 5134, borderline: 5131, overall act: 594.831, act diff: 0.000, ratio: 0.000

###################################
# spreading activation process summary: 
#   final number of activated nodes: 5134
#   final overall activation: 594.8
#   number of spread. activ. pulses: 3
#   running time: 15224

###################################
# top k results in TREC format: 

1   rel2-8   lucknow   1   0.49371156   nodesDOCUMENT:DATE:LOCATION-edgesREFERENCES-date_th0.3-doc_th0.5-loc_th0.4
1   rel2-8   agra   2   0.35982493   nodesDOCUMENT:DATE:LOCATION-edgesREFERENCES-date_th0.3-doc_th0.5-loc_th0.4
1   rel2-8   shahabad   3   0.28158778   nodesDOCUMENT:DATE:LOCATION-edgesREFERENCES-date_th0.3-doc_th0.5-loc_th0.4
1   rel2-8   gwalior   4   0.24422872   nodesDOCUMENT:DATE:LOCATION-edgesREFERENCES-date_th0.3-doc_th0.5-loc_th0.4
1   rel2-8   1865   5   0.20473441   nodesDOCUMENT:DATE:LOCATION-edgesREFERENCES-date_th0.3-doc_th0.5-loc_th0.4
1   rel2-8   1857   6   0.20473441   nodesDOCUMENT:DATE:LOCATION-edgesREFERENCES-date_th0.3-doc_th0.5-loc_th0.4
1   rel2-8   1858   7   0.20473441   nodesDOCUMENT:DATE:LOCATION-edgesREFERENCES-date_th0.3-doc_th0.5-loc_th0.4
1   rel2-8   1859   8   0.20473441   nodesDOCUMENT:DATE:LOCATION-edgesREFERENCES-date_th0.3-doc_th0.5-loc_th0.4
1   rel2-8   1854   9   0.20473441   nodesDOCUMENT:DATE:LOCATION-edgesREFERENCES-date_th0.3-doc_th0.5-loc_th0.4
1   rel2-8   1868   10   0.20473441   nodesDOCUMENT:DATE:LOCATION-edgesREFERENCES-date_th0.3-doc_th0.5-loc_th0.4
1   rel2-8   1855   11   0.20473441   nodesDOCUMENT:DATE:LOCATION-edgesREFERENCES-date_th0.3-doc_th0.5-loc_th0.4
1   rel2-8   china   12   0.1910497   nodesDOCUMENT:DATE:LOCATION-edgesREFERENCES-date_th0.3-doc_th0.5-loc_th0.4
1   rel2-8   india   13   0.19034255   nodesDOCUMENT:DATE:LOCATION-edgesREFERENCES-date_th0.3-doc_th0.5-loc_th0.4
1   rel2-8   cabool   14   0.18963519   nodesDOCUMENT:DATE:LOCATION-edgesREFERENCES-date_th0.3-doc_th0.5-loc_th0.4
1   rel2-8   bengal   15   0.15209739   nodesDOCUMENT:DATE:LOCATION-edgesREFERENCES-date_th0.3-doc_th0.5-loc_th0.4
1   rel2-8   cawnpore   16   0.15096098   nodesDOCUMENT:DATE:LOCATION-edgesREFERENCES-date_th0.3-doc_th0.5-loc_th0.4
1   rel2-8   sobraon   17   0.15096098   nodesDOCUMENT:DATE:LOCATION-edgesREFERENCES-date_th0.3-doc_th0.5-loc_th0.4
1   rel2-8   panjnad river   18   0.15096098   nodesDOCUMENT:DATE:LOCATION-edgesREFERENCES-date_th0.3-doc_th0.5-loc_th0.4
1   rel2-8   punjaub   19   0.15096098   nodesDOCUMENT:DATE:LOCATION-edgesREFERENCES-date_th0.3-doc_th0.5-loc_th0.4
1   rel2-8   1863   20   0.107255004   nodesDOCUMENT:DATE:LOCATION-edgesREFERENCES-date_th0.3-doc_th0.5-loc_th0.4

###################################
# top nodes: 

# 1   rel2-8   newannualarmylis1874hart_463   1   1.0   nodesDOCUMENT:DATE:LOCATION-edgesREFERENCES-date_th0.3-doc_th0.5-loc_th0.4
# 1   rel2-8   newannualarmylis1874hart_410   2   1.0   nodesDOCUMENT:DATE:LOCATION-edgesREFERENCES-date_th0.3-doc_th0.5-loc_th0.4
# 1   rel2-8   lucknow   3   0.49371156   nodesDOCUMENT:DATE:LOCATION-edgesREFERENCES-date_th0.3-doc_th0.5-loc_th0.4
# 1   rel2-8   agra   4   0.35982493   nodesDOCUMENT:DATE:LOCATION-edgesREFERENCES-date_th0.3-doc_th0.5-loc_th0.4
# 1   rel2-8   shahabad   5   0.28158778   nodesDOCUMENT:DATE:LOCATION-edgesREFERENCES-date_th0.3-doc_th0.5-loc_th0.4
# 1   rel2-8   gwalior   6   0.24422872   nodesDOCUMENT:DATE:LOCATION-edgesREFERENCES-date_th0.3-doc_th0.5-loc_th0.4
# 1   rel2-8   apersonaljourna00andegoog_121   7   0.24196078   nodesDOCUMENT:DATE:LOCATION-edgesREFERENCES-date_th0.3-doc_th0.5-loc_th0.4
# 1   rel2-8   systemsoflandte00cobd_226   8   0.24196078   nodesDOCUMENT:DATE:LOCATION-edgesREFERENCES-date_th0.3-doc_th0.5-loc_th0.4
# 1   rel2-8   reportsofmission1896pres_306   9   0.24196078   nodesDOCUMENT:DATE:LOCATION-edgesREFERENCES-date_th0.3-doc_th0.5-loc_th0.4
# 1   rel2-8   apersonaljourna00andegoog_110   10   0.24196078   nodesDOCUMENT:DATE:LOCATION-edgesREFERENCES-date_th0.3-doc_th0.5-loc_th0.4
# 1   rel2-8   tennysonhisarta01broogoog_251   11   0.24196078   nodesDOCUMENT:DATE:LOCATION-edgesREFERENCES-date_th0.3-doc_th0.5-loc_th0.4
# 1   rel2-8   journalofroyalin7188183roya_413   12   0.24196078   nodesDOCUMENT:DATE:LOCATION-edgesREFERENCES-date_th0.3-doc_th0.5-loc_th0.4
# 1   rel2-8   phoeberowe01thob_185   13   0.24196078   nodesDOCUMENT:DATE:LOCATION-edgesREFERENCES-date_th0.3-doc_th0.5-loc_th0.4
# 1   rel2-8   narrativemutini00hutcgoog_6   14   0.24196078   nodesDOCUMENT:DATE:LOCATION-edgesREFERENCES-date_th0.3-doc_th0.5-loc_th0.4
# 1   rel2-8   fortyoneyearsini00robe_316   15   0.24196078   nodesDOCUMENT:DATE:LOCATION-edgesREFERENCES-date_th0.3-doc_th0.5-loc_th0.4
# 1   rel2-8   lifeofclaudmarti00hill_182   16   0.24196078   nodesDOCUMENT:DATE:LOCATION-edgesREFERENCES-date_th0.3-doc_th0.5-loc_th0.4
# 1   rel2-8   reminiscencesofb00edwauoft_279   17   0.24196078   nodesDOCUMENT:DATE:LOCATION-edgesREFERENCES-date_th0.3-doc_th0.5-loc_th0.4
# 1   rel2-8   libraryofworldsbe22warn_51   18   0.24196078   nodesDOCUMENT:DATE:LOCATION-edgesREFERENCES-date_th0.3-doc_th0.5-loc_th0.4
# 1   rel2-8   reminiscencesofb00edwauoft_267   19   0.24196078   nodesDOCUMENT:DATE:LOCATION-edgesREFERENCES-date_th0.3-doc_th0.5-loc_th0.4
# 1   rel2-8   memoirofsirwilli00veitrich_344   20   0.24196078   nodesDOCUMENT:DATE:LOCATION-edgesREFERENCES-date_th0.3-doc_th0.5-loc_th0.4
# 1   rel2-8   newannualarmylis1898lond_946   21   0.24196078   nodesDOCUMENT:DATE:LOCATION-edgesREFERENCES-date_th0.3-doc_th0.5-loc_th0.4
# 1   rel2-8   reminiscencesofb00edwauoft_211   22   0.24196078   nodesDOCUMENT:DATE:LOCATION-edgesREFERENCES-date_th0.3-doc_th0.5-loc_th0.4
# 1   rel2-8   reminiscencesofb00edwauoft_234   23   0.24196078   nodesDOCUMENT:DATE:LOCATION-edgesREFERENCES-date_th0.3-doc_th0.5-loc_th0.4
# 1   rel2-8   reminiscencesofb00edwauoft_231   24   0.24196078   nodesDOCUMENT:DATE:LOCATION-edgesREFERENCES-date_th0.3-doc_th0.5-loc_th0.4
# 1   rel2-8   reminiscencesofb00edwauoft_230   25   0.24196078   nodesDOCUMENT:DATE:LOCATION-edgesREFERENCES-date_th0.3-doc_th0.5-loc_th0.4
# 1   rel2-8   passionsanimals00thomgoog_139   26   0.24196078   nodesDOCUMENT:DATE:LOCATION-edgesREFERENCES-date_th0.3-doc_th0.5-loc_th0.4
# 1   rel2-8   historyofindianm01forr_16   27   0.24196078   nodesDOCUMENT:DATE:LOCATION-edgesREFERENCES-date_th0.3-doc_th0.5-loc_th0.4
# 1   rel2-8   historyofindianm01forr_14   28   0.24196078   nodesDOCUMENT:DATE:LOCATION-edgesREFERENCES-date_th0.3-doc_th0.5-loc_th0.4
# 1   rel2-8   historyofindianm01forr_29   29   0.24196078   nodesDOCUMENT:DATE:LOCATION-edgesREFERENCES-date_th0.3-doc_th0.5-loc_th0.4
# 1   rel2-8   memorialsoflife02edwa_52   30   0.24196078   nodesDOCUMENT:DATE:LOCATION-edgesREFERENCES-date_th0.3-doc_th0.5-loc_th0.4
# 1   rel2-8   recordsofindianm06indi_263   31   0.24196078   nodesDOCUMENT:DATE:LOCATION-edgesREFERENCES-date_th0.3-doc_th0.5-loc_th0.4
# 1   rel2-8   macmillansmagazi43macmuoft_261   32   0.24196078   nodesDOCUMENT:DATE:LOCATION-edgesREFERENCES-date_th0.3-doc_th0.5-loc_th0.4
# 1   rel2-8   memorialsoflife02edwa_49   33   0.24196078   nodesDOCUMENT:DATE:LOCATION-edgesREFERENCES-date_th0.3-doc_th0.5-loc_th0.4
# 1   rel2-8   livesofindianoff02kayeiala_346   34   0.24196078   nodesDOCUMENT:DATE:LOCATION-edgesREFERENCES-date_th0.3-doc_th0.5-loc_th0.4
# 1   rel2-8   livesofindianoff02kayeiala_348   35   0.24196078   nodesDOCUMENT:DATE:LOCATION-edgesREFERENCES-date_th0.3-doc_th0.5-loc_th0.4
# 1   rel2-8   cu31924022927283_266   36   0.24196078   nodesDOCUMENT:DATE:LOCATION-edgesREFERENCES-date_th0.3-doc_th0.5-loc_th0.4
# 1   rel2-8   cu31924013563865_47   37   0.24196078   nodesDOCUMENT:DATE:LOCATION-edgesREFERENCES-date_th0.3-doc_th0.5-loc_th0.4
# 1   rel2-8   lifeofisabellath00thobrich_290   38   0.24196078   nodesDOCUMENT:DATE:LOCATION-edgesREFERENCES-date_th0.3-doc_th0.5-loc_th0.4
# 1   rel2-8   lifeofisabellath00thobrich_286   39   0.24196078   nodesDOCUMENT:DATE:LOCATION-edgesREFERENCES-date_th0.3-doc_th0.5-loc_th0.4
# 1   rel2-8   troubadourselect00gibbuoft_36   40   0.24196078   nodesDOCUMENT:DATE:LOCATION-edgesREFERENCES-date_th0.3-doc_th0.5-loc_th0.4
