###################################
# parameters: 
#   date_th: 0.25
#   doc_th: 0.6
#   loc_th: 0.35
#   nodestouse: DOCUMENT:DATE:LOCATION
#   relationships: REFERENCES

###################################
# configuration: 
#   sa.act_diff_ratio_limit = 0.01
#   sa.act_diff_ratio_limit_diff = 0.01
#   sa.function = ciir.multi.sa.function.MaxSAFunction(norm_function)
#   sa.id_property_name.DATE = dateID
#   sa.id_property_name.DOCUMENT = docID
#   sa.id_property_name.LOCATION = locID
#   sa.max_pulses = 10
#   sa.nodes_to_print = DATE:LOCATION
#   sa.nodes_to_use = DOCUMENT:DATE:LOCATION
#   sa.norm_function = ciir.multi.sa.SigmoidFunction(0.0, 1.0)
#   sa.relationships_to_use = REFERENCES
#   sa.spread_threshold.DATE = 0.25
#   sa.spread_threshold.DOCUMENT = 0.6
#   sa.spread_threshold.LOCATION = 0.35
#   sa.weight_property.REFERENCES = relevance
#   sa.weight_property.SIMDATES = sim
#   sa.weight_property.SIMDOC = sim
#   sa.weight_property.SIMLOC = sim
#   sa.weight_property.SIMPAGE = pagesim

###################################
# initial activations (2): 
#   newannualarmylis1874hart_466, 1
#   newannualarmylis1874hart_228, 1

###################################
# spreading activation process log: 
#   pulse 0: activated: 2, non-zero: 2, borderline: 2, overall act: 2.000, act diff: 2.000, ratio: 1.000
#   pulse 1: activated: 43, non-zero: 43, borderline: 41, overall act: 8.587, act diff: 6.587, ratio: 0.767
#   pulse 2: activated: 5115, non-zero: 5115, borderline: 5112, overall act: 656.386, act diff: 647.799, ratio: 0.987
#   pulse 3: activated: 5115, non-zero: 5115, borderline: 5112, overall act: 656.386, act diff: 0.000, ratio: 0.000

###################################
# spreading activation process summary: 
#   final number of activated nodes: 5115
#   final overall activation: 656.4
#   number of spread. activ. pulses: 3
#   running time: 9948

###################################
# top k results in TREC format: 

1   rel2-22   lucknow   1   0.5481274   nodesDOCUMENT:DATE:LOCATION-edgesREFERENCES-date_th0.25-doc_th0.6-loc_th0.35
1   rel2-22   gwalior   2   0.27135015   nodesDOCUMENT:DATE:LOCATION-edgesREFERENCES-date_th0.25-doc_th0.6-loc_th0.35
1   rel2-22   delhi   3   0.24491866   nodesDOCUMENT:DATE:LOCATION-edgesREFERENCES-date_th0.25-doc_th0.6-loc_th0.35
1   rel2-22   chanda   4   0.23942329   nodesDOCUMENT:DATE:LOCATION-edgesREFERENCES-date_th0.25-doc_th0.6-loc_th0.35
1   rel2-22   1848   5   0.2247928   nodesDOCUMENT:DATE:LOCATION-edgesREFERENCES-date_th0.25-doc_th0.6-loc_th0.35
1   rel2-22   1852   6   0.2247928   nodesDOCUMENT:DATE:LOCATION-edgesREFERENCES-date_th0.25-doc_th0.6-loc_th0.35
1   rel2-22   1853   7   0.2247928   nodesDOCUMENT:DATE:LOCATION-edgesREFERENCES-date_th0.25-doc_th0.6-loc_th0.35
1   rel2-22   1855   8   0.2247928   nodesDOCUMENT:DATE:LOCATION-edgesREFERENCES-date_th0.25-doc_th0.6-loc_th0.35
1   rel2-22   1845   9   0.2247928   nodesDOCUMENT:DATE:LOCATION-edgesREFERENCES-date_th0.25-doc_th0.6-loc_th0.35
1   rel2-22   1846   10   0.2247928   nodesDOCUMENT:DATE:LOCATION-edgesREFERENCES-date_th0.25-doc_th0.6-loc_th0.35
1   rel2-22   1857   11   0.2247928   nodesDOCUMENT:DATE:LOCATION-edgesREFERENCES-date_th0.25-doc_th0.6-loc_th0.35
1   rel2-22   1858   12   0.2247928   nodesDOCUMENT:DATE:LOCATION-edgesREFERENCES-date_th0.25-doc_th0.6-loc_th0.35
1   rel2-22   1859   13   0.2247928   nodesDOCUMENT:DATE:LOCATION-edgesREFERENCES-date_th0.25-doc_th0.6-loc_th0.35
1   rel2-22   1849   14   0.2247928   nodesDOCUMENT:DATE:LOCATION-edgesREFERENCES-date_th0.25-doc_th0.6-loc_th0.35
1   rel2-22   agra   15   0.16901405   nodesDOCUMENT:DATE:LOCATION-edgesREFERENCES-date_th0.25-doc_th0.6-loc_th0.35
1   rel2-22   arrah   16   0.16514042   nodesDOCUMENT:DATE:LOCATION-edgesREFERENCES-date_th0.25-doc_th0.6-loc_th0.35
1   rel2-22   1856   17   0.121718764   nodesDOCUMENT:DATE:LOCATION-edgesREFERENCES-date_th0.25-doc_th0.6-loc_th0.35
1   rel2-22   1851   18   0.121718764   nodesDOCUMENT:DATE:LOCATION-edgesREFERENCES-date_th0.25-doc_th0.6-loc_th0.35
1   rel2-22   1847   19   0.121718764   nodesDOCUMENT:DATE:LOCATION-edgesREFERENCES-date_th0.25-doc_th0.6-loc_th0.35
1   rel2-22   kakrala   20   0.107255004   nodesDOCUMENT:DATE:LOCATION-edgesREFERENCES-date_th0.25-doc_th0.6-loc_th0.35

###################################
# top nodes: 

# 1   rel2-22   newannualarmylis1874hart_466   1   1.0   nodesDOCUMENT:DATE:LOCATION-edgesREFERENCES-date_th0.25-doc_th0.6-loc_th0.35
# 1   rel2-22   newannualarmylis1874hart_228   2   1.0   nodesDOCUMENT:DATE:LOCATION-edgesREFERENCES-date_th0.25-doc_th0.6-loc_th0.35
# 1   rel2-22   lucknow   3   0.5481274   nodesDOCUMENT:DATE:LOCATION-edgesREFERENCES-date_th0.25-doc_th0.6-loc_th0.35
# 1   rel2-22   gwalior   4   0.27135015   nodesDOCUMENT:DATE:LOCATION-edgesREFERENCES-date_th0.25-doc_th0.6-loc_th0.35
# 1   rel2-22   apersonaljourna00andegoog_121   5   0.26740205   nodesDOCUMENT:DATE:LOCATION-edgesREFERENCES-date_th0.25-doc_th0.6-loc_th0.35
# 1   rel2-22   systemsoflandte00cobd_226   6   0.26740205   nodesDOCUMENT:DATE:LOCATION-edgesREFERENCES-date_th0.25-doc_th0.6-loc_th0.35
# 1   rel2-22   reportsofmission1896pres_306   7   0.26740205   nodesDOCUMENT:DATE:LOCATION-edgesREFERENCES-date_th0.25-doc_th0.6-loc_th0.35
# 1   rel2-22   apersonaljourna00andegoog_110   8   0.26740205   nodesDOCUMENT:DATE:LOCATION-edgesREFERENCES-date_th0.25-doc_th0.6-loc_th0.35
# 1   rel2-22   tennysonhisarta01broogoog_251   9   0.26740205   nodesDOCUMENT:DATE:LOCATION-edgesREFERENCES-date_th0.25-doc_th0.6-loc_th0.35
# 1   rel2-22   journalofroyalin7188183roya_413   10   0.26740205   nodesDOCUMENT:DATE:LOCATION-edgesREFERENCES-date_th0.25-doc_th0.6-loc_th0.35
# 1   rel2-22   phoeberowe01thob_185   11   0.26740205   nodesDOCUMENT:DATE:LOCATION-edgesREFERENCES-date_th0.25-doc_th0.6-loc_th0.35
# 1   rel2-22   narrativemutini00hutcgoog_6   12   0.26740205   nodesDOCUMENT:DATE:LOCATION-edgesREFERENCES-date_th0.25-doc_th0.6-loc_th0.35
# 1   rel2-22   fortyoneyearsini00robe_316   13   0.26740205   nodesDOCUMENT:DATE:LOCATION-edgesREFERENCES-date_th0.25-doc_th0.6-loc_th0.35
# 1   rel2-22   lifeofclaudmarti00hill_182   14   0.26740205   nodesDOCUMENT:DATE:LOCATION-edgesREFERENCES-date_th0.25-doc_th0.6-loc_th0.35
# 1   rel2-22   reminiscencesofb00edwauoft_279   15   0.26740205   nodesDOCUMENT:DATE:LOCATION-edgesREFERENCES-date_th0.25-doc_th0.6-loc_th0.35
# 1   rel2-22   libraryofworldsbe22warn_51   16   0.26740205   nodesDOCUMENT:DATE:LOCATION-edgesREFERENCES-date_th0.25-doc_th0.6-loc_th0.35
# 1   rel2-22   reminiscencesofb00edwauoft_267   17   0.26740205   nodesDOCUMENT:DATE:LOCATION-edgesREFERENCES-date_th0.25-doc_th0.6-loc_th0.35
# 1   rel2-22   memoirofsirwilli00veitrich_344   18   0.26740205   nodesDOCUMENT:DATE:LOCATION-edgesREFERENCES-date_th0.25-doc_th0.6-loc_th0.35
# 1   rel2-22   newannualarmylis1898lond_946   19   0.26740205   nodesDOCUMENT:DATE:LOCATION-edgesREFERENCES-date_th0.25-doc_th0.6-loc_th0.35
# 1   rel2-22   reminiscencesofb00edwauoft_211   20   0.26740205   nodesDOCUMENT:DATE:LOCATION-edgesREFERENCES-date_th0.25-doc_th0.6-loc_th0.35
# 1   rel2-22   reminiscencesofb00edwauoft_234   21   0.26740205   nodesDOCUMENT:DATE:LOCATION-edgesREFERENCES-date_th0.25-doc_th0.6-loc_th0.35
# 1   rel2-22   reminiscencesofb00edwauoft_231   22   0.26740205   nodesDOCUMENT:DATE:LOCATION-edgesREFERENCES-date_th0.25-doc_th0.6-loc_th0.35
# 1   rel2-22   reminiscencesofb00edwauoft_230   23   0.26740205   nodesDOCUMENT:DATE:LOCATION-edgesREFERENCES-date_th0.25-doc_th0.6-loc_th0.35
# 1   rel2-22   passionsanimals00thomgoog_139   24   0.26740205   nodesDOCUMENT:DATE:LOCATION-edgesREFERENCES-date_th0.25-doc_th0.6-loc_th0.35
# 1   rel2-22   historyofindianm01forr_16   25   0.26740205   nodesDOCUMENT:DATE:LOCATION-edgesREFERENCES-date_th0.25-doc_th0.6-loc_th0.35
# 1   rel2-22   historyofindianm01forr_14   26   0.26740205   nodesDOCUMENT:DATE:LOCATION-edgesREFERENCES-date_th0.25-doc_th0.6-loc_th0.35
# 1   rel2-22   historyofindianm01forr_29   27   0.26740205   nodesDOCUMENT:DATE:LOCATION-edgesREFERENCES-date_th0.25-doc_th0.6-loc_th0.35
# 1   rel2-22   memorialsoflife02edwa_52   28   0.26740205   nodesDOCUMENT:DATE:LOCATION-edgesREFERENCES-date_th0.25-doc_th0.6-loc_th0.35
# 1   rel2-22   recordsofindianm06indi_263   29   0.26740205   nodesDOCUMENT:DATE:LOCATION-edgesREFERENCES-date_th0.25-doc_th0.6-loc_th0.35
# 1   rel2-22   macmillansmagazi43macmuoft_261   30   0.26740205   nodesDOCUMENT:DATE:LOCATION-edgesREFERENCES-date_th0.25-doc_th0.6-loc_th0.35
# 1   rel2-22   memorialsoflife02edwa_49   31   0.26740205   nodesDOCUMENT:DATE:LOCATION-edgesREFERENCES-date_th0.25-doc_th0.6-loc_th0.35
# 1   rel2-22   livesofindianoff02kayeiala_346   32   0.26740205   nodesDOCUMENT:DATE:LOCATION-edgesREFERENCES-date_th0.25-doc_th0.6-loc_th0.35
# 1   rel2-22   livesofindianoff02kayeiala_348   33   0.26740205   nodesDOCUMENT:DATE:LOCATION-edgesREFERENCES-date_th0.25-doc_th0.6-loc_th0.35
# 1   rel2-22   cu31924022927283_266   34   0.26740205   nodesDOCUMENT:DATE:LOCATION-edgesREFERENCES-date_th0.25-doc_th0.6-loc_th0.35
# 1   rel2-22   cu31924013563865_47   35   0.26740205   nodesDOCUMENT:DATE:LOCATION-edgesREFERENCES-date_th0.25-doc_th0.6-loc_th0.35
# 1   rel2-22   lifeofisabellath00thobrich_290   36   0.26740205   nodesDOCUMENT:DATE:LOCATION-edgesREFERENCES-date_th0.25-doc_th0.6-loc_th0.35
# 1   rel2-22   lifeofisabellath00thobrich_286   37   0.26740205   nodesDOCUMENT:DATE:LOCATION-edgesREFERENCES-date_th0.25-doc_th0.6-loc_th0.35
# 1   rel2-22   troubadourselect00gibbuoft_36   38   0.26740205   nodesDOCUMENT:DATE:LOCATION-edgesREFERENCES-date_th0.25-doc_th0.6-loc_th0.35
# 1   rel2-22   journaloftravels00wina_252   39   0.26740205   nodesDOCUMENT:DATE:LOCATION-edgesREFERENCES-date_th0.25-doc_th0.6-loc_th0.35
# 1   rel2-22   journaloftravels00wina_251   40   0.26740205   nodesDOCUMENT:DATE:LOCATION-edgesREFERENCES-date_th0.25-doc_th0.6-loc_th0.35
