relationships,lambda,decay,norm_threshold,number of spread. activ. pulses,final number of activated nodes,final overall activation,running time,run-id,map,P10,P20,
,,,,,,,,22books/eyor-mini-no_cats.res,0.115,0.600,0.400,
REFERENCES:SIMDATES,,,,6,11335,5.0,927,22books-clean/output/query1-runREFERENCES:SIMDATES/iterQ1-initlambda0.5-lambdastep0.1.res,0.189,0.600,0.350,

Sig-Test:,randomized,,threshold,set,to,0.050000
