nodestouse,relationships,doc_th,date_th,loc_th,iter,seeds,number of spread. activ. pulses,final number of activated nodes,final overall activation,running time,run-id,map,P5,P10,P20,R-prec,
DOCUMENT:DATE:LOCATION,REFERENCES:SIMLOC:SIMPAGE,0.7,0.25,0.35,rel2-2,2,3,980302,126687.5,186032,book_collection_true_dates/location/query8//useDOCUMENT:DATE:LOCATIONuseREFERENCES:SIMLOC:SIMPAGE/rel2-2-date_th0.25-doc_th0.7-loc_th0.35.res.clean,0.134,0.400,0.200,0.150,0.214,
DOCUMENT:DATE:LOCATION,REFERENCES:SIMLOC:SIMPAGE,0.6,0.3,0.4,rel1-1,1,2,242,18.2,41485,book_collection_true_dates/location/query8//useDOCUMENT:DATE:LOCATIONuseREFERENCES:SIMLOC:SIMPAGE/rel1-1-date_th0.3-doc_th0.6-loc_th0.4.res.clean,0.226,0.400,0.400,0.294,0.286,
DOCUMENT:DATE:LOCATION,REFERENCES:SIMLOC:SIMPAGE,0.7,0.25,0.4,rel1-2,1,2,18,4.3,8264,book_collection_true_dates/location/query8//useDOCUMENT:DATE:LOCATIONuseREFERENCES:SIMLOC:SIMPAGE/rel1-2-date_th0.25-doc_th0.7-loc_th0.4.res.clean,0.216,0.400,0.500,0.417,0.000,
DOCUMENT:DATE:LOCATION,REFERENCES:SIMLOC:SIMPAGE,0.5,0.25,0.35,rel1-1,1,2,242,18.2,55716,book_collection_true_dates/location/query8//useDOCUMENT:DATE:LOCATIONuseREFERENCES:SIMLOC:SIMPAGE/rel1-1-date_th0.25-doc_th0.5-loc_th0.35.res.clean,0.226,0.400,0.400,0.294,0.286,
DOCUMENT:DATE:LOCATION,REFERENCES:SIMLOC:SIMPAGE,0.5,0.25,0.35,rel1-3,1,2,20,4.4,21614,book_collection_true_dates/location/query8//useDOCUMENT:DATE:LOCATIONuseREFERENCES:SIMLOC:SIMPAGE/rel1-3-date_th0.25-doc_th0.5-loc_th0.35.res.clean,0.100,0.400,0.200,0.182,0.000,
DOCUMENT:DATE:LOCATION,REFERENCES:SIMLOC:SIMPAGE,0.7,0.25,0.35,rel2-1,2,3,99744,9455.5,72277,book_collection_true_dates/location/query8//useDOCUMENT:DATE:LOCATIONuseREFERENCES:SIMLOC:SIMPAGE/rel2-1-date_th0.25-doc_th0.7-loc_th0.35.res.clean,0.186,0.600,0.300,0.150,0.214,
DOCUMENT:DATE:LOCATION,REFERENCES:SIMLOC:SIMPAGE,0.6,0.25,0.35,rel2-3,2,3,5083,492.3,30529,book_collection_true_dates/location/query8//useDOCUMENT:DATE:LOCATIONuseREFERENCES:SIMLOC:SIMPAGE/rel2-3-date_th0.25-doc_th0.6-loc_th0.35.res.clean,0.277,0.600,0.400,0.300,0.429,
DOCUMENT:DATE:LOCATION,REFERENCES:SIMLOC:SIMPAGE,0.7,0.3,0.4,rel2-2,2,3,980302,126687.5,195241,book_collection_true_dates/location/query8//useDOCUMENT:DATE:LOCATIONuseREFERENCES:SIMLOC:SIMPAGE/rel2-2-date_th0.3-doc_th0.7-loc_th0.4.res.clean,0.134,0.400,0.200,0.150,0.214,
DOCUMENT:DATE:LOCATION,REFERENCES:SIMLOC:SIMPAGE,0.7,0.25,0.35,rel3-1,3,3,1044485,136529.8,207617,book_collection_true_dates/location/query8//useDOCUMENT:DATE:LOCATIONuseREFERENCES:SIMLOC:SIMPAGE/rel3-1-date_th0.25-doc_th0.7-loc_th0.35.res.clean,0.196,0.600,0.300,0.150,0.214,
DOCUMENT:DATE:LOCATION,REFERENCES:SIMLOC:SIMPAGE,0.7,0.3,0.35,rel2-3,2,3,5083,492.3,30127,book_collection_true_dates/location/query8//useDOCUMENT:DATE:LOCATIONuseREFERENCES:SIMLOC:SIMPAGE/rel2-3-date_th0.3-doc_th0.7-loc_th0.35.res.clean,0.277,0.600,0.400,0.300,0.429,
DOCUMENT:DATE:LOCATION,REFERENCES:SIMLOC:SIMPAGE,0.7,0.3,0.35,rel1-1,1,2,242,18.2,40528,book_collection_true_dates/location/query8//useDOCUMENT:DATE:LOCATIONuseREFERENCES:SIMLOC:SIMPAGE/rel1-1-date_th0.3-doc_th0.7-loc_th0.35.res.clean,0.226,0.400,0.400,0.294,0.286,
DOCUMENT:DATE:LOCATION,REFERENCES:SIMLOC:SIMPAGE,0.6,0.25,0.35,rel1-1,1,2,242,18.2,44544,book_collection_true_dates/location/query8//useDOCUMENT:DATE:LOCATIONuseREFERENCES:SIMLOC:SIMPAGE/rel1-1-date_th0.25-doc_th0.6-loc_th0.35.res.clean,0.226,0.400,0.400,0.294,0.286,
DOCUMENT:DATE:LOCATION,REFERENCES:SIMLOC:SIMPAGE,0.5,0.25,0.4,rel1-1,1,2,242,18.2,44911,book_collection_true_dates/location/query8//useDOCUMENT:DATE:LOCATIONuseREFERENCES:SIMLOC:SIMPAGE/rel1-1-date_th0.25-doc_th0.5-loc_th0.4.res.clean,0.226,0.400,0.400,0.294,0.286,
DOCUMENT:DATE:LOCATION,REFERENCES:SIMLOC:SIMPAGE,0.6,0.25,0.4,rel3-1,3,3,1044520,136536.6,216768,book_collection_true_dates/location/query8//useDOCUMENT:DATE:LOCATIONuseREFERENCES:SIMLOC:SIMPAGE/rel3-1-date_th0.25-doc_th0.6-loc_th0.4.res.clean,0.189,0.600,0.300,0.200,0.214,
DOCUMENT:DATE:LOCATION,REFERENCES:SIMLOC:SIMPAGE,0.5,0.3,0.35,rel3-1,3,3,1044520,136536.6,230662,book_collection_true_dates/location/query8//useDOCUMENT:DATE:LOCATIONuseREFERENCES:SIMLOC:SIMPAGE/rel3-1-date_th0.3-doc_th0.5-loc_th0.35.res.clean,0.189,0.600,0.300,0.200,0.214,
DOCUMENT:DATE:LOCATION,REFERENCES:SIMLOC:SIMPAGE,0.6,0.3,0.35,rel2-3,2,3,5083,492.3,30024,book_collection_true_dates/location/query8//useDOCUMENT:DATE:LOCATIONuseREFERENCES:SIMLOC:SIMPAGE/rel2-3-date_th0.3-doc_th0.6-loc_th0.35.res.clean,0.277,0.600,0.400,0.300,0.429,
DOCUMENT:DATE:LOCATION,REFERENCES:SIMLOC:SIMPAGE,0.7,0.25,0.4,rel1-3,1,2,20,4.4,21422,book_collection_true_dates/location/query8//useDOCUMENT:DATE:LOCATIONuseREFERENCES:SIMLOC:SIMPAGE/rel1-3-date_th0.25-doc_th0.7-loc_th0.4.res.clean,0.100,0.400,0.200,0.182,0.000,
DOCUMENT:DATE:LOCATION,REFERENCES:SIMLOC:SIMPAGE,0.5,0.25,0.35,rel2-3,2,3,5083,492.3,30027,book_collection_true_dates/location/query8//useDOCUMENT:DATE:LOCATIONuseREFERENCES:SIMLOC:SIMPAGE/rel2-3-date_th0.25-doc_th0.5-loc_th0.35.res.clean,0.277,0.600,0.400,0.300,0.429,
DOCUMENT:DATE:LOCATION,REFERENCES:SIMLOC:SIMPAGE,0.7,0.25,0.4,rel2-3,2,3,5083,492.3,31017,book_collection_true_dates/location/query8//useDOCUMENT:DATE:LOCATIONuseREFERENCES:SIMLOC:SIMPAGE/rel2-3-date_th0.25-doc_th0.7-loc_th0.4.res.clean,0.277,0.600,0.400,0.300,0.429,
DOCUMENT:DATE:LOCATION,REFERENCES:SIMLOC:SIMPAGE,0.5,0.3,0.4,rel1-1,1,2,242,18.2,41191,book_collection_true_dates/location/query8//useDOCUMENT:DATE:LOCATIONuseREFERENCES:SIMLOC:SIMPAGE/rel1-1-date_th0.3-doc_th0.5-loc_th0.4.res.clean,0.226,0.400,0.400,0.294,0.286,
DOCUMENT:DATE:LOCATION,REFERENCES:SIMLOC:SIMPAGE,0.5,0.25,0.35,rel3-1,3,3,1044520,136536.6,212689,book_collection_true_dates/location/query8//useDOCUMENT:DATE:LOCATIONuseREFERENCES:SIMLOC:SIMPAGE/rel3-1-date_th0.25-doc_th0.5-loc_th0.35.res.clean,0.189,0.600,0.300,0.200,0.214,
DOCUMENT:DATE:LOCATION,REFERENCES:SIMLOC:SIMPAGE,0.5,0.3,0.4,rel1-3,1,2,20,4.4,21564,book_collection_true_dates/location/query8//useDOCUMENT:DATE:LOCATIONuseREFERENCES:SIMLOC:SIMPAGE/rel1-3-date_th0.3-doc_th0.5-loc_th0.4.res.clean,0.100,0.400,0.200,0.182,0.000,
DOCUMENT:DATE:LOCATION,REFERENCES:SIMLOC:SIMPAGE,0.7,0.3,0.4,rel2-1,2,3,99744,9455.5,68725,book_collection_true_dates/location/query8//useDOCUMENT:DATE:LOCATIONuseREFERENCES:SIMLOC:SIMPAGE/rel2-1-date_th0.3-doc_th0.7-loc_th0.4.res.clean,0.186,0.600,0.300,0.150,0.214,
DOCUMENT:DATE:LOCATION,REFERENCES:SIMLOC:SIMPAGE,0.5,0.3,0.4,rel2-1,2,3,99767,9459.2,80551,book_collection_true_dates/location/query8//useDOCUMENT:DATE:LOCATIONuseREFERENCES:SIMLOC:SIMPAGE/rel2-1-date_th0.3-doc_th0.5-loc_th0.4.res.clean,0.214,0.600,0.300,0.150,0.214,
DOCUMENT:DATE:LOCATION,REFERENCES:SIMLOC:SIMPAGE,0.7,0.3,0.4,rel2-3,2,3,5083,492.3,29954,book_collection_true_dates/location/query8//useDOCUMENT:DATE:LOCATIONuseREFERENCES:SIMLOC:SIMPAGE/rel2-3-date_th0.3-doc_th0.7-loc_th0.4.res.clean,0.277,0.600,0.400,0.300,0.429,
DOCUMENT:DATE:LOCATION,REFERENCES:SIMLOC:SIMPAGE,0.6,0.25,0.35,rel2-2,2,3,980322,126691.5,197733,book_collection_true_dates/location/query8//useDOCUMENT:DATE:LOCATIONuseREFERENCES:SIMLOC:SIMPAGE/rel2-2-date_th0.25-doc_th0.6-loc_th0.35.res.clean,0.173,0.600,0.300,0.150,0.214,
DOCUMENT:DATE:LOCATION,REFERENCES:SIMLOC:SIMPAGE,0.7,0.25,0.35,rel2-3,2,3,5083,492.3,30144,book_collection_true_dates/location/query8//useDOCUMENT:DATE:LOCATIONuseREFERENCES:SIMLOC:SIMPAGE/rel2-3-date_th0.25-doc_th0.7-loc_th0.35.res.clean,0.277,0.600,0.400,0.300,0.429,
DOCUMENT:DATE:LOCATION,REFERENCES:SIMLOC:SIMPAGE,0.5,0.25,0.4,rel2-3,2,3,5083,492.3,30160,book_collection_true_dates/location/query8//useDOCUMENT:DATE:LOCATIONuseREFERENCES:SIMLOC:SIMPAGE/rel2-3-date_th0.25-doc_th0.5-loc_th0.4.res.clean,0.277,0.600,0.400,0.300,0.429,
DOCUMENT:DATE:LOCATION,REFERENCES:SIMLOC:SIMPAGE,0.6,0.25,0.4,rel1-2,1,2,18,4.3,8228,book_collection_true_dates/location/query8//useDOCUMENT:DATE:LOCATIONuseREFERENCES:SIMLOC:SIMPAGE/rel1-2-date_th0.25-doc_th0.6-loc_th0.4.res.clean,0.216,0.400,0.500,0.417,0.000,
DOCUMENT:DATE:LOCATION,REFERENCES:SIMLOC:SIMPAGE,0.6,0.25,0.35,rel3-1,3,3,1044520,136536.6,223674,book_collection_true_dates/location/query8//useDOCUMENT:DATE:LOCATIONuseREFERENCES:SIMLOC:SIMPAGE/rel3-1-date_th0.25-doc_th0.6-loc_th0.35.res.clean,0.189,0.600,0.300,0.200,0.214,
DOCUMENT:DATE:LOCATION,REFERENCES:SIMLOC:SIMPAGE,0.7,0.25,0.35,rel1-2,1,2,18,4.3,8434,book_collection_true_dates/location/query8//useDOCUMENT:DATE:LOCATIONuseREFERENCES:SIMLOC:SIMPAGE/rel1-2-date_th0.25-doc_th0.7-loc_th0.35.res.clean,0.216,0.400,0.500,0.417,0.000,
DOCUMENT:DATE:LOCATION,REFERENCES:SIMLOC:SIMPAGE,0.7,0.25,0.4,rel2-2,2,3,980302,126687.5,180113,book_collection_true_dates/location/query8//useDOCUMENT:DATE:LOCATIONuseREFERENCES:SIMLOC:SIMPAGE/rel2-2-date_th0.25-doc_th0.7-loc_th0.4.res.clean,0.134,0.400,0.200,0.150,0.214,
DOCUMENT:DATE:LOCATION,REFERENCES:SIMLOC:SIMPAGE,0.6,0.3,0.4,rel2-3,2,3,5083,492.3,30454,book_collection_true_dates/location/query8//useDOCUMENT:DATE:LOCATIONuseREFERENCES:SIMLOC:SIMPAGE/rel2-3-date_th0.3-doc_th0.6-loc_th0.4.res.clean,0.277,0.600,0.400,0.300,0.429,
DOCUMENT:DATE:LOCATION,REFERENCES:SIMLOC:SIMPAGE,0.7,0.25,0.35,rel1-3,1,2,20,4.4,21167,book_collection_true_dates/location/query8//useDOCUMENT:DATE:LOCATIONuseREFERENCES:SIMLOC:SIMPAGE/rel1-3-date_th0.25-doc_th0.7-loc_th0.35.res.clean,0.100,0.400,0.200,0.182,0.000,
DOCUMENT:DATE:LOCATION,REFERENCES:SIMLOC:SIMPAGE,0.5,0.3,0.4,rel1-2,1,2,18,4.3,8234,book_collection_true_dates/location/query8//useDOCUMENT:DATE:LOCATIONuseREFERENCES:SIMLOC:SIMPAGE/rel1-2-date_th0.3-doc_th0.5-loc_th0.4.res.clean,0.216,0.400,0.500,0.417,0.000,
DOCUMENT:DATE:LOCATION,REFERENCES:SIMLOC:SIMPAGE,0.7,0.3,0.35,rel3-1,3,3,1044485,136529.8,212393,book_collection_true_dates/location/query8//useDOCUMENT:DATE:LOCATIONuseREFERENCES:SIMLOC:SIMPAGE/rel3-1-date_th0.3-doc_th0.7-loc_th0.35.res.clean,0.196,0.600,0.300,0.150,0.214,
DOCUMENT:DATE:LOCATION,REFERENCES:SIMLOC:SIMPAGE,0.5,0.3,0.35,rel2-2,2,3,980335,126694.1,200323,book_collection_true_dates/location/query8//useDOCUMENT:DATE:LOCATIONuseREFERENCES:SIMLOC:SIMPAGE/rel2-2-date_th0.3-doc_th0.5-loc_th0.35.res.clean,0.150,0.600,0.300,0.150,0.214,
DOCUMENT:DATE:LOCATION,REFERENCES:SIMLOC:SIMPAGE,0.5,0.3,0.35,rel2-1,2,3,99767,9459.2,80100,book_collection_true_dates/location/query8//useDOCUMENT:DATE:LOCATIONuseREFERENCES:SIMLOC:SIMPAGE/rel2-1-date_th0.3-doc_th0.5-loc_th0.35.res.clean,0.214,0.600,0.300,0.150,0.214,
DOCUMENT:DATE:LOCATION,REFERENCES:SIMLOC:SIMPAGE,0.7,0.3,0.4,rel3-1,3,3,1044485,136529.8,212630,book_collection_true_dates/location/query8//useDOCUMENT:DATE:LOCATIONuseREFERENCES:SIMLOC:SIMPAGE/rel3-1-date_th0.3-doc_th0.7-loc_th0.4.res.clean,0.196,0.600,0.300,0.150,0.214,
DOCUMENT:DATE:LOCATION,REFERENCES:SIMLOC:SIMPAGE,0.6,0.3,0.35,rel2-2,2,3,980322,126691.5,194209,book_collection_true_dates/location/query8//useDOCUMENT:DATE:LOCATIONuseREFERENCES:SIMLOC:SIMPAGE/rel2-2-date_th0.3-doc_th0.6-loc_th0.35.res.clean,0.173,0.600,0.300,0.150,0.214,
DOCUMENT:DATE:LOCATION,REFERENCES:SIMLOC:SIMPAGE,0.7,0.3,0.4,rel1-2,1,2,18,4.3,8157,book_collection_true_dates/location/query8//useDOCUMENT:DATE:LOCATIONuseREFERENCES:SIMLOC:SIMPAGE/rel1-2-date_th0.3-doc_th0.7-loc_th0.4.res.clean,0.216,0.400,0.500,0.417,0.000,
DOCUMENT:DATE:LOCATION,REFERENCES:SIMLOC:SIMPAGE,0.6,0.3,0.35,rel1-2,1,2,18,4.3,8111,book_collection_true_dates/location/query8//useDOCUMENT:DATE:LOCATIONuseREFERENCES:SIMLOC:SIMPAGE/rel1-2-date_th0.3-doc_th0.6-loc_th0.35.res.clean,0.216,0.400,0.500,0.417,0.000,
DOCUMENT:DATE:LOCATION,REFERENCES:SIMLOC:SIMPAGE,0.6,0.3,0.4,rel1-3,1,2,20,4.4,21128,book_collection_true_dates/location/query8//useDOCUMENT:DATE:LOCATIONuseREFERENCES:SIMLOC:SIMPAGE/rel1-3-date_th0.3-doc_th0.6-loc_th0.4.res.clean,0.100,0.400,0.200,0.182,0.000,
DOCUMENT:DATE:LOCATION,REFERENCES:SIMLOC:SIMPAGE,0.6,0.3,0.35,rel1-1,1,2,242,18.2,41041,book_collection_true_dates/location/query8//useDOCUMENT:DATE:LOCATIONuseREFERENCES:SIMLOC:SIMPAGE/rel1-1-date_th0.3-doc_th0.6-loc_th0.35.res.clean,0.226,0.400,0.400,0.294,0.286,
DOCUMENT:DATE:LOCATION,REFERENCES:SIMLOC:SIMPAGE,0.6,0.3,0.4,rel2-2,2,3,980322,126691.5,193036,book_collection_true_dates/location/query8//useDOCUMENT:DATE:LOCATIONuseREFERENCES:SIMLOC:SIMPAGE/rel2-2-date_th0.3-doc_th0.6-loc_th0.4.res.clean,0.173,0.600,0.300,0.150,0.214,
DOCUMENT:DATE:LOCATION,REFERENCES:SIMLOC:SIMPAGE,0.7,0.3,0.35,rel1-2,1,2,18,4.3,8280,book_collection_true_dates/location/query8//useDOCUMENT:DATE:LOCATIONuseREFERENCES:SIMLOC:SIMPAGE/rel1-2-date_th0.3-doc_th0.7-loc_th0.35.res.clean,0.216,0.400,0.500,0.417,0.000,
DOCUMENT:DATE:LOCATION,REFERENCES:SIMLOC:SIMPAGE,0.6,0.25,0.4,rel1-3,1,2,20,4.4,20980,book_collection_true_dates/location/query8//useDOCUMENT:DATE:LOCATIONuseREFERENCES:SIMLOC:SIMPAGE/rel1-3-date_th0.25-doc_th0.6-loc_th0.4.res.clean,0.100,0.400,0.200,0.182,0.000,
DOCUMENT:DATE:LOCATION,REFERENCES:SIMLOC:SIMPAGE,0.5,0.25,0.4,rel1-2,1,2,18,4.3,8222,book_collection_true_dates/location/query8//useDOCUMENT:DATE:LOCATIONuseREFERENCES:SIMLOC:SIMPAGE/rel1-2-date_th0.25-doc_th0.5-loc_th0.4.res.clean,0.216,0.400,0.500,0.417,0.000,
DOCUMENT:DATE:LOCATION,REFERENCES:SIMLOC:SIMPAGE,0.6,0.3,0.35,rel1-3,1,2,20,4.4,21223,book_collection_true_dates/location/query8//useDOCUMENT:DATE:LOCATIONuseREFERENCES:SIMLOC:SIMPAGE/rel1-3-date_th0.3-doc_th0.6-loc_th0.35.res.clean,0.100,0.400,0.200,0.182,0.000,
DOCUMENT:DATE:LOCATION,REFERENCES:SIMLOC:SIMPAGE,0.7,0.3,0.4,rel1-1,1,2,242,18.2,40500,book_collection_true_dates/location/query8//useDOCUMENT:DATE:LOCATIONuseREFERENCES:SIMLOC:SIMPAGE/rel1-1-date_th0.3-doc_th0.7-loc_th0.4.res.clean,0.226,0.400,0.400,0.294,0.286,
DOCUMENT:DATE:LOCATION,REFERENCES:SIMLOC:SIMPAGE,0.5,0.3,0.35,rel1-2,1,2,18,4.3,8231,book_collection_true_dates/location/query8//useDOCUMENT:DATE:LOCATIONuseREFERENCES:SIMLOC:SIMPAGE/rel1-2-date_th0.3-doc_th0.5-loc_th0.35.res.clean,0.216,0.400,0.500,0.417,0.000,
DOCUMENT:DATE:LOCATION,REFERENCES:SIMLOC:SIMPAGE,0.6,0.25,0.4,rel2-1,2,3,99744,9455.5,71648,book_collection_true_dates/location/query8//useDOCUMENT:DATE:LOCATIONuseREFERENCES:SIMLOC:SIMPAGE/rel2-1-date_th0.25-doc_th0.6-loc_th0.4.res.clean,0.186,0.600,0.300,0.150,0.214,
DOCUMENT:DATE:LOCATION,REFERENCES:SIMLOC:SIMPAGE,0.5,0.25,0.35,rel2-1,2,3,99767,9459.2,89584,book_collection_true_dates/location/query8//useDOCUMENT:DATE:LOCATIONuseREFERENCES:SIMLOC:SIMPAGE/rel2-1-date_th0.25-doc_th0.5-loc_th0.35.res.clean,0.214,0.600,0.300,0.150,0.214,
DOCUMENT:DATE:LOCATION,REFERENCES:SIMLOC:SIMPAGE,0.5,0.3,0.35,rel2-3,2,3,5083,492.3,30120,book_collection_true_dates/location/query8//useDOCUMENT:DATE:LOCATIONuseREFERENCES:SIMLOC:SIMPAGE/rel2-3-date_th0.3-doc_th0.5-loc_th0.35.res.clean,0.277,0.600,0.400,0.300,0.429,
DOCUMENT:DATE:LOCATION,REFERENCES:SIMLOC:SIMPAGE,0.6,0.3,0.4,rel2-1,2,3,99744,9455.5,68408,book_collection_true_dates/location/query8//useDOCUMENT:DATE:LOCATIONuseREFERENCES:SIMLOC:SIMPAGE/rel2-1-date_th0.3-doc_th0.6-loc_th0.4.res.clean,0.186,0.600,0.300,0.150,0.214,
DOCUMENT:DATE:LOCATION,REFERENCES:SIMLOC:SIMPAGE,0.5,0.3,0.35,rel1-3,1,2,20,4.4,21021,book_collection_true_dates/location/query8//useDOCUMENT:DATE:LOCATIONuseREFERENCES:SIMLOC:SIMPAGE/rel1-3-date_th0.3-doc_th0.5-loc_th0.35.res.clean,0.100,0.400,0.200,0.182,0.000,
DOCUMENT:DATE:LOCATION,REFERENCES:SIMLOC:SIMPAGE,0.7,0.25,0.4,rel3-1,3,3,1044485,136529.8,219821,book_collection_true_dates/location/query8//useDOCUMENT:DATE:LOCATIONuseREFERENCES:SIMLOC:SIMPAGE/rel3-1-date_th0.25-doc_th0.7-loc_th0.4.res.clean,0.196,0.600,0.300,0.150,0.214,
DOCUMENT:DATE:LOCATION,REFERENCES:SIMLOC:SIMPAGE,0.7,0.25,0.4,rel1-1,1,2,242,18.2,40937,book_collection_true_dates/location/query8//useDOCUMENT:DATE:LOCATIONuseREFERENCES:SIMLOC:SIMPAGE/rel1-1-date_th0.25-doc_th0.7-loc_th0.4.res.clean,0.226,0.400,0.400,0.294,0.286,
DOCUMENT:DATE:LOCATION,REFERENCES:SIMLOC:SIMPAGE,0.5,0.25,0.35,rel2-2,2,3,980335,126694.1,219273,book_collection_true_dates/location/query8//useDOCUMENT:DATE:LOCATIONuseREFERENCES:SIMLOC:SIMPAGE/rel2-2-date_th0.25-doc_th0.5-loc_th0.35.res.clean,0.150,0.600,0.300,0.150,0.214,
DOCUMENT:DATE:LOCATION,REFERENCES:SIMLOC:SIMPAGE,0.5,0.25,0.4,rel2-2,2,3,980335,126694.1,197515,book_collection_true_dates/location/query8//useDOCUMENT:DATE:LOCATIONuseREFERENCES:SIMLOC:SIMPAGE/rel2-2-date_th0.25-doc_th0.5-loc_th0.4.res.clean,0.150,0.600,0.300,0.150,0.214,
DOCUMENT:DATE:LOCATION,REFERENCES:SIMLOC:SIMPAGE,0.7,0.3,0.4,rel1-3,1,2,20,4.4,21960,book_collection_true_dates/location/query8//useDOCUMENT:DATE:LOCATIONuseREFERENCES:SIMLOC:SIMPAGE/rel1-3-date_th0.3-doc_th0.7-loc_th0.4.res.clean,0.100,0.400,0.200,0.182,0.000,
DOCUMENT:DATE:LOCATION,REFERENCES:SIMLOC:SIMPAGE,0.6,0.3,0.35,rel3-1,3,3,1044520,136536.6,227394,book_collection_true_dates/location/query8//useDOCUMENT:DATE:LOCATIONuseREFERENCES:SIMLOC:SIMPAGE/rel3-1-date_th0.3-doc_th0.6-loc_th0.35.res.clean,0.189,0.600,0.300,0.200,0.214,
DOCUMENT:DATE:LOCATION,REFERENCES:SIMLOC:SIMPAGE,0.5,0.25,0.35,rel1-2,1,2,18,4.3,8246,book_collection_true_dates/location/query8//useDOCUMENT:DATE:LOCATIONuseREFERENCES:SIMLOC:SIMPAGE/rel1-2-date_th0.25-doc_th0.5-loc_th0.35.res.clean,0.216,0.400,0.500,0.417,0.000,
DOCUMENT:DATE:LOCATION,REFERENCES:SIMLOC:SIMPAGE,0.6,0.3,0.4,rel1-2,1,2,18,4.3,8234,book_collection_true_dates/location/query8//useDOCUMENT:DATE:LOCATIONuseREFERENCES:SIMLOC:SIMPAGE/rel1-2-date_th0.3-doc_th0.6-loc_th0.4.res.clean,0.216,0.400,0.500,0.417,0.000,
DOCUMENT:DATE:LOCATION,REFERENCES:SIMLOC:SIMPAGE,0.6,0.25,0.4,rel1-1,1,2,242,18.2,42556,book_collection_true_dates/location/query8//useDOCUMENT:DATE:LOCATIONuseREFERENCES:SIMLOC:SIMPAGE/rel1-1-date_th0.25-doc_th0.6-loc_th0.4.res.clean,0.226,0.400,0.400,0.294,0.286,
DOCUMENT:DATE:LOCATION,REFERENCES:SIMLOC:SIMPAGE,0.5,0.3,0.4,rel2-3,2,3,5083,492.3,30481,book_collection_true_dates/location/query8//useDOCUMENT:DATE:LOCATIONuseREFERENCES:SIMLOC:SIMPAGE/rel2-3-date_th0.3-doc_th0.5-loc_th0.4.res.clean,0.277,0.600,0.400,0.300,0.429,
DOCUMENT:DATE:LOCATION,REFERENCES:SIMLOC:SIMPAGE,0.6,0.3,0.35,rel2-1,2,3,99744,9455.5,68129,book_collection_true_dates/location/query8//useDOCUMENT:DATE:LOCATIONuseREFERENCES:SIMLOC:SIMPAGE/rel2-1-date_th0.3-doc_th0.6-loc_th0.35.res.clean,0.186,0.600,0.300,0.150,0.214,
DOCUMENT:DATE:LOCATION,REFERENCES:SIMLOC:SIMPAGE,0.7,0.25,0.35,rel1-1,1,2,242,18.2,41724,book_collection_true_dates/location/query8//useDOCUMENT:DATE:LOCATIONuseREFERENCES:SIMLOC:SIMPAGE/rel1-1-date_th0.25-doc_th0.7-loc_th0.35.res.clean,0.226,0.400,0.400,0.294,0.286,
DOCUMENT:DATE:LOCATION,REFERENCES:SIMLOC:SIMPAGE,0.6,0.25,0.4,rel2-3,2,3,5083,492.3,30112,book_collection_true_dates/location/query8//useDOCUMENT:DATE:LOCATIONuseREFERENCES:SIMLOC:SIMPAGE/rel2-3-date_th0.25-doc_th0.6-loc_th0.4.res.clean,0.277,0.600,0.400,0.300,0.429,
DOCUMENT:DATE:LOCATION,REFERENCES:SIMLOC:SIMPAGE,0.5,0.3,0.35,rel1-1,1,2,242,18.2,42062,book_collection_true_dates/location/query8//useDOCUMENT:DATE:LOCATIONuseREFERENCES:SIMLOC:SIMPAGE/rel1-1-date_th0.3-doc_th0.5-loc_th0.35.res.clean,0.226,0.400,0.400,0.294,0.286,
DOCUMENT:DATE:LOCATION,REFERENCES:SIMLOC:SIMPAGE,0.5,0.25,0.4,rel2-1,2,3,99767,9459.2,88500,book_collection_true_dates/location/query8//useDOCUMENT:DATE:LOCATIONuseREFERENCES:SIMLOC:SIMPAGE/rel2-1-date_th0.25-doc_th0.5-loc_th0.4.res.clean,0.214,0.600,0.300,0.150,0.214,
DOCUMENT:DATE:LOCATION,REFERENCES:SIMLOC:SIMPAGE,0.6,0.25,0.4,rel2-2,2,3,980322,126691.5,194299,book_collection_true_dates/location/query8//useDOCUMENT:DATE:LOCATIONuseREFERENCES:SIMLOC:SIMPAGE/rel2-2-date_th0.25-doc_th0.6-loc_th0.4.res.clean,0.173,0.600,0.300,0.150,0.214,
DOCUMENT:DATE:LOCATION,REFERENCES:SIMLOC:SIMPAGE,0.6,0.3,0.4,rel3-1,3,3,1044520,136536.6,220611,book_collection_true_dates/location/query8//useDOCUMENT:DATE:LOCATIONuseREFERENCES:SIMLOC:SIMPAGE/rel3-1-date_th0.3-doc_th0.6-loc_th0.4.res.clean,0.189,0.600,0.300,0.200,0.214,
DOCUMENT:DATE:LOCATION,REFERENCES:SIMLOC:SIMPAGE,0.5,0.25,0.4,rel3-1,3,3,1044520,136536.6,218454,book_collection_true_dates/location/query8//useDOCUMENT:DATE:LOCATIONuseREFERENCES:SIMLOC:SIMPAGE/rel3-1-date_th0.25-doc_th0.5-loc_th0.4.res.clean,0.189,0.600,0.300,0.200,0.214,
DOCUMENT:DATE:LOCATION,REFERENCES:SIMLOC:SIMPAGE,0.7,0.3,0.35,rel1-3,1,2,20,4.4,21091,book_collection_true_dates/location/query8//useDOCUMENT:DATE:LOCATIONuseREFERENCES:SIMLOC:SIMPAGE/rel1-3-date_th0.3-doc_th0.7-loc_th0.35.res.clean,0.100,0.400,0.200,0.182,0.000,
DOCUMENT:DATE:LOCATION,REFERENCES:SIMLOC:SIMPAGE,0.7,0.3,0.35,rel2-1,2,3,99744,9455.5,67795,book_collection_true_dates/location/query8//useDOCUMENT:DATE:LOCATIONuseREFERENCES:SIMLOC:SIMPAGE/rel2-1-date_th0.3-doc_th0.7-loc_th0.35.res.clean,0.186,0.600,0.300,0.150,0.214,
DOCUMENT:DATE:LOCATION,REFERENCES:SIMLOC:SIMPAGE,0.6,0.25,0.35,rel2-1,2,3,99744,9455.5,69124,book_collection_true_dates/location/query8//useDOCUMENT:DATE:LOCATIONuseREFERENCES:SIMLOC:SIMPAGE/rel2-1-date_th0.25-doc_th0.6-loc_th0.35.res.clean,0.186,0.600,0.300,0.150,0.214,
DOCUMENT:DATE:LOCATION,REFERENCES:SIMLOC:SIMPAGE,0.5,0.25,0.4,rel1-3,1,2,20,4.4,20970,book_collection_true_dates/location/query8//useDOCUMENT:DATE:LOCATIONuseREFERENCES:SIMLOC:SIMPAGE/rel1-3-date_th0.25-doc_th0.5-loc_th0.4.res.clean,0.100,0.400,0.200,0.182,0.000,
DOCUMENT:DATE:LOCATION,REFERENCES:SIMLOC:SIMPAGE,0.6,0.25,0.35,rel1-3,1,2,20,4.4,21430,book_collection_true_dates/location/query8//useDOCUMENT:DATE:LOCATIONuseREFERENCES:SIMLOC:SIMPAGE/rel1-3-date_th0.25-doc_th0.6-loc_th0.35.res.clean,0.100,0.400,0.200,0.182,0.000,
DOCUMENT:DATE:LOCATION,REFERENCES:SIMLOC:SIMPAGE,0.7,0.3,0.35,rel2-2,2,3,980302,126687.5,192292,book_collection_true_dates/location/query8//useDOCUMENT:DATE:LOCATIONuseREFERENCES:SIMLOC:SIMPAGE/rel2-2-date_th0.3-doc_th0.7-loc_th0.35.res.clean,0.134,0.400,0.200,0.150,0.214,
DOCUMENT:DATE:LOCATION,REFERENCES:SIMLOC:SIMPAGE,0.7,0.25,0.4,rel2-1,2,3,99744,9455.5,73683,book_collection_true_dates/location/query8//useDOCUMENT:DATE:LOCATIONuseREFERENCES:SIMLOC:SIMPAGE/rel2-1-date_th0.25-doc_th0.7-loc_th0.4.res.clean,0.186,0.600,0.300,0.150,0.214,
DOCUMENT:DATE:LOCATION,REFERENCES:SIMLOC:SIMPAGE,0.5,0.3,0.4,rel2-2,2,3,980335,126694.1,202499,book_collection_true_dates/location/query8//useDOCUMENT:DATE:LOCATIONuseREFERENCES:SIMLOC:SIMPAGE/rel2-2-date_th0.3-doc_th0.5-loc_th0.4.res.clean,0.150,0.600,0.300,0.150,0.214,
DOCUMENT:DATE:LOCATION,REFERENCES:SIMLOC:SIMPAGE,0.5,0.3,0.4,rel3-1,3,3,1044520,136536.6,218809,book_collection_true_dates/location/query8//useDOCUMENT:DATE:LOCATIONuseREFERENCES:SIMLOC:SIMPAGE/rel3-1-date_th0.3-doc_th0.5-loc_th0.4.res.clean,0.189,0.600,0.300,0.200,0.214,
DOCUMENT:DATE:LOCATION,REFERENCES:SIMLOC:SIMPAGE,0.6,0.25,0.35,rel1-2,1,2,18,4.3,8199,book_collection_true_dates/location/query8//useDOCUMENT:DATE:LOCATIONuseREFERENCES:SIMLOC:SIMPAGE/rel1-2-date_th0.25-doc_th0.6-loc_th0.35.res.clean,0.216,0.400,0.500,0.417,0.000,

Sig-Test:,randomized,,threshold,set,to,0.050000
