###################################
# parameters: 
#   date_th: 0.3
#   doc_th: 0.5
#   loc_th: 0.4
#   nodestouse: DOCUMENT:DATE:LOCATION
#   relationships: REFERENCES

###################################
# configuration: 
#   sa.act_diff_ratio_limit = 0.01
#   sa.act_diff_ratio_limit_diff = 0.01
#   sa.function = ciir.multi.sa.function.MaxSAFunction(norm_function)
#   sa.id_property_name.DATE = dateID
#   sa.id_property_name.DOCUMENT = docID
#   sa.id_property_name.LOCATION = locID
#   sa.max_pulses = 10
#   sa.nodes_to_print = DATE:LOCATION
#   sa.nodes_to_use = DOCUMENT:DATE:LOCATION
#   sa.norm_function = ciir.multi.sa.SigmoidFunction(0.0, 1.0)
#   sa.relationships_to_use = REFERENCES
#   sa.spread_threshold.DATE = 0.3
#   sa.spread_threshold.DOCUMENT = 0.5
#   sa.spread_threshold.LOCATION = 0.4
#   sa.weight_property.REFERENCES = relevance
#   sa.weight_property.SIMDATES = sim
#   sa.weight_property.SIMDOC = sim
#   sa.weight_property.SIMLOC = sim
#   sa.weight_property.SIMPAGE = pagesim

###################################
# initial activations (1): 
#   bookofhistoryhis11brycuoft_237, 1

###################################
# spreading activation process log: 
#   pulse 0: activated: 1, non-zero: 1, borderline: 1, overall act: 1.000, act diff: 1.000, ratio: 1.000
#   pulse 1: activated: 240, non-zero: 240, borderline: 239, overall act: 17.281, act diff: 16.281, ratio: 0.942
#   pulse 2: activated: 240, non-zero: 240, borderline: 239, overall act: 17.281, act diff: 0.000, ratio: 0.000

###################################
# spreading activation process summary: 
#   final number of activated nodes: 240
#   final overall activation: 17.3
#   number of spread. activ. pulses: 2
#   running time: 39580

###################################
# top k results in TREC format: 

8   rel1-1   holland   1   0.30943748   nodesDOCUMENT:DATE:LOCATION-edgesREFERENCES-date_th0.3-doc_th0.5-loc_th0.4
8   rel1-1   england   2   0.27598518   nodesDOCUMENT:DATE:LOCATION-edgesREFERENCES-date_th0.3-doc_th0.5-loc_th0.4
8   rel1-1   spain   3   0.15861107   nodesDOCUMENT:DATE:LOCATION-edgesREFERENCES-date_th0.3-doc_th0.5-loc_th0.4
8   rel1-1   dunkirk   4   0.10058327   nodesDOCUMENT:DATE:LOCATION-edgesREFERENCES-date_th0.3-doc_th0.5-loc_th0.4
8   rel1-1   jamaica   5   0.10058327   nodesDOCUMENT:DATE:LOCATION-edgesREFERENCES-date_th0.3-doc_th0.5-loc_th0.4
8   rel1-1   scotland   6   0.10058327   nodesDOCUMENT:DATE:LOCATION-edgesREFERENCES-date_th0.3-doc_th0.5-loc_th0.4
8   rel1-1   new york   7   0.10058327   nodesDOCUMENT:DATE:LOCATION-edgesREFERENCES-date_th0.3-doc_th0.5-loc_th0.4
8   rel1-1   new england   8   0.10058327   nodesDOCUMENT:DATE:LOCATION-edgesREFERENCES-date_th0.3-doc_th0.5-loc_th0.4
8   rel1-1   calais   9   0.10058327   nodesDOCUMENT:DATE:LOCATION-edgesREFERENCES-date_th0.3-doc_th0.5-loc_th0.4
8   rel1-1   wales   10   0.10058327   nodesDOCUMENT:DATE:LOCATION-edgesREFERENCES-date_th0.3-doc_th0.5-loc_th0.4
8   rel1-1   florida   11   0.10058327   nodesDOCUMENT:DATE:LOCATION-edgesREFERENCES-date_th0.3-doc_th0.5-loc_th0.4
8   rel1-1   thames   12   0.10058327   nodesDOCUMENT:DATE:LOCATION-edgesREFERENCES-date_th0.3-doc_th0.5-loc_th0.4
8   rel1-1   north america   13   0.10058327   nodesDOCUMENT:DATE:LOCATION-edgesREFERENCES-date_th0.3-doc_th0.5-loc_th0.4
8   rel1-1   europe   14   0.10058327   nodesDOCUMENT:DATE:LOCATION-edgesREFERENCES-date_th0.3-doc_th0.5-loc_th0.4
8   rel1-1   france   15   0.10058327   nodesDOCUMENT:DATE:LOCATION-edgesREFERENCES-date_th0.3-doc_th0.5-loc_th0.4
8   rel1-1   new amsterdam   16   0.10058327   nodesDOCUMENT:DATE:LOCATION-edgesREFERENCES-date_th0.3-doc_th0.5-loc_th0.4
8   rel1-1   atlantic   17   0.10058327   nodesDOCUMENT:DATE:LOCATION-edgesREFERENCES-date_th0.3-doc_th0.5-loc_th0.4
8   rel1-1   1460   18   0.06364474   nodesDOCUMENT:DATE:LOCATION-edgesREFERENCES-date_th0.3-doc_th0.5-loc_th0.4
8   rel1-1   1458   19   0.06364474   nodesDOCUMENT:DATE:LOCATION-edgesREFERENCES-date_th0.3-doc_th0.5-loc_th0.4
8   rel1-1   1456   20   0.06364474   nodesDOCUMENT:DATE:LOCATION-edgesREFERENCES-date_th0.3-doc_th0.5-loc_th0.4

###################################
# top nodes: 

# 8   rel1-1   bookofhistoryhis11brycuoft_237   1   1.0   nodesDOCUMENT:DATE:LOCATION-edgesREFERENCES-date_th0.3-doc_th0.5-loc_th0.4
# 8   rel1-1   holland   2   0.30943748   nodesDOCUMENT:DATE:LOCATION-edgesREFERENCES-date_th0.3-doc_th0.5-loc_th0.4
# 8   rel1-1   england   3   0.27598518   nodesDOCUMENT:DATE:LOCATION-edgesREFERENCES-date_th0.3-doc_th0.5-loc_th0.4
# 8   rel1-1   spain   4   0.15861107   nodesDOCUMENT:DATE:LOCATION-edgesREFERENCES-date_th0.3-doc_th0.5-loc_th0.4
# 8   rel1-1   dunkirk   5   0.10058327   nodesDOCUMENT:DATE:LOCATION-edgesREFERENCES-date_th0.3-doc_th0.5-loc_th0.4
# 8   rel1-1   jamaica   6   0.10058327   nodesDOCUMENT:DATE:LOCATION-edgesREFERENCES-date_th0.3-doc_th0.5-loc_th0.4
# 8   rel1-1   scotland   7   0.10058327   nodesDOCUMENT:DATE:LOCATION-edgesREFERENCES-date_th0.3-doc_th0.5-loc_th0.4
# 8   rel1-1   new york   8   0.10058327   nodesDOCUMENT:DATE:LOCATION-edgesREFERENCES-date_th0.3-doc_th0.5-loc_th0.4
# 8   rel1-1   new england   9   0.10058327   nodesDOCUMENT:DATE:LOCATION-edgesREFERENCES-date_th0.3-doc_th0.5-loc_th0.4
# 8   rel1-1   wales   10   0.10058327   nodesDOCUMENT:DATE:LOCATION-edgesREFERENCES-date_th0.3-doc_th0.5-loc_th0.4
# 8   rel1-1   calais   11   0.10058327   nodesDOCUMENT:DATE:LOCATION-edgesREFERENCES-date_th0.3-doc_th0.5-loc_th0.4
# 8   rel1-1   thames   12   0.10058327   nodesDOCUMENT:DATE:LOCATION-edgesREFERENCES-date_th0.3-doc_th0.5-loc_th0.4
# 8   rel1-1   north america   13   0.10058327   nodesDOCUMENT:DATE:LOCATION-edgesREFERENCES-date_th0.3-doc_th0.5-loc_th0.4
# 8   rel1-1   europe   14   0.10058327   nodesDOCUMENT:DATE:LOCATION-edgesREFERENCES-date_th0.3-doc_th0.5-loc_th0.4
# 8   rel1-1   florida   15   0.10058327   nodesDOCUMENT:DATE:LOCATION-edgesREFERENCES-date_th0.3-doc_th0.5-loc_th0.4
# 8   rel1-1   france   16   0.10058327   nodesDOCUMENT:DATE:LOCATION-edgesREFERENCES-date_th0.3-doc_th0.5-loc_th0.4
# 8   rel1-1   new amsterdam   17   0.10058327   nodesDOCUMENT:DATE:LOCATION-edgesREFERENCES-date_th0.3-doc_th0.5-loc_th0.4
# 8   rel1-1   atlantic   18   0.10058327   nodesDOCUMENT:DATE:LOCATION-edgesREFERENCES-date_th0.3-doc_th0.5-loc_th0.4
# 8   rel1-1   1460   19   0.06364474   nodesDOCUMENT:DATE:LOCATION-edgesREFERENCES-date_th0.3-doc_th0.5-loc_th0.4
# 8   rel1-1   1458   20   0.06364474   nodesDOCUMENT:DATE:LOCATION-edgesREFERENCES-date_th0.3-doc_th0.5-loc_th0.4
# 8   rel1-1   1456   21   0.06364474   nodesDOCUMENT:DATE:LOCATION-edgesREFERENCES-date_th0.3-doc_th0.5-loc_th0.4
# 8   rel1-1   1454   22   0.06364474   nodesDOCUMENT:DATE:LOCATION-edgesREFERENCES-date_th0.3-doc_th0.5-loc_th0.4
# 8   rel1-1   1452   23   0.06364474   nodesDOCUMENT:DATE:LOCATION-edgesREFERENCES-date_th0.3-doc_th0.5-loc_th0.4
# 8   rel1-1   1473   24   0.06364474   nodesDOCUMENT:DATE:LOCATION-edgesREFERENCES-date_th0.3-doc_th0.5-loc_th0.4
# 8   rel1-1   1472   25   0.06364474   nodesDOCUMENT:DATE:LOCATION-edgesREFERENCES-date_th0.3-doc_th0.5-loc_th0.4
# 8   rel1-1   1350   26   0.06364474   nodesDOCUMENT:DATE:LOCATION-edgesREFERENCES-date_th0.3-doc_th0.5-loc_th0.4
# 8   rel1-1   1349   27   0.06364474   nodesDOCUMENT:DATE:LOCATION-edgesREFERENCES-date_th0.3-doc_th0.5-loc_th0.4
# 8   rel1-1   1469   28   0.06364474   nodesDOCUMENT:DATE:LOCATION-edgesREFERENCES-date_th0.3-doc_th0.5-loc_th0.4
# 8   rel1-1   1467   29   0.06364474   nodesDOCUMENT:DATE:LOCATION-edgesREFERENCES-date_th0.3-doc_th0.5-loc_th0.4
# 8   rel1-1   1465   30   0.06364474   nodesDOCUMENT:DATE:LOCATION-edgesREFERENCES-date_th0.3-doc_th0.5-loc_th0.4
# 8   rel1-1   1484   31   0.06364474   nodesDOCUMENT:DATE:LOCATION-edgesREFERENCES-date_th0.3-doc_th0.5-loc_th0.4
# 8   rel1-1   1483   32   0.06364474   nodesDOCUMENT:DATE:LOCATION-edgesREFERENCES-date_th0.3-doc_th0.5-loc_th0.4
# 8   rel1-1   1482   33   0.06364474   nodesDOCUMENT:DATE:LOCATION-edgesREFERENCES-date_th0.3-doc_th0.5-loc_th0.4
# 8   rel1-1   1360   34   0.06364474   nodesDOCUMENT:DATE:LOCATION-edgesREFERENCES-date_th0.3-doc_th0.5-loc_th0.4
# 8   rel1-1   1480   35   0.06364474   nodesDOCUMENT:DATE:LOCATION-edgesREFERENCES-date_th0.3-doc_th0.5-loc_th0.4
# 8   rel1-1   1359   36   0.06364474   nodesDOCUMENT:DATE:LOCATION-edgesREFERENCES-date_th0.3-doc_th0.5-loc_th0.4
# 8   rel1-1   1481   37   0.06364474   nodesDOCUMENT:DATE:LOCATION-edgesREFERENCES-date_th0.3-doc_th0.5-loc_th0.4
# 8   rel1-1   1361   38   0.06364474   nodesDOCUMENT:DATE:LOCATION-edgesREFERENCES-date_th0.3-doc_th0.5-loc_th0.4
# 8   rel1-1   1362   39   0.06364474   nodesDOCUMENT:DATE:LOCATION-edgesREFERENCES-date_th0.3-doc_th0.5-loc_th0.4
# 8   rel1-1   1363   40   0.06364474   nodesDOCUMENT:DATE:LOCATION-edgesREFERENCES-date_th0.3-doc_th0.5-loc_th0.4
