nodestouse,relationships,doc_th,date_th,loc_th,iter,seeds,number of spread. activ. pulses,final number of activated nodes,final overall activation,running time,run-id,map,P5,P10,P20,R-prec,
DOCUMENT:DATE:LOCATION,REFERENCES:SIMLOC:SIMPAGE,0.6,0.3,0.4,rel1-1,1,2,52,7.3,19991,book_collection_true_dates/date/query9//useDOCUMENT:DATE:LOCATIONuseREFERENCES:SIMLOC:SIMPAGE/rel1-1-date_th0.3-doc_th0.6-loc_th0.4.res.clean,0.267,0.200,0.200,0.100,0.000,
DOCUMENT:DATE:LOCATION,REFERENCES:SIMLOC:SIMPAGE,0.7,0.25,0.4,rel1-2-date_th0,1,2,31,5.4,20065,book_collection_true_dates/date/query9//useDOCUMENT:DATE:LOCATIONuseREFERENCES:SIMLOC:SIMPAGE/rel1-2-date_th0.25-doc_th0.7-loc_th0.4.res.clean,0.000,0.000,0.000,0.000,0.000,
DOCUMENT:DATE:LOCATION,REFERENCES:SIMLOC:SIMPAGE,0.5,0.25,0.35,rel1-1,1,2,52,7.3,35502,book_collection_true_dates/date/query9//useDOCUMENT:DATE:LOCATIONuseREFERENCES:SIMLOC:SIMPAGE/rel1-1-date_th0.25-doc_th0.5-loc_th0.35.res.clean,0.267,0.200,0.200,0.100,0.000,
DOCUMENT:DATE:LOCATION,REFERENCES:SIMLOC:SIMPAGE,0.7,0.25,0.35,rel2-1,2,3,114015,10329.2,54295,book_collection_true_dates/date/query9//useDOCUMENT:DATE:LOCATIONuseREFERENCES:SIMLOC:SIMPAGE/rel2-1-date_th0.25-doc_th0.7-loc_th0.35.res.clean,0.226,0.000,0.200,0.100,0.000,
DOCUMENT:DATE:LOCATION,REFERENCES:SIMLOC:SIMPAGE,0.6,0.25,0.35,rel2-3,2,3,110083,9414.4,41088,book_collection_true_dates/date/query9//useDOCUMENT:DATE:LOCATIONuseREFERENCES:SIMLOC:SIMPAGE/rel2-3-date_th0.25-doc_th0.6-loc_th0.35.res.clean,0.226,0.000,0.200,0.100,0.000,
DOCUMENT:DATE:LOCATION,REFERENCES:SIMLOC:SIMPAGE,0.5,0.3,0.4,rel2-5,2,3,75224,6364.5,75535,book_collection_true_dates/date/query9//useDOCUMENT:DATE:LOCATIONuseREFERENCES:SIMLOC:SIMPAGE/rel2-5-date_th0.3-doc_th0.5-loc_th0.4.res.clean,0.000,0.000,0.000,0.000,0.000,
DOCUMENT:DATE:LOCATION,REFERENCES:SIMLOC:SIMPAGE,0.6,0.3,0.35,rel3-2,3,3,127662,15794.7,82520,book_collection_true_dates/date/query9//useDOCUMENT:DATE:LOCATIONuseREFERENCES:SIMLOC:SIMPAGE/rel3-2-date_th0.3-doc_th0.6-loc_th0.35.res.clean,0.146,0.000,0.100,0.100,0.000,
DOCUMENT:DATE:LOCATION,REFERENCES:SIMLOC:SIMPAGE,0.7,0.25,0.35,rel2-5-date_th0,2,3,110060,10175.1,37097,book_collection_true_dates/date/query9//useDOCUMENT:DATE:LOCATIONuseREFERENCES:SIMLOC:SIMPAGE/rel2-5-date_th0.25-doc_th0.7-loc_th0.35.res.clean,0.000,0.000,0.000,0.000,0.000,
DOCUMENT:DATE:LOCATION,REFERENCES:SIMLOC:SIMPAGE,0.7,0.3,0.35,rel2-3,2,3,110083,9414.4,37222,book_collection_true_dates/date/query9//useDOCUMENT:DATE:LOCATIONuseREFERENCES:SIMLOC:SIMPAGE/rel2-3-date_th0.3-doc_th0.7-loc_th0.35.res.clean,0.226,0.000,0.200,0.100,0.000,
DOCUMENT:DATE:LOCATION,REFERENCES:SIMLOC:SIMPAGE,0.7,0.3,0.35,rel1-1,1,2,52,7.3,20464,book_collection_true_dates/date/query9//useDOCUMENT:DATE:LOCATIONuseREFERENCES:SIMLOC:SIMPAGE/rel1-1-date_th0.3-doc_th0.7-loc_th0.35.res.clean,0.267,0.200,0.200,0.100,0.000,
DOCUMENT:DATE:LOCATION,REFERENCES:SIMLOC:SIMPAGE,0.6,0.25,0.35,rel1-1,1,2,52,7.3,20985,book_collection_true_dates/date/query9//useDOCUMENT:DATE:LOCATIONuseREFERENCES:SIMLOC:SIMPAGE/rel1-1-date_th0.25-doc_th0.6-loc_th0.35.res.clean,0.267,0.200,0.200,0.100,0.000,
DOCUMENT:DATE:LOCATION,REFERENCES:SIMLOC:SIMPAGE,0.5,0.25,0.4,rel1-1,1,2,52,7.3,21135,book_collection_true_dates/date/query9//useDOCUMENT:DATE:LOCATIONuseREFERENCES:SIMLOC:SIMPAGE/rel1-1-date_th0.25-doc_th0.5-loc_th0.4.res.clean,0.267,0.200,0.200,0.100,0.000,
DOCUMENT:DATE:LOCATION,REFERENCES:SIMLOC:SIMPAGE,0.5,0.3,0.4,rel1-4-date_th0,1,2,14,3.6,3356,book_collection_true_dates/date/query9//useDOCUMENT:DATE:LOCATIONuseREFERENCES:SIMLOC:SIMPAGE/rel1-4-date_th0.3-doc_th0.5-loc_th0.4.res.clean,0.000,0.000,0.000,0.000,0.000,
DOCUMENT:DATE:LOCATION,REFERENCES:SIMLOC:SIMPAGE,0.5,0.25,0.4,rel1-4-date_th0,1,2,14,3.6,3256,book_collection_true_dates/date/query9//useDOCUMENT:DATE:LOCATIONuseREFERENCES:SIMLOC:SIMPAGE/rel1-4-date_th0.25-doc_th0.5-loc_th0.4.res.clean,0.000,0.000,0.000,0.000,0.000,
DOCUMENT:DATE:LOCATION,REFERENCES:SIMLOC:SIMPAGE,0.6,0.3,0.35,rel2-3,2,3,110083,9414.4,37192,book_collection_true_dates/date/query9//useDOCUMENT:DATE:LOCATIONuseREFERENCES:SIMLOC:SIMPAGE/rel2-3-date_th0.3-doc_th0.6-loc_th0.35.res.clean,0.226,0.000,0.200,0.100,0.000,
DOCUMENT:DATE:LOCATION,REFERENCES:SIMLOC:SIMPAGE,0.7,0.3,0.35,rel1-4-date_th0,1,2,14,3.6,3264,book_collection_true_dates/date/query9//useDOCUMENT:DATE:LOCATIONuseREFERENCES:SIMLOC:SIMPAGE/rel1-4-date_th0.3-doc_th0.7-loc_th0.35.res.clean,0.000,0.000,0.000,0.000,0.000,
DOCUMENT:DATE:LOCATION,REFERENCES:SIMLOC:SIMPAGE,0.5,0.3,0.4,rel3-2,3,3,124161,15443.9,86731,book_collection_true_dates/date/query9//useDOCUMENT:DATE:LOCATIONuseREFERENCES:SIMLOC:SIMPAGE/rel3-2-date_th0.3-doc_th0.5-loc_th0.4.res.clean,0.121,0.000,0.100,0.100,0.000,
DOCUMENT:DATE:LOCATION,REFERENCES:SIMLOC:SIMPAGE,0.6,0.25,0.4,rel1-4-date_th0,1,2,14,3.6,3254,book_collection_true_dates/date/query9//useDOCUMENT:DATE:LOCATIONuseREFERENCES:SIMLOC:SIMPAGE/rel1-4-date_th0.25-doc_th0.6-loc_th0.4.res.clean,0.000,0.000,0.000,0.000,0.000,
DOCUMENT:DATE:LOCATION,REFERENCES:SIMLOC:SIMPAGE,0.5,0.25,0.35,rel2-3,2,3,110100,9417.6,55341,book_collection_true_dates/date/query9//useDOCUMENT:DATE:LOCATIONuseREFERENCES:SIMLOC:SIMPAGE/rel2-3-date_th0.25-doc_th0.5-loc_th0.35.res.clean,0.155,0.000,0.100,0.100,0.000,
DOCUMENT:DATE:LOCATION,REFERENCES:SIMLOC:SIMPAGE,0.7,0.25,0.4,rel2-3,2,3,75194,5896.7,32590,book_collection_true_dates/date/query9//useDOCUMENT:DATE:LOCATIONuseREFERENCES:SIMLOC:SIMPAGE/rel2-3-date_th0.25-doc_th0.7-loc_th0.4.res.clean,0.226,0.000,0.200,0.100,0.000,
DOCUMENT:DATE:LOCATION,REFERENCES:SIMLOC:SIMPAGE,0.7,0.25,0.4,rel3-2,3,3,124132,15438.5,71895,book_collection_true_dates/date/query9//useDOCUMENT:DATE:LOCATIONuseREFERENCES:SIMLOC:SIMPAGE/rel3-2-date_th0.25-doc_th0.7-loc_th0.4.res.clean,0.146,0.000,0.100,0.100,0.000,
DOCUMENT:DATE:LOCATION,REFERENCES:SIMLOC:SIMPAGE,0.6,0.3,0.4,rel2-5-date_th0,2,3,75171,6356.8,33162,book_collection_true_dates/date/query9//useDOCUMENT:DATE:LOCATIONuseREFERENCES:SIMLOC:SIMPAGE/rel2-5-date_th0.3-doc_th0.6-loc_th0.4.res.clean,0.000,0.000,0.000,0.000,0.000,
DOCUMENT:DATE:LOCATION,REFERENCES:SIMLOC:SIMPAGE,0.5,0.3,0.4,rel1-1,1,2,52,7.3,19898,book_collection_true_dates/date/query9//useDOCUMENT:DATE:LOCATIONuseREFERENCES:SIMLOC:SIMPAGE/rel1-1-date_th0.3-doc_th0.5-loc_th0.4.res.clean,0.267,0.200,0.200,0.100,0.000,
DOCUMENT:DATE:LOCATION,REFERENCES:SIMLOC:SIMPAGE,0.6,0.25,0.4,rel2-5-date_th0,2,3,75171,6356.8,32358,book_collection_true_dates/date/query9//useDOCUMENT:DATE:LOCATIONuseREFERENCES:SIMLOC:SIMPAGE/rel2-5-date_th0.25-doc_th0.6-loc_th0.4.res.clean,0.000,0.000,0.000,0.000,0.000,
DOCUMENT:DATE:LOCATION,REFERENCES:SIMLOC:SIMPAGE,0.7,0.3,0.4,rel1-4-date_th0,1,2,14,3.6,3266,book_collection_true_dates/date/query9//useDOCUMENT:DATE:LOCATIONuseREFERENCES:SIMLOC:SIMPAGE/rel1-4-date_th0.3-doc_th0.7-loc_th0.4.res.clean,0.000,0.000,0.000,0.000,0.000,
DOCUMENT:DATE:LOCATION,REFERENCES:SIMLOC:SIMPAGE,0.5,0.25,0.4,rel3-2,3,3,124161,15443.9,88370,book_collection_true_dates/date/query9//useDOCUMENT:DATE:LOCATIONuseREFERENCES:SIMLOC:SIMPAGE/rel3-2-date_th0.25-doc_th0.5-loc_th0.4.res.clean,0.121,0.000,0.100,0.100,0.000,
DOCUMENT:DATE:LOCATION,REFERENCES:SIMLOC:SIMPAGE,0.5,0.3,0.35,rel3-2,3,3,127684,15797.8,86678,book_collection_true_dates/date/query9//useDOCUMENT:DATE:LOCATIONuseREFERENCES:SIMLOC:SIMPAGE/rel3-2-date_th0.3-doc_th0.5-loc_th0.35.res.clean,0.121,0.000,0.100,0.100,0.000,
DOCUMENT:DATE:LOCATION,REFERENCES:SIMLOC:SIMPAGE,0.5,0.3,0.35,rel2-5,2,3,110113,10183.3,82880,book_collection_true_dates/date/query9//useDOCUMENT:DATE:LOCATIONuseREFERENCES:SIMLOC:SIMPAGE/rel2-5-date_th0.3-doc_th0.5-loc_th0.35.res.clean,0.000,0.000,0.000,0.000,0.000,
DOCUMENT:DATE:LOCATION,REFERENCES:SIMLOC:SIMPAGE,0.7,0.3,0.4,rel2-1,2,3,75206,6154.8,47389,book_collection_true_dates/date/query9//useDOCUMENT:DATE:LOCATIONuseREFERENCES:SIMLOC:SIMPAGE/rel2-1-date_th0.3-doc_th0.7-loc_th0.4.res.clean,0.226,0.000,0.200,0.100,0.000,
DOCUMENT:DATE:LOCATION,REFERENCES:SIMLOC:SIMPAGE,0.5,0.3,0.4,rel2-1,2,3,75242,6159.6,79853,book_collection_true_dates/date/query9//useDOCUMENT:DATE:LOCATIONuseREFERENCES:SIMLOC:SIMPAGE/rel2-1-date_th0.3-doc_th0.5-loc_th0.4.res.clean,0.121,0.000,0.100,0.100,0.000,
DOCUMENT:DATE:LOCATION,REFERENCES:SIMLOC:SIMPAGE,0.7,0.3,0.4,rel2-3,2,3,75194,5896.7,32078,book_collection_true_dates/date/query9//useDOCUMENT:DATE:LOCATIONuseREFERENCES:SIMLOC:SIMPAGE/rel2-3-date_th0.3-doc_th0.7-loc_th0.4.res.clean,0.226,0.000,0.200,0.100,0.000,
DOCUMENT:DATE:LOCATION,REFERENCES:SIMLOC:SIMPAGE,0.5,0.25,0.35,rel1-4-date_th0,1,2,14,3.6,3275,book_collection_true_dates/date/query9//useDOCUMENT:DATE:LOCATIONuseREFERENCES:SIMLOC:SIMPAGE/rel1-4-date_th0.25-doc_th0.5-loc_th0.35.res.clean,0.000,0.000,0.000,0.000,0.000,
DOCUMENT:DATE:LOCATION,REFERENCES:SIMLOC:SIMPAGE,0.7,0.25,0.35,rel2-3,2,3,110083,9414.4,37235,book_collection_true_dates/date/query9//useDOCUMENT:DATE:LOCATIONuseREFERENCES:SIMLOC:SIMPAGE/rel2-3-date_th0.25-doc_th0.7-loc_th0.35.res.clean,0.226,0.000,0.200,0.100,0.000,
DOCUMENT:DATE:LOCATION,REFERENCES:SIMLOC:SIMPAGE,0.5,0.25,0.4,rel2-3,2,3,75211,5899.6,67770,book_collection_true_dates/date/query9//useDOCUMENT:DATE:LOCATIONuseREFERENCES:SIMLOC:SIMPAGE/rel2-3-date_th0.25-doc_th0.5-loc_th0.4.res.clean,0.155,0.000,0.100,0.100,0.000,
DOCUMENT:DATE:LOCATION,REFERENCES:SIMLOC:SIMPAGE,0.6,0.25,0.4,rel1-2-date_th0,1,2,31,5.4,20511,book_collection_true_dates/date/query9//useDOCUMENT:DATE:LOCATIONuseREFERENCES:SIMLOC:SIMPAGE/rel1-2-date_th0.25-doc_th0.6-loc_th0.4.res.clean,0.000,0.000,0.000,0.000,0.000,
DOCUMENT:DATE:LOCATION,REFERENCES:SIMLOC:SIMPAGE,0.7,0.25,0.35,rel1-2-date_th0,1,2,31,5.4,20086,book_collection_true_dates/date/query9//useDOCUMENT:DATE:LOCATIONuseREFERENCES:SIMLOC:SIMPAGE/rel1-2-date_th0.25-doc_th0.7-loc_th0.35.res.clean,0.000,0.000,0.000,0.000,0.000,
DOCUMENT:DATE:LOCATION,REFERENCES:SIMLOC:SIMPAGE,0.6,0.3,0.4,rel2-3,2,3,75194,5896.7,31916,book_collection_true_dates/date/query9//useDOCUMENT:DATE:LOCATIONuseREFERENCES:SIMLOC:SIMPAGE/rel2-3-date_th0.3-doc_th0.6-loc_th0.4.res.clean,0.226,0.000,0.200,0.100,0.000,
DOCUMENT:DATE:LOCATION,REFERENCES:SIMLOC:SIMPAGE,0.7,0.3,0.4,rel2-5-date_th0,2,3,75171,6356.8,32479,book_collection_true_dates/date/query9//useDOCUMENT:DATE:LOCATIONuseREFERENCES:SIMLOC:SIMPAGE/rel2-5-date_th0.3-doc_th0.7-loc_th0.4.res.clean,0.000,0.000,0.000,0.000,0.000,
DOCUMENT:DATE:LOCATION,REFERENCES:SIMLOC:SIMPAGE,0.5,0.3,0.35,rel1-4-date_th0,1,2,14,3.6,3329,book_collection_true_dates/date/query9//useDOCUMENT:DATE:LOCATIONuseREFERENCES:SIMLOC:SIMPAGE/rel1-4-date_th0.3-doc_th0.5-loc_th0.35.res.clean,0.000,0.000,0.000,0.000,0.000,
DOCUMENT:DATE:LOCATION,REFERENCES:SIMLOC:SIMPAGE,0.5,0.3,0.4,rel1-2-date_th0,1,2,31,5.4,20056,book_collection_true_dates/date/query9//useDOCUMENT:DATE:LOCATIONuseREFERENCES:SIMLOC:SIMPAGE/rel1-2-date_th0.3-doc_th0.5-loc_th0.4.res.clean,0.000,0.000,0.000,0.000,0.000,
DOCUMENT:DATE:LOCATION,REFERENCES:SIMLOC:SIMPAGE,0.7,0.25,0.35,rel3-2,3,3,127651,15791.5,74753,book_collection_true_dates/date/query9//useDOCUMENT:DATE:LOCATIONuseREFERENCES:SIMLOC:SIMPAGE/rel3-2-date_th0.25-doc_th0.7-loc_th0.35.res.clean,0.146,0.000,0.100,0.100,0.000,
DOCUMENT:DATE:LOCATION,REFERENCES:SIMLOC:SIMPAGE,0.5,0.3,0.35,rel2-1,2,3,114055,10335.2,86523,book_collection_true_dates/date/query9//useDOCUMENT:DATE:LOCATIONuseREFERENCES:SIMLOC:SIMPAGE/rel2-1-date_th0.3-doc_th0.5-loc_th0.35.res.clean,0.121,0.000,0.100,0.100,0.000,
DOCUMENT:DATE:LOCATION,REFERENCES:SIMLOC:SIMPAGE,0.7,0.3,0.4,rel1-2-date_th0,1,2,31,5.4,20026,book_collection_true_dates/date/query9//useDOCUMENT:DATE:LOCATIONuseREFERENCES:SIMLOC:SIMPAGE/rel1-2-date_th0.3-doc_th0.7-loc_th0.4.res.clean,0.000,0.000,0.000,0.000,0.000,
DOCUMENT:DATE:LOCATION,REFERENCES:SIMLOC:SIMPAGE,0.5,0.25,0.35,rel3-2,3,3,127684,15797.8,107035,book_collection_true_dates/date/query9//useDOCUMENT:DATE:LOCATIONuseREFERENCES:SIMLOC:SIMPAGE/rel3-2-date_th0.25-doc_th0.5-loc_th0.35.res.clean,0.121,0.000,0.100,0.100,0.000,
DOCUMENT:DATE:LOCATION,REFERENCES:SIMLOC:SIMPAGE,0.6,0.3,0.35,rel1-2-date_th0,1,2,31,5.4,20129,book_collection_true_dates/date/query9//useDOCUMENT:DATE:LOCATIONuseREFERENCES:SIMLOC:SIMPAGE/rel1-2-date_th0.3-doc_th0.6-loc_th0.35.res.clean,0.000,0.000,0.000,0.000,0.000,
DOCUMENT:DATE:LOCATION,REFERENCES:SIMLOC:SIMPAGE,0.6,0.3,0.4,rel3-2,3,3,124143,15441.7,73512,book_collection_true_dates/date/query9//useDOCUMENT:DATE:LOCATIONuseREFERENCES:SIMLOC:SIMPAGE/rel3-2-date_th0.3-doc_th0.6-loc_th0.4.res.clean,0.146,0.000,0.100,0.100,0.000,
DOCUMENT:DATE:LOCATION,REFERENCES:SIMLOC:SIMPAGE,0.6,0.3,0.35,rel1-1,1,2,52,7.3,20742,book_collection_true_dates/date/query9//useDOCUMENT:DATE:LOCATIONuseREFERENCES:SIMLOC:SIMPAGE/rel1-1-date_th0.3-doc_th0.6-loc_th0.35.res.clean,0.267,0.200,0.200,0.100,0.000,
DOCUMENT:DATE:LOCATION,REFERENCES:SIMLOC:SIMPAGE,0.7,0.3,0.35,rel1-2-date_th0,1,2,31,5.4,20123,book_collection_true_dates/date/query9//useDOCUMENT:DATE:LOCATIONuseREFERENCES:SIMLOC:SIMPAGE/rel1-2-date_th0.3-doc_th0.7-loc_th0.35.res.clean,0.000,0.000,0.000,0.000,0.000,
DOCUMENT:DATE:LOCATION,REFERENCES:SIMLOC:SIMPAGE,0.5,0.25,0.4,rel1-2-date_th0,1,2,31,5.4,20389,book_collection_true_dates/date/query9//useDOCUMENT:DATE:LOCATIONuseREFERENCES:SIMLOC:SIMPAGE/rel1-2-date_th0.25-doc_th0.5-loc_th0.4.res.clean,0.000,0.000,0.000,0.000,0.000,
DOCUMENT:DATE:LOCATION,REFERENCES:SIMLOC:SIMPAGE,0.7,0.3,0.4,rel1-1,1,2,52,7.3,20027,book_collection_true_dates/date/query9//useDOCUMENT:DATE:LOCATIONuseREFERENCES:SIMLOC:SIMPAGE/rel1-1-date_th0.3-doc_th0.7-loc_th0.4.res.clean,0.267,0.200,0.200,0.100,0.000,
DOCUMENT:DATE:LOCATION,REFERENCES:SIMLOC:SIMPAGE,0.7,0.3,0.4,rel3-2,3,3,124132,15438.5,68013,book_collection_true_dates/date/query9//useDOCUMENT:DATE:LOCATIONuseREFERENCES:SIMLOC:SIMPAGE/rel3-2-date_th0.3-doc_th0.7-loc_th0.4.res.clean,0.146,0.000,0.100,0.100,0.000,
DOCUMENT:DATE:LOCATION,REFERENCES:SIMLOC:SIMPAGE,0.5,0.25,0.4,rel2-5,2,3,75224,6364.5,70258,book_collection_true_dates/date/query9//useDOCUMENT:DATE:LOCATIONuseREFERENCES:SIMLOC:SIMPAGE/rel2-5-date_th0.25-doc_th0.5-loc_th0.4.res.clean,0.000,0.000,0.000,0.000,0.000,
DOCUMENT:DATE:LOCATION,REFERENCES:SIMLOC:SIMPAGE,0.7,0.25,0.4,rel2-5-date_th0,2,3,75171,6356.8,32622,book_collection_true_dates/date/query9//useDOCUMENT:DATE:LOCATIONuseREFERENCES:SIMLOC:SIMPAGE/rel2-5-date_th0.25-doc_th0.7-loc_th0.4.res.clean,0.000,0.000,0.000,0.000,0.000,
DOCUMENT:DATE:LOCATION,REFERENCES:SIMLOC:SIMPAGE,0.7,0.25,0.35,rel1-4-date_th0,1,2,14,3.6,3259,book_collection_true_dates/date/query9//useDOCUMENT:DATE:LOCATIONuseREFERENCES:SIMLOC:SIMPAGE/rel1-4-date_th0.25-doc_th0.7-loc_th0.35.res.clean,0.000,0.000,0.000,0.000,0.000,
DOCUMENT:DATE:LOCATION,REFERENCES:SIMLOC:SIMPAGE,0.5,0.3,0.35,rel1-2-date_th0,1,2,31,5.4,20940,book_collection_true_dates/date/query9//useDOCUMENT:DATE:LOCATIONuseREFERENCES:SIMLOC:SIMPAGE/rel1-2-date_th0.3-doc_th0.5-loc_th0.35.res.clean,0.000,0.000,0.000,0.000,0.000,
DOCUMENT:DATE:LOCATION,REFERENCES:SIMLOC:SIMPAGE,0.7,0.3,0.35,rel2-5-date_th0,2,3,110060,10175.1,38994,book_collection_true_dates/date/query9//useDOCUMENT:DATE:LOCATIONuseREFERENCES:SIMLOC:SIMPAGE/rel2-5-date_th0.3-doc_th0.7-loc_th0.35.res.clean,0.000,0.000,0.000,0.000,0.000,
DOCUMENT:DATE:LOCATION,REFERENCES:SIMLOC:SIMPAGE,0.7,0.3,0.35,rel3-2,3,3,127651,15791.5,68924,book_collection_true_dates/date/query9//useDOCUMENT:DATE:LOCATIONuseREFERENCES:SIMLOC:SIMPAGE/rel3-2-date_th0.3-doc_th0.7-loc_th0.35.res.clean,0.146,0.000,0.100,0.100,0.000,
DOCUMENT:DATE:LOCATION,REFERENCES:SIMLOC:SIMPAGE,0.6,0.3,0.4,rel1-4-date_th0,1,2,14,3.6,3262,book_collection_true_dates/date/query9//useDOCUMENT:DATE:LOCATIONuseREFERENCES:SIMLOC:SIMPAGE/rel1-4-date_th0.3-doc_th0.6-loc_th0.4.res.clean,0.000,0.000,0.000,0.000,0.000,
DOCUMENT:DATE:LOCATION,REFERENCES:SIMLOC:SIMPAGE,0.6,0.25,0.4,rel2-1,2,3,75206,6154.8,51355,book_collection_true_dates/date/query9//useDOCUMENT:DATE:LOCATIONuseREFERENCES:SIMLOC:SIMPAGE/rel2-1-date_th0.25-doc_th0.6-loc_th0.4.res.clean,0.226,0.000,0.200,0.100,0.000,
DOCUMENT:DATE:LOCATION,REFERENCES:SIMLOC:SIMPAGE,0.6,0.25,0.35,rel3-2,3,3,127662,15794.7,75270,book_collection_true_dates/date/query9//useDOCUMENT:DATE:LOCATIONuseREFERENCES:SIMLOC:SIMPAGE/rel3-2-date_th0.25-doc_th0.6-loc_th0.35.res.clean,0.146,0.000,0.100,0.100,0.000,
DOCUMENT:DATE:LOCATION,REFERENCES:SIMLOC:SIMPAGE,0.5,0.25,0.35,rel2-1,2,3,114055,10335.2,106637,book_collection_true_dates/date/query9//useDOCUMENT:DATE:LOCATIONuseREFERENCES:SIMLOC:SIMPAGE/rel2-1-date_th0.25-doc_th0.5-loc_th0.35.res.clean,0.121,0.000,0.100,0.100,0.000,
DOCUMENT:DATE:LOCATION,REFERENCES:SIMLOC:SIMPAGE,0.5,0.3,0.35,rel2-3,2,3,110100,9417.6,52057,book_collection_true_dates/date/query9//useDOCUMENT:DATE:LOCATIONuseREFERENCES:SIMLOC:SIMPAGE/rel2-3-date_th0.3-doc_th0.5-loc_th0.35.res.clean,0.155,0.000,0.100,0.100,0.000,
DOCUMENT:DATE:LOCATION,REFERENCES:SIMLOC:SIMPAGE,0.6,0.3,0.4,rel2-1,2,3,75206,6154.8,47992,book_collection_true_dates/date/query9//useDOCUMENT:DATE:LOCATIONuseREFERENCES:SIMLOC:SIMPAGE/rel2-1-date_th0.3-doc_th0.6-loc_th0.4.res.clean,0.226,0.000,0.200,0.100,0.000,
DOCUMENT:DATE:LOCATION,REFERENCES:SIMLOC:SIMPAGE,0.6,0.25,0.35,rel1-4-date_th0,1,2,14,3.6,3255,book_collection_true_dates/date/query9//useDOCUMENT:DATE:LOCATIONuseREFERENCES:SIMLOC:SIMPAGE/rel1-4-date_th0.25-doc_th0.6-loc_th0.35.res.clean,0.000,0.000,0.000,0.000,0.000,
DOCUMENT:DATE:LOCATION,REFERENCES:SIMLOC:SIMPAGE,0.7,0.25,0.4,rel1-1,1,2,52,7.3,20133,book_collection_true_dates/date/query9//useDOCUMENT:DATE:LOCATIONuseREFERENCES:SIMLOC:SIMPAGE/rel1-1-date_th0.25-doc_th0.7-loc_th0.4.res.clean,0.267,0.200,0.200,0.100,0.000,
DOCUMENT:DATE:LOCATION,REFERENCES:SIMLOC:SIMPAGE,0.6,0.3,0.35,rel2-5,2,3,110088,10179.9,61222,book_collection_true_dates/date/query9//useDOCUMENT:DATE:LOCATIONuseREFERENCES:SIMLOC:SIMPAGE/rel2-5-date_th0.3-doc_th0.6-loc_th0.35.res.clean,0.000,0.000,0.000,0.000,0.000,
DOCUMENT:DATE:LOCATION,REFERENCES:SIMLOC:SIMPAGE,0.5,0.25,0.35,rel1-2-date_th0,1,2,31,5.4,20815,book_collection_true_dates/date/query9//useDOCUMENT:DATE:LOCATIONuseREFERENCES:SIMLOC:SIMPAGE/rel1-2-date_th0.25-doc_th0.5-loc_th0.35.res.clean,0.000,0.000,0.000,0.000,0.000,
DOCUMENT:DATE:LOCATION,REFERENCES:SIMLOC:SIMPAGE,0.6,0.3,0.4,rel1-2-date_th0,1,2,31,5.4,20713,book_collection_true_dates/date/query9//useDOCUMENT:DATE:LOCATIONuseREFERENCES:SIMLOC:SIMPAGE/rel1-2-date_th0.3-doc_th0.6-loc_th0.4.res.clean,0.000,0.000,0.000,0.000,0.000,
DOCUMENT:DATE:LOCATION,REFERENCES:SIMLOC:SIMPAGE,0.6,0.25,0.4,rel1-1,1,2,52,7.3,20978,book_collection_true_dates/date/query9//useDOCUMENT:DATE:LOCATIONuseREFERENCES:SIMLOC:SIMPAGE/rel1-1-date_th0.25-doc_th0.6-loc_th0.4.res.clean,0.267,0.200,0.200,0.100,0.000,
DOCUMENT:DATE:LOCATION,REFERENCES:SIMLOC:SIMPAGE,0.6,0.25,0.4,rel3-2,3,3,124143,15441.7,76118,book_collection_true_dates/date/query9//useDOCUMENT:DATE:LOCATIONuseREFERENCES:SIMLOC:SIMPAGE/rel3-2-date_th0.25-doc_th0.6-loc_th0.4.res.clean,0.146,0.000,0.100,0.100,0.000,
DOCUMENT:DATE:LOCATION,REFERENCES:SIMLOC:SIMPAGE,0.7,0.25,0.4,rel1-4-date_th0,1,2,14,3.6,3346,book_collection_true_dates/date/query9//useDOCUMENT:DATE:LOCATIONuseREFERENCES:SIMLOC:SIMPAGE/rel1-4-date_th0.25-doc_th0.7-loc_th0.4.res.clean,0.000,0.000,0.000,0.000,0.000,
DOCUMENT:DATE:LOCATION,REFERENCES:SIMLOC:SIMPAGE,0.5,0.3,0.4,rel2-3,2,3,75211,5899.6,45225,book_collection_true_dates/date/query9//useDOCUMENT:DATE:LOCATIONuseREFERENCES:SIMLOC:SIMPAGE/rel2-3-date_th0.3-doc_th0.5-loc_th0.4.res.clean,0.155,0.000,0.100,0.100,0.000,
DOCUMENT:DATE:LOCATION,REFERENCES:SIMLOC:SIMPAGE,0.6,0.3,0.35,rel2-1,2,3,114032,10332.2,72220,book_collection_true_dates/date/query9//useDOCUMENT:DATE:LOCATIONuseREFERENCES:SIMLOC:SIMPAGE/rel2-1-date_th0.3-doc_th0.6-loc_th0.35.res.clean,0.146,0.000,0.100,0.100,0.000,
DOCUMENT:DATE:LOCATION,REFERENCES:SIMLOC:SIMPAGE,0.7,0.25,0.35,rel1-1,1,2,52,7.3,19988,book_collection_true_dates/date/query9//useDOCUMENT:DATE:LOCATIONuseREFERENCES:SIMLOC:SIMPAGE/rel1-1-date_th0.25-doc_th0.7-loc_th0.35.res.clean,0.267,0.200,0.200,0.100,0.000,
DOCUMENT:DATE:LOCATION,REFERENCES:SIMLOC:SIMPAGE,0.6,0.25,0.4,rel2-3,2,3,75194,5896.7,32250,book_collection_true_dates/date/query9//useDOCUMENT:DATE:LOCATIONuseREFERENCES:SIMLOC:SIMPAGE/rel2-3-date_th0.25-doc_th0.6-loc_th0.4.res.clean,0.226,0.000,0.200,0.100,0.000,
DOCUMENT:DATE:LOCATION,REFERENCES:SIMLOC:SIMPAGE,0.5,0.3,0.35,rel1-1,1,2,52,7.3,20453,book_collection_true_dates/date/query9//useDOCUMENT:DATE:LOCATIONuseREFERENCES:SIMLOC:SIMPAGE/rel1-1-date_th0.3-doc_th0.5-loc_th0.35.res.clean,0.267,0.200,0.200,0.100,0.000,
DOCUMENT:DATE:LOCATION,REFERENCES:SIMLOC:SIMPAGE,0.5,0.25,0.4,rel2-1,2,3,75242,6159.6,83883,book_collection_true_dates/date/query9//useDOCUMENT:DATE:LOCATIONuseREFERENCES:SIMLOC:SIMPAGE/rel2-1-date_th0.25-doc_th0.5-loc_th0.4.res.clean,0.121,0.000,0.100,0.100,0.000,
DOCUMENT:DATE:LOCATION,REFERENCES:SIMLOC:SIMPAGE,0.5,0.25,0.35,rel2-5,2,3,110113,10183.3,75523,book_collection_true_dates/date/query9//useDOCUMENT:DATE:LOCATIONuseREFERENCES:SIMLOC:SIMPAGE/rel2-5-date_th0.25-doc_th0.5-loc_th0.35.res.clean,0.000,0.000,0.000,0.000,0.000,
DOCUMENT:DATE:LOCATION,REFERENCES:SIMLOC:SIMPAGE,0.6,0.3,0.35,rel1-4-date_th0,1,2,14,3.6,3286,book_collection_true_dates/date/query9//useDOCUMENT:DATE:LOCATIONuseREFERENCES:SIMLOC:SIMPAGE/rel1-4-date_th0.3-doc_th0.6-loc_th0.35.res.clean,0.000,0.000,0.000,0.000,0.000,
DOCUMENT:DATE:LOCATION,REFERENCES:SIMLOC:SIMPAGE,0.7,0.3,0.35,rel2-1,2,3,114015,10329.2,52267,book_collection_true_dates/date/query9//useDOCUMENT:DATE:LOCATIONuseREFERENCES:SIMLOC:SIMPAGE/rel2-1-date_th0.3-doc_th0.7-loc_th0.35.res.clean,0.226,0.000,0.200,0.100,0.000,
DOCUMENT:DATE:LOCATION,REFERENCES:SIMLOC:SIMPAGE,0.6,0.25,0.35,rel2-5,2,3,110088,10179.9,62658,book_collection_true_dates/date/query9//useDOCUMENT:DATE:LOCATIONuseREFERENCES:SIMLOC:SIMPAGE/rel2-5-date_th0.25-doc_th0.6-loc_th0.35.res.clean,0.000,0.000,0.000,0.000,0.000,
DOCUMENT:DATE:LOCATION,REFERENCES:SIMLOC:SIMPAGE,0.6,0.25,0.35,rel2-1,2,3,114032,10332.2,74183,book_collection_true_dates/date/query9//useDOCUMENT:DATE:LOCATIONuseREFERENCES:SIMLOC:SIMPAGE/rel2-1-date_th0.25-doc_th0.6-loc_th0.35.res.clean,0.146,0.000,0.100,0.100,0.000,
DOCUMENT:DATE:LOCATION,REFERENCES:SIMLOC:SIMPAGE,0.7,0.25,0.4,rel2-1,2,3,75206,6154.8,48634,book_collection_true_dates/date/query9//useDOCUMENT:DATE:LOCATIONuseREFERENCES:SIMLOC:SIMPAGE/rel2-1-date_th0.25-doc_th0.7-loc_th0.4.res.clean,0.226,0.000,0.200,0.100,0.000,
DOCUMENT:DATE:LOCATION,REFERENCES:SIMLOC:SIMPAGE,0.6,0.25,0.35,rel1-2-date_th0,1,2,31,5.4,20036,book_collection_true_dates/date/query9//useDOCUMENT:DATE:LOCATIONuseREFERENCES:SIMLOC:SIMPAGE/rel1-2-date_th0.25-doc_th0.6-loc_th0.35.res.clean,0.000,0.000,0.000,0.000,0.000,

Sig-Test:,randomized,,threshold,set,to,0.050000
