###################################
# parameters: 
#   date_th: 0.3
#   doc_th: 0.7
#   loc_th: 0.4
#   nodestouse: DOCUMENT:DATE:LOCATION
#   relationships: REFERENCES:SIMDATES:SIMPAGE

###################################
# configuration: 
#   sa.act_diff_ratio_limit = 0.01
#   sa.act_diff_ratio_limit_diff = 0.01
#   sa.function = ciir.multi.sa.function.MaxSAFunction(norm_function)
#   sa.id_property_name.DATE = dateID
#   sa.id_property_name.DOCUMENT = docID
#   sa.id_property_name.LOCATION = locID
#   sa.max_pulses = 10
#   sa.nodes_to_print = DATE:LOCATION
#   sa.nodes_to_use = DOCUMENT:DATE:LOCATION
#   sa.norm_function = ciir.multi.sa.SigmoidFunction(0.0, 1.0)
#   sa.relationships_to_use = REFERENCES:SIMDATES:SIMPAGE
#   sa.spread_threshold.DATE = 0.3
#   sa.spread_threshold.DOCUMENT = 0.7
#   sa.spread_threshold.LOCATION = 0.4
#   sa.weight_property.REFERENCES = relevance
#   sa.weight_property.SIMDATES = sim
#   sa.weight_property.SIMDOC = sim
#   sa.weight_property.SIMLOC = sim
#   sa.weight_property.SIMPAGE = pagesim

###################################
# initial activations (1): 
#   sanfranciscohist01youn_192, 1

###################################
# spreading activation process log: 
#   pulse 0: activated: 1, non-zero: 1, borderline: 1, overall act: 1.000, act diff: 1.000, ratio: 1.000
#   pulse 1: activated: 11, non-zero: 11, borderline: 10, overall act: 3.537, act diff: 2.537, ratio: 0.717
#   pulse 2: activated: 11, non-zero: 11, borderline: 10, overall act: 3.537, act diff: 0.000, ratio: 0.000

###################################
# spreading activation process summary: 
#   final number of activated nodes: 11
#   final overall activation: 3.5
#   number of spread. activ. pulses: 2
#   running time: 14439

###################################
# top k results in TREC format: 

10   rel1-1   1848   1   0.21207042   nodesDOCUMENT:DATE:LOCATION-edgesREFERENCES:SIMDATES:SIMPAGE-date_th0.3-doc_th0.7-loc_th0.4
10   rel1-1   1849   2   0.21207042   nodesDOCUMENT:DATE:LOCATION-edgesREFERENCES:SIMDATES:SIMPAGE-date_th0.3-doc_th0.7-loc_th0.4

###################################
# top nodes: 

# 10   rel1-1   sanfranciscohist01youn_192   1   1.0   nodesDOCUMENT:DATE:LOCATION-edgesREFERENCES:SIMDATES:SIMPAGE-date_th0.3-doc_th0.7-loc_th0.4
# 10   rel1-1   sanfranciscohist01youn_191   2   0.46211717   nodesDOCUMENT:DATE:LOCATION-edgesREFERENCES:SIMDATES:SIMPAGE-date_th0.3-doc_th0.7-loc_th0.4
# 10   rel1-1   sanfranciscohist01youn_193   3   0.46211717   nodesDOCUMENT:DATE:LOCATION-edgesREFERENCES:SIMDATES:SIMPAGE-date_th0.3-doc_th0.7-loc_th0.4
# 10   rel1-1   california   4   0.33719063   nodesDOCUMENT:DATE:LOCATION-edgesREFERENCES:SIMDATES:SIMPAGE-date_th0.3-doc_th0.7-loc_th0.4
# 10   rel1-1   yerba buena   5   0.28235662   nodesDOCUMENT:DATE:LOCATION-edgesREFERENCES:SIMDATES:SIMPAGE-date_th0.3-doc_th0.7-loc_th0.4
# 10   rel1-1   1848   6   0.21207042   nodesDOCUMENT:DATE:LOCATION-edgesREFERENCES:SIMDATES:SIMPAGE-date_th0.3-doc_th0.7-loc_th0.4
# 10   rel1-1   1849   7   0.21207042   nodesDOCUMENT:DATE:LOCATION-edgesREFERENCES:SIMDATES:SIMPAGE-date_th0.3-doc_th0.7-loc_th0.4
# 10   rel1-1   united states   8   0.19556819   nodesDOCUMENT:DATE:LOCATION-edgesREFERENCES:SIMDATES:SIMPAGE-date_th0.3-doc_th0.7-loc_th0.4
# 10   rel1-1   los angeles   9   0.124353   nodesDOCUMENT:DATE:LOCATION-edgesREFERENCES:SIMDATES:SIMPAGE-date_th0.3-doc_th0.7-loc_th0.4
# 10   rel1-1   sutter   10   0.124353   nodesDOCUMENT:DATE:LOCATION-edgesREFERENCES:SIMDATES:SIMPAGE-date_th0.3-doc_th0.7-loc_th0.4
# 10   rel1-1   philadelphia   11   0.124353   nodesDOCUMENT:DATE:LOCATION-edgesREFERENCES:SIMDATES:SIMPAGE-date_th0.3-doc_th0.7-loc_th0.4
