###################################
# parameters: 
#   date_th: 0.3
#   doc_th: 0.5
#   loc_th: 0.35
#   nodestouse: DOCUMENT:DATE:LOCATION
#   relationships: REFERENCES:SIMPAGE

###################################
# configuration: 
#   sa.act_diff_ratio_limit = 0.01
#   sa.act_diff_ratio_limit_diff = 0.01
#   sa.function = ciir.multi.sa.function.MaxSAFunction(norm_function)
#   sa.id_property_name.DATE = dateID
#   sa.id_property_name.DOCUMENT = docID
#   sa.id_property_name.LOCATION = locID
#   sa.max_pulses = 10
#   sa.nodes_to_print = DATE:LOCATION
#   sa.nodes_to_use = DOCUMENT:DATE:LOCATION
#   sa.norm_function = ciir.multi.sa.SigmoidFunction(0.0, 1.0)
#   sa.relationships_to_use = REFERENCES:SIMPAGE
#   sa.spread_threshold.DATE = 0.3
#   sa.spread_threshold.DOCUMENT = 0.5
#   sa.spread_threshold.LOCATION = 0.35
#   sa.weight_property.REFERENCES = relevance
#   sa.weight_property.SIMDATES = sim
#   sa.weight_property.SIMDOC = sim
#   sa.weight_property.SIMLOC = sim
#   sa.weight_property.SIMPAGE = pagesim

###################################
# initial activations (1): 
#   cu31924029563875_157, 1

###################################
# spreading activation process log: 
#   pulse 0: activated: 1, non-zero: 1, borderline: 1, overall act: 1.000, act diff: 1.000, ratio: 1.000
#   pulse 1: activated: 19, non-zero: 19, borderline: 18, overall act: 4.538, act diff: 3.538, ratio: 0.780
#   pulse 2: activated: 627180, non-zero: 627180, borderline: 627178, overall act: 59857.384, act diff: 59852.846, ratio: 1.000
#   pulse 3: activated: 627204, non-zero: 627204, borderline: 627200, overall act: 59860.033, act diff: 2.648, ratio: 0.000

###################################
# spreading activation process summary: 
#   final number of activated nodes: 627204
#   final overall activation: 59860.0
#   number of spread. activ. pulses: 3
#   running time: 119105

###################################
# top k results in TREC format: 

2   rel1-2   london   1   0.59379333   nodesDOCUMENT:DATE:LOCATION-edgesREFERENCES:SIMPAGE-date_th0.3-doc_th0.5-loc_th0.35
2   rel1-2   ireland   2   0.27465868   nodesDOCUMENT:DATE:LOCATION-edgesREFERENCES:SIMPAGE-date_th0.3-doc_th0.5-loc_th0.35
2   rel1-2   dublin   3   0.17114265   nodesDOCUMENT:DATE:LOCATION-edgesREFERENCES:SIMPAGE-date_th0.3-doc_th0.5-loc_th0.35
2   rel1-2   scotland   4   0.13415854   nodesDOCUMENT:DATE:LOCATION-edgesREFERENCES:SIMPAGE-date_th0.3-doc_th0.5-loc_th0.35
2   rel1-2   malay archipelago   5   0.11597154   nodesDOCUMENT:DATE:LOCATION-edgesREFERENCES:SIMPAGE-date_th0.3-doc_th0.5-loc_th0.35
2   rel1-2   shoreditch   6   0.108621895   nodesDOCUMENT:DATE:LOCATION-edgesREFERENCES:SIMPAGE-date_th0.3-doc_th0.5-loc_th0.35
2   rel1-2   europe   7   0.108621895   nodesDOCUMENT:DATE:LOCATION-edgesREFERENCES:SIMPAGE-date_th0.3-doc_th0.5-loc_th0.35
2   rel1-2   city   8   0.108621895   nodesDOCUMENT:DATE:LOCATION-edgesREFERENCES:SIMPAGE-date_th0.3-doc_th0.5-loc_th0.35
2   rel1-2   peacock   9   0.108621895   nodesDOCUMENT:DATE:LOCATION-edgesREFERENCES:SIMPAGE-date_th0.3-doc_th0.5-loc_th0.35
2   rel1-2   town   10   0.108621895   nodesDOCUMENT:DATE:LOCATION-edgesREFERENCES:SIMPAGE-date_th0.3-doc_th0.5-loc_th0.35
2   rel1-2   limerick   11   0.108621895   nodesDOCUMENT:DATE:LOCATION-edgesREFERENCES:SIMPAGE-date_th0.3-doc_th0.5-loc_th0.35
2   rel1-2   india   12   0.09205926   nodesDOCUMENT:DATE:LOCATION-edgesREFERENCES:SIMPAGE-date_th0.3-doc_th0.5-loc_th0.35
2   rel1-2   sumatra   13   0.09205926   nodesDOCUMENT:DATE:LOCATION-edgesREFERENCES:SIMPAGE-date_th0.3-doc_th0.5-loc_th0.35
2   rel1-2   monmouth   14   0.06738385   nodesDOCUMENT:DATE:LOCATION-edgesREFERENCES:SIMPAGE-date_th0.3-doc_th0.5-loc_th0.35
2   rel1-2   dorset   15   0.06738385   nodesDOCUMENT:DATE:LOCATION-edgesREFERENCES:SIMPAGE-date_th0.3-doc_th0.5-loc_th0.35
2   rel1-2   somerset   16   0.06738385   nodesDOCUMENT:DATE:LOCATION-edgesREFERENCES:SIMPAGE-date_th0.3-doc_th0.5-loc_th0.35
2   rel1-2   denmark   17   0.06738385   nodesDOCUMENT:DATE:LOCATION-edgesREFERENCES:SIMPAGE-date_th0.3-doc_th0.5-loc_th0.35
2   rel1-2   england   18   0.06738385   nodesDOCUMENT:DATE:LOCATION-edgesREFERENCES:SIMPAGE-date_th0.3-doc_th0.5-loc_th0.35
2   rel1-2   edinburgh   19   0.06738385   nodesDOCUMENT:DATE:LOCATION-edgesREFERENCES:SIMPAGE-date_th0.3-doc_th0.5-loc_th0.35
2   rel1-2   java   20   0.058182064   nodesDOCUMENT:DATE:LOCATION-edgesREFERENCES:SIMPAGE-date_th0.3-doc_th0.5-loc_th0.35

###################################
# top nodes: 

# 2   rel1-2   cu31924029563875_157   1   1.0   nodesDOCUMENT:DATE:LOCATION-edgesREFERENCES:SIMPAGE-date_th0.3-doc_th0.5-loc_th0.35
# 2   rel1-2   london   2   0.59379333   nodesDOCUMENT:DATE:LOCATION-edgesREFERENCES:SIMPAGE-date_th0.3-doc_th0.5-loc_th0.35
# 2   rel1-2   cu31924029563875_158   3   0.5628241   nodesDOCUMENT:DATE:LOCATION-edgesREFERENCES:SIMPAGE-date_th0.3-doc_th0.5-loc_th0.35
# 2   rel1-2   cu31924029563875_156   4   0.5116861   nodesDOCUMENT:DATE:LOCATION-edgesREFERENCES:SIMPAGE-date_th0.3-doc_th0.5-loc_th0.35
# 2   rel1-2   cu31924029563875_159   5   0.37125716   nodesDOCUMENT:DATE:LOCATION-edgesREFERENCES:SIMPAGE-date_th0.3-doc_th0.5-loc_th0.35
# 2   rel1-2   cu31924029563875_155   6   0.33922493   nodesDOCUMENT:DATE:LOCATION-edgesREFERENCES:SIMPAGE-date_th0.3-doc_th0.5-loc_th0.35
# 2   rel1-2   ireland   7   0.27465868   nodesDOCUMENT:DATE:LOCATION-edgesREFERENCES:SIMPAGE-date_th0.3-doc_th0.5-loc_th0.35
# 2   rel1-2   1687   8   0.18976523   nodesDOCUMENT:DATE:LOCATION-edgesREFERENCES:SIMPAGE-date_th0.3-doc_th0.5-loc_th0.35
# 2   rel1-2   piercepenniless00nashgoog_86   9   0.17823784   nodesDOCUMENT:DATE:LOCATION-edgesREFERENCES:SIMPAGE-date_th0.3-doc_th0.5-loc_th0.35
# 2   rel1-2   prabacteriology00stitrich_6   10   0.17823784   nodesDOCUMENT:DATE:LOCATION-edgesREFERENCES:SIMPAGE-date_th0.3-doc_th0.5-loc_th0.35
# 2   rel1-2   masterofmarton01tabo_65   11   0.17823784   nodesDOCUMENT:DATE:LOCATION-edgesREFERENCES:SIMPAGE-date_th0.3-doc_th0.5-loc_th0.35
# 2   rel1-2   forum04unkngoog_180   12   0.17823784   nodesDOCUMENT:DATE:LOCATION-edgesREFERENCES:SIMPAGE-date_th0.3-doc_th0.5-loc_th0.35
# 2   rel1-2   ethicsofdemocrac00postrich_67   13   0.17823784   nodesDOCUMENT:DATE:LOCATION-edgesREFERENCES:SIMPAGE-date_th0.3-doc_th0.5-loc_th0.35
# 2   rel1-2   forum04unkngoog_190   14   0.17823784   nodesDOCUMENT:DATE:LOCATION-edgesREFERENCES:SIMPAGE-date_th0.3-doc_th0.5-loc_th0.35
# 2   rel1-2   methodisthymnboo00stev_462   15   0.17823784   nodesDOCUMENT:DATE:LOCATION-edgesREFERENCES:SIMPAGE-date_th0.3-doc_th0.5-loc_th0.35
# 2   rel1-2   piercepenniless00nashgoog_99   16   0.17823784   nodesDOCUMENT:DATE:LOCATION-edgesREFERENCES:SIMPAGE-date_th0.3-doc_th0.5-loc_th0.35
# 2   rel1-2   fourlettersonpro00burkrich_111   17   0.17823784   nodesDOCUMENT:DATE:LOCATION-edgesREFERENCES:SIMPAGE-date_th0.3-doc_th0.5-loc_th0.35
# 2   rel1-2   lifeandlettersg02towngoog_168   18   0.17823784   nodesDOCUMENT:DATE:LOCATION-edgesREFERENCES:SIMPAGE-date_th0.3-doc_th0.5-loc_th0.35
# 2   rel1-2   workscomprisingh02cowpuoft_381   19   0.17823784   nodesDOCUMENT:DATE:LOCATION-edgesREFERENCES:SIMPAGE-date_th0.3-doc_th0.5-loc_th0.35
# 2   rel1-2   herberthooverman00lckell_89   20   0.17823784   nodesDOCUMENT:DATE:LOCATION-edgesREFERENCES:SIMPAGE-date_th0.3-doc_th0.5-loc_th0.35
# 2   rel1-2   herberthooverman00lckell_84   21   0.17823784   nodesDOCUMENT:DATE:LOCATION-edgesREFERENCES:SIMPAGE-date_th0.3-doc_th0.5-loc_th0.35
# 2   rel1-2   workscomprisingh02cowpuoft_397   22   0.17823784   nodesDOCUMENT:DATE:LOCATION-edgesREFERENCES:SIMPAGE-date_th0.3-doc_th0.5-loc_th0.35
# 2   rel1-2   workscomprisingh02cowpuoft_395   23   0.17823784   nodesDOCUMENT:DATE:LOCATION-edgesREFERENCES:SIMPAGE-date_th0.3-doc_th0.5-loc_th0.35
# 2   rel1-2   piercepenniless00nashgoog_41   24   0.17823784   nodesDOCUMENT:DATE:LOCATION-edgesREFERENCES:SIMPAGE-date_th0.3-doc_th0.5-loc_th0.35
# 2   rel1-2   lifeandlettersg02towngoog_140   25   0.17823784   nodesDOCUMENT:DATE:LOCATION-edgesREFERENCES:SIMPAGE-date_th0.3-doc_th0.5-loc_th0.35
# 2   rel1-2   piercepenniless00nashgoog_29   26   0.17823784   nodesDOCUMENT:DATE:LOCATION-edgesREFERENCES:SIMPAGE-date_th0.3-doc_th0.5-loc_th0.35
# 2   rel1-2   workscomprisingh02cowpuoft_378   27   0.17823784   nodesDOCUMENT:DATE:LOCATION-edgesREFERENCES:SIMPAGE-date_th0.3-doc_th0.5-loc_th0.35
# 2   rel1-2   ageneralabridgm30vinegoog_86   28   0.17823784   nodesDOCUMENT:DATE:LOCATION-edgesREFERENCES:SIMPAGE-date_th0.3-doc_th0.5-loc_th0.35
# 2   rel1-2   universalanthol11brangoog_66   29   0.17823784   nodesDOCUMENT:DATE:LOCATION-edgesREFERENCES:SIMPAGE-date_th0.3-doc_th0.5-loc_th0.35
# 2   rel1-2   journalseriesage65royauoft_360   30   0.17823784   nodesDOCUMENT:DATE:LOCATION-edgesREFERENCES:SIMPAGE-date_th0.3-doc_th0.5-loc_th0.35
# 2   rel1-2   economicreview05unkngoog_27   31   0.17823784   nodesDOCUMENT:DATE:LOCATION-edgesREFERENCES:SIMPAGE-date_th0.3-doc_th0.5-loc_th0.35
# 2   rel1-2   marriage00welliala_157   32   0.17823784   nodesDOCUMENT:DATE:LOCATION-edgesREFERENCES:SIMPAGE-date_th0.3-doc_th0.5-loc_th0.35
# 2   rel1-2   marriage00welliala_151   33   0.17823784   nodesDOCUMENT:DATE:LOCATION-edgesREFERENCES:SIMPAGE-date_th0.3-doc_th0.5-loc_th0.35
# 2   rel1-2   textbookonroadsp01spal_421   34   0.17823784   nodesDOCUMENT:DATE:LOCATION-edgesREFERENCES:SIMPAGE-date_th0.3-doc_th0.5-loc_th0.35
# 2   rel1-2   saintjohnsfire00sude_109   35   0.17823784   nodesDOCUMENT:DATE:LOCATION-edgesREFERENCES:SIMPAGE-date_th0.3-doc_th0.5-loc_th0.35
# 2   rel1-2   marriage00welliala_143   36   0.17823784   nodesDOCUMENT:DATE:LOCATION-edgesREFERENCES:SIMPAGE-date_th0.3-doc_th0.5-loc_th0.35
# 2   rel1-2   cu31924020159368_219   37   0.17823784   nodesDOCUMENT:DATE:LOCATION-edgesREFERENCES:SIMPAGE-date_th0.3-doc_th0.5-loc_th0.35
# 2   rel1-2   georgeselwyn00selw_326   38   0.17823784   nodesDOCUMENT:DATE:LOCATION-edgesREFERENCES:SIMPAGE-date_th0.3-doc_th0.5-loc_th0.35
# 2   rel1-2   economicreview05unkngoog_79   39   0.17823784   nodesDOCUMENT:DATE:LOCATION-edgesREFERENCES:SIMPAGE-date_th0.3-doc_th0.5-loc_th0.35
# 2   rel1-2   economicreview05unkngoog_74   40   0.17823784   nodesDOCUMENT:DATE:LOCATION-edgesREFERENCES:SIMPAGE-date_th0.3-doc_th0.5-loc_th0.35
