###################################
# parameters: 
#   date_th: 0.3
#   doc_th: 0.5
#   loc_th: 0.4
#   nodestouse: DOCUMENT:DATE:LOCATION
#   relationships: REFERENCES:SIMLOC

###################################
# configuration: 
#   sa.act_diff_ratio_limit = 0.01
#   sa.act_diff_ratio_limit_diff = 0.01
#   sa.function = ciir.multi.sa.function.MaxSAFunction(norm_function)
#   sa.id_property_name.DATE = dateID
#   sa.id_property_name.DOCUMENT = docID
#   sa.id_property_name.LOCATION = locID
#   sa.max_pulses = 10
#   sa.nodes_to_print = DATE:LOCATION
#   sa.nodes_to_use = DOCUMENT:DATE:LOCATION
#   sa.norm_function = ciir.multi.sa.SigmoidFunction(0.0, 1.0)
#   sa.relationships_to_use = REFERENCES:SIMLOC
#   sa.spread_threshold.DATE = 0.3
#   sa.spread_threshold.DOCUMENT = 0.5
#   sa.spread_threshold.LOCATION = 0.4
#   sa.weight_property.REFERENCES = relevance
#   sa.weight_property.SIMDATES = sim
#   sa.weight_property.SIMDOC = sim
#   sa.weight_property.SIMLOC = sim
#   sa.weight_property.SIMPAGE = pagesim

###################################
# initial activations (2): 
#   apoliticalhisto03reidgoog_64, 1
#   cu31924032471116_269, 1

###################################
# spreading activation process log: 
#   pulse 0: activated: 2, non-zero: 2, borderline: 2, overall act: 2.000, act diff: 2.000, ratio: 1.000
#   pulse 1: activated: 15, non-zero: 15, borderline: 13, overall act: 4.608, act diff: 2.608, ratio: 0.566
#   pulse 2: activated: 829930, non-zero: 829930, borderline: 829927, overall act: 112267.252, act diff: 112262.644, ratio: 1.000
#   pulse 3: activated: 829930, non-zero: 829930, borderline: 829927, overall act: 112267.252, act diff: 0.000, ratio: 0.000

###################################
# spreading activation process summary: 
#   final number of activated nodes: 829930
#   final overall activation: 112267.3
#   number of spread. activ. pulses: 3
#   running time: 135438

###################################
# top k results in TREC format: 

6   rel2-1   england   1   0.54243803   nodesDOCUMENT:DATE:LOCATION-edgesREFERENCES:SIMLOC-date_th0.3-doc_th0.5-loc_th0.4
6   rel2-1   newton blossomville   2   0.24775805   nodesDOCUMENT:DATE:LOCATION-edgesREFERENCES:SIMLOC-date_th0.3-doc_th0.5-loc_th0.4
6   rel2-1   filgrave   3   0.24471736   nodesDOCUMENT:DATE:LOCATION-edgesREFERENCES:SIMLOC-date_th0.3-doc_th0.5-loc_th0.4
6   rel2-1   turvey   4   0.23906165   nodesDOCUMENT:DATE:LOCATION-edgesREFERENCES:SIMLOC-date_th0.3-doc_th0.5-loc_th0.4
6   rel2-1   sherington   5   0.23863113   nodesDOCUMENT:DATE:LOCATION-edgesREFERENCES:SIMLOC-date_th0.3-doc_th0.5-loc_th0.4
6   rel2-1   easton maudit   6   0.23679769   nodesDOCUMENT:DATE:LOCATION-edgesREFERENCES:SIMLOC-date_th0.3-doc_th0.5-loc_th0.4
6   rel2-1   tyringham   7   0.2362757   nodesDOCUMENT:DATE:LOCATION-edgesREFERENCES:SIMLOC-date_th0.3-doc_th0.5-loc_th0.4
6   rel2-1   north   8   0.23413575   nodesDOCUMENT:DATE:LOCATION-edgesREFERENCES:SIMLOC-date_th0.3-doc_th0.5-loc_th0.4
6   rel2-1   chicheley   9   0.23379883   nodesDOCUMENT:DATE:LOCATION-edgesREFERENCES:SIMLOC-date_th0.3-doc_th0.5-loc_th0.4
6   rel2-1   hardmead   10   0.2320831   nodesDOCUMENT:DATE:LOCATION-edgesREFERENCES:SIMLOC-date_th0.3-doc_th0.5-loc_th0.4
6   rel2-1   bozeat   11   0.23052697   nodesDOCUMENT:DATE:LOCATION-edgesREFERENCES:SIMLOC-date_th0.3-doc_th0.5-loc_th0.4
6   rel2-1   harrold   12   0.22795807   nodesDOCUMENT:DATE:LOCATION-edgesREFERENCES:SIMLOC-date_th0.3-doc_th0.5-loc_th0.4
6   rel2-1   europe   13   0.1910497   nodesDOCUMENT:DATE:LOCATION-edgesREFERENCES:SIMLOC-date_th0.3-doc_th0.5-loc_th0.4
6   rel2-1   united states   14   0.1910497   nodesDOCUMENT:DATE:LOCATION-edgesREFERENCES:SIMLOC-date_th0.3-doc_th0.5-loc_th0.4
6   rel2-1   new orleans   15   0.1910497   nodesDOCUMENT:DATE:LOCATION-edgesREFERENCES:SIMLOC-date_th0.3-doc_th0.5-loc_th0.4
6   rel2-1   1861   16   0.16514042   nodesDOCUMENT:DATE:LOCATION-edgesREFERENCES:SIMLOC-date_th0.3-doc_th0.5-loc_th0.4
6   rel2-1   1901   17   0.16514042   nodesDOCUMENT:DATE:LOCATION-edgesREFERENCES:SIMLOC-date_th0.3-doc_th0.5-loc_th0.4
6   rel2-1   1900   18   0.16514042   nodesDOCUMENT:DATE:LOCATION-edgesREFERENCES:SIMLOC-date_th0.3-doc_th0.5-loc_th0.4
6   rel2-1   1268   19   0.16514042   nodesDOCUMENT:DATE:LOCATION-edgesREFERENCES:SIMLOC-date_th0.3-doc_th0.5-loc_th0.4
6   rel2-1   great britain   20   0.14938858   nodesDOCUMENT:DATE:LOCATION-edgesREFERENCES:SIMLOC-date_th0.3-doc_th0.5-loc_th0.4

###################################
# top nodes: 

# 6   rel2-1   cu31924032471116_269   1   1.0   nodesDOCUMENT:DATE:LOCATION-edgesREFERENCES:SIMLOC-date_th0.3-doc_th0.5-loc_th0.4
# 6   rel2-1   apoliticalhisto03reidgoog_64   2   1.0   nodesDOCUMENT:DATE:LOCATION-edgesREFERENCES:SIMLOC-date_th0.3-doc_th0.5-loc_th0.4
# 6   rel2-1   england   3   0.54243803   nodesDOCUMENT:DATE:LOCATION-edgesREFERENCES:SIMLOC-date_th0.3-doc_th0.5-loc_th0.4
# 6   rel2-1   piercepenniless00nashgoog_93   4   0.26475877   nodesDOCUMENT:DATE:LOCATION-edgesREFERENCES:SIMLOC-date_th0.3-doc_th0.5-loc_th0.4
# 6   rel2-1   workscomprisingh02cowpuoft_385   5   0.26475877   nodesDOCUMENT:DATE:LOCATION-edgesREFERENCES:SIMLOC-date_th0.3-doc_th0.5-loc_th0.4
# 6   rel2-1   piercepenniless00nashgoog_46   6   0.26475877   nodesDOCUMENT:DATE:LOCATION-edgesREFERENCES:SIMLOC-date_th0.3-doc_th0.5-loc_th0.4
# 6   rel2-1   piercepenniless00nashgoog_90   7   0.26475877   nodesDOCUMENT:DATE:LOCATION-edgesREFERENCES:SIMLOC-date_th0.3-doc_th0.5-loc_th0.4
# 6   rel2-1   lyricallifepoems00mass_223   8   0.26475877   nodesDOCUMENT:DATE:LOCATION-edgesREFERENCES:SIMLOC-date_th0.3-doc_th0.5-loc_th0.4
# 6   rel2-1   ageneralabridgm30vinegoog_96   9   0.26475877   nodesDOCUMENT:DATE:LOCATION-edgesREFERENCES:SIMLOC-date_th0.3-doc_th0.5-loc_th0.4
# 6   rel2-1   economicreview05unkngoog_70   10   0.26475877   nodesDOCUMENT:DATE:LOCATION-edgesREFERENCES:SIMLOC-date_th0.3-doc_th0.5-loc_th0.4
# 6   rel2-1   memoirnathhawth00hawtrich_308   11   0.26475877   nodesDOCUMENT:DATE:LOCATION-edgesREFERENCES:SIMLOC-date_th0.3-doc_th0.5-loc_th0.4
# 6   rel2-1   economicreview05unkngoog_64   12   0.26475877   nodesDOCUMENT:DATE:LOCATION-edgesREFERENCES:SIMLOC-date_th0.3-doc_th0.5-loc_th0.4
# 6   rel2-1   principlesofecon01marsuoft_54   13   0.26475877   nodesDOCUMENT:DATE:LOCATION-edgesREFERENCES:SIMLOC-date_th0.3-doc_th0.5-loc_th0.4
# 6   rel2-1   principlesofecon01marsuoft_88   14   0.26475877   nodesDOCUMENT:DATE:LOCATION-edgesREFERENCES:SIMLOC-date_th0.3-doc_th0.5-loc_th0.4
# 6   rel2-1   marriage00welliala_104   15   0.26475877   nodesDOCUMENT:DATE:LOCATION-edgesREFERENCES:SIMLOC-date_th0.3-doc_th0.5-loc_th0.4
# 6   rel2-1   saintjohnsfire00sude_140   16   0.26475877   nodesDOCUMENT:DATE:LOCATION-edgesREFERENCES:SIMLOC-date_th0.3-doc_th0.5-loc_th0.4
# 6   rel2-1   cu31924084839194_405   17   0.26475877   nodesDOCUMENT:DATE:LOCATION-edgesREFERENCES:SIMLOC-date_th0.3-doc_th0.5-loc_th0.4
# 6   rel2-1   ageneralabridgm30vinegoog_61   18   0.26475877   nodesDOCUMENT:DATE:LOCATION-edgesREFERENCES:SIMLOC-date_th0.3-doc_th0.5-loc_th0.4
# 6   rel2-1   marriage00welliala_154   19   0.26475877   nodesDOCUMENT:DATE:LOCATION-edgesREFERENCES:SIMLOC-date_th0.3-doc_th0.5-loc_th0.4
# 6   rel2-1   lyricallifepoems00mass_244   20   0.26475877   nodesDOCUMENT:DATE:LOCATION-edgesREFERENCES:SIMLOC-date_th0.3-doc_th0.5-loc_th0.4
# 6   rel2-1   lyricallifepoems00mass_243   21   0.26475877   nodesDOCUMENT:DATE:LOCATION-edgesREFERENCES:SIMLOC-date_th0.3-doc_th0.5-loc_th0.4
# 6   rel2-1   lyricallifepoems00mass_257   22   0.26475877   nodesDOCUMENT:DATE:LOCATION-edgesREFERENCES:SIMLOC-date_th0.3-doc_th0.5-loc_th0.4
# 6   rel2-1   naturalhistoryof00smitrich_88   23   0.26475877   nodesDOCUMENT:DATE:LOCATION-edgesREFERENCES:SIMLOC-date_th0.3-doc_th0.5-loc_th0.4
# 6   rel2-1   ahistorycritici09saingoog_432   24   0.26475877   nodesDOCUMENT:DATE:LOCATION-edgesREFERENCES:SIMLOC-date_th0.3-doc_th0.5-loc_th0.4
# 6   rel2-1   northmenincumbe00ferggoog_22   25   0.26475877   nodesDOCUMENT:DATE:LOCATION-edgesREFERENCES:SIMLOC-date_th0.3-doc_th0.5-loc_th0.4
# 6   rel2-1   arbordayitshisto00scharich_120   26   0.26475877   nodesDOCUMENT:DATE:LOCATION-edgesREFERENCES:SIMLOC-date_th0.3-doc_th0.5-loc_th0.4
# 6   rel2-1   sirtom00oliprich_25   27   0.26475877   nodesDOCUMENT:DATE:LOCATION-edgesREFERENCES:SIMLOC-date_th0.3-doc_th0.5-loc_th0.4
# 6   rel2-1   sirtom00oliprich_24   28   0.26475877   nodesDOCUMENT:DATE:LOCATION-edgesREFERENCES:SIMLOC-date_th0.3-doc_th0.5-loc_th0.4
# 6   rel2-1   piercepenniless00nashgoog_19   29   0.26475877   nodesDOCUMENT:DATE:LOCATION-edgesREFERENCES:SIMLOC-date_th0.3-doc_th0.5-loc_th0.4
# 6   rel2-1   farmersplanterse00johnrich_243   30   0.26475877   nodesDOCUMENT:DATE:LOCATION-edgesREFERENCES:SIMLOC-date_th0.3-doc_th0.5-loc_th0.4
# 6   rel2-1   philosophicalcri02brom_277   31   0.26475877   nodesDOCUMENT:DATE:LOCATION-edgesREFERENCES:SIMLOC-date_th0.3-doc_th0.5-loc_th0.4
# 6   rel2-1   farmersplanterse00johnrich_270   32   0.26475877   nodesDOCUMENT:DATE:LOCATION-edgesREFERENCES:SIMLOC-date_th0.3-doc_th0.5-loc_th0.4
# 6   rel2-1   faithofourfather00gibbrich_33   33   0.26475877   nodesDOCUMENT:DATE:LOCATION-edgesREFERENCES:SIMLOC-date_th0.3-doc_th0.5-loc_th0.4
# 6   rel2-1   historyantiquit02ling_57   34   0.26475877   nodesDOCUMENT:DATE:LOCATION-edgesREFERENCES:SIMLOC-date_th0.3-doc_th0.5-loc_th0.4
# 6   rel2-1   principlesofecon01marsuoft_29   35   0.26475877   nodesDOCUMENT:DATE:LOCATION-edgesREFERENCES:SIMLOC-date_th0.3-doc_th0.5-loc_th0.4
# 6   rel2-1   churchinscotland00luck_400   36   0.26475877   nodesDOCUMENT:DATE:LOCATION-edgesREFERENCES:SIMLOC-date_th0.3-doc_th0.5-loc_th0.4
# 6   rel2-1   historyantiquit02ling_85   37   0.26475877   nodesDOCUMENT:DATE:LOCATION-edgesREFERENCES:SIMLOC-date_th0.3-doc_th0.5-loc_th0.4
# 6   rel2-1   principlesofecon01marsuoft_38   38   0.26475877   nodesDOCUMENT:DATE:LOCATION-edgesREFERENCES:SIMLOC-date_th0.3-doc_th0.5-loc_th0.4
# 6   rel2-1   principlesofecon01marsuoft_37   39   0.26475877   nodesDOCUMENT:DATE:LOCATION-edgesREFERENCES:SIMLOC-date_th0.3-doc_th0.5-loc_th0.4
# 6   rel2-1   principlesofecon01marsuoft_31   40   0.26475877   nodesDOCUMENT:DATE:LOCATION-edgesREFERENCES:SIMLOC-date_th0.3-doc_th0.5-loc_th0.4
