1 Q0 n17publication00illiuoft_250 1 -5.36310963 galago
1 Q0 newannualarmylis1874hart_480 2 -5.43182883 galago
1 Q0 newannualarmylis1874hart_410 3 -5.53426275 galago
1 Q0 newannualarmylis1874hart_463 4 -5.53484936 galago
1 Q0 newannualarmylis1874hart_466 5 -5.56324812 galago
1 Q0 newannualarmylis1874hart_464 6 -5.57184084 galago
1 Q0 newannualarmylis1874hart_347 7 -5.57978263 galago
1 Q0 biographicalreg00gradgoog_527 8 -5.60834272 galago
1 Q0 newannualarmylis1874hart_481 9 -5.61144425 galago
1 Q0 newannualarmylis1874hart_228 10 -5.65524531 galago
1 Q0 cu31924031684685_777 11 -5.67480157 galago
1 Q0 newannualarmylis1898lond_632 12 -5.67772758 galago
1 Q0 progressofindiaj00temprich_24 13 -5.71340810 galago
1 Q0 newannualarmylis1874hart_574 14 -5.71891298 galago
1 Q0 hartsannualarmy17hartgoog_80 15 -5.71964817 galago
1 Q0 newannualarmylis1898lond_603 16 -5.78028990 galago
1 Q0 biographicalreg00gradgoog_680 17 -5.78393871 galago
1 Q0 cu31924024892881_588 18 -5.79320983 galago
1 Q0 annualreportspa01deptgoog_101 19 -5.79915897 galago
1 Q0 newannualarmylis1898lond_758 20 -5.80420970 galago
1 Q0 biographicalreg00gradgoog_693 21 -5.80472764 galago
1 Q0 historyofsepoywa00kaye_638 22 -5.80800537 galago
1 Q0 newannualarmylis1898lond_634 23 -5.80916638 galago
1 Q0 newannualarmylis1898lond_636 24 -5.81254527 galago
1 Q0 newannualarmylis1898lond_696 25 -5.82414884 galago
1 Q0 newannualarmylis1874hart_753 26 -5.82713661 galago
1 Q0 fromevergladetoc00rode_472 27 -5.82816008 galago
1 Q0 newannualarmylis1874hart_469 28 -5.84414862 galago
1 Q0 newannualarmylis1874hart_468 29 -5.84652798 galago
1 Q0 newannualarmylis1874hart_67 30 -5.85943759 galago
1 Q0 essayscriticisms00repiiala_133 31 -5.86052221 galago
1 Q0 historychurchje04robegoog_36 32 -5.86230616 galago
1 Q0 historychurchje04robegoog_46 33 -5.86523488 galago
1 Q0 newannualarmylis1874hart_646 34 -5.86571584 galago
1 Q0 newannualarmylis1874hart_520 35 -5.89162511 galago
1 Q0 harpersencyclop09lossuoft_560 36 -5.89252667 galago
1 Q0 newannualarmylis1898lond_633 37 -5.89891904 galago
1 Q0 catalogueoflibra01wiscuoft_345 38 -5.89988442 galago
1 Q0 newannualarmylis1874hart_252 39 -5.90145795 galago
1 Q0 newannualarmylis1898lond_695 40 -5.90167581 galago
1 Q0 newannualarmylis1898lond_815 41 -5.90251875 galago
1 Q0 fromevergladetoc00rode_181 42 -5.90392519 galago
1 Q0 fromevergladetoc00rode_521 43 -5.91065385 galago
1 Q0 newannualarmylis1874hart_203 44 -5.91126774 galago
1 Q0 newannualarmylis1874hart_47 45 -5.91958636 galago
1 Q0 newannualarmylis1874hart_613 46 -5.92106745 galago
1 Q0 hartsannualarmy17hartgoog_439 47 -5.92337128 galago
1 Q0 newannualarmylis1874hart_575 48 -5.92417096 galago
1 Q0 newannualarmylis1898lond_679 49 -5.92518692 galago
1 Q0 loyalwestvirgin00langgoog_442 50 -5.92603277 galago
1 Q0 administrationof01pricuoft_37 51 -5.93418510 galago
1 Q0 papersinillinois281921illi_252 52 -5.93775975 galago
1 Q0 newannualarmylis1874hart_589 53 -5.94221830 galago
1 Q0 newannualarmylis1898lond_809 54 -5.95281661 galago
1 Q0 newannualarmylis1874hart_641 55 -5.95438960 galago
1 Q0 biographicalreg00gradgoog_601 56 -5.95851086 galago
1 Q0 newannualarmylis1874hart_614 57 -5.96112119 galago
1 Q0 cu31924088466333_202 58 -5.96357841 galago
1 Q0 historianshistor22will_200 59 -5.96609446 galago
1 Q0 journalistindia00lalgrich_49 60 -5.96870827 galago
1 Q0 fromevergladetoc00rode_471 61 -5.97036150 galago
1 Q0 fromevergladetoc00rode_474 62 -5.97137499 galago
1 Q0 fromevergladetoc00rode_490 63 -5.97401043 galago
1 Q0 papersinillinois1911illi_171 64 -5.98100913 galago
1 Q0 newannualarmylis1898lond_706 65 -5.98185294 galago
1 Q0 newannualarmylis1874hart_311 66 -5.98347814 galago
1 Q0 biographicalreg00gradgoog_195 67 -5.98462748 galago
1 Q0 letterfromsecret00unitrich_33 68 -5.98501030 galago
1 Q0 biographicalhist00camp_40 69 -5.98934890 galago
1 Q0 newannualarmylis1898lond_628 70 -5.99194360 galago
1 Q0 historianshistor22will_193 71 -5.99247663 galago
1 Q0 cu31924088466333_195 72 -5.99247663 galago
1 Q0 historyofmormonc10robe_146 73 -5.99334370 galago
1 Q0 newannualarmylis1898lond_629 74 -5.99334372 galago
1 Q0 easternasiahisto00hannrich_311 75 -5.99375364 galago
1 Q0 literatureofamer00larn_503 76 -5.99417107 galago
1 Q0 newannualarmylis1874hart_567 77 -5.99484833 galago
1 Q0 newannualarmylis1874hart_513 78 -5.99533026 galago
1 Q0 newannualarmylis1874hart_43 79 -5.99625688 galago
1 Q0 biographicalhist00good_71 80 -6.00221056 galago
1 Q0 newannualarmylis1874hart_577 81 -6.00564315 galago
1 Q0 biographicalreg00gradgoog_596 82 -6.01290473 galago
1 Q0 montycollections17powyuoft_247 83 -6.01560121 galago
1 Q0 annualreportofam19372amer_266 84 -6.01846478 galago
1 Q0 papersinillinois1911illi_170 85 -6.02014585 galago
1 Q0 biographicalreg00gradgoog_594 86 -6.02176293 galago
1 Q0 literatureofamer00larn_575 87 -6.02309535 galago
1 Q0 biographicalreg00gradgoog_294 88 -6.02399563 galago
1 Q0 minnesotahistory01minnuoft_586 89 -6.02737746 galago
1 Q0 newannualarmylis1874hart_628 90 -6.02936146 galago
1 Q0 fromevergladetoc00rode_503 91 -6.03034145 galago
1 Q0 biographicalreg00gradgoog_685 92 -6.03333039 galago
1 Q0 newannualarmylis1898lond_727 93 -6.04038244 galago
1 Q0 appletonscyclop01wils_576 94 -6.04257998 galago
1 Q0 cu31924031034691_554 95 -6.04329357 galago
1 Q0 hartsannualarmy17hartgoog_278 96 -6.04332282 galago
1 Q0 cu31924021184126_300 97 -6.04502335 galago
1 Q0 hartsannualarmy17hartgoog_242 98 -6.04690242 galago
1 Q0 cu31924014512614_118 99 -6.04953372 galago
1 Q0 greatparliamenta00belliala_108 100 -6.05037732 galago
2 Q0 cu31924024892881_570 1 -4.97964181 galago
2 Q0 englandsfightwit00wals_354 2 -5.16244012 galago
2 Q0 englandsfightwit00wals_495 3 -5.33183562 galago
2 Q0 cu31924031034691_569 4 -5.35459268 galago
2 Q0 historyofengland08leckuoft_625 5 -5.37467734 galago
2 Q0 cu31924029563875_157 6 -5.39907300 galago
2 Q0 dictionaryofdate01hayd_578 7 -5.41766032 galago
2 Q0 viceroysofirelan00omahuoft_97 8 -5.42036063 galago
2 Q0 hallamsworks04halliala_600 9 -5.42164911 galago
2 Q0 historyofireland02daltuoft_618 10 -5.43656814 galago
2 Q0 causeofirelandpl00orei_317 11 -5.44747645 galago
2 Q0 dictionaryofdate01hayd_380 12 -5.44762518 galago
2 Q0 causeofirelandpl00orei_315 13 -5.45223444 galago
2 Q0 irishtangleandwa1920john_43 14 -5.49488337 galago
2 Q0 englandsfightwit00wals_483 15 -5.50190546 galago
2 Q0 constitutionalhi03hall_351 16 -5.50489313 galago
2 Q0 hallamsworks04halliala_598 17 -5.50585894 galago
2 Q0 constitutionalhi03hall_11 18 -5.51885830 galago
2 Q0 projectofcommonw00curt_471 19 -5.52381591 galago
2 Q0 projectofcommonw00curt_16 20 -5.52475744 galago
2 Q0 cu31924027976251_614 21 -5.53284730 galago
2 Q0 landwarinireland00godk_232 22 -5.53894733 galago
2 Q0 irishtangleandwa1920john_9 23 -5.54071332 galago
2 Q0 historianshistor19will_643 24 -5.54200249 galago
2 Q0 hallamsworks04halliala_14 25 -5.55282461 galago
2 Q0 irelandbookoflig00reiduoft_150 26 -5.56671475 galago
2 Q0 historyofengland08leckuoft_618 27 -5.56745946 galago
2 Q0 compendiumofhist02lawl_85 28 -5.58456380 galago
2 Q0 encyclopaediabri14chisrich_848 29 -5.58535485 galago
2 Q0 hallamsworks04halliala_599 30 -5.58637177 galago
2 Q0 puritancromwell00firtuoft_89 31 -5.58737331 galago
2 Q0 cu31924082457148_177 32 -5.58919083 galago
2 Q0 irelandundercomm02dunluoft_177 33 -5.59023521 galago
2 Q0 historyforreadyr03larnuoft_236 34 -5.59353478 galago
2 Q0 cu31924027976251_1030 35 -5.59931927 galago
2 Q0 politicalstudies00broduoft_379 36 -5.59969937 galago
2 Q0 englishinireland03frou_519 37 -5.61554612 galago
2 Q0 economichistoryo00obri_321 38 -5.62584255 galago
2 Q0 historyofengland08leckuoft_640 39 -5.62643058 galago
2 Q0 annalarioghachta05ocleuoft_156 40 -5.62724455 galago
2 Q0 pt3historyofirel00wriguoft_126 41 -5.63050613 galago
2 Q0 historyoftownofb00benn_111 42 -5.64280574 galago
2 Q0 encyclopaediabr16chisgoog_330 43 -5.64934246 galago
2 Q0 englandsfightwit00wals_515 44 -5.65058471 galago
2 Q0 irelandundercomm02dunluoft_404 45 -5.65252885 galago
2 Q0 constitutionalhi03hall_399 46 -5.65427627 galago
2 Q0 encyclopaediabri14chisrich_837 47 -5.66095428 galago
2 Q0 politicalstudies00broduoft_353 48 -5.66459458 galago
2 Q0 pt3historyofirel00wriguoft_306 49 -5.66818727 galago
2 Q0 cu31924030283612_17 50 -5.66909326 galago
2 Q0 historyirelanda00smilgoog_172 51 -5.67000616 galago
2 Q0 calendarstatepa12offigoog_371 52 -5.67183139 galago
2 Q0 obsidionalmoneyo00nelsiala_43 53 -5.67714813 galago
2 Q0 hallamsworks04halliala_601 54 -5.68069564 galago
2 Q0 historyofengland08leckuoft_664 55 -5.68654369 galago
2 Q0 selectionofcases01willuoft_543 56 -5.68704476 galago
2 Q0 historicalreview02plow_29 57 -5.69004019 galago
2 Q0 shortsocialpolit00mackuoft_265 58 -5.69182584 galago
2 Q0 landwarinireland00godk_204 59 -5.69482663 galago
2 Q0 ulsterjournalar05unkngoog_107 60 -5.69530429 galago
2 Q0 politicalstudies00broduoft_385 61 -5.69764187 galago
2 Q0 causeofirelandpl00orei_318 62 -5.70272959 galago
2 Q0 historyirishper01maddgoog_67 63 -5.70384467 galago
2 Q0 historyofdiocese02healiala_116 64 -5.70393226 galago
2 Q0 historyofchurcho02stepuoft_80 65 -5.70499748 galago
2 Q0 encyclopdiabri20chis_133 66 -5.70617587 galago
2 Q0 calendarstatepa12offigoog_124 67 -5.71120465 galago
2 Q0 causeofirelandpl00orei_291 68 -5.71342245 galago
2 Q0 compendiumofhist02lawl_189 69 -5.71442183 galago
2 Q0 calendarstatepa12offigoog_258 70 -5.71826863 galago
2 Q0 irishhistoryiris00smitiala_217 71 -5.72185605 galago
2 Q0 irishhistoryiris00smituoft_217 72 -5.72243626 galago
2 Q0 cu31924082457148_404 73 -5.72374580 galago
2 Q0 historyofengland08leckuoft_653 74 -5.72699628 galago
2 Q0 causeofirelandpl00orei_24 75 -5.72917235 galago
2 Q0 constitutionalhi03hall_391 76 -5.73020985 galago
2 Q0 causeofirelandpl00orei_319 77 -5.73045737 galago
2 Q0 calendarstatepa12offigoog_515 78 -5.73128223 galago
2 Q0 livesofillustrio02willuoft_466 79 -5.73398010 galago
2 Q0 cu31924088463215_383 80 -5.73435712 galago
2 Q0 causeofirelandpl00orei_23 81 -5.73922731 galago
2 Q0 heroesofsciencep00garnrich_27 82 -5.74001715 galago
2 Q0 proceedingsofro22roya_515 83 -5.74102922 galago
2 Q0 newolivebranchor00carerich_6 84 -5.74366700 galago
2 Q0 historyofireland3_00will_126 85 -5.74419821 galago
2 Q0 englandsfightwit00wals_511 86 -5.74646171 galago
2 Q0 irelandsaintpatr00morriala_200 87 -5.74857936 galago
2 Q0 causeofirelandpl00orei_249 88 -5.75084804 galago
2 Q0 cu31924027976251_686 89 -5.75186621 galago
2 Q0 lettersspeeches01cromuoft_179 90 -5.75262272 galago
2 Q0 causeofirelandpl00orei_302 91 -5.75398994 galago
2 Q0 historyofcountyd03ball_130 92 -5.75864979 galago
2 Q0 causeofirelandpl00orei_432 93 -5.75947129 galago
2 Q0 trinitycollegedu00dixorich_69 94 -5.76101850 galago
2 Q0 trinitycolleged00dixogoog_74 95 -5.76157638 galago
2 Q0 compendiumofhist02lawl_74 96 -5.76582257 galago
2 Q0 cu31924031034691_192 97 -5.76917293 galago
2 Q0 historyofireland02daltuoft_535 98 -5.76972209 galago
2 Q0 greateventsbyfam15hornuoft_33 99 -5.77044532 galago
2 Q0 causeofirelandpl00orei_431 100 -5.77611319 galago
3 Q0 cu31924029268582_126 1 -5.13116983 galago
3 Q0 iswardiminishin00baltgoog_75 2 -5.22660672 galago
3 Q0 holybiblecon00lond_97 3 -5.28308034 galago
3 Q0 numbersorfourthb31lang_31 4 -5.32230484 galago
3 Q0 statutesatlarge00conf_94 5 -5.36776200 galago
3 Q0 manualpeaceexhi02uphagoog_63 6 -5.37820867 galago
3 Q0 thefamilybibleco01unknuoft_191 7 -5.42982874 galago
3 Q0 completeconcord00cruduoft_367 8 -5.47770161 galago
3 Q0 worksfrancisbac33montgoog_502 9 -5.48259906 galago
3 Q0 holybiblebeingve00camb_117 10 -5.50120477 galago
3 Q0 annualreport1240mass_390 11 -5.50971268 galago
3 Q0 annualreport1240mass_323 12 -5.53791058 galago
3 Q0 acompilationmes01unkngoog_689 13 -5.54495788 galago
3 Q0 historyofmerrima00inhurd_555 14 -5.56001304 galago
3 Q0 popularsciencemo20dapprich_110 15 -5.56333704 galago
3 Q0 annualreport1240mass_374 16 -5.57082348 galago
3 Q0 iowajournalofhis1918stat_414 17 -5.58113901 galago
3 Q0 progressglasgow00stewgoog_84 18 -5.58538188 galago
3 Q0 cu31924092705106_274 19 -5.58801321 galago
3 Q0 elementsofgenera05wood_537 20 -5.59719451 galago
3 Q0 compendiumofhist00inalde_429 21 -5.61690128 galago
3 Q0 worksfrancisbac33montgoog_506 22 -5.63203756 galago
3 Q0 statutesatlarge00conf_93 23 -5.63889038 galago
3 Q0 iswardiminishin00baltgoog_76 24 -5.63923432 galago
3 Q0 iowajournalofhis1918stat_412 25 -5.64012430 galago
3 Q0 iowajournalofhis1918stat_416 26 -5.65923601 galago
3 Q0 historyofmerrima00inhurd_1123 27 -5.66231048 galago
3 Q0 generalhistoryof00robiuoft_391 28 -5.68452809 galago
3 Q0 writingsonameri03commgoog_63 29 -5.68566686 galago
3 Q0 lifetimesoflated02willuoft_611 30 -5.70172018 galago
3 Q0 schoolmatemonthl00phip_52 31 -5.71162625 galago
3 Q0 annualreport1240mass_457 32 -5.71982371 galago
3 Q0 worldbookencyclo20chic_27 33 -5.72254165 galago
3 Q0 statutesatlarge00conf_92 34 -5.72455614 galago
3 Q0 bookoffourthamer00amerrich_182 35 -5.73367264 galago
3 Q0 annualreport1240mass_468 36 -5.73756649 galago
3 Q0 compilationlaws00statgoog_65 37 -5.75023339 galago
3 Q0 freshvoyagesonun00chey_206 38 -5.76621088 galago
3 Q0 journalofabnorma14ameruoft_137 39 -5.77108737 galago
3 Q0 cu31924027802572_125 40 -5.77481881 galago
3 Q0 writinghistorya01fundgoog_126 41 -5.77766214 galago
3 Q0 compilationlaws00statgoog_66 42 -5.78544862 galago
3 Q0 completehistoryo02intrum_294 43 -5.78647171 galago
3 Q0 annualreport1240mass_346 44 -5.78773125 galago
3 Q0 bookofhistoryhis00_62 45 -5.78848801 galago
3 Q0 americanreviewwh07colt_472 46 -5.78863155 galago
3 Q0 causesthatbenson00lossrich_453 47 -5.78966945 galago
3 Q0 generalhistoryof00robiuoft_390 48 -5.79264492 galago
3 Q0 statutesatlarge00conf_291 49 -5.79279241 galago
3 Q0 historyofsaintlov2scha_961 50 -5.80330927 galago
3 Q0 worksofjamesabra01garf_254 51 -5.80619483 galago
3 Q0 cu31924027976251_589 52 -5.81254616 galago
3 Q0 generalhistoryfo00myerrich_289 53 -5.81473314 galago
3 Q0 popularsciencemo20dapprich_107 54 -5.81497472 galago
3 Q0 iswardiminishin00baltgoog_47 55 -5.81661023 galago
3 Q0 cu31924029268582_14 56 -5.82108890 galago
3 Q0 historyofrome00arno_664 57 -5.83613895 galago
3 Q0 frederickgreathi00mundrich_481 58 -5.83838004 galago
3 Q0 worksoflouisem02mhuoft_481 59 -5.83838004 galago
3 Q0 frederickgreathi00muhliala_491 60 -5.83838004 galago
3 Q0 cu31924013872878_887 61 -5.83859161 galago
3 Q0 generalhistoryof00robiuoft_13 62 -5.84010946 galago
3 Q0 statutesatlarge22unkngoog_444 63 -5.84717090 galago
3 Q0 cu31924028854201_904 64 -5.85199454 galago
3 Q0 commentaryuponep00junk_263 65 -5.85472925 galago
3 Q0 cu31924013872878_709 66 -5.85509779 galago
3 Q0 genesisofgenesis00bacorich_144 67 -5.85812478 galago
3 Q0 cu31924027976251_1121 68 -5.86046619 galago
3 Q0 mythsofisraelanc00fiskuoft_82 69 -5.86091109 galago
3 Q0 harleianmiscell00oldygoog_421 70 -5.86102346 galago
3 Q0 historyofindiana01sulg_462 71 -5.86191670 galago
3 Q0 historyofengland00terrrich_11 72 -5.86305041 galago
3 Q0 cu31924013872878_951 73 -5.86400149 galago
3 Q0 cu31924013872878_632 74 -5.86509879 galago
3 Q0 poems00moll_43 75 -5.87237517 galago
3 Q0 fisherameswith02amesrich_39 76 -5.87470211 galago
3 Q0 historyofessexco02hurdd_966 77 -5.87566236 galago
3 Q0 europeviewedthro00fult_237 78 -5.87716866 galago
3 Q0 furopeviewedthro00fultrich_239 79 -5.87759647 galago
3 Q0 cu31924029292228_168 80 -5.87902606 galago
3 Q0 treatiseondeluge00catciala_116 81 -5.88958346 galago
3 Q0 peacemanualorwar00beck_29 82 -5.89078566 galago
3 Q0 historyofmiddles02hurd_770 83 -5.89091047 galago
3 Q0 lawsofgeneralas_1869penn_909 84 -5.89278534 galago
3 Q0 bibliothecasacr08semigoog_800 85 -5.89364506 galago
3 Q0 costofwarwarfare00atkif_23 86 -5.89487771 galago
3 Q0 northboroughhist00inkent_590 87 -5.89490450 galago
3 Q0 historyofsangamo00inte_1041 88 -5.89585623 galago
3 Q0 cu31924017140124_255 89 -5.89910458 galago
3 Q0 annualreport1240mass_446 90 -5.89941028 galago
3 Q0 technicalworldma16chicuoft_161 91 -5.90041288 galago
3 Q0 reportannuallak06unkngoog_17 92 -5.90180797 galago
3 Q0 compositionofbo00frip_168 93 -5.90239946 galago
3 Q0 popularsciencemo20dapprich_568 94 -5.90254688 galago
3 Q0 freshvoyagesonun00chey_596 95 -5.90399109 galago
3 Q0 howcanadaisgover00bour_280 96 -5.90552947 galago
3 Q0 holybibleaccv1pt01londuoft_83 97 -5.90746394 galago
3 Q0 historyofsaratog00sylv_557 98 -5.90748840 galago
3 Q0 iowajournalofhis1918stat_413 99 -5.90790603 galago
3 Q0 annualreport1240mass_389 100 -5.90860746 galago
4 Q0 selectedfilmsfor00hartrich_219 1 -6.12337481 galago
4 Q0 worldwariiconcis00shug_53 2 -6.18065363 galago
4 Q0 worldbookencyclo20chic_468 3 -6.22883757 galago
4 Q0 worldbookencyclo20chic_470 4 -6.23979345 galago
4 Q0 worldbookencyclo20chic_466 5 -6.32509155 galago
4 Q0 worldbookencyclo20chic_442 6 -6.34085613 galago
4 Q0 terrorinourtimes00rowarich_237 7 -6.34744300 galago
4 Q0 empirecommercein00wooluoft_192 8 -6.35083348 galago
4 Q0 newlarnedhistory01larn_53 9 -6.35660086 galago
4 Q0 worldwariiconcis00shug_92 10 -6.39516958 galago
4 Q0 cu31924100672801_194 11 -6.39526609 galago
4 Q0 greateritaly06wallgoog_81 12 -6.41055232 galago
4 Q0 worldbookencyclo20chic_497 13 -6.45021256 galago
4 Q0 historyforreadyr03larnuoft_724 14 -6.46093135 galago
4 Q0 terrorinourtimes00rowarich_349 15 -6.48394775 galago
4 Q0 empirecommercein00wooluoft_180 16 -6.48538726 galago
4 Q0 historyofallnati24wrig_379 17 -6.50837326 galago
4 Q0 worldwariiconcis00shug_54 18 -6.51343435 galago
4 Q0 empirecommercein00wooluoft_176 19 -6.51627918 galago
4 Q0 worldwariiconcis00shug_541 20 -6.55443319 galago
4 Q0 africainninetee00sandgoog_246 21 -6.55452952 galago
4 Q0 empirecommercein00wooluoft_186 22 -6.56209085 galago
4 Q0 getthatpicturest00ezicrich_168 23 -6.56439750 galago
4 Q0 contemporaryrev30unkngoog_180 24 -6.56838723 galago
4 Q0 worldwariiconcis00shug_93 25 -6.56841009 galago
4 Q0 studiesingovernm00garn_532 26 -6.57527936 galago
4 Q0 cu31924088463215_148 27 -6.57796431 galago
4 Q0 empirecommercein00wooluoft_187 28 -6.58603674 galago
4 Q0 menandwomentime02plargoog_663 29 -6.60381651 galago
4 Q0 cu31924100672801_188 30 -6.61063888 galago
4 Q0 studiesingovernm00garn_536 31 -6.61627384 galago
4 Q0 cu31924100672801_189 32 -6.62191657 galago
4 Q0 terrorinourtimes00rowarich_232 33 -6.62287396 galago
4 Q0 terrorinourtimes00rowarich_234 34 -6.63540305 galago
4 Q0 departmentofstat41941unit_93 35 -6.63945294 galago
4 Q0 cu31924100672801_178 36 -6.64972291 galago
4 Q0 newlarnedhistory01larn_51 37 -6.65105030 galago
4 Q0 terrorinourtimes00rowarich_230 38 -6.65116542 galago
4 Q0 pt1popularencycl06glasuoft_325 39 -6.65191829 galago
4 Q0 departmentofstat41941unit_269 40 -6.65559869 galago
4 Q0 cu31924100672801_182 41 -6.65646817 galago
4 Q0 publicaddr19451949cher_369 42 -6.67309916 galago
4 Q0 cu31924088463215_184 43 -6.67452710 galago
4 Q0 cu31924100672801_239 44 -6.67590130 galago
4 Q0 greateritaly06wallgoog_80 45 -6.67707800 galago
4 Q0 newclassicaldict00smituoft_788 46 -6.67846094 galago
4 Q0 empirecommercein00wooluoft_177 47 -6.68955116 galago
4 Q0 constitutionsofn01peas_61 48 -6.69191249 galago
4 Q0 terrorinourtimes00rowarich_231 49 -6.71269399 galago
4 Q0 terrorinourtimes00rowarich_238 50 -6.71547409 galago
4 Q0 cu31924100672801_179 51 -6.71894949 galago
4 Q0 terrorinourtimes00rowarich_241 52 -6.73142170 galago
4 Q0 worldbookencyclo20chic_474 53 -6.73542764 galago
4 Q0 victrolabookofo00rous_18 54 -6.74295701 galago
4 Q0 greateritaly06wallgoog_72 55 -6.74425094 galago
4 Q0 encyclopaediabri25kell_76 56 -6.75067079 galago
4 Q0 newamericancycl01riplgoog_703 57 -6.77097920 galago
4 Q0 empirecommercein00wooluoft_173 58 -6.77146856 galago
4 Q0 cu31924100672801_175 59 -6.77296370 galago
4 Q0 encyclopaediabri25kell_77 60 -6.78463261 galago
4 Q0 statesmansyearbo1895londuoft_755 61 -6.78547251 galago
4 Q0 empirecommercein00wooluoft_197 62 -6.79286567 galago
4 Q0 dictionaryofdate01hayd_265 63 -6.79682418 galago
4 Q0 empirecommercein00wooluoft_199 64 -6.79695820 galago
4 Q0 orlandofurioso01ariouoft_547 65 -6.79935587 galago
4 Q0 studiesingovernm00garn_531 66 -6.80176988 galago
4 Q0 terrorinourtimes00rowarich_233 67 -6.80422453 galago
4 Q0 africatoday01goodgoog_205 68 -6.81026650 galago
4 Q0 newclassicaldict00smituoft_466 69 -6.81306999 galago
4 Q0 educationalscree36chicrich_254 70 -6.81559675 galago
4 Q0 memoirsoffrances03crisuoft_198 71 -6.81877437 galago
4 Q0 terrorinourtimes00rowarich_239 72 -6.82042460 galago
4 Q0 terrorinourtimes00rowarich_236 73 -6.82108732 galago
4 Q0 dictionaryofcla00seyf_615 74 -6.82382715 galago
4 Q0 departmentofstata8080unit_198 75 -6.82737286 galago
4 Q0 terrorinourtimes00rowarich_235 76 -6.82779500 galago
4 Q0 completehistoric00clar_33 77 -6.82972141 galago
4 Q0 dictionaryofdate01hayd_589 78 -6.83159254 galago
4 Q0 edinburghencyclo04brew_226 79 -6.83309583 galago
4 Q0 cu31924100672801_199 80 -6.83357962 galago
4 Q0 empirecommercein00wooluoft_184 81 -6.83559448 galago
4 Q0 jewelryandpreci00paxtgoog_18 82 -6.83602856 galago
4 Q0 cu31924100672801_201 83 -6.84175689 galago
4 Q0 historyofallnati24wrig_432 84 -6.84499241 galago
4 Q0 baltimorecitydir1908rlpo_590 85 -6.84718257 galago
4 Q0 epitomeofancient00ploeuoft_635 86 -6.84826032 galago
4 Q0 empirecommercein00wooluoft_237 87 -6.84936135 galago
4 Q0 ploetzmanualofun00ploe_693 88 -6.84960712 galago
4 Q0 epitomeancientm06tillgoog_636 89 -6.85005565 galago
4 Q0 departmentofstat41941unit_66 90 -6.85174922 galago
4 Q0 epitomeancientm05tillgoog_642 91 -6.85274262 galago
4 Q0 terrorinourtimes00rowarich_344 92 -6.85444125 galago
4 Q0 terrorinourtimes00rowarich_93 93 -6.85519687 galago
4 Q0 empirecommercein00wooluoft_224 94 -6.86310105 galago
4 Q0 cu31924100672801_226 95 -6.86461048 galago
4 Q0 encyclopediaame04unkngoog_659 96 -6.86698850 galago
4 Q0 cu31924100672801_186 97 -6.86878435 galago
4 Q0 statesmansyearb01unkngoog_757 98 -6.86983140 galago
4 Q0 constitutionsofn01peas_790 99 -6.86987095 galago
4 Q0 encyclopdiabri23chis_365 100 -6.88277217 galago
5 Q0 sketchesoflifech00wirt7_224 1 -5.14480515 galago
5 Q0 manualforuseofge1917mass_116 2 -5.35705742 galago
5 Q0 manualforuseofge1891mass_113 3 -5.36941621 galago
5 Q0 manualforuseofge197778mass_174 4 -5.39338220 galago
5 Q0 manualforuseofge1920mass_145 5 -5.46458362 galago
5 Q0 historyofuniteds00lata_609 6 -5.47085275 galago
5 Q0 manualforuseofge1904mass_108 7 -5.47375399 galago
5 Q0 northcarolinaman19891990nort_163 8 -5.48594000 galago
5 Q0 manualforuseofge197778mass_52 9 -5.49071121 galago
5 Q0 manualforuseofge1900mass_104 10 -5.49264187 galago
5 Q0 manualforuseofge1905mass_100 11 -5.49462534 galago
5 Q0 manualforuseofge1917mass_51 12 -5.51109918 galago
5 Q0 northcarolinaman1975nort_82 13 -5.51765055 galago
5 Q0 manualforuseofge1920mass_58 14 -5.51898489 galago
5 Q0 manualforuseofge1889mass_113 15 -5.53118872 galago
5 Q0 revisedlawsofcom01mass_122 16 -5.53714996 galago
5 Q0 recordsoflouisia09louirich_967 17 -5.53811116 galago
5 Q0 reportstohagueco00inteuoft_971 18 -5.56736831 galago
5 Q0 americanpolitic01ogggoog_312 19 -5.57450684 galago
5 Q0 reportstohagueco00inteuoft_964 20 -5.58043453 galago
5 Q0 actsandresolves04massgoog_51 21 -5.59524635 galago
5 Q0 newyorkstatecons00newyrich_224 22 -5.60100129 galago
5 Q0 practiceofcitize00ashl_364 23 -5.60434226 galago
5 Q0 storyofbritishdi00escorich_197 24 -5.61564831 galago
5 Q0 studentshistoryo00chan_652 25 -5.62676638 galago
5 Q0 briefhistoryofun00asbaiala_398 26 -5.62830063 galago
5 Q0 reportstohagueco00inteuoft_961 27 -5.63032668 galago
5 Q0 americangovernm05hinsgoog_353 28 -5.63476593 galago
5 Q0 actsresolvespass1909mass_52 29 -5.63583277 galago
5 Q0 manualforuseofge1861mass_110 30 -5.64167174 galago
5 Q0 newamericangove01youngoog_653 31 -5.64669625 galago
5 Q0 illinoisconstitu00brad_592 32 -5.64988081 galago
5 Q0 scienceofgovernm00alde_270 33 -5.65281528 galago
5 Q0 reportstohagueco00inteuoft_967 34 -5.66242650 galago
5 Q0 reportstohagueco00inteuoft_966 35 -5.66495181 galago
5 Q0 queenofrepublics00nort_871 36 -5.66626906 galago
5 Q0 reportstohagueco00inteuoft_962 37 -5.66644227 galago
5 Q0 actsresolvespass1888mass_53 38 -5.66778211 galago
5 Q0 annualreportame78assogoog_439 39 -5.66950342 galago
5 Q0 reportstohagueco00inteuoft_968 40 -5.67086240 galago
5 Q0 annualreportame78assogoog_308 41 -5.67288445 galago
5 Q0 bulletinsforcon00convgoog_525 42 -5.68447485 galago
5 Q0 newlarnedhistory01larn_280 43 -5.68484318 galago
5 Q0 youngamericanci00grafgoog_243 44 -5.68654979 galago
5 Q0 americanpolitic01ogggoog_311 45 -5.68858507 galago
5 Q0 briefhistoryofun00steeuoft_404 46 -5.69038099 galago
5 Q0 newyorkstatecons00newyrich_501 47 -5.69223527 galago
5 Q0 freegovernmenti01fultgoog_550 48 -5.69651323 galago
5 Q0 americanpolitic01ogggoog_658 49 -5.69652275 galago
5 Q0 reviewersreviewe01step_234 50 -5.70126946 galago
5 Q0 reportstohagueco00inteuoft_970 51 -5.70315695 galago
5 Q0 politicalcivilri00emer_268 52 -5.70354637 galago
5 Q0 annualreportame78assogoog_300 53 -5.70382761 galago
5 Q0 outlineofgovernm00mole_83 54 -5.70512068 galago
5 Q0 newamericanhist00hartgoog_684 55 -5.70764626 galago
5 Q0 federalstatecons01thoriala_474 56 -5.70827844 galago
5 Q0 northcarolinaman19891990nort_124 57 -5.70994681 galago
5 Q0 northcarolinaman19891990nort_193 58 -5.71813966 galago
5 Q0 historyofuniteds00form_475 59 -5.71815218 galago
5 Q0 reviewersreviewe01step_233 60 -5.71931100 galago
5 Q0 newyorkstatecons00newyrich_240 61 -5.72193915 galago
5 Q0 ahistoryus00bourrich_623 62 -5.72450208 galago
5 Q0 northcarolinaman1977nort_146 63 -5.72480126 galago
5 Q0 abrahamlincolnco03ulri_110 64 -5.72683490 galago
5 Q0 unitedstatesame01changoog_354 65 -5.72715596 galago
5 Q0 selectstatutesot00macd_224 66 -5.72789075 galago
5 Q0 recordsoflouisia09louirich_782 67 -5.73038167 galago
5 Q0 governmentunite04shimgoog_115 68 -5.73143840 galago
5 Q0 constitutionsofs00unitrich_42 69 -5.73473310 galago
5 Q0 northcarolinaman1977nort_111 70 -5.73547721 galago
5 Q0 federalstatecons01thoriala_498 71 -5.73651248 galago
5 Q0 rightsandduties01willgoog_91 72 -5.73726046 galago
5 Q0 addressesongover00root_273 73 -5.73789708 galago
5 Q0 reportstohagueco00inteuoft_969 74 -5.73833271 galago
5 Q0 anintroductiont00cohngoog_490 75 -5.73848700 galago
5 Q0 reportstohagueco00inteuoft_965 76 -5.73852728 galago
5 Q0 compiledstatute01nebrgoog_22 77 -5.73889209 galago
5 Q0 recordsoflouisia09louirich_846 78 -5.73896222 galago
5 Q0 abrahamlincolnan00ulririch_273 79 -5.73936144 galago
5 Q0 eloquenceunited03willgoog_256 80 -5.74085180 galago
5 Q0 eloquenceunited02willgoog_264 81 -5.74155249 galago
5 Q0 readingsinameri00bear_541 82 -5.74382487 galago
5 Q0 cu31924019961055_546 83 -5.74439345 galago
5 Q0 kansasinsixties01craw_452 84 -5.75368417 galago
5 Q0 projectofcommonw00curt_715 85 -5.75388246 galago
5 Q0 governmentsofeur00oggfuoft_608 86 -5.76100907 galago
5 Q0 legislatureredis00stei_9 87 -5.76300694 galago
5 Q0 intermediatehist00sadl_308 88 -5.76399036 galago
5 Q0 butlerspictorial00stew_339 89 -5.76701022 galago
5 Q0 debatesinseveral02elli_565 90 -5.76980940 galago
5 Q0 retrospectofbos00hawk_213 91 -5.77099860 galago
5 Q0 supremecourtrep04compgoog_48 92 -5.77200900 galago
5 Q0 recordsoflouisia09louirich_1170 93 -5.77213362 galago
5 Q0 lifetimesofsilas02gill_365 94 -5.77345888 galago
5 Q0 firstlessonsinci00youn_220 95 -5.77446290 galago
5 Q0 northcarolinaman1977nort_112 96 -5.77624868 galago
5 Q0 constitutslavery00dewerich_24 97 -5.77687358 galago
5 Q0 casesonamericanc00evan_26 98 -5.77808361 galago
5 Q0 americandemocra00hayegoog_157 99 -5.78220998 galago
5 Q0 campaignhandbook00cham_71 100 -5.78857960 galago
6 Q0 cu31924027807951_213 1 -6.27012329 galago
6 Q0 apoliticalhisto03reidgoog_64 2 -6.66359156 galago
6 Q0 secretslaterebel00freerich_13 3 -6.66604971 galago
6 Q0 atlantic117bostuoft_131 4 -6.68794519 galago
6 Q0 mexicoasitwasan01mayegoog_394 5 -6.69903831 galago
6 Q0 westpointinourne00wood_114 6 -6.75409503 galago
6 Q0 fruitcultureinfo00unitrich_71 7 -6.76960883 galago
6 Q0 cu31924032471116_269 8 -6.78767176 galago
6 Q0 intellectuallif08hamegoog_455 9 -6.81073704 galago
6 Q0 reviewreviewsan15shawgoog_75 10 -6.81092594 galago
6 Q0 ourcountryshisto00garn_725 11 -6.85881523 galago
6 Q0 transactionsame14engigoog_576 12 -6.85999242 galago
6 Q0 iowajournalofhis1918stat_458 13 -6.88058160 galago
6 Q0 worksedwardever00halegoog_498 14 -6.88327858 galago
6 Q0 iowajournalofhis1918stat_424 15 -6.90792089 galago
6 Q0 iowajournalofhis1918stat_457 16 -6.92834509 galago
6 Q0 eightyearsincong00lccoxs_139 17 -6.93561273 galago
6 Q0 memorialsoflife02edwa_204 18 -6.94486528 galago
6 Q0 secretslaterebel00freerich_60 19 -6.94922496 galago
6 Q0 annualreportofbo00unitrich_39 20 -6.95006929 galago
6 Q0 iowajournalofhis1918stat_421 21 -6.95264845 galago
6 Q0 belleoffiftiesme02clay_205 22 -6.95410699 galago
6 Q0 westernjournalci10tarv_207 23 -6.98605859 galago
6 Q0 cu31924027807951_354 24 -6.99450421 galago
6 Q0 encyclopdiabri07chisrich_16 25 -7.06782557 galago
6 Q0 napoleonslastvoy00usshuoft_57 26 -7.07536749 galago
6 Q0 studyofnineteent00webs_46 27 -7.07806665 galago
6 Q0 cu31924027807951_195 28 -7.08318175 galago
6 Q0 greatamericanla02lewigoog_334 29 -7.08883468 galago
6 Q0 secretslaterebel00freerich_72 30 -7.09670010 galago
6 Q0 abrahamlincolnhi02nicolay_16 31 -7.10068530 galago
6 Q0 mydiarynorthand01russgoog_227 32 -7.10338446 galago
6 Q0 cu31924023483369_43 33 -7.10615838 galago
6 Q0 universityofiowa07univuoft_384 34 -7.10892464 galago
6 Q0 protectionismis02sumngoog_184 35 -7.12149010 galago
6 Q0 indiansourwildth00dodgrich_432 36 -7.12371356 galago
6 Q0 livesnorthernwo01colegoog_184 37 -7.12537792 galago
6 Q0 abrahamlincoln01curtgoog_402 38 -7.12590669 galago
6 Q0 makersofamerican01jenk_105 39 -7.12593209 galago
6 Q0 anglochinesecom01sarggoog_205 40 -7.12925067 galago
6 Q0 americanjournalo19chicuoft_658 41 -7.13186393 galago
6 Q0 shelbyhismenorwa00edwa_496 42 -7.13420799 galago
6 Q0 indianlegendsoth00gordrich_329 43 -7.13475729 galago
6 Q0 listofperiodical00bostiala_129 44 -7.13480385 galago
6 Q0 cu31924021976661_331 45 -7.13530629 galago
6 Q0 allrussiastravel00normuoft_312 46 -7.14350530 galago
6 Q0 americanhistory00jameiala_466 47 -7.16770653 galago
6 Q0 allrussiastravel00normuoft_518 48 -7.16770653 galago
6 Q0 historyofamherst00tyleiala_583 49 -7.18299816 galago
6 Q0 debatessenatedb01senagoog_73 50 -7.19058121 galago
6 Q0 annualreportofam19372amer_183 51 -7.21492672 galago
6 Q0 newpacific04bancgoog_739 52 -7.22951817 galago
6 Q0 americanhistoric19151916jame_17 53 -7.23051668 galago
6 Q0 intellectuallif08hamegoog_478 54 -7.23201256 galago
6 Q0 cyclopediaofamer02mcla_108 55 -7.24624342 galago
6 Q0 ourtownmonthlyma01chan_292 56 -7.24991505 galago
6 Q0 lifeofcaptainsir02burt2_552 57 -7.25564734 galago
6 Q0 nilesnationalreg31nile_175 58 -7.26528525 galago
6 Q0 checklistofliter00libriala_101 59 -7.28013497 galago
6 Q0 cu31924007442167_627 60 -7.28801815 galago
6 Q0 paxsoncivilwar00fredrich_213 61 -7.35334736 galago
6 Q0 annualreportofam19372amer_849 62 -7.35559176 galago
6 Q0 secretslaterebel00freerich_12 63 -7.38105998 galago
6 Q0 romanceamerican02brucgoog_140 64 -7.39697543 galago
6 Q0 amromance00brucrich_137 65 -7.39814434 galago
6 Q0 johndewycliffedd00vauguoft_202 66 -7.40047806 galago
6 Q0 cu31924007465606_107 67 -7.40338758 galago
6 Q0 cu31924030616993_27 68 -7.40628865 galago
6 Q0 bookreviewdigest192016hwwi_619 69 -7.40759583 galago
6 Q0 craftsinisterdip00schrrich_32 70 -7.40773048 galago
6 Q0 blunderingadmini01root_26 71 -7.41033607 galago
6 Q0 address_01root_28 72 -7.41033607 galago
6 Q0 lifeservjglancy02jonerich_372 73 -7.41436718 galago
6 Q0 cyclopediaofamer02mcla_74 74 -7.41819520 galago
6 Q0 literatureofegyp02ibrauoft_260 75 -7.41981594 galago
6 Q0 internationalgo00commgoog_176 76 -7.42465886 galago
6 Q0 cu31924023262045_76 77 -7.42636389 galago
6 Q0 empireofeastsimp00montrich_349 78 -7.42693159 galago
6 Q0 cu31924023492592_349 79 -7.42806602 galago
6 Q0 greatamericanla02lewigoog_333 80 -7.42919916 galago
6 Q0 viewsofexpreside00harr_425 81 -7.42976526 galago
6 Q0 secretslaterebel00freerich_85 82 -7.43033103 galago
6 Q0 indiasnationbuil00bannrich_110 83 -7.43146161 galago
6 Q0 fortyyearspfame00nichgoog_305 84 -7.43259091 galago
6 Q0 waraftershortcha01odg_264 85 -7.43371895 galago
6 Q0 ahistorysyllabu01unkngoog_367 86 -7.43484571 galago
6 Q0 journeythrough00everrich_130 87 -7.43540861 galago
6 Q0 standardintermed00fernrich_148 88 -7.43548206 galago
6 Q0 secretslaterebel00freerich_14 89 -7.43597120 galago
6 Q0 towardslastingse01buxt_76 90 -7.43597120 galago
6 Q0 plaintalksonamer00spar_11 91 -7.43709543 galago
6 Q0 abrahamlincolnhi03nicolay_200 92 -7.43709543 galago
6 Q0 cu31924095618470_270 93 -7.43765707 galago
6 Q0 cu31924031218336_362 94 -7.43877940 galago
6 Q0 libraryofunivers05newyiala_231 95 -7.44039903 galago
6 Q0 nexttonothinghou00carriala_95 96 -7.44157974 galago
6 Q0 lecturesonrelat00unkngoog_277 97 -7.44157974 galago
6 Q0 theatricalworldo00archuoft_449 98 -7.44381438 galago
6 Q0 industrialresourc01debo_317 99 -7.44483900 galago
6 Q0 industrialpeace04londuoft_171 100 -7.44492983 galago
7 Q0 abriefhistoryeu01chilgoog_176 1 -7.02106036 galago
7 Q0 cu31924088053800_313 2 -7.11496710 galago
7 Q0 cu31924031684685_795 3 -7.12399291 galago
7 Q0 worldbookencyclo20chic_42 4 -7.21294040 galago
7 Q0 newyorktimescurr06newyuoft_93 5 -7.34979632 galago
7 Q0 protestofukraini00batcuoft_14 6 -7.36588108 galago
7 Q0 cu31924073899001_160 7 -7.45151341 galago
7 Q0 jul1905steads00melbuoft_84 8 -7.50399404 galago
7 Q0 americanhistoric19151916jame_107 9 -7.52833227 galago
7 Q0 americanhistoric19181919jame_761 10 -7.54535822 galago
7 Q0 worksbancro25bancuoft_351 11 -7.55425596 galago
7 Q0 newyorktimescurr18newyuoft_391 12 -7.57169003 galago
7 Q0 centuryvolume12unkngoog_484 13 -7.57708452 galago
7 Q0 americanauniver13beac_440 14 -7.57973520 galago
7 Q0 communistactivit195003unit_23 15 -7.61753628 galago
7 Q0 smithsonianfolkl00smit_24 16 -7.64003626 galago
7 Q0 elementsofsocial00spariala_323 17 -7.64786320 galago
7 Q0 europe1789192000turnrich_498 18 -7.64828988 galago
7 Q0 newyorktimescurr18newyuoft_395 19 -7.66143504 galago
7 Q0 stlouisfourthcit03stev_453 20 -7.66501526 galago
7 Q0 whentheyweregirl00patr_197 21 -7.67219530 galago
7 Q0 americanaunivers12newy_739 22 -7.69205495 galago
7 Q0 russiaitscrisis00mili_415 23 -7.71845197 galago
7 Q0 epitomeofancient00ploeuoft_509 24 -7.72345001 galago
7 Q0 ploetzmanualofun00ploe_509 25 -7.72345001 galago
7 Q0 epitomeancientm06tillgoog_510 26 -7.72547328 galago
7 Q0 epitomeancientm05tillgoog_508 27 -7.72597845 galago
7 Q0 modernrussianhi02korngoog_102 28 -7.74337710 galago
7 Q0 modernrussianhi02korngoog_243 29 -7.74992020 galago
7 Q0 outlinesofgenera00reno_352 30 -7.75958574 galago
7 Q0 outlineseuropea04beargoog_502 31 -7.76395173 galago
7 Q0 cu31924005860337_313 32 -7.76672169 galago
7 Q0 americancatholic30philuoft_752 33 -7.81360918 galago
7 Q0 fromancientisrae04foxm_195 34 -7.82021657 galago
7 Q0 sirjohnamacdonal00parkrich_31 35 -7.82792239 galago
7 Q0 sirjohnamacdona00park_29 36 -7.82964406 galago
7 Q0 cu31924028589939_281 37 -7.83021729 galago
7 Q0 americancatholic30philuoft_20 38 -7.83480069 galago
7 Q0 thegreatestfailu00spar_179 39 -7.83716759 galago
7 Q0 americancatholic30philuoft_755 40 -7.83978078 galago
7 Q0 buchananjames12buchrich_504 41 -7.84047964 galago
7 Q0 redreigntruesto00durlgoog_16 42 -7.86948238 galago
7 Q0 cechsbohemiansin00capeuoft_410 43 -7.87440446 galago
7 Q0 modernrussianhi02korngoog_105 44 -7.88377164 galago
7 Q0 cu31924060429846_349 45 -7.90367011 galago
7 Q0 elementsofsocial00spariala_316 46 -7.90396856 galago
7 Q0 redreigntruesto00durlgoog_549 47 -7.91320914 galago
7 Q0 treitschkeshisto05treiuoft_124 48 -7.92578792 galago
7 Q0 ledrurollinsecon00calmuoft_277 49 -7.93286883 galago
7 Q0 americancatholic30philuoft_751 50 -7.93872471 galago
7 Q0 encyclopdiabri23chis_484 51 -7.94151166 galago
7 Q0 cu31924087027516_36 52 -7.95908165 galago
7 Q0 banyan67brig_297 53 -7.96087706 galago
7 Q0 encyclopediaame20unkngoog_53 54 -7.97063659 galago
7 Q0 historyofwomansc00crol_58 55 -7.97358553 galago
7 Q0 cu31924024903928_55 56 -7.97538156 galago
7 Q0 outlineofmodernh00earl_57 57 -7.99189691 galago
7 Q0 cu31924027224819_368 58 -7.99796843 galago
7 Q0 whatsmatterwithi00russiala_24 59 -8.01065692 galago
7 Q0 oompaulspeoplena00hilluoft_98 60 -8.01782541 galago
7 Q0 warpicturesbehin01malc_257 61 -8.02789360 galago
7 Q0 crimeitscausesa00lombgoog_56 62 -8.02824929 galago
7 Q0 royalnaturalhist23lydek_211 63 -8.03380116 galago
7 Q0 historyofallnati24wrig_65 64 -8.03799991 galago
7 Q0 americanauniver13beac_435 65 -8.03946117 galago
7 Q0 iliadtrintoengl01homegoog_461 66 -8.04657482 galago
7 Q0 abrahamlincolnan00ulririch_292 67 -8.05368424 galago
7 Q0 250thanniversary00newyrich_116 68 -8.05750389 galago
7 Q0 foundingofgerman06sybeuoft_33 69 -8.06207011 galago
7 Q0 racesandimmigra06commgoog_127 70 -8.06320842 galago
7 Q0 modernrussianhi02korngoog_242 71 -8.06377708 galago
7 Q0 jewishencycloped07sing_447 72 -8.06639569 galago
7 Q0 canutegreat995ci00larsuoft_337 73 -8.06831481 galago
7 Q0 americagodsmelti00crai_45 74 -8.06944603 galago
7 Q0 russiaitspeople00gurouoft_114 75 -8.07226850 galago
7 Q0 orientinbibleti02grangoog_379 76 -8.07564498 galago
7 Q0 terrorinourtimes00rowarich_103 77 -8.08236393 galago
7 Q0 worldhistory00webs_681 78 -8.08292181 galago
7 Q0 customsloreofmod00rodduoft_251 79 -8.08347938 galago
7 Q0 kosciuszkobiogra00gard_140 80 -8.08403664 galago
7 Q0 aspectsofjewishp04dearuoft_172 81 -8.08459359 galago
7 Q0 russiaitscrisis00mili_407 82 -8.08515022 galago
7 Q0 memorandumtogove00ukrauoft_8 83 -8.08570655 galago
7 Q0 russiaasitis00gurouoft_106 84 -8.09401455 galago
7 Q0 germanclassicsof13franuoft_402 85 -8.10225409 galago
7 Q0 abriefhistoryeu01chilgoog_363 86 -8.10280099 galago
7 Q0 immigrationandl02hourgoog_79 87 -8.10334758 galago
7 Q0 reliefsocietymag08reli_660 88 -8.10389388 galago
7 Q0 historyofunivers02brucuoft_172 89 -8.10553099 galago
7 Q0 ontarioregulatio2001ontauoft_1029 90 -8.10693865 galago
7 Q0 modernrussianhi02korngoog_89 91 -8.10879719 galago
7 Q0 mozartcommemorat00lushuoft_11 92 -8.10934052 galago
7 Q0 reviewreviewsan28shawgoog_166 93 -8.11100377 galago
7 Q0 lifeofcharlotteb02gaskuoft_48 94 -8.11529775 galago
7 Q0 deluge00curtgoog_283 95 -8.11583756 galago
7 Q0 reviewreviewsan28shawgoog_165 96 -8.11665427 galago
7 Q0 harpersnewmonth08aldegoog_297 97 -8.11945576 galago
7 Q0 largerhistamer00higgrich_471 98 -8.12282872 galago
7 Q0 cu31924071962249_56 99 -8.12603899 galago
7 Q0 cu31924028382962_81 100 -8.13136666 galago
8 Q0 dictionaryofdate01hayd_479 1 -5.65536827 galago
8 Q0 bookofhistoryhis11brycuoft_237 2 -5.70834788 galago
8 Q0 southafricatheca00thea_478 3 -5.72101434 galago
8 Q0 corsairsoffranc00norm_276 4 -5.72416531 galago
8 Q0 cu31924027974892_525 5 -5.73167664 galago
8 Q0 theworldscyclope01newyuoft_392 6 -5.73831005 galago
8 Q0 pictorialhistor01macfgoog_422 7 -5.77327671 galago
8 Q0 historyofengland00terrrich_795 8 -5.80382752 galago
8 Q0 cu31924014592566_593 9 -5.81394675 galago
8 Q0 historyofengland08leckuoft_598 10 -5.81529224 galago
8 Q0 cu31924073056750_400 11 -5.81976442 galago
8 Q0 cu31924073056750_401 12 -5.83284506 galago
8 Q0 systematicanalys01aspiuoft_169 13 -5.83364855 galago
8 Q0 ahistoryus00bourrich_103 14 -5.84074044 galago
8 Q0 englandadestroy00crongoog_11 15 -5.84910636 galago
8 Q0 historyofengland00terrrich_757 16 -5.87558288 galago
8 Q0 monographsoneduc01butluoft_7 17 -5.87758772 galago
8 Q0 systematicanalys01aspiuoft_170 18 -5.89540728 galago
8 Q0 governanceempir00silbgoog_260 19 -5.90195221 galago
8 Q0 cu31924028485070_416 20 -5.90952663 galago
8 Q0 historyofcityofn02vanruoft_23 21 -5.91918268 galago
8 Q0 japanjapanese00hildiala_14 22 -5.92367218 galago
8 Q0 encyclopaediabri12kell_90 23 -5.93609196 galago
8 Q0 danishwestindies00west_64 24 -5.93879856 galago
8 Q0 historyofcommonw02garduoft_226 25 -5.93879856 galago
8 Q0 schoolhistoryofe00ande_273 26 -5.93925249 galago
8 Q0 governmentofindi00ilberich_27 27 -5.94478970 galago
8 Q0 historyofuniteds03derr_87 28 -5.95244330 galago
8 Q0 evolutionofstate00robeuoft_333 29 -5.95317882 galago
8 Q0 cu31924028485070_286 30 -5.95564913 galago
8 Q0 completehistoric00clar_234 31 -5.96172952 galago
8 Q0 universalhistory00will_402 32 -5.96861360 galago
8 Q0 historyofengland08lodguoft_98 33 -5.96936152 galago
8 Q0 puritancromwell00firtuoft_383 34 -5.97897780 galago
8 Q0 mercantilemarine00chatuoft_84 35 -5.97898748 galago
8 Q0 encyclopaediabri14chisrich_444 36 -5.97932367 galago
8 Q0 universalhistory00will_389 37 -5.97949737 galago
8 Q0 cu31924032757142_50 38 -5.98009431 galago
8 Q0 pennycyclopaedi02goog_303 39 -5.98031279 galago
8 Q0 imperialgazette18huntgoog_759 40 -5.98597114 galago
8 Q0 historyforreadyr03larnuoft_770 41 -5.98830083 galago
8 Q0 harpersencyclop02loss_344 42 -5.99036902 galago
8 Q0 cambridgehistory05rapsuoft_352 43 -5.99176245 galago
8 Q0 largerhistamer00higgrich_199 44 -5.99261699 galago
8 Q0 harpersencyclop09lossuoft_479 45 -5.99395714 galago
8 Q0 cu31924014592566_594 46 -5.99939164 galago
8 Q0 originhistoryfi03hamigoog_163 47 -6.00384489 galago
8 Q0 historyofholland00edmu_236 48 -6.00690454 galago
8 Q0 systematicanalys01aspiuoft_171 49 -6.00957843 galago
8 Q0 systematicanalys01aspiuoft_172 50 -6.01196694 galago
8 Q0 chinaherhistory02parkgoog_26 51 -6.01363213 galago
8 Q0 influenceseapow13mahagoog_466 52 -6.01394677 galago
8 Q0 historyofholland00edmu_235 53 -6.01566560 galago
8 Q0 principlesofpoli02nichuoft_276 54 -6.01658821 galago
8 Q0 cambridgemodhist10actouoft_301 55 -6.02287998 galago
8 Q0 catalogueofprint05brituoft_504 56 -6.02364195 galago
8 Q0 internationalwa01ogilgoog_101 57 -6.02365922 galago
8 Q0 worthiesofenglan00smytuoft_64 58 -6.02665255 galago
8 Q0 cu31924073056750_402 59 -6.03386030 galago
8 Q0 historyofcityofn02vanruoft_645 60 -6.03570462 galago
8 Q0 ahistoryus00bourrich_307 61 -6.03785224 galago
8 Q0 cu31924028485070_298 62 -6.04265567 galago
8 Q0 colonialwarsinam00barr_60 63 -6.04282642 galago
8 Q0 silesianloanfred00satoiala_145 64 -6.04432003 galago
8 Q0 encyclopediabrit03newyrich_821 65 -6.04588714 galago
8 Q0 cambridgehistory05rapsuoft_113 66 -6.04777737 galago
8 Q0 cu31924088466333_66 67 -6.04901847 galago
8 Q0 historianshistor22will_64 68 -6.05042527 galago
8 Q0 encyclopaediabri12kell_820 69 -6.05380657 galago
8 Q0 realamericinroma06markrich_471 70 -6.05477331 galago
8 Q0 newlarnedhistory01larn_320 71 -6.05746929 galago
8 Q0 queenofrepublics00nort_191 72 -6.05813805 galago
8 Q0 historyofengland00rund_463 73 -6.05966346 galago
8 Q0 historyofamerica00doyluoft_126 74 -6.06241480 galago
8 Q0 governanceempir00silbgoog_265 75 -6.06582024 galago
8 Q0 martinshistoryf10martgoog_297 76 -6.06717279 galago
8 Q0 englandinmediter02corbiala_290 77 -6.06728787 galago
8 Q0 edinburghencyclo04brew_591 78 -6.06730898 galago
8 Q0 cu31924027976251_838 79 -6.06781160 galago
8 Q0 governanceempir00silbgoog_261 80 -6.06840206 galago
8 Q0 historyofcommonw02garduoft_213 81 -6.06979732 galago
8 Q0 india00huntrich_187 82 -6.07041753 galago
8 Q0 ahistoryus00bourrich_104 83 -6.07056325 galago
8 Q0 generalbiograph08chalgoog_392 84 -6.07658933 galago
8 Q0 shorthistoryofst01ande_11 85 -6.07669551 galago
8 Q0 englandinmediter02corbiala_78 86 -6.07830069 galago
8 Q0 cu31924073056750_405 87 -6.07837338 galago
8 Q0 memorialhistoryo01wilsuoft_22 88 -6.08128746 galago
8 Q0 introductiontohi00martuoft_81 89 -6.08376533 galago
8 Q0 cu31924073056750_411 90 -6.08520076 galago
8 Q0 mastermariners00spearich_178 91 -6.08637465 galago
8 Q0 venetianstudies00browgoog_396 92 -6.08764882 galago
8 Q0 fallofdutchrepub00vanliala_279 93 -6.09076863 galago
8 Q0 misjudgedmonarch00imbeuoft_158 94 -6.09093987 galago
8 Q0 historyofstateof00broduoft_572 95 -6.09208528 galago
8 Q0 historyofcommonw02garduoft_198 96 -6.09361827 galago
8 Q0 cu31924073056750_407 97 -6.09485185 galago
8 Q0 opdyckgenealogyc00opdy_103 98 -6.09805672 galago
8 Q0 india00huntrich_188 99 -6.09807846 galago
8 Q0 ourrepublichisto00rile_216 100 -6.09887343 galago
9 Q0 reportofsecretar1857unit_365 1 -5.20031436 galago
9 Q0 cu31924014592566_749 2 -5.34338807 galago
9 Q0 encyclopediabrit03newyrich_155 3 -5.35203205 galago
9 Q0 palmersindextot28unkngoog_218 4 -5.38168387 galago
9 Q0 historyofeuropef00holt_681 5 -5.40911254 galago
9 Q0 historyofeuropef00holt_665 6 -5.44612304 galago
9 Q0 cu31924082142666_16 7 -5.50085173 galago
9 Q0 worldbookorganiz01osheuoft_570 8 -5.50658691 galago
9 Q0 historyofeuropef00holt_667 9 -5.51550040 galago
9 Q0 ridpathshistoryo07ridp_74 10 -5.53213789 galago
9 Q0 dictionaryofdate01hayd_565 11 -5.54683693 galago
9 Q0 reportofsecretar1857unit_364 12 -5.58916343 galago
9 Q0 epitomeofancient00ploeuoft_528 13 -5.59394814 galago
9 Q0 ploetzmanualofun00ploe_528 14 -5.59394814 galago
9 Q0 classificationcl00libr_547 15 -5.62694730 galago
9 Q0 epitomeancientm06tillgoog_529 16 -5.63001859 galago
9 Q0 epitomeancientm05tillgoog_527 17 -5.63052504 galago
9 Q0 wilhelminamargra02cuthuoft_433 18 -5.66889920 galago
9 Q0 cu31924014592566_362 19 -5.70289084 galago
9 Q0 dictionaryofdate01hayd_94 20 -5.70377928 galago
9 Q0 cu31924014592566_753 21 -5.71285199 galago
9 Q0 dictionaryofdate01hayd_324 22 -5.71771958 galago
9 Q0 historicalrefere01heil_188 23 -5.74087842 galago
9 Q0 encyclopediabrit03newyrich_144 24 -5.74382853 galago
9 Q0 palmersindextot28unkngoog_315 25 -5.75277589 galago
9 Q0 ploetzmanualofun00ploe_526 26 -5.77206342 galago
9 Q0 epitomeofancient00ploeuoft_526 27 -5.77256911 galago
9 Q0 historyofworld04duycrich_656 28 -5.78593408 galago
9 Q0 newinternationa08gilm_364 29 -5.79508176 galago
9 Q0 historyofeuropef00holt_676 30 -5.80701865 galago
9 Q0 greatbritainprus00lodguoft_235 31 -5.81016476 galago
9 Q0 remakingofmodern06marruoft_216 32 -5.81882863 galago
9 Q0 nsdublinreview15londuoft_494 33 -5.82343658 galago
9 Q0 newlarnedhistory01larn_798 34 -5.82450667 galago
9 Q0 historyofeuropef00holt_674 35 -5.82975896 galago
9 Q0 epitomeancientm06tillgoog_527 36 -5.84868575 galago
9 Q0 dictionaryofdate01hayd_325 37 -5.84984630 galago
9 Q0 ridpathshistoryo07ridp_27 38 -5.85839962 galago
9 Q0 memoriesofmyexil00kossuoft_116 39 -5.85898771 galago
9 Q0 europefromfallna04alis_17 40 -5.86369641 galago
9 Q0 historyofeuropef00holt_679 41 -5.87038246 galago
9 Q0 palmersindextot28unkngoog_325 42 -5.87131901 galago
9 Q0 historyofeuropef00holt_65 43 -5.87760890 galago
9 Q0 foundationsofger00barkuoft_349 44 -5.88508340 galago
9 Q0 briefhistoryofna00fish_540 45 -5.88542615 galago
9 Q0 bebelsreminiscen00bebe_165 46 -5.89028603 galago
9 Q0 outlineseuropea04beargoog_378 47 -5.89199134 galago
9 Q0 outlineofmodernh00earl_66 48 -5.90930703 galago
9 Q0 historyofeuropef00holt_123 49 -5.91206864 galago
9 Q0 encyclopaediabri14chisrich_978 50 -5.91324626 galago
9 Q0 outlineofrecente01perk_20 51 -5.91645453 galago
9 Q0 encyclopaediabri14chisrich_578 52 -5.92224893 galago
9 Q0 cu31924088053800_143 53 -5.92778289 galago
9 Q0 cu31924014592566_760 54 -5.92848296 galago
9 Q0 cu31924082142666_307 55 -5.93463022 galago
9 Q0 shorthistoryofge00henduoft_628 56 -5.94468637 galago
9 Q0 historyofeuropef00holt_671 57 -5.94619941 galago
9 Q0 historyofallnati24wrig_43 58 -5.94759418 galago
9 Q0 cu31924014592566_751 59 -5.94829577 galago
9 Q0 century05unkngoog_1006 60 -5.95351228 galago
9 Q0 cu31924028239477_78 61 -5.95496966 galago
9 Q0 outlinesofgenera00reno_528 62 -5.95546513 galago
9 Q0 encyclopediaame04unkngoog_764 63 -5.95631165 galago
9 Q0 cu31924088463215_208 64 -5.95667304 galago
9 Q0 universalbiograp02eadi_537 65 -5.96064223 galago
9 Q0 cu31924082142666_266 66 -5.96732192 galago
9 Q0 greatbritainprus00lodguoft_171 67 -5.96983959 galago
9 Q0 marvelousstoryof00nort_228 68 -5.97309796 galago
9 Q0 shorthistoryofge00henduoft_613 69 -5.97516739 galago
9 Q0 livingage11unkngoog_78 70 -5.97713940 galago
9 Q0 memoirshousebra00unkngoog_11 71 -5.98320560 galago
9 Q0 europestephens00step_263 72 -5.98744722 galago
9 Q0 revolutionaryeur00stepuoft_265 73 -5.98798298 galago
9 Q0 historyofengla05leckuoft_257 74 -5.98831977 galago
9 Q0 europe1789192000turnrich_282 75 -5.98869343 galago
9 Q0 newlarnedhistory01larn_764 76 -5.99577509 galago
9 Q0 threegermanysgl00faygoog_642 77 -5.99856541 galago
9 Q0 austriahungary00legeiala_447 78 -6.00286704 galago
9 Q0 historyofeuropef00holt_680 79 -6.01326702 galago
9 Q0 newinternationa02gilm_88 80 -6.01616158 galago
9 Q0 encyclopediabrit03newyrich_142 81 -6.01636481 galago
9 Q0 historyofeuropef00holt_46 82 -6.02281691 galago
9 Q0 greatbritainprus00lodguoft_101 83 -6.02290307 galago
9 Q0 wilhelminamargra02cuthuoft_448 84 -6.02329258 galago
9 Q0 pt1popularencycl06glasuoft_227 85 -6.02461485 galago
9 Q0 cu31924014592566_752 86 -6.02666419 galago
9 Q0 generalhistoryfo00myerrich_776 87 -6.02760543 galago
9 Q0 cu31924082142666_289 88 -6.03440979 galago
9 Q0 generalhistoryof00robiuoft_582 89 -6.03500895 galago
9 Q0 appletonsannualc13newy_869 90 -6.03509449 galago
9 Q0 cu31924082142666_249 91 -6.03525371 galago
9 Q0 historyofeuropef00holt_156 92 -6.03784776 galago
9 Q0 worldbookencyclo20chic_450 93 -6.03937920 galago
9 Q0 shorthistoryofeu00terr_610 94 -6.03989694 galago
9 Q0 chamberssencyclo08lipp_643 95 -6.04158673 galago
9 Q0 treitschkeshisto05treiuoft_280 96 -6.04328104 galago
9 Q0 theglobe02philuoft_246 97 -6.04483706 galago
9 Q0 shorthistoryofge00henduoft_622 98 -6.04761656 galago
9 Q0 newlarnedhistory01larn_775 99 -6.04937803 galago
9 Q0 greatbritainprus00lodguoft_234 100 -6.05286914 galago
10 Q0 teachershandbook00sanfrich_128 1 -5.44546757 galago
10 Q0 sanfranciscohist01youn_192 2 -5.83696026 galago
10 Q0 reportofbritisha88brit_635 3 -5.84315319 galago
10 Q0 appendixtojourna18874cali_149 4 -5.98794066 galago
10 Q0 historyofjournal19406sanf_326 5 -6.06768386 galago
10 Q0 ingersollscentur00inge_101 6 -6.10797272 galago
10 Q0 makingofourcount00burn_543 7 -6.12970938 galago
10 Q0 policepeaceoffic19461946sanf_79 8 -6.15709439 galago
10 Q0 waterqualityreso00sacr_128 9 -6.15803592 galago
10 Q0 moneybankingdisc05howauoft_187 10 -6.16989786 galago
10 Q0 appletonsdictio01compgoog_918 11 -6.22270100 galago
10 Q0 threeyearsincali00coltrich_16 12 -6.22280616 galago
10 Q0 makingofourcount00burn_410 13 -6.22588247 galago
10 Q0 courseofstudyhis00balt_129 14 -6.22616492 galago
10 Q0 sanfranciscohist01youn_22 15 -6.24465380 galago
10 Q0 boysbookofpionee00wood_332 16 -6.25180554 galago
10 Q0 histamerpeople00bearrich_316 17 -6.25397218 galago
10 Q0 whoswhoamongwom00wilsgoog_221 18 -6.28376504 galago
10 Q0 aschoolhistoryu01macegoog_357 19 -6.28615398 galago
10 Q0 carpentersnewgeo01carp_339 20 -6.28793425 galago
10 Q0 carpentersnewgeo00carpiala_341 21 -6.28793425 galago
10 Q0 historyofsanfran00unit_12 22 -6.30545178 galago
10 Q0 diggersinearth00tapprich_58 23 -6.32188350 galago
10 Q0 goldandsilverco02crangoog_124 24 -6.33578007 galago
10 Q0 schoolhistoryofu01hart_299 25 -6.34166088 galago
10 Q0 americanmining00amerrich_225 26 -6.34168785 galago
10 Q0 histuscharles00adamrich_362 27 -6.34183198 galago
10 Q0 sanfranciscohist01youn_195 28 -6.35093583 galago
10 Q0 historyofamerica00doyluoft_416 29 -6.35298106 galago
10 Q0 improvingschools00broo_223 30 -6.37511350 galago
10 Q0 sanfranciscohist01youn_368 31 -6.39738582 galago
10 Q0 geographyofbriti00warnrich_139 32 -6.39759124 galago
10 Q0 youngamericanci00grafgoog_290 33 -6.40048388 galago
10 Q0 goldandsilverco02crangoog_153 34 -6.40325319 galago
10 Q0 historyofmormonc10robe_186 35 -6.40756117 galago
10 Q0 abridgedhistoryo00hass_219 36 -6.41139304 galago
10 Q0 goldandsilverco02crangoog_385 37 -6.42775724 galago
10 Q0 journalsouthafri13sout_486 38 -6.43113167 galago
10 Q0 reportofbritisha88brit_639 39 -6.43245831 galago
10 Q0 californiabooksp00anderich_39 40 -6.43671023 galago
10 Q0 ourcountryshisto00garn_367 41 -6.43950343 galago
10 Q0 muzzeysamerican00davirich_403 42 -6.44626020 galago
10 Q0 califruitsgrow00wickrich_247 43 -6.44657881 galago
10 Q0 californiafruits04wick_251 44 -6.44657881 galago
10 Q0 sanfranciscohist01youn_359 45 -6.44948888 galago
10 Q0 outwestland14archrich_550 46 -6.44971728 galago
10 Q0 bulletinofpaname6935pana_81 47 -6.45049980 galago
10 Q0 worldbookencyclo20chic_218 48 -6.46080509 galago
10 Q0 toalaskaforgoldo00strarich_10 49 -6.46173298 galago
10 Q0 californiaitshi00mcgrgoog_244 50 -6.46772667 galago
10 Q0 californiachrono00monn_62 51 -6.47222260 galago
10 Q0 ouruntedstates00guitrich_392 52 -6.47681048 galago
10 Q0 cu31924092229925_104 53 -6.47699453 galago
10 Q0 constitutionsofs00unitrich_635 54 -6.48353505 galago
10 Q0 cu31924092705106_421 55 -6.48609877 galago
10 Q0 popularsciencemo38newyuoft_814 56 -6.49150687 galago
10 Q0 johnburroughsboy00barr_172 57 -6.49583650 galago
10 Q0 northamericawith00tarr_335 58 -6.49903246 galago
10 Q0 syllabuscourse01jamerich_9 59 -6.49919153 galago
10 Q0 historyofuniteds00gord_350 60 -6.49941949 galago
10 Q0 supplementtoappe1963cali_258 61 -6.50142781 galago
10 Q0 southofmarketjou119251926sout_126 62 -6.50541072 galago
10 Q0 cu31924030196160_16 63 -6.51548933 galago
10 Q0 famousamericans00uhrb_223 64 -6.51619871 galago
10 Q0 worldbookencyclo20chic_240 65 -6.52201330 galago
10 Q0 califfruitshowto00wickrich_271 66 -6.52231299 galago
10 Q0 annualreportofam19372amer_822 67 -6.52887173 galago
10 Q0 historyofuniteds00gord_351 68 -6.53756788 galago
10 Q0 goldandsilverco02crangoog_162 69 -6.53853713 galago
10 Q0 brighamyoungandh00cannuoft_184 70 -6.54232120 galago
10 Q0 modernindustria01cochgoog_319 71 -6.54509391 galago
10 Q0 historyofcontrac00munr_150 72 -6.55690296 galago
10 Q0 schoolhistoryofu00elso_351 73 -6.55894400 galago
10 Q0 cu31924032471116_421 74 -6.56034388 galago
10 Q0 longmansschoolg02leetgoog_135 75 -6.56156579 galago
10 Q0 storyofcaliforni02nort_324 76 -6.56662957 galago
10 Q0 storycalifornia06nortgoog_325 77 -6.56721488 galago
10 Q0 completepronounc00thomrich_767 78 -6.56924656 galago
10 Q0 storycalifornia05nortgoog_323 79 -6.56955269 galago
10 Q0 lifespeechesand04smucgoog_273 80 -6.57022670 galago
10 Q0 boysbookofpionee00wood_331 81 -6.57893960 galago
10 Q0 discoveryconques00irvirich_791 82 -6.58048320 galago
10 Q0 historyofwyoming01bart_661 83 -6.58177650 galago
10 Q0 sanfranciscodire1867lang_799 84 -6.58345320 galago
10 Q0 califairbanks00fairrich_80 85 -6.58540538 galago
10 Q0 americalandwelov00mill_348 86 -6.58556930 galago
10 Q0 storycalifornia05nortgoog_385 87 -6.58643608 galago
10 Q0 storyofcaliforni02nort_386 88 -6.58643608 galago
10 Q0 storycalifornia06nortgoog_387 89 -6.58757894 galago
10 Q0 historyofuniteds00form_304 90 -6.59009871 galago
10 Q0 reportofbritisha88brit_648 91 -6.59051092 galago
10 Q0 businesswoman1127sanf_242 92 -6.59417142 galago
10 Q0 ourcountryshisto00garn_366 93 -6.59786673 galago
10 Q0 newoutlookvolum01smitgoog_257 94 -6.60252731 galago
10 Q0 citycountyrecord2224sanf_576 95 -6.60795355 galago
10 Q0 pressreferenceli01interich_764 96 -6.60819923 galago
10 Q0 worksofdanielweb05websiala_400 97 -6.61061922 galago
10 Q0 transactionsmining22amer_356 98 -6.61077128 galago
10 Q0 worksdanweb05websrich_398 99 -6.61113857 galago
10 Q0 ouruntedstates00guitrich_391 100 -6.61296328 galago
