###################################
# parameters: 
#   date_th: 0.25
#   doc_th: 0.7
#   loc_th: 0.4
#   nodestouse: DOCUMENT:DATE:LOCATION
#   relationships: REFERENCES:SIMDATES:SIMPAGE

###################################
# configuration: 
#   sa.act_diff_ratio_limit = 0.01
#   sa.act_diff_ratio_limit_diff = 0.01
#   sa.function = ciir.multi.sa.function.MaxSAFunction(norm_function)
#   sa.id_property_name.DATE = dateID
#   sa.id_property_name.DOCUMENT = docID
#   sa.id_property_name.LOCATION = locID
#   sa.max_pulses = 10
#   sa.nodes_to_print = DATE:LOCATION
#   sa.nodes_to_use = DOCUMENT:DATE:LOCATION
#   sa.norm_function = ciir.multi.sa.SigmoidFunction(0.0, 1.0)
#   sa.relationships_to_use = REFERENCES:SIMDATES:SIMPAGE
#   sa.spread_threshold.DATE = 0.25
#   sa.spread_threshold.DOCUMENT = 0.7
#   sa.spread_threshold.LOCATION = 0.4
#   sa.weight_property.REFERENCES = relevance
#   sa.weight_property.SIMDATES = sim
#   sa.weight_property.SIMDOC = sim
#   sa.weight_property.SIMLOC = sim
#   sa.weight_property.SIMPAGE = pagesim

###################################
# initial activations (2): 
#   encyclopediabrit03newyrich_155, 1
#   cu31924082142666_16, 1

###################################
# spreading activation process log: 
#   pulse 0: activated: 2, non-zero: 2, borderline: 2, overall act: 2.000, act diff: 2.000, ratio: 1.000
#   pulse 1: activated: 38, non-zero: 38, borderline: 36, overall act: 8.953, act diff: 6.953, ratio: 0.777
#   pulse 2: activated: 75157, non-zero: 75157, borderline: 75154, overall act: 6353.750, act diff: 6344.797, ratio: 0.999
#   pulse 3: activated: 75157, non-zero: 75157, borderline: 75154, overall act: 6353.750, act diff: 0.000, ratio: 0.000

###################################
# spreading activation process summary: 
#   final number of activated nodes: 75157
#   final overall activation: 6353.8
#   number of spread. activ. pulses: 3
#   running time: 37313

###################################
# top k results in TREC format: 

9   rel2-5   austria   1   0.45714977   nodesDOCUMENT:DATE:LOCATION-edgesREFERENCES:SIMDATES:SIMPAGE-date_th0.25-doc_th0.7-loc_th0.4
9   rel2-5   prussia   2   0.38772225   nodesDOCUMENT:DATE:LOCATION-edgesREFERENCES:SIMDATES:SIMPAGE-date_th0.25-doc_th0.7-loc_th0.4
9   rel2-5   saxony   3   0.3441148   nodesDOCUMENT:DATE:LOCATION-edgesREFERENCES:SIMDATES:SIMPAGE-date_th0.25-doc_th0.7-loc_th0.4
9   rel2-5   holstein   4   0.31223398   nodesDOCUMENT:DATE:LOCATION-edgesREFERENCES:SIMDATES:SIMPAGE-date_th0.25-doc_th0.7-loc_th0.4
9   rel2-5   hanover   5   0.23115462   nodesDOCUMENT:DATE:LOCATION-edgesREFERENCES:SIMDATES:SIMPAGE-date_th0.25-doc_th0.7-loc_th0.4
9   rel2-5   moravia   6   0.2010266   nodesDOCUMENT:DATE:LOCATION-edgesREFERENCES:SIMDATES:SIMPAGE-date_th0.25-doc_th0.7-loc_th0.4
9   rel2-5   berlin   7   0.2010266   nodesDOCUMENT:DATE:LOCATION-edgesREFERENCES:SIMDATES:SIMPAGE-date_th0.25-doc_th0.7-loc_th0.4
9   rel2-5   trutnowo   8   0.2010266   nodesDOCUMENT:DATE:LOCATION-edgesREFERENCES:SIMDATES:SIMPAGE-date_th0.25-doc_th0.7-loc_th0.4
9   rel2-5   silesia   9   0.19729143   nodesDOCUMENT:DATE:LOCATION-edgesREFERENCES:SIMDATES:SIMPAGE-date_th0.25-doc_th0.7-loc_th0.4
9   rel2-5   jicin   10   0.17051344   nodesDOCUMENT:DATE:LOCATION-edgesREFERENCES:SIMDATES:SIMPAGE-date_th0.25-doc_th0.7-loc_th0.4
9   rel2-5   bohemia   11   0.17051344   nodesDOCUMENT:DATE:LOCATION-edgesREFERENCES:SIMDATES:SIMPAGE-date_th0.25-doc_th0.7-loc_th0.4
9   rel2-5   dresden   12   0.17051344   nodesDOCUMENT:DATE:LOCATION-edgesREFERENCES:SIMDATES:SIMPAGE-date_th0.25-doc_th0.7-loc_th0.4
9   rel2-5   hungary   13   0.13562085   nodesDOCUMENT:DATE:LOCATION-edgesREFERENCES:SIMDATES:SIMPAGE-date_th0.25-doc_th0.7-loc_th0.4
9   rel2-5   elbe   14   0.13562085   nodesDOCUMENT:DATE:LOCATION-edgesREFERENCES:SIMDATES:SIMPAGE-date_th0.25-doc_th0.7-loc_th0.4
9   rel2-5   italy   15   0.13562085   nodesDOCUMENT:DATE:LOCATION-edgesREFERENCES:SIMDATES:SIMPAGE-date_th0.25-doc_th0.7-loc_th0.4
9   rel2-5   koniggratz   16   0.13562085   nodesDOCUMENT:DATE:LOCATION-edgesREFERENCES:SIMDATES:SIMPAGE-date_th0.25-doc_th0.7-loc_th0.4
9   rel2-5   germany   17   0.13562085   nodesDOCUMENT:DATE:LOCATION-edgesREFERENCES:SIMDATES:SIMPAGE-date_th0.25-doc_th0.7-loc_th0.4
9   rel2-5   gottingen   18   0.11716388   nodesDOCUMENT:DATE:LOCATION-edgesREFERENCES:SIMDATES:SIMPAGE-date_th0.25-doc_th0.7-loc_th0.4
9   rel2-5   hesse   19   0.11716388   nodesDOCUMENT:DATE:LOCATION-edgesREFERENCES:SIMDATES:SIMPAGE-date_th0.25-doc_th0.7-loc_th0.4
9   rel2-5   bad langensalza   20   0.11716388   nodesDOCUMENT:DATE:LOCATION-edgesREFERENCES:SIMDATES:SIMPAGE-date_th0.25-doc_th0.7-loc_th0.4

###################################
# top nodes: 

# 9   rel2-5   encyclopediabrit03newyrich_155   1   1.0   nodesDOCUMENT:DATE:LOCATION-edgesREFERENCES:SIMDATES:SIMPAGE-date_th0.25-doc_th0.7-loc_th0.4
# 9   rel2-5   cu31924082142666_16   2   1.0   nodesDOCUMENT:DATE:LOCATION-edgesREFERENCES:SIMDATES:SIMPAGE-date_th0.25-doc_th0.7-loc_th0.4
# 9   rel2-5   encyclopediabrit03newyrich_154   3   0.56441504   nodesDOCUMENT:DATE:LOCATION-edgesREFERENCES:SIMDATES:SIMPAGE-date_th0.25-doc_th0.7-loc_th0.4
# 9   rel2-5   cu31924082142666_15   4   0.5504411   nodesDOCUMENT:DATE:LOCATION-edgesREFERENCES:SIMDATES:SIMPAGE-date_th0.25-doc_th0.7-loc_th0.4
# 9   rel2-5   encyclopediabrit03newyrich_156   5   0.53354925   nodesDOCUMENT:DATE:LOCATION-edgesREFERENCES:SIMDATES:SIMPAGE-date_th0.25-doc_th0.7-loc_th0.4
# 9   rel2-5   cu31924082142666_17   6   0.5219494   nodesDOCUMENT:DATE:LOCATION-edgesREFERENCES:SIMDATES:SIMPAGE-date_th0.25-doc_th0.7-loc_th0.4
# 9   rel2-5   austria   7   0.45714977   nodesDOCUMENT:DATE:LOCATION-edgesREFERENCES:SIMDATES:SIMPAGE-date_th0.25-doc_th0.7-loc_th0.4
# 9   rel2-5   prussia   8   0.38772225   nodesDOCUMENT:DATE:LOCATION-edgesREFERENCES:SIMDATES:SIMPAGE-date_th0.25-doc_th0.7-loc_th0.4
# 9   rel2-5   saxony   9   0.3441148   nodesDOCUMENT:DATE:LOCATION-edgesREFERENCES:SIMDATES:SIMPAGE-date_th0.25-doc_th0.7-loc_th0.4
# 9   rel2-5   holstein   10   0.31223398   nodesDOCUMENT:DATE:LOCATION-edgesREFERENCES:SIMDATES:SIMPAGE-date_th0.25-doc_th0.7-loc_th0.4
# 9   rel2-5   hanover   11   0.23115462   nodesDOCUMENT:DATE:LOCATION-edgesREFERENCES:SIMDATES:SIMPAGE-date_th0.25-doc_th0.7-loc_th0.4
# 9   rel2-5   cu31924060379777_226   12   0.22467561   nodesDOCUMENT:DATE:LOCATION-edgesREFERENCES:SIMDATES:SIMPAGE-date_th0.25-doc_th0.7-loc_th0.4
# 9   rel2-5   catholicsocialis00nittiala_244   13   0.22467561   nodesDOCUMENT:DATE:LOCATION-edgesREFERENCES:SIMDATES:SIMPAGE-date_th0.25-doc_th0.7-loc_th0.4
# 9   rel2-5   cu31924060379777_250   14   0.22467561   nodesDOCUMENT:DATE:LOCATION-edgesREFERENCES:SIMDATES:SIMPAGE-date_th0.25-doc_th0.7-loc_th0.4
# 9   rel2-5   cavourmakingofmo00orsi_167   15   0.22467561   nodesDOCUMENT:DATE:LOCATION-edgesREFERENCES:SIMDATES:SIMPAGE-date_th0.25-doc_th0.7-loc_th0.4
# 9   rel2-5   cu31924031236031_350   16   0.22467561   nodesDOCUMENT:DATE:LOCATION-edgesREFERENCES:SIMDATES:SIMPAGE-date_th0.25-doc_th0.7-loc_th0.4
# 9   rel2-5   cu31924031236031_358   17   0.22467561   nodesDOCUMENT:DATE:LOCATION-edgesREFERENCES:SIMDATES:SIMPAGE-date_th0.25-doc_th0.7-loc_th0.4
# 9   rel2-5   catholicsocialis00nittiala_232   18   0.22467561   nodesDOCUMENT:DATE:LOCATION-edgesREFERENCES:SIMDATES:SIMPAGE-date_th0.25-doc_th0.7-loc_th0.4
# 9   rel2-5   catholicsocialis00nittiala_226   19   0.22467561   nodesDOCUMENT:DATE:LOCATION-edgesREFERENCES:SIMDATES:SIMPAGE-date_th0.25-doc_th0.7-loc_th0.4
# 9   rel2-5   catholicsocialis00nittiala_256   20   0.22467561   nodesDOCUMENT:DATE:LOCATION-edgesREFERENCES:SIMDATES:SIMPAGE-date_th0.25-doc_th0.7-loc_th0.4
# 9   rel2-5   secretmemoirsco01orlgoog_446   21   0.22467561   nodesDOCUMENT:DATE:LOCATION-edgesREFERENCES:SIMDATES:SIMPAGE-date_th0.25-doc_th0.7-loc_th0.4
# 9   rel2-5   newscuttings00gran_30   22   0.22467561   nodesDOCUMENT:DATE:LOCATION-edgesREFERENCES:SIMDATES:SIMPAGE-date_th0.25-doc_th0.7-loc_th0.4
# 9   rel2-5   cu31924027975733_88   23   0.22467561   nodesDOCUMENT:DATE:LOCATION-edgesREFERENCES:SIMDATES:SIMPAGE-date_th0.25-doc_th0.7-loc_th0.4
# 9   rel2-5   journalseriesage65royauoft_442   24   0.22467561   nodesDOCUMENT:DATE:LOCATION-edgesREFERENCES:SIMDATES:SIMPAGE-date_th0.25-doc_th0.7-loc_th0.4
# 9   rel2-5   storiesseatoldb00unkngoog_94   25   0.22467561   nodesDOCUMENT:DATE:LOCATION-edgesREFERENCES:SIMDATES:SIMPAGE-date_th0.25-doc_th0.7-loc_th0.4
# 9   rel2-5   cu31924060379777_343   26   0.22467561   nodesDOCUMENT:DATE:LOCATION-edgesREFERENCES:SIMDATES:SIMPAGE-date_th0.25-doc_th0.7-loc_th0.4
# 9   rel2-5   historyofpopesth00rankuoft_513   27   0.22467561   nodesDOCUMENT:DATE:LOCATION-edgesREFERENCES:SIMDATES:SIMPAGE-date_th0.25-doc_th0.7-loc_th0.4
# 9   rel2-5   cu31924031236031_360   28   0.22467561   nodesDOCUMENT:DATE:LOCATION-edgesREFERENCES:SIMDATES:SIMPAGE-date_th0.25-doc_th0.7-loc_th0.4
# 9   rel2-5   cu31924031236031_366   29   0.22467561   nodesDOCUMENT:DATE:LOCATION-edgesREFERENCES:SIMDATES:SIMPAGE-date_th0.25-doc_th0.7-loc_th0.4
# 9   rel2-5   catholicsocialis00nittiala_260   30   0.22467561   nodesDOCUMENT:DATE:LOCATION-edgesREFERENCES:SIMDATES:SIMPAGE-date_th0.25-doc_th0.7-loc_th0.4
# 9   rel2-5   cu31924082163829_160   31   0.22467561   nodesDOCUMENT:DATE:LOCATION-edgesREFERENCES:SIMDATES:SIMPAGE-date_th0.25-doc_th0.7-loc_th0.4
# 9   rel2-5   schoolgardenbein00schw_82   32   0.22467561   nodesDOCUMENT:DATE:LOCATION-edgesREFERENCES:SIMDATES:SIMPAGE-date_th0.25-doc_th0.7-loc_th0.4
# 9   rel2-5   schoolgardenbein00schw_90   33   0.22467561   nodesDOCUMENT:DATE:LOCATION-edgesREFERENCES:SIMDATES:SIMPAGE-date_th0.25-doc_th0.7-loc_th0.4
# 9   rel2-5   memoirscountess02genlgoog_44   34   0.22467561   nodesDOCUMENT:DATE:LOCATION-edgesREFERENCES:SIMDATES:SIMPAGE-date_th0.25-doc_th0.7-loc_th0.4
# 9   rel2-5   generalarmoryofe00burk_1337   35   0.22467561   nodesDOCUMENT:DATE:LOCATION-edgesREFERENCES:SIMDATES:SIMPAGE-date_th0.25-doc_th0.7-loc_th0.4
# 9   rel2-5   cu31924027758022_392   36   0.22467561   nodesDOCUMENT:DATE:LOCATION-edgesREFERENCES:SIMDATES:SIMPAGE-date_th0.25-doc_th0.7-loc_th0.4
# 9   rel2-5   cu31924082163829_142   37   0.22467561   nodesDOCUMENT:DATE:LOCATION-edgesREFERENCES:SIMDATES:SIMPAGE-date_th0.25-doc_th0.7-loc_th0.4
# 9   rel2-5   cu31924031296340_439   38   0.22467561   nodesDOCUMENT:DATE:LOCATION-edgesREFERENCES:SIMDATES:SIMPAGE-date_th0.25-doc_th0.7-loc_th0.4
# 9   rel2-5   autobiographycor01deweuoft_203   39   0.22467561   nodesDOCUMENT:DATE:LOCATION-edgesREFERENCES:SIMDATES:SIMPAGE-date_th0.25-doc_th0.7-loc_th0.4
# 9   rel2-5   electricfurnace01baurgoog_20   40   0.22467561   nodesDOCUMENT:DATE:LOCATION-edgesREFERENCES:SIMDATES:SIMPAGE-date_th0.25-doc_th0.7-loc_th0.4
