###################################
# parameters: 
#   date_th: 0.3
#   doc_th: 0.7
#   loc_th: 0.35
#   nodestouse: DOCUMENT:DATE:LOCATION
#   relationships: REFERENCES:SIMDATES:SIMLOC:SIMPAGE

###################################
# configuration: 
#   sa.act_diff_ratio_limit = 0.01
#   sa.act_diff_ratio_limit_diff = 0.01
#   sa.function = ciir.multi.sa.function.MaxSAFunction(norm_function)
#   sa.id_property_name.DATE = dateID
#   sa.id_property_name.DOCUMENT = docID
#   sa.id_property_name.LOCATION = locID
#   sa.max_pulses = 10
#   sa.nodes_to_print = DATE:LOCATION
#   sa.nodes_to_use = DOCUMENT:DATE:LOCATION
#   sa.norm_function = ciir.multi.sa.SigmoidFunction(0.0, 1.0)
#   sa.relationships_to_use = REFERENCES:SIMDATES:SIMLOC:SIMPAGE
#   sa.spread_threshold.DATE = 0.3
#   sa.spread_threshold.DOCUMENT = 0.7
#   sa.spread_threshold.LOCATION = 0.35
#   sa.weight_property.REFERENCES = relevance
#   sa.weight_property.SIMDATES = sim
#   sa.weight_property.SIMDOC = sim
#   sa.weight_property.SIMLOC = sim
#   sa.weight_property.SIMPAGE = pagesim

###################################
# initial activations (2): 
#   bookofhistoryhis11brycuoft_237, 1
#   cu31924014592566_593, 1

###################################
# spreading activation process log: 
#   pulse 0: activated: 2, non-zero: 2, borderline: 2, overall act: 2.000, act diff: 2.000, ratio: 1.000
#   pulse 1: activated: 258, non-zero: 258, borderline: 256, overall act: 22.578, act diff: 20.578, ratio: 0.911
#   pulse 2: activated: 980302, non-zero: 980302, borderline: 980298, overall act: 126687.474, act diff: 126664.896, ratio: 1.000
#   pulse 3: activated: 980302, non-zero: 980302, borderline: 980298, overall act: 126687.474, act diff: 0.000, ratio: 0.000

###################################
# spreading activation process summary: 
#   final number of activated nodes: 980302
#   final overall activation: 126687.5
#   number of spread. activ. pulses: 3
#   running time: 175934

###################################
# top k results in TREC format: 

8   rel2-2   england   1   0.528162   nodesDOCUMENT:DATE:LOCATION-edgesREFERENCES:SIMDATES:SIMLOC:SIMPAGE-date_th0.3-doc_th0.7-loc_th0.35
8   rel2-2   spain   2   0.40804455   nodesDOCUMENT:DATE:LOCATION-edgesREFERENCES:SIMDATES:SIMLOC:SIMPAGE-date_th0.3-doc_th0.7-loc_th0.35
8   rel2-2   holland   3   0.30943748   nodesDOCUMENT:DATE:LOCATION-edgesREFERENCES:SIMDATES:SIMLOC:SIMPAGE-date_th0.3-doc_th0.7-loc_th0.35
8   rel2-2   newton blossomville   4   0.24149744   nodesDOCUMENT:DATE:LOCATION-edgesREFERENCES:SIMDATES:SIMLOC:SIMPAGE-date_th0.3-doc_th0.7-loc_th0.35
8   rel2-2   filgrave   5   0.23852724   nodesDOCUMENT:DATE:LOCATION-edgesREFERENCES:SIMDATES:SIMLOC:SIMPAGE-date_th0.3-doc_th0.7-loc_th0.35
8   rel2-2   turvey   6   0.23300326   nodesDOCUMENT:DATE:LOCATION-edgesREFERENCES:SIMDATES:SIMLOC:SIMPAGE-date_th0.3-doc_th0.7-loc_th0.35
8   rel2-2   sherington   7   0.23258282   nodesDOCUMENT:DATE:LOCATION-edgesREFERENCES:SIMDATES:SIMLOC:SIMPAGE-date_th0.3-doc_th0.7-loc_th0.35
8   rel2-2   easton maudit   8   0.23079227   nodesDOCUMENT:DATE:LOCATION-edgesREFERENCES:SIMDATES:SIMLOC:SIMPAGE-date_th0.3-doc_th0.7-loc_th0.35
8   rel2-2   tyringham   9   0.23028252   nodesDOCUMENT:DATE:LOCATION-edgesREFERENCES:SIMDATES:SIMLOC:SIMPAGE-date_th0.3-doc_th0.7-loc_th0.35
8   rel2-2   chicheley   10   0.22786377   nodesDOCUMENT:DATE:LOCATION-edgesREFERENCES:SIMDATES:SIMLOC:SIMPAGE-date_th0.3-doc_th0.7-loc_th0.35
8   rel2-2   hardmead   11   0.22618839   nodesDOCUMENT:DATE:LOCATION-edgesREFERENCES:SIMDATES:SIMLOC:SIMPAGE-date_th0.3-doc_th0.7-loc_th0.35
8   rel2-2   bozeat   12   0.2246689   nodesDOCUMENT:DATE:LOCATION-edgesREFERENCES:SIMDATES:SIMLOC:SIMPAGE-date_th0.3-doc_th0.7-loc_th0.35
8   rel2-2   harrold   13   0.22216067   nodesDOCUMENT:DATE:LOCATION-edgesREFERENCES:SIMDATES:SIMLOC:SIMPAGE-date_th0.3-doc_th0.7-loc_th0.35
8   rel2-2   europe   14   0.21521094   nodesDOCUMENT:DATE:LOCATION-edgesREFERENCES:SIMDATES:SIMLOC:SIMPAGE-date_th0.3-doc_th0.7-loc_th0.35
8   rel2-2   1652   15   0.21102692   nodesDOCUMENT:DATE:LOCATION-edgesREFERENCES:SIMDATES:SIMLOC:SIMPAGE-date_th0.3-doc_th0.7-loc_th0.35
8   rel2-2   baltimore harbour   16   0.18864542   nodesDOCUMENT:DATE:LOCATION-edgesREFERENCES:SIMDATES:SIMLOC:SIMPAGE-date_th0.3-doc_th0.7-loc_th0.35
8   rel2-2   loughine   17   0.18687168   nodesDOCUMENT:DATE:LOCATION-edgesREFERENCES:SIMDATES:SIMLOC:SIMPAGE-date_th0.3-doc_th0.7-loc_th0.35
8   rel2-2   spanish island   18   0.18501276   nodesDOCUMENT:DATE:LOCATION-edgesREFERENCES:SIMDATES:SIMLOC:SIMPAGE-date_th0.3-doc_th0.7-loc_th0.35
8   rel2-2   donegall   19   0.18461871   nodesDOCUMENT:DATE:LOCATION-edgesREFERENCES:SIMDATES:SIMLOC:SIMPAGE-date_th0.3-doc_th0.7-loc_th0.35
8   rel2-2   killeena   20   0.18331215   nodesDOCUMENT:DATE:LOCATION-edgesREFERENCES:SIMDATES:SIMLOC:SIMPAGE-date_th0.3-doc_th0.7-loc_th0.35

###################################
# top nodes: 

# 8   rel2-2   cu31924014592566_593   1   1.0   nodesDOCUMENT:DATE:LOCATION-edgesREFERENCES:SIMDATES:SIMLOC:SIMPAGE-date_th0.3-doc_th0.7-loc_th0.35
# 8   rel2-2   bookofhistoryhis11brycuoft_237   2   1.0   nodesDOCUMENT:DATE:LOCATION-edgesREFERENCES:SIMDATES:SIMLOC:SIMPAGE-date_th0.3-doc_th0.7-loc_th0.35
# 8   rel2-2   cu31924014592566_592   3   0.65983224   nodesDOCUMENT:DATE:LOCATION-edgesREFERENCES:SIMDATES:SIMLOC:SIMPAGE-date_th0.3-doc_th0.7-loc_th0.35
# 8   rel2-2   cu31924014592566_594   4   0.6018288   nodesDOCUMENT:DATE:LOCATION-edgesREFERENCES:SIMDATES:SIMLOC:SIMPAGE-date_th0.3-doc_th0.7-loc_th0.35
# 8   rel2-2   bookofhistoryhis11brycuoft_238   5   0.5860744   nodesDOCUMENT:DATE:LOCATION-edgesREFERENCES:SIMDATES:SIMLOC:SIMPAGE-date_th0.3-doc_th0.7-loc_th0.35
# 8   rel2-2   bookofhistoryhis11brycuoft_236   6   0.55945563   nodesDOCUMENT:DATE:LOCATION-edgesREFERENCES:SIMDATES:SIMLOC:SIMPAGE-date_th0.3-doc_th0.7-loc_th0.35
# 8   rel2-2   england   7   0.528162   nodesDOCUMENT:DATE:LOCATION-edgesREFERENCES:SIMDATES:SIMLOC:SIMPAGE-date_th0.3-doc_th0.7-loc_th0.35
# 8   rel2-2   spain   8   0.40804455   nodesDOCUMENT:DATE:LOCATION-edgesREFERENCES:SIMDATES:SIMLOC:SIMPAGE-date_th0.3-doc_th0.7-loc_th0.35
# 8   rel2-2   ourmotherland00burr_12   9   0.36164108   nodesDOCUMENT:DATE:LOCATION-edgesREFERENCES:SIMDATES:SIMLOC:SIMPAGE-date_th0.3-doc_th0.7-loc_th0.35
# 8   rel2-2   ourmotherland00burr_17   10   0.35163638   nodesDOCUMENT:DATE:LOCATION-edgesREFERENCES:SIMDATES:SIMLOC:SIMPAGE-date_th0.3-doc_th0.7-loc_th0.35
# 8   rel2-2   bibleinspainorjo01borruoft_167   11   0.34598017   nodesDOCUMENT:DATE:LOCATION-edgesREFERENCES:SIMDATES:SIMLOC:SIMPAGE-date_th0.3-doc_th0.7-loc_th0.35
# 8   rel2-2   principlesofpoli03mill_141   12   0.3361777   nodesDOCUMENT:DATE:LOCATION-edgesREFERENCES:SIMDATES:SIMLOC:SIMPAGE-date_th0.3-doc_th0.7-loc_th0.35
# 8   rel2-2   progressofrussia00urqurich_119   13   0.3361777   nodesDOCUMENT:DATE:LOCATION-edgesREFERENCES:SIMDATES:SIMLOC:SIMPAGE-date_th0.3-doc_th0.7-loc_th0.35
# 8   rel2-2   cu31924013685866_157   14   0.33468983   nodesDOCUMENT:DATE:LOCATION-edgesREFERENCES:SIMDATES:SIMLOC:SIMPAGE-date_th0.3-doc_th0.7-loc_th0.35
# 8   rel2-2   historyofuniteds00form_36   15   0.33238575   nodesDOCUMENT:DATE:LOCATION-edgesREFERENCES:SIMDATES:SIMLOC:SIMPAGE-date_th0.3-doc_th0.7-loc_th0.35
# 8   rel2-2   calendarmanuscr09ofgoog_243   16   0.33217588   nodesDOCUMENT:DATE:LOCATION-edgesREFERENCES:SIMDATES:SIMLOC:SIMPAGE-date_th0.3-doc_th0.7-loc_th0.35
# 8   rel2-2   englandsfightwit00wals_203   17   0.33207282   nodesDOCUMENT:DATE:LOCATION-edgesREFERENCES:SIMDATES:SIMLOC:SIMPAGE-date_th0.3-doc_th0.7-loc_th0.35
# 8   rel2-2   treasonandplots01humegoog_18   18   0.3311083   nodesDOCUMENT:DATE:LOCATION-edgesREFERENCES:SIMDATES:SIMLOC:SIMPAGE-date_th0.3-doc_th0.7-loc_th0.35
# 8   rel2-2   lawofnationscons12twis_851   19   0.3311083   nodesDOCUMENT:DATE:LOCATION-edgesREFERENCES:SIMDATES:SIMLOC:SIMPAGE-date_th0.3-doc_th0.7-loc_th0.35
# 8   rel2-2   principlespolit24millgoog_142   20   0.3307302   nodesDOCUMENT:DATE:LOCATION-edgesREFERENCES:SIMDATES:SIMLOC:SIMPAGE-date_th0.3-doc_th0.7-loc_th0.35
# 8   rel2-2   bibleinspainorjo01borruoft_291   21   0.33004564   nodesDOCUMENT:DATE:LOCATION-edgesREFERENCES:SIMDATES:SIMLOC:SIMPAGE-date_th0.3-doc_th0.7-loc_th0.35
# 8   rel2-2   politicaleconomy04walk_96   22   0.33004564   nodesDOCUMENT:DATE:LOCATION-edgesREFERENCES:SIMDATES:SIMLOC:SIMPAGE-date_th0.3-doc_th0.7-loc_th0.35
# 8   rel2-2   theoryofbalanceo02suviuoft_108   23   0.33004564   nodesDOCUMENT:DATE:LOCATION-edgesREFERENCES:SIMDATES:SIMLOC:SIMPAGE-date_th0.3-doc_th0.7-loc_th0.35
# 8   rel2-2   studiesinstruct03carpgoog_218   24   0.33004564   nodesDOCUMENT:DATE:LOCATION-edgesREFERENCES:SIMDATES:SIMLOC:SIMPAGE-date_th0.3-doc_th0.7-loc_th0.35
# 8   rel2-2   elementseconomi01maclgoog_137   25   0.33004564   nodesDOCUMENT:DATE:LOCATION-edgesREFERENCES:SIMDATES:SIMLOC:SIMPAGE-date_th0.3-doc_th0.7-loc_th0.35
# 8   rel2-2   historyofmodernc00duco_157   26   0.33004564   nodesDOCUMENT:DATE:LOCATION-edgesREFERENCES:SIMDATES:SIMLOC:SIMPAGE-date_th0.3-doc_th0.7-loc_th0.35
# 8   rel2-2   bibleinspainorjo01borruoft_312   27   0.3299869   nodesDOCUMENT:DATE:LOCATION-edgesREFERENCES:SIMDATES:SIMLOC:SIMPAGE-date_th0.3-doc_th0.7-loc_th0.35
# 8   rel2-2   bibleinspainorjo01borruoft_377   28   0.3299869   nodesDOCUMENT:DATE:LOCATION-edgesREFERENCES:SIMDATES:SIMLOC:SIMPAGE-date_th0.3-doc_th0.7-loc_th0.35
# 8   rel2-2   cu31924092705114_424   29   0.32909417   nodesDOCUMENT:DATE:LOCATION-edgesREFERENCES:SIMDATES:SIMLOC:SIMPAGE-date_th0.3-doc_th0.7-loc_th0.35
# 8   rel2-2   memoirsofjohnquis04adam_88   30   0.32672134   nodesDOCUMENT:DATE:LOCATION-edgesREFERENCES:SIMDATES:SIMLOC:SIMPAGE-date_th0.3-doc_th0.7-loc_th0.35
# 8   rel2-2   selectionofcases01willuoft_364   31   0.32546344   nodesDOCUMENT:DATE:LOCATION-edgesREFERENCES:SIMDATES:SIMLOC:SIMPAGE-date_th0.3-doc_th0.7-loc_th0.35
# 8   rel2-2   churchofengland03spenuoft_426   32   0.32526976   nodesDOCUMENT:DATE:LOCATION-edgesREFERENCES:SIMDATES:SIMLOC:SIMPAGE-date_th0.3-doc_th0.7-loc_th0.35
# 8   rel2-2   cu31924024798245_33   33   0.32422626   nodesDOCUMENT:DATE:LOCATION-edgesREFERENCES:SIMDATES:SIMLOC:SIMPAGE-date_th0.3-doc_th0.7-loc_th0.35
# 8   rel2-2   lifeofnapoleonii01roseuoft_564   34   0.32422626   nodesDOCUMENT:DATE:LOCATION-edgesREFERENCES:SIMDATES:SIMLOC:SIMPAGE-date_th0.3-doc_th0.7-loc_th0.35
# 8   rel2-2   historyenglandf16gardgoog_258   35   0.32341406   nodesDOCUMENT:DATE:LOCATION-edgesREFERENCES:SIMDATES:SIMLOC:SIMPAGE-date_th0.3-doc_th0.7-loc_th0.35
# 8   rel2-2   merchantadventu01linggoog_147   36   0.32330698   nodesDOCUMENT:DATE:LOCATION-edgesREFERENCES:SIMDATES:SIMLOC:SIMPAGE-date_th0.3-doc_th0.7-loc_th0.35
# 8   rel2-2   hectorgermanieo00smitgoog_28   37   0.32330698   nodesDOCUMENT:DATE:LOCATION-edgesREFERENCES:SIMDATES:SIMLOC:SIMPAGE-date_th0.3-doc_th0.7-loc_th0.35
# 8   rel2-2   cu31924067113880_168   38   0.32207662   nodesDOCUMENT:DATE:LOCATION-edgesREFERENCES:SIMDATES:SIMLOC:SIMPAGE-date_th0.3-doc_th0.7-loc_th0.35
# 8   rel2-2   naturalprobabili00londiala_271   39   0.32175538   nodesDOCUMENT:DATE:LOCATION-edgesREFERENCES:SIMDATES:SIMLOC:SIMPAGE-date_th0.3-doc_th0.7-loc_th0.35
# 8   rel2-2   attempttowardsch00greyuoft_30   40   0.32175538   nodesDOCUMENT:DATE:LOCATION-edgesREFERENCES:SIMDATES:SIMLOC:SIMPAGE-date_th0.3-doc_th0.7-loc_th0.35
