###################################
# parameters: 
#   decay: 0.5
#   lambda: 0.0
#   norm_threshold: 0.2
#   relationships: REFERENCES:SIMDATES

###################################
# configuration: 
#   sa.act_diff_ratio_limit = 0.05
#   sa.function = ciir.multi.sa.DecayedSumSALogNormFunction(norm_function, 0.5, 0.0, DOCUMENT)
#   sa.id_property_name.DATE = dateID
#   sa.id_property_name.DOCUMENT = docID
#   sa.id_property_name.LOCATION = locID
#   sa.max_pulses = 15
#   sa.norm_function = ciir.multi.sa.SigmoidFunction(0.2, 1.0)
#   sa.relationships_to_use = REFERENCES:SIMDATES
#   sa.weight_property.REFERENCES = relevance
#   sa.weight_property.SIMDATES = sim
#   sa.weight_property.SIMLOC = sim

###################################
# initial activations: 
#   generalhistoryfo00myerrich_787: 1.0
#   selwynhouseschoo1940selw_21: 1.0
#   lifeofstratfordc02laneuoft_185: 1.0
#   historyofuniteds07good_239: 1.0
#   shorthistoryofmo00haslrich_98: 1.0
#   cambridgemodern09protgoog_449: 1.0

###################################
# spreading activation process log: 
#   pulse 0: activated nodes: 6, borderline nodes: 6, overall activation: 0.000, activation diff: 0.000, ratio: Infinity
#   pulse 1: activated nodes: 69, borderline nodes: 63, overall activation: 29.165, activation diff: 35.165, ratio: 1.206
#   pulse 2: activated nodes: 5321, borderline nodes: 5252, overall activation: 1443.154, activation diff: 1471.417, ratio: 1.020
#   pulse 3: activated nodes: 8679, borderline nodes: 3420, overall activation: 95.885, activation diff: 1535.556, ratio: 16.015
#   pulse 4: activated nodes: 8935, borderline nodes: 3614, overall activation: 2108.684, activation diff: 2179.665, ratio: 1.034
#   pulse 5: activated nodes: 8935, borderline nodes: 3614, overall activation: 189.254, activation diff: 2087.097, ratio: 11.028
#   pulse 6: activated nodes: 8935, borderline nodes: 3614, overall activation: 2173.041, activation diff: 2023.193, ratio: 0.931
#   pulse 7: activated nodes: 8935, borderline nodes: 3614, overall activation: 2145.694, activation diff: 66.781, ratio: 0.031

###################################
# spreading activation process summary: 
#   final number of activated nodes: 8935
#   final overall activation: 2145.7
#   number of spread. activ. pulses: 7
#   running time: 558

###################################
# top k results in TREC format: 

1   Q1   historyofuniteds07good_239   1   0.9999994   REFERENCES:SIMDATES
1   Q1   cambridgemodern09protgoog_449   2   0.9999786   REFERENCES:SIMDATES
1   Q1   selwynhouseschoo1940selw_21   3   0.9997872   REFERENCES:SIMDATES
1   Q1   shorthistoryofmo00haslrich_98   4   0.9988265   REFERENCES:SIMDATES
1   Q1   generalhistoryfo00myerrich_787   5   0.99726945   REFERENCES:SIMDATES
1   Q1   lifeofstratfordc02laneuoft_185   6   0.9784594   REFERENCES:SIMDATES
1   Q1   englishcyclopae05kniggoog_147   7   0.49999973   REFERENCES:SIMDATES
1   Q1   englishcyclopae05kniggoog_118   8   0.49999914   REFERENCES:SIMDATES
1   Q1   encyclopediaame28unkngoog_325   9   0.499986   REFERENCES:SIMDATES
1   Q1   encyclopediaame28unkngoog_345   10   0.49997556   REFERENCES:SIMDATES
1   Q1   europesincenapol00leveuoft_16   11   0.49996027   REFERENCES:SIMDATES
1   Q1   englishcyclopae05kniggoog_88   12   0.49995026   REFERENCES:SIMDATES
1   Q1   shorthistoryofmo00haslrich_23   13   0.49995008   REFERENCES:SIMDATES
1   Q1   encyclopediaame28unkngoog_327   14   0.4999439   REFERENCES:SIMDATES
1   Q1   englishcyclopae05kniggoog_440   15   0.49994293   REFERENCES:SIMDATES
1   Q1   englishcyclopae05kniggoog_190   16   0.49993   REFERENCES:SIMDATES
1   Q1   encyclopediaame28unkngoog_218   17   0.49991715   REFERENCES:SIMDATES
1   Q1   encyclopediaame28unkngoog_177   18   0.49990782   REFERENCES:SIMDATES
1   Q1   encyclopediaame28unkngoog_222   19   0.49988607   REFERENCES:SIMDATES
1   Q1   englishcyclopae05kniggoog_146   20   0.49988303   REFERENCES:SIMDATES
