###################################
# parameters: 
#   decay: 0.5
#   lambda: 0.5
#   norm_threshold: 0.3
#   relationships: REFERENCES:SIMDATES

###################################
# configuration: 
#   sa.act_diff_ratio_limit = 0.05
#   sa.function = ciir.multi.sa.DecayedSumSALogNormFunction(norm_function, 0.5, 0.5, DOCUMENT)
#   sa.id_property_name.DATE = dateID
#   sa.id_property_name.DOCUMENT = docID
#   sa.id_property_name.LOCATION = locID
#   sa.max_pulses = 15
#   sa.norm_function = ciir.multi.sa.SigmoidFunction(0.3, 1.0)
#   sa.relationships_to_use = REFERENCES:SIMDATES
#   sa.weight_property.REFERENCES = relevance
#   sa.weight_property.SIMDATES = sim
#   sa.weight_property.SIMLOC = sim

###################################
# initial activations: 
#   generalhistoryfo00myerrich_787: 1.0
#   selwynhouseschoo1940selw_21: 1.0
#   lifeofstratfordc02laneuoft_185: 1.0
#   historyofuniteds07good_239: 1.0
#   shorthistoryofmo00haslrich_98: 1.0
#   cambridgemodern09protgoog_449: 1.0

###################################
# spreading activation process log: 
#   pulse 0: activated nodes: 6, borderline nodes: 6, overall activation: 0.000, activation diff: 0.000, ratio: Infinity
#   pulse 1: activated nodes: 69, borderline nodes: 63, overall activation: 16.366, activation diff: 16.366, ratio: 1.000
#   pulse 2: activated nodes: 5321, borderline nodes: 5252, overall activation: 340.199, activation diff: 327.053, ratio: 0.961
#   pulse 3: activated nodes: 8214, borderline nodes: 3919, overall activation: 559.331, activation diff: 222.098, ratio: 0.397
#   pulse 4: activated nodes: 8485, borderline nodes: 4121, overall activation: 1117.246, activation diff: 557.915, ratio: 0.499
#   pulse 5: activated nodes: 8931, borderline nodes: 3611, overall activation: 1535.879, activation diff: 418.633, ratio: 0.273
#   pulse 6: activated nodes: 8935, borderline nodes: 3614, overall activation: 1798.638, activation diff: 262.759, ratio: 0.146
#   pulse 7: activated nodes: 8935, borderline nodes: 3614, overall activation: 1953.323, activation diff: 154.685, ratio: 0.079
#   pulse 8: activated nodes: 8935, borderline nodes: 3614, overall activation: 2041.572, activation diff: 88.249, ratio: 0.043

###################################
# spreading activation process summary: 
#   final number of activated nodes: 8935
#   final overall activation: 2041.6
#   number of spread. activ. pulses: 8
#   running time: 474

###################################
# top k results in TREC format: 

1   Q1   historyofuniteds07good_239   1   0.9954683   REFERENCES:SIMDATES
1   Q1   selwynhouseschoo1940selw_21   2   0.99402976   REFERENCES:SIMDATES
1   Q1   shorthistoryofmo00haslrich_98   3   0.99283624   REFERENCES:SIMDATES
1   Q1   cambridgemodern09protgoog_449   4   0.992449   REFERENCES:SIMDATES
1   Q1   generalhistoryfo00myerrich_787   5   0.991829   REFERENCES:SIMDATES
1   Q1   lifeofstratfordc02laneuoft_185   6   0.98522013   REFERENCES:SIMDATES
1   Q1   encyclopediaame28unkngoog_325   7   0.49480814   REFERENCES:SIMDATES
1   Q1   shorthistoryofmo00haslrich_23   8   0.49475923   REFERENCES:SIMDATES
1   Q1   politicalsketche00retsrich_154   9   0.49472606   REFERENCES:SIMDATES
1   Q1   englishcyclopae05kniggoog_147   10   0.49467525   REFERENCES:SIMDATES
1   Q1   encyclopediaame28unkngoog_327   11   0.49452418   REFERENCES:SIMDATES
1   Q1   politicalsketche00retsrich_153   12   0.4943522   REFERENCES:SIMDATES
1   Q1   essentialsinmod01howegoog_293   13   0.49424487   REFERENCES:SIMDATES
1   Q1   europesincenapol00leveuoft_16   14   0.49423802   REFERENCES:SIMDATES
1   Q1   politicalsketche00retsrich_159   15   0.49415982   REFERENCES:SIMDATES
1   Q1   generalhistoryfo00myerrich_711   16   0.4941165   REFERENCES:SIMDATES
1   Q1   ouroldworldbackg00bearrich_446   17   0.49410033   REFERENCES:SIMDATES
1   Q1   shorthistoryofmo00haslrich_234   18   0.4940608   REFERENCES:SIMDATES
1   Q1   politicalsketche00retsrich_148   19   0.49402243   REFERENCES:SIMDATES
1   Q1   englishcyclopae05kniggoog_88   20   0.4940209   REFERENCES:SIMDATES
