###################################
# parameters: 
#   date_th: 0.3
#   doc_th: 0.6
#   loc_th: 0.4
#   nodestouse: DOCUMENT:DATE:LOCATION
#   relationships: REFERENCES:SIMLOC:SIMPAGE

###################################
# configuration: 
#   sa.act_diff_ratio_limit = 0.01
#   sa.act_diff_ratio_limit_diff = 0.01
#   sa.function = ciir.multi.sa.function.MaxSAFunction(norm_function)
#   sa.id_property_name.DATE = dateID
#   sa.id_property_name.DOCUMENT = docID
#   sa.id_property_name.LOCATION = locID
#   sa.max_pulses = 10
#   sa.nodes_to_print = DATE:LOCATION
#   sa.nodes_to_use = DOCUMENT:DATE:LOCATION
#   sa.norm_function = ciir.multi.sa.SigmoidFunction(0.0, 1.0)
#   sa.relationships_to_use = REFERENCES:SIMLOC:SIMPAGE
#   sa.spread_threshold.DATE = 0.3
#   sa.spread_threshold.DOCUMENT = 0.6
#   sa.spread_threshold.LOCATION = 0.4
#   sa.weight_property.REFERENCES = relevance
#   sa.weight_property.SIMDATES = sim
#   sa.weight_property.SIMDOC = sim
#   sa.weight_property.SIMLOC = sim
#   sa.weight_property.SIMPAGE = pagesim

###################################
# initial activations (3): 
#   englandsfightwit00wals_354, 1
#   cu31924029563875_157, 1
#   hallamsworks04halliala_600, 1

###################################
# spreading activation process log: 
#   pulse 0: activated: 3, non-zero: 3, borderline: 3, overall act: 3.000, act diff: 3.000, ratio: 1.000
#   pulse 1: activated: 27, non-zero: 27, borderline: 24, overall act: 10.124, act diff: 7.124, ratio: 0.704
#   pulse 2: activated: 264023, non-zero: 264023, borderline: 264017, overall act: 46267.209, act diff: 46257.085, ratio: 1.000
#   pulse 3: activated: 264048, non-zero: 264048, borderline: 264013, overall act: 46282.925, act diff: 15.716, ratio: 0.000

###################################
# spreading activation process summary: 
#   final number of activated nodes: 264048
#   final overall activation: 46282.9
#   number of spread. activ. pulses: 3
#   running time: 73255

###################################
# top k results in TREC format: 

2   rel3-2   ireland   1   1.0   nodesDOCUMENT:DATE:LOCATION-edgesREFERENCES:SIMLOC:SIMPAGE-date_th0.3-doc_th0.6-loc_th0.4
2   rel3-2   1641   2   0.99999994   nodesDOCUMENT:DATE:LOCATION-edgesREFERENCES:SIMLOC:SIMPAGE-date_th0.3-doc_th0.6-loc_th0.4
2   rel3-2   dublin   3   0.56207424   nodesDOCUMENT:DATE:LOCATION-edgesREFERENCES:SIMLOC:SIMPAGE-date_th0.3-doc_th0.6-loc_th0.4
2   rel3-2   clifton house   4   0.36210883   nodesDOCUMENT:DATE:LOCATION-edgesREFERENCES:SIMLOC:SIMPAGE-date_th0.3-doc_th0.6-loc_th0.4
2   rel3-2   london   5   0.36032423   nodesDOCUMENT:DATE:LOCATION-edgesREFERENCES:SIMLOC:SIMPAGE-date_th0.3-doc_th0.6-loc_th0.4
2   rel3-2   cangort   6   0.3536148   nodesDOCUMENT:DATE:LOCATION-edgesREFERENCES:SIMLOC:SIMPAGE-date_th0.3-doc_th0.6-loc_th0.4
2   rel3-2   cangort park   7   0.34887496   nodesDOCUMENT:DATE:LOCATION-edgesREFERENCES:SIMLOC:SIMPAGE-date_th0.3-doc_th0.6-loc_th0.4
2   rel3-2   sopwell hall   8   0.3471836   nodesDOCUMENT:DATE:LOCATION-edgesREFERENCES:SIMLOC:SIMPAGE-date_th0.3-doc_th0.6-loc_th0.4
2   rel3-2   kilcomin   9   0.3428352   nodesDOCUMENT:DATE:LOCATION-edgesREFERENCES:SIMLOC:SIMPAGE-date_th0.3-doc_th0.6-loc_th0.4
2   rel3-2   ballincor   10   0.33969706   nodesDOCUMENT:DATE:LOCATION-edgesREFERENCES:SIMLOC:SIMPAGE-date_th0.3-doc_th0.6-loc_th0.4
2   rel3-2   england   11   0.33928892   nodesDOCUMENT:DATE:LOCATION-edgesREFERENCES:SIMLOC:SIMPAGE-date_th0.3-doc_th0.6-loc_th0.4
2   rel3-2   corolanty   12   0.33707952   nodesDOCUMENT:DATE:LOCATION-edgesREFERENCES:SIMLOC:SIMPAGE-date_th0.3-doc_th0.6-loc_th0.4
2   rel3-2   loughkeen   13   0.335745   nodesDOCUMENT:DATE:LOCATION-edgesREFERENCES:SIMLOC:SIMPAGE-date_th0.3-doc_th0.6-loc_th0.4
2   rel3-2   ivy hall   14   0.33454508   nodesDOCUMENT:DATE:LOCATION-edgesREFERENCES:SIMLOC:SIMPAGE-date_th0.3-doc_th0.6-loc_th0.4
2   rel3-2   shinrone   15   0.33410218   nodesDOCUMENT:DATE:LOCATION-edgesREFERENCES:SIMLOC:SIMPAGE-date_th0.3-doc_th0.6-loc_th0.4
2   rel3-2   modreeny   16   0.32835904   nodesDOCUMENT:DATE:LOCATION-edgesREFERENCES:SIMLOC:SIMPAGE-date_th0.3-doc_th0.6-loc_th0.4
2   rel3-2   cloughjordan   17   0.32418177   nodesDOCUMENT:DATE:LOCATION-edgesREFERENCES:SIMLOC:SIMPAGE-date_th0.3-doc_th0.6-loc_th0.4
2   rel3-2   fort nisbett   18   0.32216698   nodesDOCUMENT:DATE:LOCATION-edgesREFERENCES:SIMLOC:SIMPAGE-date_th0.3-doc_th0.6-loc_th0.4
2   rel3-2   borrisokane   19   0.31495354   nodesDOCUMENT:DATE:LOCATION-edgesREFERENCES:SIMLOC:SIMPAGE-date_th0.3-doc_th0.6-loc_th0.4
2   rel3-2   1845   20   0.30540052   nodesDOCUMENT:DATE:LOCATION-edgesREFERENCES:SIMLOC:SIMPAGE-date_th0.3-doc_th0.6-loc_th0.4

###################################
# top nodes: 

# 2   rel3-2   hallamsworks04halliala_600   1   1.0   nodesDOCUMENT:DATE:LOCATION-edgesREFERENCES:SIMLOC:SIMPAGE-date_th0.3-doc_th0.6-loc_th0.4
# 2   rel3-2   cu31924029563875_157   2   1.0   nodesDOCUMENT:DATE:LOCATION-edgesREFERENCES:SIMLOC:SIMPAGE-date_th0.3-doc_th0.6-loc_th0.4
# 2   rel3-2   englandsfightwit00wals_354   3   1.0   nodesDOCUMENT:DATE:LOCATION-edgesREFERENCES:SIMLOC:SIMPAGE-date_th0.3-doc_th0.6-loc_th0.4
# 2   rel3-2   ireland   4   1.0   nodesDOCUMENT:DATE:LOCATION-edgesREFERENCES:SIMLOC:SIMPAGE-date_th0.3-doc_th0.6-loc_th0.4
# 2   rel3-2   1641   5   0.99999994   nodesDOCUMENT:DATE:LOCATION-edgesREFERENCES:SIMLOC:SIMPAGE-date_th0.3-doc_th0.6-loc_th0.4
# 2   rel3-2   constitutionalhi03hall_415   6   0.7388591   nodesDOCUMENT:DATE:LOCATION-edgesREFERENCES:SIMLOC:SIMPAGE-date_th0.3-doc_th0.6-loc_th0.4
# 2   rel3-2   englandsfightwit00wals_355   7   0.6719688   nodesDOCUMENT:DATE:LOCATION-edgesREFERENCES:SIMLOC:SIMPAGE-date_th0.3-doc_th0.6-loc_th0.4
# 2   rel3-2   hallamsworks04halliala_601   8   0.6548349   nodesDOCUMENT:DATE:LOCATION-edgesREFERENCES:SIMLOC:SIMPAGE-date_th0.3-doc_th0.6-loc_th0.4
# 2   rel3-2   hallamsworks04halliala_599   9   0.61609036   nodesDOCUMENT:DATE:LOCATION-edgesREFERENCES:SIMLOC:SIMPAGE-date_th0.3-doc_th0.6-loc_th0.4
# 2   rel3-2   causeofirelandpl00orei_291   10   0.6040615   nodesDOCUMENT:DATE:LOCATION-edgesREFERENCES:SIMLOC:SIMPAGE-date_th0.3-doc_th0.6-loc_th0.4
# 2   rel3-2   treatiseofexcheq02howa_411   11   0.6040615   nodesDOCUMENT:DATE:LOCATION-edgesREFERENCES:SIMLOC:SIMPAGE-date_th0.3-doc_th0.6-loc_th0.4
# 2   rel3-2   treatiseofexcheq02howa_130   12   0.6040615   nodesDOCUMENT:DATE:LOCATION-edgesREFERENCES:SIMLOC:SIMPAGE-date_th0.3-doc_th0.6-loc_th0.4
# 2   rel3-2   fastiecclesiaeh02cottgoog_20   13   0.6040615   nodesDOCUMENT:DATE:LOCATION-edgesREFERENCES:SIMLOC:SIMPAGE-date_th0.3-doc_th0.6-loc_th0.4
# 2   rel3-2   compendiumofhist02lawl_76   14   0.6040615   nodesDOCUMENT:DATE:LOCATION-edgesREFERENCES:SIMLOC:SIMPAGE-date_th0.3-doc_th0.6-loc_th0.4
# 2   rel3-2   englishinireland03frou_309   15   0.6040615   nodesDOCUMENT:DATE:LOCATION-edgesREFERENCES:SIMLOC:SIMPAGE-date_th0.3-doc_th0.6-loc_th0.4
# 2   rel3-2   englishinireland03frou_118   16   0.6040615   nodesDOCUMENT:DATE:LOCATION-edgesREFERENCES:SIMLOC:SIMPAGE-date_th0.3-doc_th0.6-loc_th0.4
# 2   rel3-2   causeofirelandpl00orei_345   17   0.6040615   nodesDOCUMENT:DATE:LOCATION-edgesREFERENCES:SIMLOC:SIMPAGE-date_th0.3-doc_th0.6-loc_th0.4
# 2   rel3-2   calendarstatepa12offigoog_335   18   0.6040615   nodesDOCUMENT:DATE:LOCATION-edgesREFERENCES:SIMLOC:SIMPAGE-date_th0.3-doc_th0.6-loc_th0.4
# 2   rel3-2   treatiseofexcheq02howa_413   19   0.6040615   nodesDOCUMENT:DATE:LOCATION-edgesREFERENCES:SIMLOC:SIMPAGE-date_th0.3-doc_th0.6-loc_th0.4
# 2   rel3-2   revolutionaryir00mahagoog_100   20   0.6040615   nodesDOCUMENT:DATE:LOCATION-edgesREFERENCES:SIMLOC:SIMPAGE-date_th0.3-doc_th0.6-loc_th0.4
# 2   rel3-2   historymoderneu11russgoog_386   21   0.6040615   nodesDOCUMENT:DATE:LOCATION-edgesREFERENCES:SIMLOC:SIMPAGE-date_th0.3-doc_th0.6-loc_th0.4
# 2   rel3-2   economichistoryo00obri_321   22   0.6040615   nodesDOCUMENT:DATE:LOCATION-edgesREFERENCES:SIMLOC:SIMPAGE-date_th0.3-doc_th0.6-loc_th0.4
# 2   rel3-2   historyofdiocese02healiala_23   23   0.6040615   nodesDOCUMENT:DATE:LOCATION-edgesREFERENCES:SIMLOC:SIMPAGE-date_th0.3-doc_th0.6-loc_th0.4
# 2   rel3-2   statechurcheskin00allerich_587   24   0.6040615   nodesDOCUMENT:DATE:LOCATION-edgesREFERENCES:SIMLOC:SIMPAGE-date_th0.3-doc_th0.6-loc_th0.4
# 2   rel3-2   irishtangleandwa1920john_53   25   0.6040615   nodesDOCUMENT:DATE:LOCATION-edgesREFERENCES:SIMLOC:SIMPAGE-date_th0.3-doc_th0.6-loc_th0.4
# 2   rel3-2   constitutionalhi03hall_414   26   0.6040615   nodesDOCUMENT:DATE:LOCATION-edgesREFERENCES:SIMLOC:SIMPAGE-date_th0.3-doc_th0.6-loc_th0.4
# 2   rel3-2   memoirsandcorre02castgoog_42   27   0.6040615   nodesDOCUMENT:DATE:LOCATION-edgesREFERENCES:SIMLOC:SIMPAGE-date_th0.3-doc_th0.6-loc_th0.4
# 2   rel3-2   historyofireland3_00will_307   28   0.6040615   nodesDOCUMENT:DATE:LOCATION-edgesREFERENCES:SIMLOC:SIMPAGE-date_th0.3-doc_th0.6-loc_th0.4
# 2   rel3-2   proceedingsofro22roya_307   29   0.6040615   nodesDOCUMENT:DATE:LOCATION-edgesREFERENCES:SIMLOC:SIMPAGE-date_th0.3-doc_th0.6-loc_th0.4
# 2   rel3-2   cu31924091770861_319   30   0.6040615   nodesDOCUMENT:DATE:LOCATION-edgesREFERENCES:SIMLOC:SIMPAGE-date_th0.3-doc_th0.6-loc_th0.4
# 2   rel3-2   cu31924091770861_286   31   0.6040615   nodesDOCUMENT:DATE:LOCATION-edgesREFERENCES:SIMLOC:SIMPAGE-date_th0.3-doc_th0.6-loc_th0.4
# 2   rel3-2   cu31924091786628_78   32   0.6040615   nodesDOCUMENT:DATE:LOCATION-edgesREFERENCES:SIMLOC:SIMPAGE-date_th0.3-doc_th0.6-loc_th0.4
# 2   rel3-2   castlesofireland00adamiala_301   33   0.6040615   nodesDOCUMENT:DATE:LOCATION-edgesREFERENCES:SIMLOC:SIMPAGE-date_th0.3-doc_th0.6-loc_th0.4
# 2   rel3-2   confederationofk00meeh_10   34   0.6040615   nodesDOCUMENT:DATE:LOCATION-edgesREFERENCES:SIMLOC:SIMPAGE-date_th0.3-doc_th0.6-loc_th0.4
# 2   rel3-2   treatiseofexcheq02howa_421   35   0.6040615   nodesDOCUMENT:DATE:LOCATION-edgesREFERENCES:SIMLOC:SIMPAGE-date_th0.3-doc_th0.6-loc_th0.4
# 2   rel3-2   englishinireland03frou_308   36   0.5975736   nodesDOCUMENT:DATE:LOCATION-edgesREFERENCES:SIMLOC:SIMPAGE-date_th0.3-doc_th0.6-loc_th0.4
# 2   rel3-2   fastiecclesiaeh02cottgoog_21   37   0.5975736   nodesDOCUMENT:DATE:LOCATION-edgesREFERENCES:SIMLOC:SIMPAGE-date_th0.3-doc_th0.6-loc_th0.4
# 2   rel3-2   fastiecclesiaeh02cottgoog_19   38   0.5975736   nodesDOCUMENT:DATE:LOCATION-edgesREFERENCES:SIMLOC:SIMPAGE-date_th0.3-doc_th0.6-loc_th0.4
# 2   rel3-2   calendarstatepa12offigoog_336   39   0.5975736   nodesDOCUMENT:DATE:LOCATION-edgesREFERENCES:SIMLOC:SIMPAGE-date_th0.3-doc_th0.6-loc_th0.4
# 2   rel3-2   treatiseofexcheq02howa_414   40   0.5975736   nodesDOCUMENT:DATE:LOCATION-edgesREFERENCES:SIMLOC:SIMPAGE-date_th0.3-doc_th0.6-loc_th0.4
