###################################
# parameters: 
#   date_th: 0.3
#   doc_th: 0.7
#   loc_th: 0.4
#   nodestouse: DOCUMENT:DATE:LOCATION
#   relationships: REFERENCES:SIMDATES

###################################
# configuration: 
#   sa.act_diff_ratio_limit = 0.01
#   sa.act_diff_ratio_limit_diff = 0.01
#   sa.function = ciir.multi.sa.function.MaxSAFunction(norm_function)
#   sa.id_property_name.DATE = dateID
#   sa.id_property_name.DOCUMENT = docID
#   sa.id_property_name.LOCATION = locID
#   sa.max_pulses = 10
#   sa.nodes_to_print = DATE:LOCATION
#   sa.nodes_to_use = DOCUMENT:DATE:LOCATION
#   sa.norm_function = ciir.multi.sa.SigmoidFunction(0.0, 1.0)
#   sa.relationships_to_use = REFERENCES:SIMDATES
#   sa.spread_threshold.DATE = 0.3
#   sa.spread_threshold.DOCUMENT = 0.7
#   sa.spread_threshold.LOCATION = 0.4
#   sa.weight_property.REFERENCES = relevance
#   sa.weight_property.SIMDATES = sim
#   sa.weight_property.SIMDOC = sim
#   sa.weight_property.SIMLOC = sim
#   sa.weight_property.SIMPAGE = pagesim

###################################
# initial activations (1): 
#   englandsfightwit00wals_354, 1

###################################
# spreading activation process log: 
#   pulse 0: activated: 1, non-zero: 1, borderline: 1, overall act: 1.000, act diff: 1.000, ratio: 1.000
#   pulse 1: activated: 3, non-zero: 3, borderline: 2, overall act: 1.707, act diff: 0.707, ratio: 0.414
#   pulse 2: activated: 221863, non-zero: 221863, borderline: 221861, overall act: 25527.835, act diff: 25526.128, ratio: 1.000
#   pulse 3: activated: 221863, non-zero: 221863, borderline: 221861, overall act: 25527.835, act diff: 0.000, ratio: 0.000

###################################
# spreading activation process summary: 
#   final number of activated nodes: 221863
#   final overall activation: 25527.8
#   number of spread. activ. pulses: 3
#   running time: 21668

###################################
# top k results in TREC format: 

2   rel1-1   1641   1   0.24491866   nodesDOCUMENT:DATE:LOCATION-edgesREFERENCES:SIMDATES-date_th0.3-doc_th0.7-loc_th0.4

###################################
# top nodes: 

# 2   rel1-1   englandsfightwit00wals_354   1   1.0   nodesDOCUMENT:DATE:LOCATION-edgesREFERENCES:SIMDATES-date_th0.3-doc_th0.7-loc_th0.4
# 2   rel1-1   ireland   2   0.46211717   nodesDOCUMENT:DATE:LOCATION-edgesREFERENCES:SIMDATES-date_th0.3-doc_th0.7-loc_th0.4
# 2   rel1-1   1641   3   0.24491866   nodesDOCUMENT:DATE:LOCATION-edgesREFERENCES:SIMDATES-date_th0.3-doc_th0.7-loc_th0.4
# 2   rel1-1   creelofirishstor00barliala_138   4   0.22703262   nodesDOCUMENT:DATE:LOCATION-edgesREFERENCES:SIMDATES-date_th0.3-doc_th0.7-loc_th0.4
# 2   rel1-1   doingmybitforire00skiniala_8   5   0.22703262   nodesDOCUMENT:DATE:LOCATION-edgesREFERENCES:SIMDATES-date_th0.3-doc_th0.7-loc_th0.4
# 2   rel1-1   speeches00philiala_82   6   0.22703262   nodesDOCUMENT:DATE:LOCATION-edgesREFERENCES:SIMDATES-date_th0.3-doc_th0.7-loc_th0.4
# 2   rel1-1   britishmammalsat00johnrich_278   7   0.22703262   nodesDOCUMENT:DATE:LOCATION-edgesREFERENCES:SIMDATES-date_th0.3-doc_th0.7-loc_th0.4
# 2   rel1-1   vikingsbalticat06dasegoog_209   8   0.22703262   nodesDOCUMENT:DATE:LOCATION-edgesREFERENCES:SIMDATES-date_th0.3-doc_th0.7-loc_th0.4
# 2   rel1-1   doingmybitforire00skiniala_4   9   0.22703262   nodesDOCUMENT:DATE:LOCATION-edgesREFERENCES:SIMDATES-date_th0.3-doc_th0.7-loc_th0.4
# 2   rel1-1   lifeandlettersg02towngoog_143   10   0.22703262   nodesDOCUMENT:DATE:LOCATION-edgesREFERENCES:SIMDATES-date_th0.3-doc_th0.7-loc_th0.4
# 2   rel1-1   lettersandjourna02bailuoft_176   11   0.22703262   nodesDOCUMENT:DATE:LOCATION-edgesREFERENCES:SIMDATES-date_th0.3-doc_th0.7-loc_th0.4
# 2   rel1-1   lifeandlettersg02towngoog_155   12   0.22703262   nodesDOCUMENT:DATE:LOCATION-edgesREFERENCES:SIMDATES-date_th0.3-doc_th0.7-loc_th0.4
# 2   rel1-1   speeches00philiala_23   13   0.22703262   nodesDOCUMENT:DATE:LOCATION-edgesREFERENCES:SIMDATES-date_th0.3-doc_th0.7-loc_th0.4
# 2   rel1-1   speeches00philiala_11   14   0.22703262   nodesDOCUMENT:DATE:LOCATION-edgesREFERENCES:SIMDATES-date_th0.3-doc_th0.7-loc_th0.4
# 2   rel1-1   speeches00philiala_17   15   0.22703262   nodesDOCUMENT:DATE:LOCATION-edgesREFERENCES:SIMDATES-date_th0.3-doc_th0.7-loc_th0.4
# 2   rel1-1   speeches00philiala_13   16   0.22703262   nodesDOCUMENT:DATE:LOCATION-edgesREFERENCES:SIMDATES-date_th0.3-doc_th0.7-loc_th0.4
# 2   rel1-1   speeches00philiala_44   17   0.22703262   nodesDOCUMENT:DATE:LOCATION-edgesREFERENCES:SIMDATES-date_th0.3-doc_th0.7-loc_th0.4
# 2   rel1-1   speeches00philiala_43   18   0.22703262   nodesDOCUMENT:DATE:LOCATION-edgesREFERENCES:SIMDATES-date_th0.3-doc_th0.7-loc_th0.4
# 2   rel1-1   naturalistscabin02smituoft_223   19   0.22703262   nodesDOCUMENT:DATE:LOCATION-edgesREFERENCES:SIMDATES-date_th0.3-doc_th0.7-loc_th0.4
# 2   rel1-1   lifeandlettersg02towngoog_194   20   0.22703262   nodesDOCUMENT:DATE:LOCATION-edgesREFERENCES:SIMDATES-date_th0.3-doc_th0.7-loc_th0.4
# 2   rel1-1   vikingsbalticat06dasegoog_211   21   0.22703262   nodesDOCUMENT:DATE:LOCATION-edgesREFERENCES:SIMDATES-date_th0.3-doc_th0.7-loc_th0.4
# 2   rel1-1   speeches00philiala_92   22   0.22703262   nodesDOCUMENT:DATE:LOCATION-edgesREFERENCES:SIMDATES-date_th0.3-doc_th0.7-loc_th0.4
# 2   rel1-1   doingmybitforire00skiniala_210   23   0.22703262   nodesDOCUMENT:DATE:LOCATION-edgesREFERENCES:SIMDATES-date_th0.3-doc_th0.7-loc_th0.4
# 2   rel1-1   doingmybitforire00skiniala_206   24   0.22703262   nodesDOCUMENT:DATE:LOCATION-edgesREFERENCES:SIMDATES-date_th0.3-doc_th0.7-loc_th0.4
# 2   rel1-1   doingmybitforire00skiniala_274   25   0.22703262   nodesDOCUMENT:DATE:LOCATION-edgesREFERENCES:SIMDATES-date_th0.3-doc_th0.7-loc_th0.4
# 2   rel1-1   doingmybitforire00skiniala_272   26   0.22703262   nodesDOCUMENT:DATE:LOCATION-edgesREFERENCES:SIMDATES-date_th0.3-doc_th0.7-loc_th0.4
# 2   rel1-1   doingmybitforire00skiniala_271   27   0.22703262   nodesDOCUMENT:DATE:LOCATION-edgesREFERENCES:SIMDATES-date_th0.3-doc_th0.7-loc_th0.4
# 2   rel1-1   doingmybitforire00skiniala_270   28   0.22703262   nodesDOCUMENT:DATE:LOCATION-edgesREFERENCES:SIMDATES-date_th0.3-doc_th0.7-loc_th0.4
# 2   rel1-1   lettersconcerni00clargoog_278   29   0.22703262   nodesDOCUMENT:DATE:LOCATION-edgesREFERENCES:SIMDATES-date_th0.3-doc_th0.7-loc_th0.4
# 2   rel1-1   doingmybitforire00skiniala_278   30   0.22703262   nodesDOCUMENT:DATE:LOCATION-edgesREFERENCES:SIMDATES-date_th0.3-doc_th0.7-loc_th0.4
# 2   rel1-1   doingmybitforire00skiniala_277   31   0.22703262   nodesDOCUMENT:DATE:LOCATION-edgesREFERENCES:SIMDATES-date_th0.3-doc_th0.7-loc_th0.4
# 2   rel1-1   doingmybitforire00skiniala_262   32   0.22703262   nodesDOCUMENT:DATE:LOCATION-edgesREFERENCES:SIMDATES-date_th0.3-doc_th0.7-loc_th0.4
# 2   rel1-1   sexagenarianorre01belo_202   33   0.22703262   nodesDOCUMENT:DATE:LOCATION-edgesREFERENCES:SIMDATES-date_th0.3-doc_th0.7-loc_th0.4
# 2   rel1-1   doingmybitforire00skiniala_268   34   0.22703262   nodesDOCUMENT:DATE:LOCATION-edgesREFERENCES:SIMDATES-date_th0.3-doc_th0.7-loc_th0.4
# 2   rel1-1   doingmybitforire00skiniala_267   35   0.22703262   nodesDOCUMENT:DATE:LOCATION-edgesREFERENCES:SIMDATES-date_th0.3-doc_th0.7-loc_th0.4
# 2   rel1-1   doingmybitforire00skiniala_264   36   0.22703262   nodesDOCUMENT:DATE:LOCATION-edgesREFERENCES:SIMDATES-date_th0.3-doc_th0.7-loc_th0.4
# 2   rel1-1   doingmybitforire00skiniala_252   37   0.22703262   nodesDOCUMENT:DATE:LOCATION-edgesREFERENCES:SIMDATES-date_th0.3-doc_th0.7-loc_th0.4
# 2   rel1-1   doingmybitforire00skiniala_256   38   0.22703262   nodesDOCUMENT:DATE:LOCATION-edgesREFERENCES:SIMDATES-date_th0.3-doc_th0.7-loc_th0.4
# 2   rel1-1   doingmybitforire00skiniala_254   39   0.22703262   nodesDOCUMENT:DATE:LOCATION-edgesREFERENCES:SIMDATES-date_th0.3-doc_th0.7-loc_th0.4
# 2   rel1-1   doingmybitforire00skiniala_253   40   0.22703262   nodesDOCUMENT:DATE:LOCATION-edgesREFERENCES:SIMDATES-date_th0.3-doc_th0.7-loc_th0.4
