###################################
# parameters: 
#   date_th: 0.25
#   doc_th: 0.6
#   loc_th: 0.4
#   nodestouse: DOCUMENT:DATE:LOCATION
#   relationships: REFERENCES:SIMDATES

###################################
# configuration: 
#   sa.act_diff_ratio_limit = 0.01
#   sa.act_diff_ratio_limit_diff = 0.01
#   sa.function = ciir.multi.sa.function.MaxSAFunction(norm_function)
#   sa.id_property_name.DATE = dateID
#   sa.id_property_name.DOCUMENT = docID
#   sa.id_property_name.LOCATION = locID
#   sa.max_pulses = 10
#   sa.nodes_to_print = DATE:LOCATION
#   sa.nodes_to_use = DOCUMENT:DATE:LOCATION
#   sa.norm_function = ciir.multi.sa.SigmoidFunction(0.0, 1.0)
#   sa.relationships_to_use = REFERENCES:SIMDATES
#   sa.spread_threshold.DATE = 0.25
#   sa.spread_threshold.DOCUMENT = 0.6
#   sa.spread_threshold.LOCATION = 0.4
#   sa.weight_property.REFERENCES = relevance
#   sa.weight_property.SIMDATES = sim
#   sa.weight_property.SIMDOC = sim
#   sa.weight_property.SIMLOC = sim
#   sa.weight_property.SIMPAGE = pagesim

###################################
# initial activations (3): 
#   englandsfightwit00wals_354, 1
#   viceroysofirelan00omahuoft_97, 1
#   hallamsworks04halliala_600, 1

###################################
# spreading activation process log: 
#   pulse 0: activated: 3, non-zero: 3, borderline: 3, overall act: 3.000, act diff: 3.000, ratio: 1.000
#   pulse 1: activated: 9, non-zero: 9, borderline: 6, overall act: 5.685, act diff: 2.685, ratio: 0.472
#   pulse 2: activated: 1015990, non-zero: 1015990, borderline: 1015983, overall act: 141068.748, act diff: 141063.063, ratio: 1.000
#   pulse 3: activated: 1023493, non-zero: 1023493, borderline: 1023466, overall act: 141870.391, act diff: 801.643, ratio: 0.006

###################################
# spreading activation process summary: 
#   final number of activated nodes: 1023493
#   final overall activation: 141870.4
#   number of spread. activ. pulses: 3
#   running time: 145174

###################################
# top k results in TREC format: 

2   rel3-3   1641   1   0.99999326   nodesDOCUMENT:DATE:LOCATION-edgesREFERENCES:SIMDATES-date_th0.25-doc_th0.6-loc_th0.4
2   rel3-3   1845   2   0.30540052   nodesDOCUMENT:DATE:LOCATION-edgesREFERENCES:SIMDATES-date_th0.25-doc_th0.6-loc_th0.4
2   rel3-3   1640   3   0.2505602   nodesDOCUMENT:DATE:LOCATION-edgesREFERENCES:SIMDATES-date_th0.25-doc_th0.6-loc_th0.4
2   rel3-3   1642   4   0.2505602   nodesDOCUMENT:DATE:LOCATION-edgesREFERENCES:SIMDATES-date_th0.25-doc_th0.6-loc_th0.4
2   rel3-3   1846   5   0.15152436   nodesDOCUMENT:DATE:LOCATION-edgesREFERENCES:SIMDATES-date_th0.25-doc_th0.6-loc_th0.4
2   rel3-3   1844   6   0.15152436   nodesDOCUMENT:DATE:LOCATION-edgesREFERENCES:SIMDATES-date_th0.25-doc_th0.6-loc_th0.4
2   rel3-3   1643   7   0.12462876   nodesDOCUMENT:DATE:LOCATION-edgesREFERENCES:SIMDATES-date_th0.25-doc_th0.6-loc_th0.4
2   rel3-3   1639   8   0.12462876   nodesDOCUMENT:DATE:LOCATION-edgesREFERENCES:SIMDATES-date_th0.25-doc_th0.6-loc_th0.4

###################################
# top nodes: 

# 2   rel3-3   viceroysofirelan00omahuoft_97   1   1.0   nodesDOCUMENT:DATE:LOCATION-edgesREFERENCES:SIMDATES-date_th0.25-doc_th0.6-loc_th0.4
# 2   rel3-3   hallamsworks04halliala_600   2   1.0   nodesDOCUMENT:DATE:LOCATION-edgesREFERENCES:SIMDATES-date_th0.25-doc_th0.6-loc_th0.4
# 2   rel3-3   englandsfightwit00wals_354   3   1.0   nodesDOCUMENT:DATE:LOCATION-edgesREFERENCES:SIMDATES-date_th0.25-doc_th0.6-loc_th0.4
# 2   rel3-3   1641   4   0.99999326   nodesDOCUMENT:DATE:LOCATION-edgesREFERENCES:SIMDATES-date_th0.25-doc_th0.6-loc_th0.4
# 2   rel3-3   ireland   5   0.99997354   nodesDOCUMENT:DATE:LOCATION-edgesREFERENCES:SIMDATES-date_th0.25-doc_th0.6-loc_th0.4
# 2   rel3-3   england   6   0.998054   nodesDOCUMENT:DATE:LOCATION-edgesREFERENCES:SIMDATES-date_th0.25-doc_th0.6-loc_th0.4
# 2   rel3-3   causeofirelandpl00orei_315   7   0.6241031   nodesDOCUMENT:DATE:LOCATION-edgesREFERENCES:SIMDATES-date_th0.25-doc_th0.6-loc_th0.4
# 2   rel3-3   calendarstatepa00levagoog_361   8   0.62015265   nodesDOCUMENT:DATE:LOCATION-edgesREFERENCES:SIMDATES-date_th0.25-doc_th0.6-loc_th0.4
# 2   rel3-3   constitutionalhi03hall_415   9   0.6172136   nodesDOCUMENT:DATE:LOCATION-edgesREFERENCES:SIMDATES-date_th0.25-doc_th0.6-loc_th0.4
# 2   rel3-3   historyirishper01maddgoog_67   10   0.61489016   nodesDOCUMENT:DATE:LOCATION-edgesREFERENCES:SIMDATES-date_th0.25-doc_th0.6-loc_th0.4
# 2   rel3-3   causeofirelandpl00orei_431   11   0.61383706   nodesDOCUMENT:DATE:LOCATION-edgesREFERENCES:SIMDATES-date_th0.25-doc_th0.6-loc_th0.4
# 2   rel3-3   selectspeecheswi00cannuoft_358   12   0.6137229   nodesDOCUMENT:DATE:LOCATION-edgesREFERENCES:SIMDATES-date_th0.25-doc_th0.6-loc_th0.4
# 2   rel3-3   completehistoryo0306kenn_434   13   0.61180645   nodesDOCUMENT:DATE:LOCATION-edgesREFERENCES:SIMDATES-date_th0.25-doc_th0.6-loc_th0.4
# 2   rel3-3   cu31924091770861_898   14   0.61069614   nodesDOCUMENT:DATE:LOCATION-edgesREFERENCES:SIMDATES-date_th0.25-doc_th0.6-loc_th0.4
# 2   rel3-3   causeofirelandpl00orei_249   15   0.60823846   nodesDOCUMENT:DATE:LOCATION-edgesREFERENCES:SIMDATES-date_th0.25-doc_th0.6-loc_th0.4
# 2   rel3-3   politicalstudies00broduoft_382   16   0.60815203   nodesDOCUMENT:DATE:LOCATION-edgesREFERENCES:SIMDATES-date_th0.25-doc_th0.6-loc_th0.4
# 2   rel3-3   historyirishper01maddgoog_229   17   0.6072254   nodesDOCUMENT:DATE:LOCATION-edgesREFERENCES:SIMDATES-date_th0.25-doc_th0.6-loc_th0.4
# 2   rel3-3   calendarstatepa12offigoog_21   18   0.6067627   nodesDOCUMENT:DATE:LOCATION-edgesREFERENCES:SIMDATES-date_th0.25-doc_th0.6-loc_th0.4
# 2   rel3-3   historyirelanda00smilgoog_120   19   0.60632265   nodesDOCUMENT:DATE:LOCATION-edgesREFERENCES:SIMDATES-date_th0.25-doc_th0.6-loc_th0.4
# 2   rel3-3   studentshistoryo03garduoft_42   20   0.60477144   nodesDOCUMENT:DATE:LOCATION-edgesREFERENCES:SIMDATES-date_th0.25-doc_th0.6-loc_th0.4
# 2   rel3-3   harleianmiscell00oldygoog_332   21   0.6039614   nodesDOCUMENT:DATE:LOCATION-edgesREFERENCES:SIMDATES-date_th0.25-doc_th0.6-loc_th0.4
# 2   rel3-3   dublinreview14londuoft_194   22   0.60325634   nodesDOCUMENT:DATE:LOCATION-edgesREFERENCES:SIMDATES-date_th0.25-doc_th0.6-loc_th0.4
# 2   rel3-3   irelandsaintpatr00morriala_201   23   0.60325634   nodesDOCUMENT:DATE:LOCATION-edgesREFERENCES:SIMDATES-date_th0.25-doc_th0.6-loc_th0.4
# 2   rel3-3   pt3historyofirel00wriguoft_306   24   0.60325634   nodesDOCUMENT:DATE:LOCATION-edgesREFERENCES:SIMDATES-date_th0.25-doc_th0.6-loc_th0.4
# 2   rel3-3   politicalstudies00broduoft_351   25   0.6016643   nodesDOCUMENT:DATE:LOCATION-edgesREFERENCES:SIMDATES-date_th0.25-doc_th0.6-loc_th0.4
# 2   rel3-3   fairfaxcorrespon01johniala_870   26   0.5956615   nodesDOCUMENT:DATE:LOCATION-edgesREFERENCES:SIMDATES-date_th0.25-doc_th0.6-loc_th0.4
# 2   rel3-3   historyirelanda00smilgoog_312   27   0.5956615   nodesDOCUMENT:DATE:LOCATION-edgesREFERENCES:SIMDATES-date_th0.25-doc_th0.6-loc_th0.4
# 2   rel3-3   hallamsworks04halliala_612   28   0.5956615   nodesDOCUMENT:DATE:LOCATION-edgesREFERENCES:SIMDATES-date_th0.25-doc_th0.6-loc_th0.4
# 2   rel3-3   worksrighthonor37burkgoog_439   29   0.5956615   nodesDOCUMENT:DATE:LOCATION-edgesREFERENCES:SIMDATES-date_th0.25-doc_th0.6-loc_th0.4
# 2   rel3-3   methodistmagazin1834meth_610   30   0.5956615   nodesDOCUMENT:DATE:LOCATION-edgesREFERENCES:SIMDATES-date_th0.25-doc_th0.6-loc_th0.4
# 2   rel3-3   publications13irisuoft_16   31   0.5900143   nodesDOCUMENT:DATE:LOCATION-edgesREFERENCES:SIMDATES-date_th0.25-doc_th0.6-loc_th0.4
# 2   rel3-3   thomasharrisonr00wessgoog_83   32   0.5846675   nodesDOCUMENT:DATE:LOCATION-edgesREFERENCES:SIMDATES-date_th0.25-doc_th0.6-loc_th0.4
# 2   rel3-3   calendarstatepa12offigoog_373   33   0.58458275   nodesDOCUMENT:DATE:LOCATION-edgesREFERENCES:SIMDATES-date_th0.25-doc_th0.6-loc_th0.4
# 2   rel3-3   fairfaxcorrespon01johniala_705   34   0.5843118   nodesDOCUMENT:DATE:LOCATION-edgesREFERENCES:SIMDATES-date_th0.25-doc_th0.6-loc_th0.4
# 2   rel3-3   politicalstudies00broduoft_380   35   0.5843118   nodesDOCUMENT:DATE:LOCATION-edgesREFERENCES:SIMDATES-date_th0.25-doc_th0.6-loc_th0.4
# 2   rel3-3   collinsspeerageof07coll_161   36   0.5843117   nodesDOCUMENT:DATE:LOCATION-edgesREFERENCES:SIMDATES-date_th0.25-doc_th0.6-loc_th0.4
# 2   rel3-3   historyforreadyr03larnuoft_235   37   0.58422774   nodesDOCUMENT:DATE:LOCATION-edgesREFERENCES:SIMDATES-date_th0.25-doc_th0.6-loc_th0.4
# 2   rel3-3   projectofcommonw00curt_470   38   0.57756805   nodesDOCUMENT:DATE:LOCATION-edgesREFERENCES:SIMDATES-date_th0.25-doc_th0.6-loc_th0.4
# 2   rel3-3   memoirsandcorre02castgoog_67   39   0.57617295   nodesDOCUMENT:DATE:LOCATION-edgesREFERENCES:SIMDATES-date_th0.25-doc_th0.6-loc_th0.4
# 2   rel3-3   confederationofk00meeh_10   40   0.57580715   nodesDOCUMENT:DATE:LOCATION-edgesREFERENCES:SIMDATES-date_th0.25-doc_th0.6-loc_th0.4
