nodestouse,relationships,doc_th,date_th,loc_th,iter,seeds,number of spread. activ. pulses,final number of activated nodes,final overall activation,running time,run-id,map,P5,P10,P20,R-prec,
DOCUMENT:DATE:LOCATION,REFERENCES:SIMLOC,0.6,0.3,0.4,rel1-1,1,2,5,1.9,21812,book_collection_true_dates/location/query6//useDOCUMENT:DATE:LOCATIONuseREFERENCES:SIMLOC/rel1-1-date_th0.3-doc_th0.6-loc_th0.4.res.clean,0.250,0.600,0.300,0.300,0.000,
DOCUMENT:DATE:LOCATION,REFERENCES:SIMLOC,0.7,0.25,0.4,rel1-2,1,2,11,2.8,25255,book_collection_true_dates/location/query6//useDOCUMENT:DATE:LOCATIONuseREFERENCES:SIMLOC/rel1-2-date_th0.25-doc_th0.7-loc_th0.4.res.clean,0.236,0.600,0.300,0.300,0.000,
DOCUMENT:DATE:LOCATION,REFERENCES:SIMLOC,0.5,0.25,0.35,rel1-1,1,2,5,1.9,36970,book_collection_true_dates/location/query6//useDOCUMENT:DATE:LOCATIONuseREFERENCES:SIMLOC/rel1-1-date_th0.25-doc_th0.5-loc_th0.35.res.clean,0.250,0.600,0.300,0.300,0.000,
DOCUMENT:DATE:LOCATION,REFERENCES:SIMLOC,0.7,0.25,0.35,rel2-1,2,3,829930,112267.3,139006,book_collection_true_dates/location/query6//useDOCUMENT:DATE:LOCATIONuseREFERENCES:SIMLOC/rel2-1-date_th0.25-doc_th0.7-loc_th0.35.res.clean,0.186,0.200,0.200,0.263,0.182,
DOCUMENT:DATE:LOCATION,REFERENCES:SIMLOC,0.7,0.3,0.35,rel1-1,1,2,5,1.9,22894,book_collection_true_dates/location/query6//useDOCUMENT:DATE:LOCATIONuseREFERENCES:SIMLOC/rel1-1-date_th0.3-doc_th0.7-loc_th0.35.res.clean,0.250,0.600,0.300,0.300,0.000,
DOCUMENT:DATE:LOCATION,REFERENCES:SIMLOC,0.6,0.25,0.35,rel1-1,1,2,5,1.9,22925,book_collection_true_dates/location/query6//useDOCUMENT:DATE:LOCATIONuseREFERENCES:SIMLOC/rel1-1-date_th0.25-doc_th0.6-loc_th0.35.res.clean,0.250,0.600,0.300,0.300,0.000,
DOCUMENT:DATE:LOCATION,REFERENCES:SIMLOC,0.5,0.25,0.4,rel1-1,1,2,5,1.9,22832,book_collection_true_dates/location/query6//useDOCUMENT:DATE:LOCATIONuseREFERENCES:SIMLOC/rel1-1-date_th0.25-doc_th0.5-loc_th0.4.res.clean,0.250,0.600,0.300,0.300,0.000,
DOCUMENT:DATE:LOCATION,REFERENCES:SIMLOC,0.5,0.3,0.4,rel1-1,1,2,5,1.9,22333,book_collection_true_dates/location/query6//useDOCUMENT:DATE:LOCATIONuseREFERENCES:SIMLOC/rel1-1-date_th0.3-doc_th0.5-loc_th0.4.res.clean,0.250,0.600,0.300,0.300,0.000,
DOCUMENT:DATE:LOCATION,REFERENCES:SIMLOC,0.7,0.3,0.4,rel2-1,2,3,829930,112267.3,128714,book_collection_true_dates/location/query6//useDOCUMENT:DATE:LOCATIONuseREFERENCES:SIMLOC/rel2-1-date_th0.3-doc_th0.7-loc_th0.4.res.clean,0.186,0.200,0.200,0.263,0.182,
DOCUMENT:DATE:LOCATION,REFERENCES:SIMLOC,0.5,0.3,0.4,rel2-1,2,3,829930,112267.3,135438,book_collection_true_dates/location/query6//useDOCUMENT:DATE:LOCATIONuseREFERENCES:SIMLOC/rel2-1-date_th0.3-doc_th0.5-loc_th0.4.res.clean,0.186,0.200,0.200,0.263,0.182,
DOCUMENT:DATE:LOCATION,REFERENCES:SIMLOC,0.6,0.25,0.4,rel1-2,1,2,11,2.8,25437,book_collection_true_dates/location/query6//useDOCUMENT:DATE:LOCATIONuseREFERENCES:SIMLOC/rel1-2-date_th0.25-doc_th0.6-loc_th0.4.res.clean,0.236,0.600,0.300,0.300,0.000,
DOCUMENT:DATE:LOCATION,REFERENCES:SIMLOC,0.7,0.25,0.35,rel1-2,1,2,11,2.8,25943,book_collection_true_dates/location/query6//useDOCUMENT:DATE:LOCATIONuseREFERENCES:SIMLOC/rel1-2-date_th0.25-doc_th0.7-loc_th0.35.res.clean,0.236,0.600,0.300,0.300,0.000,
DOCUMENT:DATE:LOCATION,REFERENCES:SIMLOC,0.5,0.3,0.4,rel1-2,1,2,11,2.8,25217,book_collection_true_dates/location/query6//useDOCUMENT:DATE:LOCATIONuseREFERENCES:SIMLOC/rel1-2-date_th0.3-doc_th0.5-loc_th0.4.res.clean,0.236,0.600,0.300,0.300,0.000,
DOCUMENT:DATE:LOCATION,REFERENCES:SIMLOC,0.5,0.3,0.35,rel2-1,2,3,829930,112267.3,131526,book_collection_true_dates/location/query6//useDOCUMENT:DATE:LOCATIONuseREFERENCES:SIMLOC/rel2-1-date_th0.3-doc_th0.5-loc_th0.35.res.clean,0.186,0.200,0.200,0.263,0.182,
DOCUMENT:DATE:LOCATION,REFERENCES:SIMLOC,0.7,0.3,0.4,rel1-2,1,2,11,2.8,25299,book_collection_true_dates/location/query6//useDOCUMENT:DATE:LOCATIONuseREFERENCES:SIMLOC/rel1-2-date_th0.3-doc_th0.7-loc_th0.4.res.clean,0.236,0.600,0.300,0.300,0.000,
DOCUMENT:DATE:LOCATION,REFERENCES:SIMLOC,0.6,0.3,0.35,rel1-2,1,2,11,2.8,25734,book_collection_true_dates/location/query6//useDOCUMENT:DATE:LOCATIONuseREFERENCES:SIMLOC/rel1-2-date_th0.3-doc_th0.6-loc_th0.35.res.clean,0.236,0.600,0.300,0.300,0.000,
DOCUMENT:DATE:LOCATION,REFERENCES:SIMLOC,0.6,0.3,0.35,rel1-1,1,2,5,1.9,22411,book_collection_true_dates/location/query6//useDOCUMENT:DATE:LOCATIONuseREFERENCES:SIMLOC/rel1-1-date_th0.3-doc_th0.6-loc_th0.35.res.clean,0.250,0.600,0.300,0.300,0.000,
DOCUMENT:DATE:LOCATION,REFERENCES:SIMLOC,0.7,0.3,0.35,rel1-2,1,2,11,2.8,25693,book_collection_true_dates/location/query6//useDOCUMENT:DATE:LOCATIONuseREFERENCES:SIMLOC/rel1-2-date_th0.3-doc_th0.7-loc_th0.35.res.clean,0.236,0.600,0.300,0.300,0.000,
DOCUMENT:DATE:LOCATION,REFERENCES:SIMLOC,0.5,0.25,0.4,rel1-2,1,2,11,2.8,25400,book_collection_true_dates/location/query6//useDOCUMENT:DATE:LOCATIONuseREFERENCES:SIMLOC/rel1-2-date_th0.25-doc_th0.5-loc_th0.4.res.clean,0.236,0.600,0.300,0.300,0.000,
DOCUMENT:DATE:LOCATION,REFERENCES:SIMLOC,0.7,0.3,0.4,rel1-1,1,2,5,1.9,22038,book_collection_true_dates/location/query6//useDOCUMENT:DATE:LOCATIONuseREFERENCES:SIMLOC/rel1-1-date_th0.3-doc_th0.7-loc_th0.4.res.clean,0.250,0.600,0.300,0.300,0.000,
DOCUMENT:DATE:LOCATION,REFERENCES:SIMLOC,0.5,0.3,0.35,rel1-2,1,2,11,2.8,25763,book_collection_true_dates/location/query6//useDOCUMENT:DATE:LOCATIONuseREFERENCES:SIMLOC/rel1-2-date_th0.3-doc_th0.5-loc_th0.35.res.clean,0.236,0.600,0.300,0.300,0.000,
DOCUMENT:DATE:LOCATION,REFERENCES:SIMLOC,0.6,0.25,0.4,rel2-1,2,3,829930,112267.3,144545,book_collection_true_dates/location/query6//useDOCUMENT:DATE:LOCATIONuseREFERENCES:SIMLOC/rel2-1-date_th0.25-doc_th0.6-loc_th0.4.res.clean,0.186,0.200,0.200,0.263,0.182,
DOCUMENT:DATE:LOCATION,REFERENCES:SIMLOC,0.5,0.25,0.35,rel2-1,2,3,829930,112267.3,142479,book_collection_true_dates/location/query6//useDOCUMENT:DATE:LOCATIONuseREFERENCES:SIMLOC/rel2-1-date_th0.25-doc_th0.5-loc_th0.35.res.clean,0.186,0.200,0.200,0.263,0.182,
DOCUMENT:DATE:LOCATION,REFERENCES:SIMLOC,0.6,0.3,0.4,rel2-1,2,3,829930,112267.3,131342,book_collection_true_dates/location/query6//useDOCUMENT:DATE:LOCATIONuseREFERENCES:SIMLOC/rel2-1-date_th0.3-doc_th0.6-loc_th0.4.res.clean,0.186,0.200,0.200,0.263,0.182,
DOCUMENT:DATE:LOCATION,REFERENCES:SIMLOC,0.7,0.25,0.4,rel1-1,1,2,5,1.9,22601,book_collection_true_dates/location/query6//useDOCUMENT:DATE:LOCATIONuseREFERENCES:SIMLOC/rel1-1-date_th0.25-doc_th0.7-loc_th0.4.res.clean,0.250,0.600,0.300,0.300,0.000,
DOCUMENT:DATE:LOCATION,REFERENCES:SIMLOC,0.5,0.25,0.35,rel1-2,1,2,11,2.8,27532,book_collection_true_dates/location/query6//useDOCUMENT:DATE:LOCATIONuseREFERENCES:SIMLOC/rel1-2-date_th0.25-doc_th0.5-loc_th0.35.res.clean,0.236,0.600,0.300,0.300,0.000,
DOCUMENT:DATE:LOCATION,REFERENCES:SIMLOC,0.6,0.3,0.4,rel1-2,1,2,11,2.8,25349,book_collection_true_dates/location/query6//useDOCUMENT:DATE:LOCATIONuseREFERENCES:SIMLOC/rel1-2-date_th0.3-doc_th0.6-loc_th0.4.res.clean,0.236,0.600,0.300,0.300,0.000,
DOCUMENT:DATE:LOCATION,REFERENCES:SIMLOC,0.6,0.25,0.4,rel1-1,1,2,5,1.9,22810,book_collection_true_dates/location/query6//useDOCUMENT:DATE:LOCATIONuseREFERENCES:SIMLOC/rel1-1-date_th0.25-doc_th0.6-loc_th0.4.res.clean,0.250,0.600,0.300,0.300,0.000,
DOCUMENT:DATE:LOCATION,REFERENCES:SIMLOC,0.6,0.3,0.35,rel2-1,2,3,829930,112267.3,127975,book_collection_true_dates/location/query6//useDOCUMENT:DATE:LOCATIONuseREFERENCES:SIMLOC/rel2-1-date_th0.3-doc_th0.6-loc_th0.35.res.clean,0.186,0.200,0.200,0.263,0.182,
DOCUMENT:DATE:LOCATION,REFERENCES:SIMLOC,0.7,0.25,0.35,rel1-1,1,2,5,1.9,22432,book_collection_true_dates/location/query6//useDOCUMENT:DATE:LOCATIONuseREFERENCES:SIMLOC/rel1-1-date_th0.25-doc_th0.7-loc_th0.35.res.clean,0.250,0.600,0.300,0.300,0.000,
DOCUMENT:DATE:LOCATION,REFERENCES:SIMLOC,0.5,0.3,0.35,rel1-1,1,2,5,1.9,22030,book_collection_true_dates/location/query6//useDOCUMENT:DATE:LOCATIONuseREFERENCES:SIMLOC/rel1-1-date_th0.3-doc_th0.5-loc_th0.35.res.clean,0.250,0.600,0.300,0.300,0.000,
DOCUMENT:DATE:LOCATION,REFERENCES:SIMLOC,0.5,0.25,0.4,rel2-1,2,3,829930,112267.3,134880,book_collection_true_dates/location/query6//useDOCUMENT:DATE:LOCATIONuseREFERENCES:SIMLOC/rel2-1-date_th0.25-doc_th0.5-loc_th0.4.res.clean,0.186,0.200,0.200,0.263,0.182,
DOCUMENT:DATE:LOCATION,REFERENCES:SIMLOC,0.7,0.3,0.35,rel2-1,2,3,829930,112267.3,135641,book_collection_true_dates/location/query6//useDOCUMENT:DATE:LOCATIONuseREFERENCES:SIMLOC/rel2-1-date_th0.3-doc_th0.7-loc_th0.35.res.clean,0.186,0.200,0.200,0.263,0.182,
DOCUMENT:DATE:LOCATION,REFERENCES:SIMLOC,0.6,0.25,0.35,rel2-1,2,3,829930,112267.3,133734,book_collection_true_dates/location/query6//useDOCUMENT:DATE:LOCATIONuseREFERENCES:SIMLOC/rel2-1-date_th0.25-doc_th0.6-loc_th0.35.res.clean,0.186,0.200,0.200,0.263,0.182,
DOCUMENT:DATE:LOCATION,REFERENCES:SIMLOC,0.7,0.25,0.4,rel2-1,2,3,829930,112267.3,127366,book_collection_true_dates/location/query6//useDOCUMENT:DATE:LOCATIONuseREFERENCES:SIMLOC/rel2-1-date_th0.25-doc_th0.7-loc_th0.4.res.clean,0.186,0.200,0.200,0.263,0.182,
DOCUMENT:DATE:LOCATION,REFERENCES:SIMLOC,0.6,0.25,0.35,rel1-2,1,2,11,2.8,25979,book_collection_true_dates/location/query6//useDOCUMENT:DATE:LOCATIONuseREFERENCES:SIMLOC/rel1-2-date_th0.25-doc_th0.6-loc_th0.35.res.clean,0.236,0.600,0.300,0.300,0.000,

Sig-Test:,randomized,,threshold,set,to,0.050000
