###################################
# parameters: 
#   decay: 0.2
#   lambda: 0.0
#   norm_threshold: 0
#   relationships: REFERENCES:SIMLOC
#   steepness: 0.5

###################################
# configuration: 
#   sa.act_diff_ratio_limit = 0.05
#   sa.function = ciir.multi.sa.DecayedSumSALogNormFunction(norm_function, 0.2, 0.0, DOCUMENT)
#   sa.id_property_name.DATE = dateID
#   sa.id_property_name.DOCUMENT = docID
#   sa.id_property_name.LOCATION = locID
#   sa.max_pulses = 15
#   sa.norm_function = ciir.multi.sa.SigmoidFunction(0, 0.5)
#   sa.relationships_to_use = REFERENCES:SIMLOC
#   sa.weight_property.REFERENCES = relevance
#   sa.weight_property.SIMDATES = sim
#   sa.weight_property.SIMLOC = sim

###################################
# initial activations: 
#   generalhistoryfo00myerrich_787: 1.0
#   selwynhouseschoo1940selw_21: 1.0
#   lifeofstratfordc02laneuoft_185: 1.0
#   historyofuniteds07good_239: 1.0
#   shorthistoryofmo00haslrich_98: 1.0
#   cambridgemodern09protgoog_449: 1.0

###################################
# spreading activation process log: 
#   pulse 0: activated nodes: 6, borderline nodes: 6, overall activation: 0.000, activation diff: 0.000, ratio: Infinity
#   pulse 1: activated nodes: 69, borderline nodes: 63, overall activation: 19.342, activation diff: 25.342, ratio: 1.310
#   pulse 2: activated nodes: 7393, borderline nodes: 7324, overall activation: 603.508, activation diff: 620.750, ratio: 1.029
#   pulse 3: activated nodes: 10899, borderline nodes: 3506, overall activation: 603.150, activation diff: 1052.681, ratio: 1.745
#   pulse 4: activated nodes: 11436, borderline nodes: 537, overall activation: 3551.502, activation diff: 3326.392, ratio: 0.937
#   pulse 5: activated nodes: 11455, borderline nodes: 19, overall activation: 4084.040, activation diff: 1534.283, ratio: 0.376
#   pulse 6: activated nodes: 11457, borderline nodes: 2, overall activation: 5093.105, activation diff: 1066.776, ratio: 0.209
#   pulse 7: activated nodes: 11457, borderline nodes: 2, overall activation: 5225.084, activation diff: 145.192, ratio: 0.028

###################################
# spreading activation process summary: 
#   final number of activated nodes: 11457
#   final overall activation: 5225.1
#   number of spread. activ. pulses: 7
#   running time: 1308

###################################
# top k results in TREC format: 

1   Q1   historyofuniteds07good_239   1   0.972715   REFERENCES:SIMLOC
1   Q1   cambridgemodern09protgoog_449   2   0.8746272   REFERENCES:SIMLOC
1   Q1   selwynhouseschoo1940selw_21   3   0.87106293   REFERENCES:SIMLOC
1   Q1   shorthistoryofmo00haslrich_98   4   0.8028604   REFERENCES:SIMLOC
1   Q1   englishcyclopae05kniggoog_147   5   0.7951217   REFERENCES:SIMLOC
1   Q1   encyclopediaame28unkngoog_492   6   0.79135674   REFERENCES:SIMLOC
1   Q1   encyclopediaame28unkngoog_343   7   0.78708524   REFERENCES:SIMLOC
1   Q1   englishcyclopae05kniggoog_209   8   0.78621745   REFERENCES:SIMLOC
1   Q1   encyclopediaame28unkngoog_522   9   0.78591305   REFERENCES:SIMLOC
1   Q1   encyclopediaame28unkngoog_345   10   0.7858521   REFERENCES:SIMLOC
1   Q1   encyclopediaame28unkngoog_222   11   0.7857109   REFERENCES:SIMLOC
1   Q1   encyclopediaame28unkngoog_580   12   0.7854382   REFERENCES:SIMLOC
1   Q1   encyclopediaame28unkngoog_221   13   0.7852504   REFERENCES:SIMLOC
1   Q1   ouroldworldbackg00bearrich_307   14   0.7849464   REFERENCES:SIMLOC
1   Q1   encyclopediaame28unkngoog_124   15   0.7837538   REFERENCES:SIMLOC
1   Q1   encyclopediaame28unkngoog_504   16   0.783469   REFERENCES:SIMLOC
1   Q1   encyclopediaame28unkngoog_141   17   0.78331834   REFERENCES:SIMLOC
1   Q1   cambridgemodern09protgoog_873   18   0.78314906   REFERENCES:SIMLOC
1   Q1   encyclopediaame28unkngoog_509   19   0.7830483   REFERENCES:SIMLOC
1   Q1   encyclopediaame28unkngoog_584   20   0.7822843   REFERENCES:SIMLOC
